%!PS-Adobe-3.0 EPSF-3.0
%%Creator: (MATLAB, The Mathworks, Inc. Version 8.5.0.197613 \(R2015a\). Operating System: Linux)
%%Title: (/home/lukas/Dropbox/Universidad/Master/Control Theory/lab4/raport/chapter3/figures/x1.eps)
%%CreationDate: 2016-04-13T13:43:57
%%Pages: (atend)
%%BoundingBox: 0 0 420 315
%%LanguageLevel: 2
%%EndComments
%%BeginProlog
%%BeginResource: procset (Apache XML Graphics Std ProcSet) 1.2 0
%%Version: 1.2 0
%%Copyright: (Copyright 2001-2003,2010 The Apache Software Foundation. License terms: http://www.apache.org/licenses/LICENSE-2.0)
/bd{bind def}bind def
/ld{load def}bd
/GR/grestore ld
/M/moveto ld
/LJ/setlinejoin ld
/C/curveto ld
/f/fill ld
/LW/setlinewidth ld
/GC/setgray ld
/t/show ld
/N/newpath ld
/CT/concat ld
/cp/closepath ld
/S/stroke ld
/L/lineto ld
/CC/setcmykcolor ld
/A/ashow ld
/GS/gsave ld
/RC/setrgbcolor ld
/RM/rmoveto ld
/ML/setmiterlimit ld
/re {4 2 roll M
1 index 0 rlineto
0 exch rlineto
neg 0 rlineto
cp } bd
/_ctm matrix def
/_tm matrix def
/BT { _ctm currentmatrix pop matrix _tm copy pop 0 0 moveto } bd
/ET { _ctm setmatrix } bd
/iTm { _ctm setmatrix _tm concat } bd
/Tm { _tm astore pop iTm 0 0 moveto } bd
/ux 0.0 def
/uy 0.0 def
/F {
  /Tp exch def
  /Tf exch def
  Tf findfont Tp scalefont setfont
  /cf Tf def  /cs Tp def
} bd
/ULS {currentpoint /uy exch def /ux exch def} bd
/ULE {
  /Tcx currentpoint pop def
  gsave
  newpath
  cf findfont cs scalefont dup
  /FontMatrix get 0 get /Ts exch def /FontInfo get dup
  /UnderlinePosition get Ts mul /To exch def
  /UnderlineThickness get Ts mul /Tt exch def
  ux uy To add moveto  Tcx uy To add lineto
  Tt setlinewidth stroke
  grestore
} bd
/OLE {
  /Tcx currentpoint pop def
  gsave
  newpath
  cf findfont cs scalefont dup
  /FontMatrix get 0 get /Ts exch def /FontInfo get dup
  /UnderlinePosition get Ts mul /To exch def
  /UnderlineThickness get Ts mul /Tt exch def
  ux uy To add cs add moveto Tcx uy To add cs add lineto
  Tt setlinewidth stroke
  grestore
} bd
/SOE {
  /Tcx currentpoint pop def
  gsave
  newpath
  cf findfont cs scalefont dup
  /FontMatrix get 0 get /Ts exch def /FontInfo get dup
  /UnderlinePosition get Ts mul /To exch def
  /UnderlineThickness get Ts mul /Tt exch def
  ux uy To add cs 10 mul 26 idiv add moveto Tcx uy To add cs 10 mul 26 idiv add lineto
  Tt setlinewidth stroke
  grestore
} bd
/QT {
/Y22 exch store
/X22 exch store
/Y21 exch store
/X21 exch store
currentpoint
/Y21 load 2 mul add 3 div exch
/X21 load 2 mul add 3 div exch
/X21 load 2 mul /X22 load add 3 div
/Y21 load 2 mul /Y22 load add 3 div
/X22 load /Y22 load curveto
} bd
/SSPD {
dup length /d exch dict def
{
/v exch def
/k exch def
currentpagedevice k known {
/cpdv currentpagedevice k get def
v cpdv ne {
/upd false def
/nullv v type /nulltype eq def
/nullcpdv cpdv type /nulltype eq def
nullv nullcpdv or
{
/upd true def
} {
/sametype v type cpdv type eq def
sametype {
v type /arraytype eq {
/vlen v length def
/cpdvlen cpdv length def
vlen cpdvlen eq {
0 1 vlen 1 sub {
/i exch def
/obj v i get def
/cpdobj cpdv i get def
obj cpdobj ne {
/upd true def
exit
} if
} for
} {
/upd true def
} ifelse
} {
v type /dicttype eq {
v {
/dv exch def
/dk exch def
/cpddv cpdv dk get def
dv cpddv ne {
/upd true def
exit
} if
} forall
} {
/upd true def
} ifelse
} ifelse
} if
} ifelse
upd true eq {
d k v put
} if
} if
} if
} forall
d length 0 gt {
d setpagedevice
} if
} bd
%%EndResource
%%BeginResource: procset (Apache XML Graphics EPS ProcSet) 1.0 0
%%Version: 1.0 0
%%Copyright: (Copyright 2002-2003 The Apache Software Foundation. License terms: http://www.apache.org/licenses/LICENSE-2.0)
/BeginEPSF { %def
/b4_Inc_state save def         % Save state for cleanup
/dict_count countdictstack def % Count objects on dict stack
/op_count count 1 sub def      % Count objects on operand stack
userdict begin                 % Push userdict on dict stack
/showpage { } def              % Redefine showpage, { } = null proc
0 setgray 0 setlinecap         % Prepare graphics state
1 setlinewidth 0 setlinejoin
10 setmiterlimit [ ] 0 setdash newpath
/languagelevel where           % If level not equal to 1 then
{pop languagelevel             % set strokeadjust and
1 ne                           % overprint to their defaults.
{false setstrokeadjust false setoverprint
} if
} if
} bd
/EndEPSF { %def
count op_count sub {pop} repeat            % Clean up stacks
countdictstack dict_count sub {end} repeat
b4_Inc_state restore
} bd
%%EndResource
%FOPBeginFontDict
%%IncludeResource: font Courier-Bold
%%IncludeResource: font Helvetica
%%IncludeResource: font Courier-BoldOblique
%%IncludeResource: font Courier-Oblique
%%IncludeResource: font Times-Roman
%%IncludeResource: font Helvetica-BoldOblique
%%IncludeResource: font Helvetica-Bold
%%IncludeResource: font Helvetica-Oblique
%%IncludeResource: font Times-BoldItalic
%%IncludeResource: font Courier
%%IncludeResource: font Times-Italic
%%IncludeResource: font Times-Bold
%%IncludeResource: font Symbol
%%IncludeResource: font ZapfDingbats
%FOPEndFontDict
%%BeginResource: encoding WinAnsiEncoding
/WinAnsiEncoding [
/.notdef /.notdef /.notdef /.notdef /.notdef
/.notdef /.notdef /.notdef /.notdef /.notdef
/.notdef /.notdef /.notdef /.notdef /.notdef
/.notdef /.notdef /.notdef /.notdef /.notdef
/.notdef /.notdef /.notdef /.notdef /.notdef
/.notdef /.notdef /.notdef /.notdef /.notdef
/.notdef /.notdef /space /exclam /quotedbl
/numbersign /dollar /percent /ampersand /quotesingle
/parenleft /parenright /asterisk /plus /comma
/hyphen /period /slash /zero /one
/two /three /four /five /six
/seven /eight /nine /colon /semicolon
/less /equal /greater /question /at
/A /B /C /D /E
/F /G /H /I /J
/K /L /M /N /O
/P /Q /R /S /T
/U /V /W /X /Y
/Z /bracketleft /backslash /bracketright /asciicircum
/underscore /quoteleft /a /b /c
/d /e /f /g /h
/i /j /k /l /m
/n /o /p /q /r
/s /t /u /v /w
/x /y /z /braceleft /bar
/braceright /asciitilde /bullet /Euro /bullet
/quotesinglbase /florin /quotedblbase /ellipsis /dagger
/daggerdbl /circumflex /perthousand /Scaron /guilsinglleft
/OE /bullet /Zcaron /bullet /bullet
/quoteleft /quoteright /quotedblleft /quotedblright /bullet
/endash /emdash /asciitilde /trademark /scaron
/guilsinglright /oe /bullet /zcaron /Ydieresis
/space /exclamdown /cent /sterling /currency
/yen /brokenbar /section /dieresis /copyright
/ordfeminine /guillemotleft /logicalnot /sfthyphen /registered
/macron /degree /plusminus /twosuperior /threesuperior
/acute /mu /paragraph /middot /cedilla
/onesuperior /ordmasculine /guillemotright /onequarter /onehalf
/threequarters /questiondown /Agrave /Aacute /Acircumflex
/Atilde /Adieresis /Aring /AE /Ccedilla
/Egrave /Eacute /Ecircumflex /Edieresis /Igrave
/Iacute /Icircumflex /Idieresis /Eth /Ntilde
/Ograve /Oacute /Ocircumflex /Otilde /Odieresis
/multiply /Oslash /Ugrave /Uacute /Ucircumflex
/Udieresis /Yacute /Thorn /germandbls /agrave
/aacute /acircumflex /atilde /adieresis /aring
/ae /ccedilla /egrave /eacute /ecircumflex
/edieresis /igrave /iacute /icircumflex /idieresis
/eth /ntilde /ograve /oacute /ocircumflex
/otilde /odieresis /divide /oslash /ugrave
/uacute /ucircumflex /udieresis /yacute /thorn
/ydieresis
] def
%%EndResource
%FOPBeginFontReencode
/Courier-Bold findfont
dup length dict begin
  {1 index /FID ne {def} {pop pop} ifelse} forall
  /Encoding WinAnsiEncoding def
  currentdict
end
/Courier-Bold exch definefont pop
/Helvetica findfont
dup length dict begin
  {1 index /FID ne {def} {pop pop} ifelse} forall
  /Encoding WinAnsiEncoding def
  currentdict
end
/Helvetica exch definefont pop
/Courier-BoldOblique findfont
dup length dict begin
  {1 index /FID ne {def} {pop pop} ifelse} forall
  /Encoding WinAnsiEncoding def
  currentdict
end
/Courier-BoldOblique exch definefont pop
/Courier-Oblique findfont
dup length dict begin
  {1 index /FID ne {def} {pop pop} ifelse} forall
  /Encoding WinAnsiEncoding def
  currentdict
end
/Courier-Oblique exch definefont pop
/Times-Roman findfont
dup length dict begin
  {1 index /FID ne {def} {pop pop} ifelse} forall
  /Encoding WinAnsiEncoding def
  currentdict
end
/Times-Roman exch definefont pop
/Helvetica-BoldOblique findfont
dup length dict begin
  {1 index /FID ne {def} {pop pop} ifelse} forall
  /Encoding WinAnsiEncoding def
  currentdict
end
/Helvetica-BoldOblique exch definefont pop
/Helvetica-Bold findfont
dup length dict begin
  {1 index /FID ne {def} {pop pop} ifelse} forall
  /Encoding WinAnsiEncoding def
  currentdict
end
/Helvetica-Bold exch definefont pop
/Helvetica-Oblique findfont
dup length dict begin
  {1 index /FID ne {def} {pop pop} ifelse} forall
  /Encoding WinAnsiEncoding def
  currentdict
end
/Helvetica-Oblique exch definefont pop
/Times-BoldItalic findfont
dup length dict begin
  {1 index /FID ne {def} {pop pop} ifelse} forall
  /Encoding WinAnsiEncoding def
  currentdict
end
/Times-BoldItalic exch definefont pop
/Courier findfont
dup length dict begin
  {1 index /FID ne {def} {pop pop} ifelse} forall
  /Encoding WinAnsiEncoding def
  currentdict
end
/Courier exch definefont pop
/Times-Italic findfont
dup length dict begin
  {1 index /FID ne {def} {pop pop} ifelse} forall
  /Encoding WinAnsiEncoding def
  currentdict
end
/Times-Italic exch definefont pop
/Times-Bold findfont
dup length dict begin
  {1 index /FID ne {def} {pop pop} ifelse} forall
  /Encoding WinAnsiEncoding def
  currentdict
end
/Times-Bold exch definefont pop
%FOPEndFontReencode
%%EndProlog
%%Page: 1 1
%%PageBoundingBox: 0 0 420 315
%%BeginPageSetup
[1 0 0 -1 0 315] CT
%%EndPageSetup
GS
[0.75 0 0 0.75 0 0] CT
1 GC
N
0 0 560 420 re
f
GR
GS
[0.75 0 0 0.75 0 0] CT
1 GC
N
0 0 560 420 re
f
GR
GS
[0.75 0 0 0.75 0 0] CT
1 GC
N
73 374 M
507 374 L
507 31 L
73 31 L
cp
f
GR
GS
[0.75 0 0 0.75 0 0] CT
0.873 GC
2 setlinecap
10.0 ML
N
73 374 M
73 31 L
S
GR
GS
[0.75 0 0 0.75 0 0] CT
0.873 GC
2 setlinecap
10.0 ML
N
159.8 374 M
159.8 31 L
S
GR
GS
[0.75 0 0 0.75 0 0] CT
0.873 GC
2 setlinecap
10.0 ML
N
246.6 374 M
246.6 31 L
S
GR
GS
[0.75 0 0 0.75 0 0] CT
0.873 GC
2 setlinecap
10.0 ML
N
333.4 374 M
333.4 31 L
S
GR
GS
[0.75 0 0 0.75 0 0] CT
0.873 GC
2 setlinecap
10.0 ML
N
420.2 374 M
420.2 31 L
S
GR
GS
[0.75 0 0 0.75 0 0] CT
0.873 GC
2 setlinecap
10.0 ML
N
507 374 M
507 31 L
S
GR
GS
[0.75 0 0 0.75 0 0] CT
0.873 GC
2 setlinecap
10.0 ML
N
507 374 M
73 374 L
S
GR
GS
[0.75 0 0 0.75 0 0] CT
0.873 GC
2 setlinecap
10.0 ML
N
507 339.7 M
73 339.7 L
S
GR
GS
[0.75 0 0 0.75 0 0] CT
0.873 GC
2 setlinecap
10.0 ML
N
507 305.4 M
73 305.4 L
S
GR
GS
[0.75 0 0 0.75 0 0] CT
0.873 GC
2 setlinecap
10.0 ML
N
507 271.1 M
73 271.1 L
S
GR
GS
[0.75 0 0 0.75 0 0] CT
0.873 GC
2 setlinecap
10.0 ML
N
507 236.8 M
73 236.8 L
S
GR
GS
[0.75 0 0 0.75 0 0] CT
0.873 GC
2 setlinecap
10.0 ML
N
507 202.5 M
73 202.5 L
S
GR
GS
[0.75 0 0 0.75 0 0] CT
0.873 GC
2 setlinecap
10.0 ML
N
507 168.2 M
73 168.2 L
S
GR
GS
[0.75 0 0 0.75 0 0] CT
0.873 GC
2 setlinecap
10.0 ML
N
507 133.9 M
73 133.9 L
S
GR
GS
[0.75 0 0 0.75 0 0] CT
0.873 GC
2 setlinecap
10.0 ML
N
507 99.6 M
73 99.6 L
S
GR
GS
[0.75 0 0 0.75 0 0] CT
0.873 GC
2 setlinecap
10.0 ML
N
507 65.3 M
73 65.3 L
S
GR
GS
[0.75 0 0 0.75 0 0] CT
0.873 GC
2 setlinecap
10.0 ML
N
507 31 M
73 31 L
S
GR
GS
[0.75 0 0 0.75 217.50016 298.24999] CT
0.149 GC
/Helvetica 15 F
GS
[1 0 0 1 0 0] CT
-29.5 14 moveto 
1 -1 scale
(time \(s\)) t 
GR
GR
GS
[0.75 0 0 0.75 0 0] CT
0.149 GC
2 setlinecap
10.0 ML
N
73 374 M
507 374 L
S
GR
GS
[0.75 0 0 0.75 0 0] CT
0.149 GC
2 setlinecap
10.0 ML
N
73 31 M
507 31 L
S
GR
GS
[0.75 0 0 0.75 0 0] CT
0.149 GC
2 setlinecap
10.0 ML
N
73 374 M
73 369.66 L
S
GR
GS
[0.75 0 0 0.75 0 0] CT
0.149 GC
2 setlinecap
10.0 ML
N
159.8 374 M
159.8 369.66 L
S
GR
GS
[0.75 0 0 0.75 0 0] CT
0.149 GC
2 setlinecap
10.0 ML
N
246.6 374 M
246.6 369.66 L
S
GR
GS
[0.75 0 0 0.75 0 0] CT
0.149 GC
2 setlinecap
10.0 ML
N
333.4 374 M
333.4 369.66 L
S
GR
GS
[0.75 0 0 0.75 0 0] CT
0.149 GC
2 setlinecap
10.0 ML
N
420.2 374 M
420.2 369.66 L
S
GR
GS
[0.75 0 0 0.75 0 0] CT
0.149 GC
2 setlinecap
10.0 ML
N
507 374 M
507 369.66 L
S
GR
GS
[0.75 0 0 0.75 0 0] CT
0.149 GC
2 setlinecap
10.0 ML
N
73 31 M
73 35.34 L
S
GR
GS
[0.75 0 0 0.75 0 0] CT
0.149 GC
2 setlinecap
10.0 ML
N
159.8 31 M
159.8 35.34 L
S
GR
GS
[0.75 0 0 0.75 0 0] CT
0.149 GC
2 setlinecap
10.0 ML
N
246.6 31 M
246.6 35.34 L
S
GR
GS
[0.75 0 0 0.75 0 0] CT
0.149 GC
2 setlinecap
10.0 ML
N
333.4 31 M
333.4 35.34 L
S
GR
GS
[0.75 0 0 0.75 0 0] CT
0.149 GC
2 setlinecap
10.0 ML
N
420.2 31 M
420.2 35.34 L
S
GR
GS
[0.75 0 0 0.75 0 0] CT
0.149 GC
2 setlinecap
10.0 ML
N
507 31 M
507 35.34 L
S
GR
GS
[0.75 0 0 0.75 54.75 284.50001] CT
0.149 GC
/Helvetica 13 F
GS
[1 0 0 1 0 0] CT
-4.5 13 moveto 
1 -1 scale
(0) t 
GR
GR
GS
[0.75 0 0 0.75 119.85 284.50001] CT
0.149 GC
/Helvetica 13 F
GS
[1 0 0 1 0 0] CT
-10.5 13 moveto 
1 -1 scale
(0.2) t 
GR
GR
GS
[0.75 0 0 0.75 184.95 284.50001] CT
0.149 GC
/Helvetica 13 F
GS
[1 0 0 1 0 0] CT
-10.5 13 moveto 
1 -1 scale
(0.4) t 
GR
GR
GS
[0.75 0 0 0.75 250.05002 284.50001] CT
0.149 GC
/Helvetica 13 F
GS
[1 0 0 1 0 0] CT
-10.5 13 moveto 
1 -1 scale
(0.6) t 
GR
GR
GS
[0.75 0 0 0.75 315.15001 284.50001] CT
0.149 GC
/Helvetica 13 F
GS
[1 0 0 1 0 0] CT
-10.5 13 moveto 
1 -1 scale
(0.8) t 
GR
GR
GS
[0.75 0 0 0.75 380.25 284.50001] CT
0.149 GC
/Helvetica 13 F
GS
[1 0 0 1 0 0] CT
-4.5 13 moveto 
1 -1 scale
(1) t 
GR
GR
GS
[0 -0.75 0.75 0 32 151.87487] CT
0.149 GC
/Helvetica 15 F
GS
[1 0 0 1 0 0] CT
-4.5 -4 moveto 
1 -1 scale
(x) t 
GR
GR
GS
[0.75 0 0 0.75 0 0] CT
0.149 GC
2 setlinecap
10.0 ML
N
73 374 M
73 31 L
S
GR
GS
[0.75 0 0 0.75 0 0] CT
0.149 GC
2 setlinecap
10.0 ML
N
507 374 M
507 31 L
S
GR
GS
[0.75 0 0 0.75 0 0] CT
0.149 GC
2 setlinecap
10.0 ML
N
73 374 M
77.34 374 L
S
GR
GS
[0.75 0 0 0.75 0 0] CT
0.149 GC
2 setlinecap
10.0 ML
N
73 339.7 M
77.34 339.7 L
S
GR
GS
[0.75 0 0 0.75 0 0] CT
0.149 GC
2 setlinecap
10.0 ML
N
73 305.4 M
77.34 305.4 L
S
GR
GS
[0.75 0 0 0.75 0 0] CT
0.149 GC
2 setlinecap
10.0 ML
N
73 271.1 M
77.34 271.1 L
S
GR
GS
[0.75 0 0 0.75 0 0] CT
0.149 GC
2 setlinecap
10.0 ML
N
73 236.8 M
77.34 236.8 L
S
GR
GS
[0.75 0 0 0.75 0 0] CT
0.149 GC
2 setlinecap
10.0 ML
N
73 202.5 M
77.34 202.5 L
S
GR
GS
[0.75 0 0 0.75 0 0] CT
0.149 GC
2 setlinecap
10.0 ML
N
73 168.2 M
77.34 168.2 L
S
GR
GS
[0.75 0 0 0.75 0 0] CT
0.149 GC
2 setlinecap
10.0 ML
N
73 133.9 M
77.34 133.9 L
S
GR
GS
[0.75 0 0 0.75 0 0] CT
0.149 GC
2 setlinecap
10.0 ML
N
73 99.6 M
77.34 99.6 L
S
GR
GS
[0.75 0 0 0.75 0 0] CT
0.149 GC
2 setlinecap
10.0 ML
N
73 65.3 M
77.34 65.3 L
S
GR
GS
[0.75 0 0 0.75 0 0] CT
0.149 GC
2 setlinecap
10.0 ML
N
73 31 M
77.34 31 L
S
GR
GS
[0.75 0 0 0.75 0 0] CT
0.149 GC
2 setlinecap
10.0 ML
N
507 374 M
502.66 374 L
S
GR
GS
[0.75 0 0 0.75 0 0] CT
0.149 GC
2 setlinecap
10.0 ML
N
507 339.7 M
502.66 339.7 L
S
GR
GS
[0.75 0 0 0.75 0 0] CT
0.149 GC
2 setlinecap
10.0 ML
N
507 305.4 M
502.66 305.4 L
S
GR
GS
[0.75 0 0 0.75 0 0] CT
0.149 GC
2 setlinecap
10.0 ML
N
507 271.1 M
502.66 271.1 L
S
GR
GS
[0.75 0 0 0.75 0 0] CT
0.149 GC
2 setlinecap
10.0 ML
N
507 236.8 M
502.66 236.8 L
S
GR
GS
[0.75 0 0 0.75 0 0] CT
0.149 GC
2 setlinecap
10.0 ML
N
507 202.5 M
502.66 202.5 L
S
GR
GS
[0.75 0 0 0.75 0 0] CT
0.149 GC
2 setlinecap
10.0 ML
N
507 168.2 M
502.66 168.2 L
S
GR
GS
[0.75 0 0 0.75 0 0] CT
0.149 GC
2 setlinecap
10.0 ML
N
507 133.9 M
502.66 133.9 L
S
GR
GS
[0.75 0 0 0.75 0 0] CT
0.149 GC
2 setlinecap
10.0 ML
N
507 99.6 M
502.66 99.6 L
S
GR
GS
[0.75 0 0 0.75 0 0] CT
0.149 GC
2 setlinecap
10.0 ML
N
507 65.3 M
502.66 65.3 L
S
GR
GS
[0.75 0 0 0.75 0 0] CT
0.149 GC
2 setlinecap
10.0 ML
N
507 31 M
502.66 31 L
S
GR
GS
[0.75 0 0 0.75 50.75 280.5] CT
0.149 GC
/Helvetica 13 F
GS
[1 0 0 1 0 0] CT
-9 4.5 moveto 
1 -1 scale
(0) t 
GR
GR
GS
[0.75 0 0 0.75 50.75 254.77501] CT
0.149 GC
/Helvetica 13 F
GS
[1 0 0 1 0 0] CT
-21 4.5 moveto 
1 -1 scale
(0.1) t 
GR
GR
GS
[0.75 0 0 0.75 50.75 229.05] CT
0.149 GC
/Helvetica 13 F
GS
[1 0 0 1 0 0] CT
-21 4.5 moveto 
1 -1 scale
(0.2) t 
GR
GR
GS
[0.75 0 0 0.75 50.75 203.325] CT
0.149 GC
/Helvetica 13 F
GS
[1 0 0 1 0 0] CT
-21 4.5 moveto 
1 -1 scale
(0.3) t 
GR
GR
GS
[0.75 0 0 0.75 50.75 177.6] CT
0.149 GC
/Helvetica 13 F
GS
[1 0 0 1 0 0] CT
-21 4.5 moveto 
1 -1 scale
(0.4) t 
GR
GR
GS
[0.75 0 0 0.75 50.75 151.875] CT
0.149 GC
/Helvetica 13 F
GS
[1 0 0 1 0 0] CT
-21 4.5 moveto 
1 -1 scale
(0.5) t 
GR
GR
GS
[0.75 0 0 0.75 50.75 126.15] CT
0.149 GC
/Helvetica 13 F
GS
[1 0 0 1 0 0] CT
-21 4.5 moveto 
1 -1 scale
(0.6) t 
GR
GR
GS
[0.75 0 0 0.75 50.75 100.42501] CT
0.149 GC
/Helvetica 13 F
GS
[1 0 0 1 0 0] CT
-21 4.5 moveto 
1 -1 scale
(0.7) t 
GR
GR
GS
[0.75 0 0 0.75 50.75 74.7] CT
0.149 GC
/Helvetica 13 F
GS
[1 0 0 1 0 0] CT
-21 4.5 moveto 
1 -1 scale
(0.8) t 
GR
GR
GS
[0.75 0 0 0.75 50.75 48.97501] CT
0.149 GC
/Helvetica 13 F
GS
[1 0 0 1 0 0] CT
-21 4.5 moveto 
1 -1 scale
(0.9) t 
GR
GR
GS
[0.75 0 0 0.75 50.75 23.25] CT
0.149 GC
/Helvetica 13 F
GS
[1 0 0 1 0 0] CT
-9 4.5 moveto 
1 -1 scale
(1) t 
GR
GR
GS
[0.75 0 0 0.75 0 0] CT
0 0.447 0.741 RC
2 LJ
N
73 31 M
78.978 33.275 L
84.957 35.386 L
90.935 37.344 L
96.914 39.162 L
102.892 40.852 L
108.87 42.422 L
114.849 43.883 L
120.827 45.243 L
127.341 46.62 L
133.855 47.895 L
140.369 49.079 L
146.882 50.177 L
153.822 51.263 L
160.763 52.27 L
167.703 53.204 L
174.643 54.072 L
175.536 54.179 L
176.429 54.285 L
177.322 54.39 L
178.215 54.495 L
178.648 54.545 L
179.081 54.595 L
179.514 54.645 L
179.948 54.694 L
180.191 54.722 L
180.434 54.75 L
180.677 54.777 L
180.92 54.805 L
181.163 54.834 L
181.406 54.859 L
181.649 54.876 L
181.892 54.889 L
182.108 54.901 L
182.324 54.913 L
182.541 54.926 L
182.757 54.938 L
183.839 54.998 L
184.92 55.059 L
186.002 55.119 L
187.084 55.179 L
192.492 55.478 L
197.901 55.772 L
203.31 56.064 L
208.718 56.351 L
219.568 56.919 L
230.418 57.475 L
241.268 58.02 L
252.118 58.555 L
254.72 58.681 L
S
GR
GS
[0.75 0 0 0.75 0 0] CT
0 0.447 0.741 RC
2 LJ
N
254.72 58.681 M
257.322 58.808 L
259.923 58.933 L
262.525 59.058 L
265.127 59.183 L
267.729 59.307 L
270.33 59.431 L
272.932 59.554 L
275.433 59.672 L
277.934 59.79 L
280.435 59.907 L
282.936 60.024 L
284.249 60.085 L
285.562 60.146 L
286.875 60.207 L
288.188 60.268 L
288.57 60.286 L
288.952 60.304 L
289.334 60.321 L
289.717 60.339 L
290.099 60.376 L
290.481 60.43 L
290.864 60.485 L
291.246 60.536 L
291.584 60.582 L
291.921 60.627 L
292.259 60.673 L
292.597 60.718 L
294.286 60.94 L
295.975 61.157 L
297.664 61.369 L
299.353 61.575 L
305.449 62.279 L
311.545 62.922 L
317.641 63.508 L
323.737 64.041 L
329.579 64.506 L
335.421 64.929 L
341.263 65.314 L
347.105 65.663 L
353.144 65.989 L
359.184 66.282 L
365.223 66.546 L
371.262 66.782 L
377.519 67 L
383.777 67.193 L
390.034 67.363 L
396.292 67.511 L
396.568 67.517 L
396.845 67.524 L
S
GR
GS
[0.75 0 0 0.75 0 0] CT
0 0.447 0.741 RC
2 LJ
N
396.845 67.524 M
397.121 67.53 L
397.398 67.536 L
397.564 67.539 L
397.73 67.543 L
397.896 67.546 L
398.062 67.55 L
398.228 67.554 L
398.394 67.557 L
398.56 67.558 L
398.726 67.558 L
398.881 67.559 L
399.037 67.559 L
399.193 67.56 L
399.349 67.56 L
400.127 67.563 L
400.906 67.565 L
401.685 67.568 L
402.464 67.571 L
406.358 67.587 L
410.251 67.606 L
414.145 67.628 L
418.039 67.654 L
428.889 67.744 L
439.739 67.862 L
450.589 68.01 L
461.439 68.189 L
472.829 68.412 L
484.219 68.672 L
495.61 68.968 L
507 69.301 L
S
GR
GS
[0.75 0 0 0.75 0 0] CT
0.851 0.325 0.098 RC
2 LJ
N
73 374 M
78.978 371.733 L
84.957 369.645 L
90.935 367.723 L
96.914 365.955 L
102.892 364.326 L
108.87 362.828 L
114.849 361.448 L
120.827 360.179 L
127.341 358.911 L
133.855 357.753 L
140.369 356.696 L
146.882 355.731 L
153.822 354.795 L
160.763 353.945 L
167.703 353.175 L
174.643 352.476 L
175.536 352.391 L
176.429 352.307 L
177.322 352.225 L
178.215 352.143 L
178.648 352.103 L
179.081 352.064 L
179.514 352.025 L
179.948 351.987 L
180.191 351.965 L
180.434 351.944 L
180.677 351.922 L
180.92 351.901 L
181.163 351.878 L
181.406 351.859 L
181.649 351.85 L
181.892 351.847 L
182.108 351.843 L
182.324 351.839 L
182.541 351.835 L
182.757 351.832 L
183.839 351.812 L
184.92 351.793 L
186.002 351.775 L
187.084 351.756 L
192.492 351.666 L
197.901 351.58 L
203.31 351.499 L
208.718 351.422 L
219.568 351.279 L
230.418 351.15 L
241.268 351.035 L
252.118 350.932 L
254.72 350.909 L
S
GR
GS
[0.75 0 0 0.75 0 0] CT
0.851 0.325 0.098 RC
2 LJ
N
254.72 350.909 M
257.322 350.887 L
259.923 350.865 L
262.525 350.844 L
265.127 350.823 L
267.729 350.803 L
270.33 350.784 L
272.932 350.765 L
275.433 350.747 L
277.934 350.73 L
280.435 350.714 L
282.936 350.697 L
284.249 350.689 L
285.562 350.681 L
286.875 350.673 L
288.188 350.665 L
288.57 350.663 L
288.952 350.661 L
289.334 350.658 L
289.717 350.656 L
290.099 350.629 L
290.481 350.579 L
290.864 350.529 L
291.246 350.483 L
291.584 350.442 L
291.921 350.401 L
292.259 350.36 L
292.597 350.319 L
294.286 350.12 L
295.975 349.925 L
297.664 349.735 L
299.353 349.551 L
305.449 348.923 L
311.545 348.355 L
317.641 347.839 L
323.737 347.373 L
329.579 346.968 L
335.421 346.6 L
341.263 346.267 L
347.105 345.965 L
353.144 345.682 L
359.184 345.427 L
365.223 345.197 L
371.262 344.989 L
377.519 344.794 L
383.777 344.619 L
390.034 344.46 L
396.292 344.317 L
396.568 344.311 L
396.845 344.305 L
S
GR
GS
[0.75 0 0 0.75 0 0] CT
0.851 0.325 0.098 RC
2 LJ
N
396.845 344.305 M
397.121 344.299 L
397.398 344.293 L
397.564 344.29 L
397.73 344.286 L
397.896 344.283 L
398.062 344.279 L
398.228 344.274 L
398.394 344.272 L
398.56 344.278 L
398.726 344.289 L
398.881 344.297 L
399.037 344.306 L
399.193 344.315 L
399.349 344.323 L
400.127 344.367 L
400.906 344.41 L
401.685 344.453 L
402.464 344.496 L
406.358 344.706 L
410.251 344.91 L
414.145 345.108 L
418.039 345.301 L
428.889 345.806 L
439.739 346.263 L
450.589 346.671 L
461.439 347.029 L
472.829 347.35 L
484.219 347.616 L
495.61 347.825 L
507 347.98 L
S
GR
GS
[0.75 0 0 0.75 0 0] CT
0.929 0.694 0.125 RC
2 LJ
N
73 374 M
78.978 373.992 L
84.957 373.969 L
90.935 373.932 L
96.914 373.883 L
102.892 373.822 L
108.87 373.75 L
114.849 373.668 L
120.827 373.577 L
127.341 373.469 L
133.855 373.351 L
140.369 373.225 L
146.882 373.092 L
153.822 372.942 L
160.763 372.785 L
167.703 372.621 L
174.643 372.452 L
175.536 372.43 L
176.429 372.408 L
177.322 372.385 L
178.215 372.363 L
178.648 372.352 L
179.081 372.341 L
179.514 372.33 L
179.948 372.319 L
180.191 372.313 L
180.434 372.307 L
180.677 372.301 L
180.92 372.294 L
181.163 372.289 L
181.406 372.282 L
181.649 372.273 L
181.892 372.264 L
182.108 372.256 L
182.324 372.247 L
182.541 372.239 L
182.757 372.231 L
183.839 372.189 L
184.92 372.148 L
186.002 372.106 L
187.084 372.065 L
192.492 371.856 L
197.901 371.647 L
203.31 371.437 L
208.718 371.227 L
219.568 370.802 L
230.418 370.375 L
241.268 369.945 L
252.118 369.514 L
254.72 369.41 L
S
GR
GS
[0.75 0 0 0.75 0 0] CT
0.929 0.694 0.125 RC
2 LJ
N
254.72 369.41 M
257.322 369.306 L
259.923 369.202 L
262.525 369.098 L
265.127 368.994 L
267.729 368.889 L
270.33 368.785 L
272.932 368.681 L
275.433 368.58 L
277.934 368.48 L
280.435 368.379 L
282.936 368.278 L
284.249 368.225 L
285.562 368.173 L
286.875 368.12 L
288.188 368.067 L
288.57 368.051 L
288.952 368.036 L
289.334 368.021 L
289.717 368.005 L
290.099 367.995 L
290.481 367.991 L
290.864 367.986 L
291.246 367.981 L
291.584 367.976 L
291.921 367.972 L
292.259 367.967 L
292.597 367.963 L
294.286 367.94 L
295.975 367.918 L
297.664 367.896 L
299.353 367.874 L
305.449 367.797 L
311.545 367.723 L
317.641 367.653 L
323.737 367.587 L
329.579 367.527 L
335.421 367.471 L
341.263 367.42 L
347.105 367.373 L
353.144 367.329 L
359.184 367.29 L
365.223 367.257 L
371.262 367.229 L
377.519 367.206 L
383.777 367.188 L
390.034 367.177 L
396.292 367.172 L
396.568 367.172 L
396.845 367.171 L
S
GR
GS
[0.75 0 0 0.75 0 0] CT
0.929 0.694 0.125 RC
2 LJ
N
396.845 367.171 M
397.121 367.171 L
397.398 367.171 L
397.564 367.171 L
397.73 367.171 L
397.896 367.171 L
398.062 367.171 L
398.228 367.172 L
398.394 367.171 L
398.56 367.164 L
398.726 367.153 L
398.881 367.144 L
399.037 367.135 L
399.193 367.126 L
399.349 367.116 L
400.127 367.071 L
400.906 367.025 L
401.685 366.979 L
402.464 366.934 L
406.358 366.708 L
410.251 366.484 L
414.145 366.264 L
418.039 366.045 L
428.889 365.451 L
439.739 364.876 L
450.589 364.32 L
461.439 363.782 L
472.829 363.238 L
484.219 362.712 L
495.61 362.206 L
507 361.719 L
S
GR
GS
[0.75 0 0 0.75 217.50021 21.18749] CT
/Helvetica-Bold 15 F
GS
[1 0 0 1 0 0] CT
-118 -4 moveto 
1 -1 scale
(e = 1.00, f = -1.10, g = 0.40) t 
GR
GR
GS
[0.75 0 0 0.75 0 0] CT
N
502.3 366.7 M
502.3 356.3 L
512.7 356.3 L
512.7 366.7 L
cp
f
GR
GS
[0.75 0 0 0.75 0 0] CT
1 1 0.863 RC
2 setlinecap
10.0 ML
1.333 LW
N
502.3 366.7 M
502.3 356.3 L
512.7 356.3 L
512.7 366.7 L
502.3 366.7 L
S
GR
GS
[0.75 0 0 0.75 0 0] CT
1 GC
N
424 114 M
424 44 L
494 44 L
494 114 L
cp
f
GR
GS
[0.75 0 0 0.75 357 44.25] CT
/Helvetica 12 F
GS
[1 0 0 1 0 0] CT
0 0 moveto 
1 -1 scale
(x) t 
GR
GR
GS
[0.75 0 0 0.75 363 48.75] CT
/Helvetica 9 F
GS
[1 0 0 1 0 0] CT
0 0 moveto 
1 -1 scale
(1) t 
GR
GR
GS
[0.75 0 0 0.75 0 0] CT
0 0.447 0.741 RC
2 setlinecap
10.0 ML
N
432 57.23 M
472 57.23 L
S
GR
GS
[0.75 0 0 0.75 357 60.75] CT
/Helvetica 12 F
GS
[1 0 0 1 0 0] CT
0 0 moveto 
1 -1 scale
(x) t 
GR
GR
GS
[0.75 0 0 0.75 363 65.25] CT
/Helvetica 9 F
GS
[1 0 0 1 0 0] CT
0 0 moveto 
1 -1 scale
(2) t 
GR
GR
GS
[0.75 0 0 0.75 0 0] CT
0.851 0.325 0.098 RC
2 setlinecap
10.0 ML
N
432 79 M
472 79 L
S
GR
GS
[0.75 0 0 0.75 357 77.25] CT
/Helvetica 12 F
GS
[1 0 0 1 0 0] CT
0 0 moveto 
1 -1 scale
(x) t 
GR
GR
GS
[0.75 0 0 0.75 363 81.75] CT
/Helvetica 9 F
GS
[1 0 0 1 0 0] CT
0 0 moveto 
1 -1 scale
(3) t 
GR
GR
GS
[0.75 0 0 0.75 0 0] CT
0.929 0.694 0.125 RC
2 setlinecap
10.0 ML
N
432 100.77 M
472 100.77 L
S
GR
GS
[0.75 0 0 0.75 0 0] CT
0.149 GC
2 setlinecap
10.0 ML
N
424 114 M
424 44 L
494 44 L
494 114 L
424 114 L
S
GR
GS
[0.75 0 0 0.75 0 0] CT
1 1 0.933 RC
N
430.333 355.052 M
500.333 355.052 L
500.333 313.052 L
430.333 313.052 L
cp
f
GR
GS
[0.75 0 0 0.75 0 0] CT
0.8 GC
2 setlinecap
10.0 ML
N
430.333 355.052 M
500.333 355.052 L
500.333 313.052 L
430.333 313.052 L
430.333 355.052 L
S
GR
GS
[0.75 0 0 0.75 325.74998 263.28937] CT
/Helvetica 13 F
GS
[1 0 0 1 0 0] CT
0 -21 moveto 
1 -1 scale
(X: 1) t 
GR
GR
GS
[0.75 0 0 0.75 325.74998 263.28937] CT
/Helvetica 13 F
GS
[1 0 0 1 0 0] CT
0 -4 moveto 
1 -1 scale
(Y: 0.0358) t 
GR
GR
GS
[0.75 0 0 0.75 0 0] CT
0.608 GC
N
501.3 366.7 M
501.3 356.3 L
511.7 356.3 L
511.7 366.7 L
cp
f
GR
GS
[0.75 0 0 0.75 0 0] CT
1 1 0.863 RC
2 setlinecap
10.0 ML
1.333 LW
N
501.3 366.7 M
501.3 356.3 L
511.7 356.3 L
511.7 366.7 L
501.3 366.7 L
S
GR
%%Trailer
%%Pages: 1
%%EOF
