\relax 
\providecommand\hyper@newdestlabel[2]{}
\providecommand\HyperFirstAtBeginDocument{\AtBeginDocument}
\HyperFirstAtBeginDocument{\ifx\hyper@anchor\@undefined
\global\let\oldcontentsline\contentsline
\gdef\contentsline#1#2#3#4{\oldcontentsline{#1}{#2}{#3}}
\global\let\oldnewlabel\newlabel
\gdef\newlabel#1#2{\newlabelxx{#1}#2}
\gdef\newlabelxx#1#2#3#4#5#6{\oldnewlabel{#1}{{#2}{#3}}}
\AtEndDocument{\ifx\hyper@anchor\@undefined
\let\contentsline\oldcontentsline
\let\newlabel\oldnewlabel
\fi}
\fi}
\global\let\hyper@last\relax 
\gdef\HyperFirstAtBeginDocument#1{#1}
\providecommand\HyField@AuxAddToFields[1]{}
\providecommand\HyField@AuxAddToCoFields[2]{}
\@writefile{toc}{\contentsline {section}{\numberline {1}Introduction}{3}{section.1}}
\@writefile{toc}{\contentsline {section}{\numberline {2}Results}{4}{section.2}}
\@writefile{lof}{\contentsline {figure}{\numberline {1}{\ignorespaces Control profile\relax }}{4}{figure.1}}
\@writefile{lof}{\contentsline {figure}{\numberline {2}{\ignorespaces Trajectory of state variables\relax }}{4}{figure.2}}
\@writefile{lof}{\contentsline {figure}{\numberline {3}{\ignorespaces Control profile\relax }}{4}{figure.3}}
\@writefile{lof}{\contentsline {figure}{\numberline {4}{\ignorespaces Trajectory of state variables\relax }}{4}{figure.4}}
\citation{*}
\bibstyle{plain}
\bibdata{bibliography/biblio}
\bibcite{refe}{1}
\@writefile{lof}{\contentsline {figure}{\numberline {5}{\ignorespaces Control profile\relax }}{5}{figure.5}}
\@writefile{lof}{\contentsline {figure}{\numberline {6}{\ignorespaces Trajectory of state variables\relax }}{5}{figure.6}}
\@writefile{toc}{\contentsline {section}{\numberline {3}Conclusion}{5}{section.3}}
\@writefile{toc}{\contentsline {chapter}{Bibliography}{5}{section*.1}}
