%!PS-Adobe-3.0 EPSF-3.0
%%Creator: (MATLAB, The Mathworks, Inc. Version 8.5.0.197613 \(R2015a\). Operating System: Linux)
%%Title: (/home/lukas/Dropbox/Universidad/Master/Control Theory/lab3/raport/chapter3/figures/C\(t1\).eps)
%%CreationDate: 2016-03-24T15:46:30
%%Pages: (atend)
%%BoundingBox: 0 0 414 314
%%LanguageLevel: 2
%%EndComments
%%BeginProlog
%%BeginResource: procset (Apache XML Graphics Std ProcSet) 1.2 0
%%Version: 1.2 0
%%Copyright: (Copyright 2001-2003,2010 The Apache Software Foundation. License terms: http://www.apache.org/licenses/LICENSE-2.0)
/bd{bind def}bind def
/ld{load def}bd
/GR/grestore ld
/M/moveto ld
/LJ/setlinejoin ld
/C/curveto ld
/f/fill ld
/LW/setlinewidth ld
/GC/setgray ld
/t/show ld
/N/newpath ld
/CT/concat ld
/cp/closepath ld
/S/stroke ld
/L/lineto ld
/CC/setcmykcolor ld
/A/ashow ld
/GS/gsave ld
/RC/setrgbcolor ld
/RM/rmoveto ld
/ML/setmiterlimit ld
/re {4 2 roll M
1 index 0 rlineto
0 exch rlineto
neg 0 rlineto
cp } bd
/_ctm matrix def
/_tm matrix def
/BT { _ctm currentmatrix pop matrix _tm copy pop 0 0 moveto } bd
/ET { _ctm setmatrix } bd
/iTm { _ctm setmatrix _tm concat } bd
/Tm { _tm astore pop iTm 0 0 moveto } bd
/ux 0.0 def
/uy 0.0 def
/F {
  /Tp exch def
  /Tf exch def
  Tf findfont Tp scalefont setfont
  /cf Tf def  /cs Tp def
} bd
/ULS {currentpoint /uy exch def /ux exch def} bd
/ULE {
  /Tcx currentpoint pop def
  gsave
  newpath
  cf findfont cs scalefont dup
  /FontMatrix get 0 get /Ts exch def /FontInfo get dup
  /UnderlinePosition get Ts mul /To exch def
  /UnderlineThickness get Ts mul /Tt exch def
  ux uy To add moveto  Tcx uy To add lineto
  Tt setlinewidth stroke
  grestore
} bd
/OLE {
  /Tcx currentpoint pop def
  gsave
  newpath
  cf findfont cs scalefont dup
  /FontMatrix get 0 get /Ts exch def /FontInfo get dup
  /UnderlinePosition get Ts mul /To exch def
  /UnderlineThickness get Ts mul /Tt exch def
  ux uy To add cs add moveto Tcx uy To add cs add lineto
  Tt setlinewidth stroke
  grestore
} bd
/SOE {
  /Tcx currentpoint pop def
  gsave
  newpath
  cf findfont cs scalefont dup
  /FontMatrix get 0 get /Ts exch def /FontInfo get dup
  /UnderlinePosition get Ts mul /To exch def
  /UnderlineThickness get Ts mul /Tt exch def
  ux uy To add cs 10 mul 26 idiv add moveto Tcx uy To add cs 10 mul 26 idiv add lineto
  Tt setlinewidth stroke
  grestore
} bd
/QT {
/Y22 exch store
/X22 exch store
/Y21 exch store
/X21 exch store
currentpoint
/Y21 load 2 mul add 3 div exch
/X21 load 2 mul add 3 div exch
/X21 load 2 mul /X22 load add 3 div
/Y21 load 2 mul /Y22 load add 3 div
/X22 load /Y22 load curveto
} bd
/SSPD {
dup length /d exch dict def
{
/v exch def
/k exch def
currentpagedevice k known {
/cpdv currentpagedevice k get def
v cpdv ne {
/upd false def
/nullv v type /nulltype eq def
/nullcpdv cpdv type /nulltype eq def
nullv nullcpdv or
{
/upd true def
} {
/sametype v type cpdv type eq def
sametype {
v type /arraytype eq {
/vlen v length def
/cpdvlen cpdv length def
vlen cpdvlen eq {
0 1 vlen 1 sub {
/i exch def
/obj v i get def
/cpdobj cpdv i get def
obj cpdobj ne {
/upd true def
exit
} if
} for
} {
/upd true def
} ifelse
} {
v type /dicttype eq {
v {
/dv exch def
/dk exch def
/cpddv cpdv dk get def
dv cpddv ne {
/upd true def
exit
} if
} forall
} {
/upd true def
} ifelse
} ifelse
} if
} ifelse
upd true eq {
d k v put
} if
} if
} if
} forall
d length 0 gt {
d setpagedevice
} if
} bd
%%EndResource
%%BeginResource: procset (Apache XML Graphics EPS ProcSet) 1.0 0
%%Version: 1.0 0
%%Copyright: (Copyright 2002-2003 The Apache Software Foundation. License terms: http://www.apache.org/licenses/LICENSE-2.0)
/BeginEPSF { %def
/b4_Inc_state save def         % Save state for cleanup
/dict_count countdictstack def % Count objects on dict stack
/op_count count 1 sub def      % Count objects on operand stack
userdict begin                 % Push userdict on dict stack
/showpage { } def              % Redefine showpage, { } = null proc
0 setgray 0 setlinecap         % Prepare graphics state
1 setlinewidth 0 setlinejoin
10 setmiterlimit [ ] 0 setdash newpath
/languagelevel where           % If level not equal to 1 then
{pop languagelevel             % set strokeadjust and
1 ne                           % overprint to their defaults.
{false setstrokeadjust false setoverprint
} if
} if
} bd
/EndEPSF { %def
count op_count sub {pop} repeat            % Clean up stacks
countdictstack dict_count sub {end} repeat
b4_Inc_state restore
} bd
%%EndResource
%FOPBeginFontDict
%%IncludeResource: font Courier-Bold
%%IncludeResource: font Helvetica
%%IncludeResource: font Courier-BoldOblique
%%IncludeResource: font Courier-Oblique
%%IncludeResource: font Times-Roman
%%IncludeResource: font Helvetica-BoldOblique
%%IncludeResource: font Helvetica-Bold
%%IncludeResource: font Helvetica-Oblique
%%IncludeResource: font Times-BoldItalic
%%IncludeResource: font Courier
%%IncludeResource: font Times-Italic
%%IncludeResource: font Times-Bold
%%IncludeResource: font Symbol
%%IncludeResource: font ZapfDingbats
%FOPEndFontDict
%%BeginResource: encoding WinAnsiEncoding
/WinAnsiEncoding [
/.notdef /.notdef /.notdef /.notdef /.notdef
/.notdef /.notdef /.notdef /.notdef /.notdef
/.notdef /.notdef /.notdef /.notdef /.notdef
/.notdef /.notdef /.notdef /.notdef /.notdef
/.notdef /.notdef /.notdef /.notdef /.notdef
/.notdef /.notdef /.notdef /.notdef /.notdef
/.notdef /.notdef /space /exclam /quotedbl
/numbersign /dollar /percent /ampersand /quotesingle
/parenleft /parenright /asterisk /plus /comma
/hyphen /period /slash /zero /one
/two /three /four /five /six
/seven /eight /nine /colon /semicolon
/less /equal /greater /question /at
/A /B /C /D /E
/F /G /H /I /J
/K /L /M /N /O
/P /Q /R /S /T
/U /V /W /X /Y
/Z /bracketleft /backslash /bracketright /asciicircum
/underscore /quoteleft /a /b /c
/d /e /f /g /h
/i /j /k /l /m
/n /o /p /q /r
/s /t /u /v /w
/x /y /z /braceleft /bar
/braceright /asciitilde /bullet /Euro /bullet
/quotesinglbase /florin /quotedblbase /ellipsis /dagger
/daggerdbl /circumflex /perthousand /Scaron /guilsinglleft
/OE /bullet /Zcaron /bullet /bullet
/quoteleft /quoteright /quotedblleft /quotedblright /bullet
/endash /emdash /asciitilde /trademark /scaron
/guilsinglright /oe /bullet /zcaron /Ydieresis
/space /exclamdown /cent /sterling /currency
/yen /brokenbar /section /dieresis /copyright
/ordfeminine /guillemotleft /logicalnot /sfthyphen /registered
/macron /degree /plusminus /twosuperior /threesuperior
/acute /mu /paragraph /middot /cedilla
/onesuperior /ordmasculine /guillemotright /onequarter /onehalf
/threequarters /questiondown /Agrave /Aacute /Acircumflex
/Atilde /Adieresis /Aring /AE /Ccedilla
/Egrave /Eacute /Ecircumflex /Edieresis /Igrave
/Iacute /Icircumflex /Idieresis /Eth /Ntilde
/Ograve /Oacute /Ocircumflex /Otilde /Odieresis
/multiply /Oslash /Ugrave /Uacute /Ucircumflex
/Udieresis /Yacute /Thorn /germandbls /agrave
/aacute /acircumflex /atilde /adieresis /aring
/ae /ccedilla /egrave /eacute /ecircumflex
/edieresis /igrave /iacute /icircumflex /idieresis
/eth /ntilde /ograve /oacute /ocircumflex
/otilde /odieresis /divide /oslash /ugrave
/uacute /ucircumflex /udieresis /yacute /thorn
/ydieresis
] def
%%EndResource
%FOPBeginFontReencode
/Courier-Bold findfont
dup length dict begin
  {1 index /FID ne {def} {pop pop} ifelse} forall
  /Encoding WinAnsiEncoding def
  currentdict
end
/Courier-Bold exch definefont pop
/Helvetica findfont
dup length dict begin
  {1 index /FID ne {def} {pop pop} ifelse} forall
  /Encoding WinAnsiEncoding def
  currentdict
end
/Helvetica exch definefont pop
/Courier-BoldOblique findfont
dup length dict begin
  {1 index /FID ne {def} {pop pop} ifelse} forall
  /Encoding WinAnsiEncoding def
  currentdict
end
/Courier-BoldOblique exch definefont pop
/Courier-Oblique findfont
dup length dict begin
  {1 index /FID ne {def} {pop pop} ifelse} forall
  /Encoding WinAnsiEncoding def
  currentdict
end
/Courier-Oblique exch definefont pop
/Times-Roman findfont
dup length dict begin
  {1 index /FID ne {def} {pop pop} ifelse} forall
  /Encoding WinAnsiEncoding def
  currentdict
end
/Times-Roman exch definefont pop
/Helvetica-BoldOblique findfont
dup length dict begin
  {1 index /FID ne {def} {pop pop} ifelse} forall
  /Encoding WinAnsiEncoding def
  currentdict
end
/Helvetica-BoldOblique exch definefont pop
/Helvetica-Bold findfont
dup length dict begin
  {1 index /FID ne {def} {pop pop} ifelse} forall
  /Encoding WinAnsiEncoding def
  currentdict
end
/Helvetica-Bold exch definefont pop
/Helvetica-Oblique findfont
dup length dict begin
  {1 index /FID ne {def} {pop pop} ifelse} forall
  /Encoding WinAnsiEncoding def
  currentdict
end
/Helvetica-Oblique exch definefont pop
/Times-BoldItalic findfont
dup length dict begin
  {1 index /FID ne {def} {pop pop} ifelse} forall
  /Encoding WinAnsiEncoding def
  currentdict
end
/Times-BoldItalic exch definefont pop
/Courier findfont
dup length dict begin
  {1 index /FID ne {def} {pop pop} ifelse} forall
  /Encoding WinAnsiEncoding def
  currentdict
end
/Courier exch definefont pop
/Times-Italic findfont
dup length dict begin
  {1 index /FID ne {def} {pop pop} ifelse} forall
  /Encoding WinAnsiEncoding def
  currentdict
end
/Times-Italic exch definefont pop
/Times-Bold findfont
dup length dict begin
  {1 index /FID ne {def} {pop pop} ifelse} forall
  /Encoding WinAnsiEncoding def
  currentdict
end
/Times-Bold exch definefont pop
%FOPEndFontReencode
%%EndProlog
%%Page: 1 1
%%PageBoundingBox: 0 0 414 314
%%BeginPageSetup
[1 0 0 -1 0 314] CT
%%EndPageSetup
GS
[0.75 0 0 0.75 0 -0.25] CT
N
0 0 M
552 0 L
552 419 L
0 419 L
0 0 L
cp
clip
1 GC
N
0 0 552 419 re
f
GR
GS
[0.75 0 0 0.75 0 -0.25] CT
1 GC
N
0 0 552 419 re
f
GR
GS
[0.75 0 0 0.75 0 -0.25] CT
1 GC
N
72 371 M
500 371 L
500 31 L
72 31 L
cp
f
GR
GS
[0.75 0 0 0.75 0 -0.25] CT
0.873 GC
2 setlinecap
10.0 ML
N
117.685 371 M
117.685 31 L
S
GR
GS
[0.75 0 0 0.75 0 -0.25] CT
0.873 GC
2 setlinecap
10.0 ML
N
165.775 371 M
165.775 31 L
S
GR
GS
[0.75 0 0 0.75 0 -0.25] CT
0.873 GC
2 setlinecap
10.0 ML
N
213.865 371 M
213.865 31 L
S
GR
GS
[0.75 0 0 0.75 0 -0.25] CT
0.873 GC
2 setlinecap
10.0 ML
N
261.955 371 M
261.955 31 L
S
GR
GS
[0.75 0 0 0.75 0 -0.25] CT
0.873 GC
2 setlinecap
10.0 ML
N
310.045 371 M
310.045 31 L
S
GR
GS
[0.75 0 0 0.75 0 -0.25] CT
0.873 GC
2 setlinecap
10.0 ML
N
358.135 371 M
358.135 31 L
S
GR
GS
[0.75 0 0 0.75 0 -0.25] CT
0.873 GC
2 setlinecap
10.0 ML
N
406.225 371 M
406.225 31 L
S
GR
GS
[0.75 0 0 0.75 0 -0.25] CT
0.873 GC
2 setlinecap
10.0 ML
N
454.315 371 M
454.315 31 L
S
GR
GS
[0.75 0 0 0.75 0 -0.25] CT
0.873 GC
2 setlinecap
10.0 ML
N
500 371 M
72 371 L
S
GR
GS
[0.75 0 0 0.75 0 -0.25] CT
0.873 GC
2 setlinecap
10.0 ML
N
500 314.333 M
72 314.333 L
S
GR
GS
[0.75 0 0 0.75 0 -0.25] CT
0.873 GC
2 setlinecap
10.0 ML
N
500 257.667 M
72 257.667 L
S
GR
GS
[0.75 0 0 0.75 0 -0.25] CT
0.873 GC
2 setlinecap
10.0 ML
N
500 201 M
72 201 L
S
GR
GS
[0.75 0 0 0.75 0 -0.25] CT
0.873 GC
2 setlinecap
10.0 ML
N
500 144.333 M
72 144.333 L
S
GR
GS
[0.75 0 0 0.75 0 -0.25] CT
0.873 GC
2 setlinecap
10.0 ML
N
500 87.667 M
72 87.667 L
S
GR
GS
[0.75 0 0 0.75 0 -0.25] CT
0.873 GC
2 setlinecap
10.0 ML
N
500 31 M
72 31 L
S
GR
GS
[0.75 0 0 0.75 192.75 306.5] CT
0.149 GC
/Helvetica 15 F
GS
[1 0 0 1 0 0] CT
0 0 moveto 
1 -1 scale
(t) t 
GR
GR
GS
[0.75 0 0 0.75 197.25 311.75] CT
0.149 GC
/Helvetica 11 F
GS
[1 0 0 1 0 0] CT
0 0 moveto 
1 -1 scale
(1) t 
GR
GR
GS
[0.75 0 0 0.75 202.5 306.5] CT
0.149 GC
/Helvetica 15 F
GS
[1 0 0 1 0 0] CT
0 0 moveto 
1 -1 scale
( \(min\)) t 
GR
GR
GS
[0.75 0 0 0.75 0 -0.25] CT
0.149 GC
2 setlinecap
10.0 ML
N
72 371 M
500 371 L
S
GR
GS
[0.75 0 0 0.75 0 -0.25] CT
0.149 GC
2 setlinecap
10.0 ML
N
72 31 M
500 31 L
S
GR
GS
[0.75 0 0 0.75 0 -0.25] CT
0.149 GC
2 setlinecap
10.0 ML
N
117.685 371 M
117.685 366.72 L
S
GR
GS
[0.75 0 0 0.75 0 -0.25] CT
0.149 GC
2 setlinecap
10.0 ML
N
165.775 371 M
165.775 366.72 L
S
GR
GS
[0.75 0 0 0.75 0 -0.25] CT
0.149 GC
2 setlinecap
10.0 ML
N
213.865 371 M
213.865 366.72 L
S
GR
GS
[0.75 0 0 0.75 0 -0.25] CT
0.149 GC
2 setlinecap
10.0 ML
N
261.955 371 M
261.955 366.72 L
S
GR
GS
[0.75 0 0 0.75 0 -0.25] CT
0.149 GC
2 setlinecap
10.0 ML
N
310.045 371 M
310.045 366.72 L
S
GR
GS
[0.75 0 0 0.75 0 -0.25] CT
0.149 GC
2 setlinecap
10.0 ML
N
358.135 371 M
358.135 366.72 L
S
GR
GS
[0.75 0 0 0.75 0 -0.25] CT
0.149 GC
2 setlinecap
10.0 ML
N
406.225 371 M
406.225 366.72 L
S
GR
GS
[0.75 0 0 0.75 0 -0.25] CT
0.149 GC
2 setlinecap
10.0 ML
N
454.315 371 M
454.315 366.72 L
S
GR
GS
[0.75 0 0 0.75 0 -0.25] CT
0.149 GC
2 setlinecap
10.0 ML
N
117.685 31 M
117.685 35.28 L
S
GR
GS
[0.75 0 0 0.75 0 -0.25] CT
0.149 GC
2 setlinecap
10.0 ML
N
165.775 31 M
165.775 35.28 L
S
GR
GS
[0.75 0 0 0.75 0 -0.25] CT
0.149 GC
2 setlinecap
10.0 ML
N
213.865 31 M
213.865 35.28 L
S
GR
GS
[0.75 0 0 0.75 0 -0.25] CT
0.149 GC
2 setlinecap
10.0 ML
N
261.955 31 M
261.955 35.28 L
S
GR
GS
[0.75 0 0 0.75 0 -0.25] CT
0.149 GC
2 setlinecap
10.0 ML
N
310.045 31 M
310.045 35.28 L
S
GR
GS
[0.75 0 0 0.75 0 -0.25] CT
0.149 GC
2 setlinecap
10.0 ML
N
358.135 31 M
358.135 35.28 L
S
GR
GS
[0.75 0 0 0.75 0 -0.25] CT
0.149 GC
2 setlinecap
10.0 ML
N
406.225 31 M
406.225 35.28 L
S
GR
GS
[0.75 0 0 0.75 0 -0.25] CT
0.149 GC
2 setlinecap
10.0 ML
N
454.315 31 M
454.315 35.28 L
S
GR
GS
[0.75 0 0 0.75 88.26405 282.00001] CT
0.149 GC
/Helvetica 13 F
GS
[1 0 0 1 0 0] CT
-8.5 13 moveto 
1 -1 scale
(20) t 
GR
GR
GS
[0.75 0 0 0.75 124.33146 282.00001] CT
0.149 GC
/Helvetica 13 F
GS
[1 0 0 1 0 0] CT
-8.5 13 moveto 
1 -1 scale
(40) t 
GR
GR
GS
[0.75 0 0 0.75 160.39888 282.00001] CT
0.149 GC
/Helvetica 13 F
GS
[1 0 0 1 0 0] CT
-8.5 13 moveto 
1 -1 scale
(60) t 
GR
GR
GS
[0.75 0 0 0.75 196.46629 282.00001] CT
0.149 GC
/Helvetica 13 F
GS
[1 0 0 1 0 0] CT
-8.5 13 moveto 
1 -1 scale
(80) t 
GR
GR
GS
[0.75 0 0 0.75 232.53371 282.00001] CT
0.149 GC
/Helvetica 13 F
GS
[1 0 0 1 0 0] CT
-12.5 13 moveto 
1 -1 scale
(100) t 
GR
GR
GS
[0.75 0 0 0.75 268.60112 282.00001] CT
0.149 GC
/Helvetica 13 F
GS
[1 0 0 1 0 0] CT
-12.5 13 moveto 
1 -1 scale
(120) t 
GR
GR
GS
[0.75 0 0 0.75 304.66855 282.00001] CT
0.149 GC
/Helvetica 13 F
GS
[1 0 0 1 0 0] CT
-12.5 13 moveto 
1 -1 scale
(140) t 
GR
GR
GS
[0.75 0 0 0.75 340.73595 282.00001] CT
0.149 GC
/Helvetica 13 F
GS
[1 0 0 1 0 0] CT
-12.5 13 moveto 
1 -1 scale
(160) t 
GR
GR
GS
[0 -0.75 0.75 0 27 182] CT
0.149 GC
/Helvetica 15 F
GS
[1 0 0 1 0 0] CT
0 0 moveto 
1 -1 scale
(V) t 
GR
GR
GS
[0 -0.75 0.75 0 32.25 173.75] CT
0.149 GC
/Helvetica 11 F
GS
[1 0 0 1 0 0] CT
0 0 moveto 
1 -1 scale
(2) t 
GR
GR
GS
[0 -0.75 0.75 0 27 168.5] CT
0.149 GC
/Helvetica 15 F
GS
[1 0 0 1 0 0] CT
0 0 moveto 
1 -1 scale
(C) t 
GR
GR
GS
[0 -0.75 0.75 0 32.25 160.25] CT
0.149 GC
/Helvetica 11 F
GS
[1 0 0 1 0 0] CT
0 0 moveto 
1 -1 scale
(D) t 
GR
GR
GS
[0 -0.75 0.75 0 27 153.5] CT
0.149 GC
/Helvetica 15 F
GS
[1 0 0 1 0 0] CT
0 0 moveto 
1 -1 scale
( \(mol\)) t 
GR
GR
GS
[0.75 0 0 0.75 0 -0.25] CT
0.149 GC
2 setlinecap
10.0 ML
N
72 371 M
72 31 L
S
GR
GS
[0.75 0 0 0.75 0 -0.25] CT
0.149 GC
2 setlinecap
10.0 ML
N
500 371 M
500 31 L
S
GR
GS
[0.75 0 0 0.75 0 -0.25] CT
0.149 GC
2 setlinecap
10.0 ML
N
72 371 M
76.28 371 L
S
GR
GS
[0.75 0 0 0.75 0 -0.25] CT
0.149 GC
2 setlinecap
10.0 ML
N
72 314.333 M
76.28 314.333 L
S
GR
GS
[0.75 0 0 0.75 0 -0.25] CT
0.149 GC
2 setlinecap
10.0 ML
N
72 257.667 M
76.28 257.667 L
S
GR
GS
[0.75 0 0 0.75 0 -0.25] CT
0.149 GC
2 setlinecap
10.0 ML
N
72 201 M
76.28 201 L
S
GR
GS
[0.75 0 0 0.75 0 -0.25] CT
0.149 GC
2 setlinecap
10.0 ML
N
72 144.333 M
76.28 144.333 L
S
GR
GS
[0.75 0 0 0.75 0 -0.25] CT
0.149 GC
2 setlinecap
10.0 ML
N
72 87.667 M
76.28 87.667 L
S
GR
GS
[0.75 0 0 0.75 0 -0.25] CT
0.149 GC
2 setlinecap
10.0 ML
N
72 31 M
76.28 31 L
S
GR
GS
[0.75 0 0 0.75 0 -0.25] CT
0.149 GC
2 setlinecap
10.0 ML
N
500 371 M
495.72 371 L
S
GR
GS
[0.75 0 0 0.75 0 -0.25] CT
0.149 GC
2 setlinecap
10.0 ML
N
500 314.333 M
495.72 314.333 L
S
GR
GS
[0.75 0 0 0.75 0 -0.25] CT
0.149 GC
2 setlinecap
10.0 ML
N
500 257.667 M
495.72 257.667 L
S
GR
GS
[0.75 0 0 0.75 0 -0.25] CT
0.149 GC
2 setlinecap
10.0 ML
N
500 201 M
495.72 201 L
S
GR
GS
[0.75 0 0 0.75 0 -0.25] CT
0.149 GC
2 setlinecap
10.0 ML
N
500 144.333 M
495.72 144.333 L
S
GR
GS
[0.75 0 0 0.75 0 -0.25] CT
0.149 GC
2 setlinecap
10.0 ML
N
500 87.667 M
495.72 87.667 L
S
GR
GS
[0.75 0 0 0.75 0 -0.25] CT
0.149 GC
2 setlinecap
10.0 ML
N
500 31 M
495.72 31 L
S
GR
GS
[0.75 0 0 0.75 50 278] CT
0.149 GC
/Helvetica 13 F
GS
[1 0 0 1 0 0] CT
-9 4.5 moveto 
1 -1 scale
(0) t 
GR
GR
GS
[0.75 0 0 0.75 50 235.50001] CT
0.149 GC
/Helvetica 13 F
GS
[1 0 0 1 0 0] CT
-9 4.5 moveto 
1 -1 scale
(5) t 
GR
GR
GS
[0.75 0 0 0.75 50 192.99999] CT
0.149 GC
/Helvetica 13 F
GS
[1 0 0 1 0 0] CT
-17 4.5 moveto 
1 -1 scale
(10) t 
GR
GR
GS
[0.75 0 0 0.75 50 150.5] CT
0.149 GC
/Helvetica 13 F
GS
[1 0 0 1 0 0] CT
-17 4.5 moveto 
1 -1 scale
(15) t 
GR
GR
GS
[0.75 0 0 0.75 50 108] CT
0.149 GC
/Helvetica 13 F
GS
[1 0 0 1 0 0] CT
-17 4.5 moveto 
1 -1 scale
(20) t 
GR
GR
GS
[0.75 0 0 0.75 50 65.5] CT
0.149 GC
/Helvetica 13 F
GS
[1 0 0 1 0 0] CT
-17 4.5 moveto 
1 -1 scale
(25) t 
GR
GR
GS
[0.75 0 0 0.75 50 23] CT
0.149 GC
/Helvetica 13 F
GS
[1 0 0 1 0 0] CT
-17 4.5 moveto 
1 -1 scale
(30) t 
GR
GR
GS
[0.75 0 0 0.75 0 -0.25] CT
0 0.447 0.741 RC
2 LJ
N
72 240.985 M
74.404 231.755 L
76.809 223.382 L
79.213 215.751 L
81.618 208.768 L
84.022 202.353 L
86.427 196.439 L
88.831 190.97 L
91.236 185.898 L
93.64 181.181 L
96.045 176.783 L
98.449 172.673 L
100.854 168.824 L
103.258 165.211 L
105.663 161.815 L
108.067 158.616 L
110.472 155.597 L
112.876 152.745 L
115.281 150.045 L
117.685 147.486 L
120.09 145.058 L
122.494 142.751 L
124.899 140.556 L
127.303 138.465 L
129.708 136.472 L
132.112 134.57 L
134.517 132.752 L
136.921 131.014 L
139.326 129.35 L
141.73 127.757 L
144.135 126.229 L
146.539 124.763 L
148.944 123.355 L
151.348 122.003 L
153.753 120.702 L
156.157 119.451 L
158.562 118.246 L
160.966 117.085 L
163.371 115.967 L
165.775 114.888 L
168.18 113.846 L
170.584 112.841 L
172.989 111.87 L
175.393 110.931 L
177.798 110.023 L
180.202 109.146 L
182.607 108.296 L
185.011 107.473 L
187.416 106.677 L
189.82 105.905 L
S
GR
GS
[0.75 0 0 0.75 0 -0.25] CT
0 0.447 0.741 RC
2 LJ
N
189.82 105.905 M
192.225 105.157 L
194.629 104.431 L
197.034 103.728 L
199.438 103.045 L
201.843 102.383 L
204.247 101.74 L
206.652 101.115 L
209.056 100.508 L
211.461 99.919 L
213.865 99.346 L
216.27 98.789 L
218.674 98.247 L
221.079 97.721 L
223.483 97.209 L
225.888 96.71 L
228.292 96.226 L
230.697 95.754 L
233.101 95.295 L
235.506 94.848 L
237.91 94.413 L
240.315 93.989 L
242.719 93.577 L
245.124 93.176 L
247.528 92.785 L
249.933 92.404 L
252.337 92.034 L
254.742 91.673 L
257.146 91.322 L
259.551 90.981 L
261.955 90.648 L
264.36 90.325 L
266.764 90.01 L
269.169 89.704 L
271.573 89.407 L
273.978 89.118 L
276.382 88.837 L
278.787 88.565 L
281.191 88.301 L
283.596 88.045 L
286 87.797 L
288.404 87.556 L
290.809 87.324 L
293.213 87.1 L
295.618 86.884 L
298.022 86.676 L
300.427 86.476 L
302.831 86.284 L
305.236 86.1 L
307.64 85.925 L
S
GR
GS
[0.75 0 0 0.75 0 -0.25] CT
0 0.447 0.741 RC
2 LJ
N
307.64 85.925 M
310.045 85.758 L
312.449 85.6 L
314.854 85.45 L
317.258 85.31 L
319.663 85.178 L
322.067 85.057 L
324.472 84.945 L
326.876 84.843 L
329.281 84.751 L
331.685 84.67 L
334.09 84.601 L
336.494 84.543 L
338.899 84.498 L
341.303 84.465 L
343.708 84.445 L
346.112 84.44 L
348.517 84.449 L
350.921 84.474 L
353.326 84.515 L
355.73 84.574 L
358.135 84.65 L
360.539 84.746 L
362.944 84.863 L
365.348 85.001 L
367.753 85.162 L
370.157 85.347 L
372.562 85.559 L
374.966 85.798 L
377.371 86.067 L
379.775 86.367 L
382.18 86.7 L
384.584 87.07 L
386.989 87.478 L
389.393 87.927 L
391.798 88.419 L
394.202 88.959 L
396.607 89.549 L
399.011 90.192 L
401.416 90.893 L
403.82 91.657 L
406.225 92.487 L
408.629 93.388 L
411.034 94.366 L
413.438 95.426 L
415.843 96.575 L
418.247 97.82 L
420.652 99.167 L
423.056 100.626 L
425.461 102.203 L
S
GR
GS
[0.75 0 0 0.75 0 -0.25] CT
0 0.447 0.741 RC
2 LJ
N
425.461 102.203 M
427.865 103.91 L
430.27 105.755 L
432.674 107.75 L
435.079 109.908 L
437.483 112.241 L
439.888 114.765 L
442.292 117.494 L
444.697 120.446 L
447.101 123.641 L
449.506 127.098 L
451.91 130.843 L
454.315 134.899 L
456.719 139.296 L
459.124 144.064 L
461.528 149.238 L
463.933 154.859 L
466.337 160.968 L
468.742 167.615 L
471.146 174.856 L
473.551 182.753 L
475.955 191.377 L
478.36 200.809 L
480.764 211.143 L
483.169 222.486 L
485.573 234.965 L
487.978 248.727 L
490.382 263.946 L
492.787 280.831 L
495.191 299.633 L
497.596 320.658 L
500 344.288 L
S
GR
GS
[0.75 0 0 0.75 214.50021 20.9375] CT
/Helvetica-Bold 15 F
GS
[1 0 0 1 0 0] CT
-73.5 -4 moveto 
1 -1 scale
(T = 300, S = 0.07) t 
GR
GR
GS
[0.75 0 0 0.75 0 -0.25] CT
N
348.3 89.7 M
348.3 79.3 L
358.7 79.3 L
358.7 89.7 L
cp
f
GR
GS
[0.75 0 0 0.75 0 -0.25] CT
1 1 0.863 RC
2 setlinecap
10.0 ML
1.333 LW
N
348.3 89.7 M
348.3 79.3 L
358.7 79.3 L
358.7 89.7 L
348.3 89.7 L
S
GR
GS
[0.75 0 0 0.75 0 -0.25] CT
N
331.3 89.7 M
331.3 79.3 L
341.7 79.3 L
341.7 89.7 L
cp
f
GR
GS
[0.75 0 0 0.75 0 -0.25] CT
1 1 0.863 RC
2 setlinecap
10.0 ML
1.333 LW
N
331.3 89.7 M
331.3 79.3 L
341.7 79.3 L
341.7 89.7 L
331.3 89.7 L
S
GR
GS
[0.75 0 0 0.75 0 -0.25] CT
1 1 0.933 RC
N
359.993 77.849 M
421.993 77.849 L
421.993 35.849 L
359.993 35.849 L
cp
f
GR
GS
[0.75 0 0 0.75 0 -0.25] CT
0.8 GC
2 setlinecap
10.0 ML
N
359.993 77.849 M
421.993 77.849 L
421.993 35.849 L
359.993 35.849 L
359.993 77.849 L
S
GR
GS
[0.75 0 0 0.75 272.99439 55.13652] CT
/Helvetica 13 F
GS
[1 0 0 1 0 0] CT
0 -21 moveto 
1 -1 scale
(X: 118) t 
GR
GR
GS
[0.75 0 0 0.75 272.99439 55.13652] CT
/Helvetica 13 F
GS
[1 0 0 1 0 0] CT
0 -4 moveto 
1 -1 scale
(Y: 25.28) t 
GR
GR
GS
[0.75 0 0 0.75 0 -0.25] CT
1 1 0.933 RC
N
267.828 77.877 M
329.828 77.877 L
329.828 35.877 L
267.828 35.877 L
cp
f
GR
GS
[0.75 0 0 0.75 0 -0.25] CT
0.8 GC
2 setlinecap
10.0 ML
N
267.828 77.877 M
329.828 77.877 L
329.828 35.877 L
267.828 35.877 L
267.828 77.877 L
S
GR
GS
[0.75 0 0 0.75 203.8708 55.15739] CT
/Helvetica 13 F
GS
[1 0 0 1 0 0] CT
0 -21 moveto 
1 -1 scale
(X: 111) t 
GR
GR
GS
[0.75 0 0 0.75 203.8708 55.15739] CT
/Helvetica 13 F
GS
[1 0 0 1 0 0] CT
0 -4 moveto 
1 -1 scale
(Y: 25.28) t 
GR
GR
GS
[0.75 0 0 0.75 0 -0.25] CT
0.608 GC
N
348.3 89.7 M
348.3 79.3 L
358.7 79.3 L
358.7 89.7 L
cp
f
GR
GS
[0.75 0 0 0.75 0 -0.25] CT
1 1 0.863 RC
2 setlinecap
10.0 ML
1.333 LW
N
348.3 89.7 M
348.3 79.3 L
358.7 79.3 L
358.7 89.7 L
348.3 89.7 L
S
GR
GS
[0.75 0 0 0.75 0 -0.25] CT
0.608 GC
N
331.3 89.7 M
331.3 79.3 L
341.7 79.3 L
341.7 89.7 L
cp
f
GR
GS
[0.75 0 0 0.75 0 -0.25] CT
1 1 0.863 RC
2 setlinecap
10.0 ML
1.333 LW
N
331.3 89.7 M
331.3 79.3 L
341.7 79.3 L
341.7 89.7 L
331.3 89.7 L
S
GR
%%Trailer
%%Pages: 1
%%EOF
