%!PS-Adobe-3.0 EPSF-3.0
%%Creator: (MATLAB, The Mathworks, Inc. Version 8.5.0.197613 \(R2015a\). Operating System: Linux)
%%Title: (/home/lukas/Dropbox/Universidad/Master/Control Theory/lab3/raport/chapter3/figures/C1\(t\)_1.eps)
%%CreationDate: 2016-03-24T16:03:52
%%Pages: (atend)
%%BoundingBox: 0 0 420 315
%%LanguageLevel: 2
%%EndComments
%%BeginProlog
%%BeginResource: procset (Apache XML Graphics Std ProcSet) 1.2 0
%%Version: 1.2 0
%%Copyright: (Copyright 2001-2003,2010 The Apache Software Foundation. License terms: http://www.apache.org/licenses/LICENSE-2.0)
/bd{bind def}bind def
/ld{load def}bd
/GR/grestore ld
/M/moveto ld
/LJ/setlinejoin ld
/C/curveto ld
/f/fill ld
/LW/setlinewidth ld
/GC/setgray ld
/t/show ld
/N/newpath ld
/CT/concat ld
/cp/closepath ld
/S/stroke ld
/L/lineto ld
/CC/setcmykcolor ld
/A/ashow ld
/GS/gsave ld
/RC/setrgbcolor ld
/RM/rmoveto ld
/ML/setmiterlimit ld
/re {4 2 roll M
1 index 0 rlineto
0 exch rlineto
neg 0 rlineto
cp } bd
/_ctm matrix def
/_tm matrix def
/BT { _ctm currentmatrix pop matrix _tm copy pop 0 0 moveto } bd
/ET { _ctm setmatrix } bd
/iTm { _ctm setmatrix _tm concat } bd
/Tm { _tm astore pop iTm 0 0 moveto } bd
/ux 0.0 def
/uy 0.0 def
/F {
  /Tp exch def
  /Tf exch def
  Tf findfont Tp scalefont setfont
  /cf Tf def  /cs Tp def
} bd
/ULS {currentpoint /uy exch def /ux exch def} bd
/ULE {
  /Tcx currentpoint pop def
  gsave
  newpath
  cf findfont cs scalefont dup
  /FontMatrix get 0 get /Ts exch def /FontInfo get dup
  /UnderlinePosition get Ts mul /To exch def
  /UnderlineThickness get Ts mul /Tt exch def
  ux uy To add moveto  Tcx uy To add lineto
  Tt setlinewidth stroke
  grestore
} bd
/OLE {
  /Tcx currentpoint pop def
  gsave
  newpath
  cf findfont cs scalefont dup
  /FontMatrix get 0 get /Ts exch def /FontInfo get dup
  /UnderlinePosition get Ts mul /To exch def
  /UnderlineThickness get Ts mul /Tt exch def
  ux uy To add cs add moveto Tcx uy To add cs add lineto
  Tt setlinewidth stroke
  grestore
} bd
/SOE {
  /Tcx currentpoint pop def
  gsave
  newpath
  cf findfont cs scalefont dup
  /FontMatrix get 0 get /Ts exch def /FontInfo get dup
  /UnderlinePosition get Ts mul /To exch def
  /UnderlineThickness get Ts mul /Tt exch def
  ux uy To add cs 10 mul 26 idiv add moveto Tcx uy To add cs 10 mul 26 idiv add lineto
  Tt setlinewidth stroke
  grestore
} bd
/QT {
/Y22 exch store
/X22 exch store
/Y21 exch store
/X21 exch store
currentpoint
/Y21 load 2 mul add 3 div exch
/X21 load 2 mul add 3 div exch
/X21 load 2 mul /X22 load add 3 div
/Y21 load 2 mul /Y22 load add 3 div
/X22 load /Y22 load curveto
} bd
/SSPD {
dup length /d exch dict def
{
/v exch def
/k exch def
currentpagedevice k known {
/cpdv currentpagedevice k get def
v cpdv ne {
/upd false def
/nullv v type /nulltype eq def
/nullcpdv cpdv type /nulltype eq def
nullv nullcpdv or
{
/upd true def
} {
/sametype v type cpdv type eq def
sametype {
v type /arraytype eq {
/vlen v length def
/cpdvlen cpdv length def
vlen cpdvlen eq {
0 1 vlen 1 sub {
/i exch def
/obj v i get def
/cpdobj cpdv i get def
obj cpdobj ne {
/upd true def
exit
} if
} for
} {
/upd true def
} ifelse
} {
v type /dicttype eq {
v {
/dv exch def
/dk exch def
/cpddv cpdv dk get def
dv cpddv ne {
/upd true def
exit
} if
} forall
} {
/upd true def
} ifelse
} ifelse
} if
} ifelse
upd true eq {
d k v put
} if
} if
} if
} forall
d length 0 gt {
d setpagedevice
} if
} bd
%%EndResource
%%BeginResource: procset (Apache XML Graphics EPS ProcSet) 1.0 0
%%Version: 1.0 0
%%Copyright: (Copyright 2002-2003 The Apache Software Foundation. License terms: http://www.apache.org/licenses/LICENSE-2.0)
/BeginEPSF { %def
/b4_Inc_state save def         % Save state for cleanup
/dict_count countdictstack def % Count objects on dict stack
/op_count count 1 sub def      % Count objects on operand stack
userdict begin                 % Push userdict on dict stack
/showpage { } def              % Redefine showpage, { } = null proc
0 setgray 0 setlinecap         % Prepare graphics state
1 setlinewidth 0 setlinejoin
10 setmiterlimit [ ] 0 setdash newpath
/languagelevel where           % If level not equal to 1 then
{pop languagelevel             % set strokeadjust and
1 ne                           % overprint to their defaults.
{false setstrokeadjust false setoverprint
} if
} if
} bd
/EndEPSF { %def
count op_count sub {pop} repeat            % Clean up stacks
countdictstack dict_count sub {end} repeat
b4_Inc_state restore
} bd
%%EndResource
%FOPBeginFontDict
%%IncludeResource: font Courier-Bold
%%IncludeResource: font Helvetica
%%IncludeResource: font Courier-BoldOblique
%%IncludeResource: font Courier-Oblique
%%IncludeResource: font Times-Roman
%%IncludeResource: font Helvetica-BoldOblique
%%IncludeResource: font Helvetica-Bold
%%IncludeResource: font Helvetica-Oblique
%%IncludeResource: font Times-BoldItalic
%%IncludeResource: font Courier
%%IncludeResource: font Times-Italic
%%IncludeResource: font Times-Bold
%%IncludeResource: font Symbol
%%IncludeResource: font ZapfDingbats
%FOPEndFontDict
%%BeginResource: encoding WinAnsiEncoding
/WinAnsiEncoding [
/.notdef /.notdef /.notdef /.notdef /.notdef
/.notdef /.notdef /.notdef /.notdef /.notdef
/.notdef /.notdef /.notdef /.notdef /.notdef
/.notdef /.notdef /.notdef /.notdef /.notdef
/.notdef /.notdef /.notdef /.notdef /.notdef
/.notdef /.notdef /.notdef /.notdef /.notdef
/.notdef /.notdef /space /exclam /quotedbl
/numbersign /dollar /percent /ampersand /quotesingle
/parenleft /parenright /asterisk /plus /comma
/hyphen /period /slash /zero /one
/two /three /four /five /six
/seven /eight /nine /colon /semicolon
/less /equal /greater /question /at
/A /B /C /D /E
/F /G /H /I /J
/K /L /M /N /O
/P /Q /R /S /T
/U /V /W /X /Y
/Z /bracketleft /backslash /bracketright /asciicircum
/underscore /quoteleft /a /b /c
/d /e /f /g /h
/i /j /k /l /m
/n /o /p /q /r
/s /t /u /v /w
/x /y /z /braceleft /bar
/braceright /asciitilde /bullet /Euro /bullet
/quotesinglbase /florin /quotedblbase /ellipsis /dagger
/daggerdbl /circumflex /perthousand /Scaron /guilsinglleft
/OE /bullet /Zcaron /bullet /bullet
/quoteleft /quoteright /quotedblleft /quotedblright /bullet
/endash /emdash /asciitilde /trademark /scaron
/guilsinglright /oe /bullet /zcaron /Ydieresis
/space /exclamdown /cent /sterling /currency
/yen /brokenbar /section /dieresis /copyright
/ordfeminine /guillemotleft /logicalnot /sfthyphen /registered
/macron /degree /plusminus /twosuperior /threesuperior
/acute /mu /paragraph /middot /cedilla
/onesuperior /ordmasculine /guillemotright /onequarter /onehalf
/threequarters /questiondown /Agrave /Aacute /Acircumflex
/Atilde /Adieresis /Aring /AE /Ccedilla
/Egrave /Eacute /Ecircumflex /Edieresis /Igrave
/Iacute /Icircumflex /Idieresis /Eth /Ntilde
/Ograve /Oacute /Ocircumflex /Otilde /Odieresis
/multiply /Oslash /Ugrave /Uacute /Ucircumflex
/Udieresis /Yacute /Thorn /germandbls /agrave
/aacute /acircumflex /atilde /adieresis /aring
/ae /ccedilla /egrave /eacute /ecircumflex
/edieresis /igrave /iacute /icircumflex /idieresis
/eth /ntilde /ograve /oacute /ocircumflex
/otilde /odieresis /divide /oslash /ugrave
/uacute /ucircumflex /udieresis /yacute /thorn
/ydieresis
] def
%%EndResource
%FOPBeginFontReencode
/Courier-Bold findfont
dup length dict begin
  {1 index /FID ne {def} {pop pop} ifelse} forall
  /Encoding WinAnsiEncoding def
  currentdict
end
/Courier-Bold exch definefont pop
/Helvetica findfont
dup length dict begin
  {1 index /FID ne {def} {pop pop} ifelse} forall
  /Encoding WinAnsiEncoding def
  currentdict
end
/Helvetica exch definefont pop
/Courier-BoldOblique findfont
dup length dict begin
  {1 index /FID ne {def} {pop pop} ifelse} forall
  /Encoding WinAnsiEncoding def
  currentdict
end
/Courier-BoldOblique exch definefont pop
/Courier-Oblique findfont
dup length dict begin
  {1 index /FID ne {def} {pop pop} ifelse} forall
  /Encoding WinAnsiEncoding def
  currentdict
end
/Courier-Oblique exch definefont pop
/Times-Roman findfont
dup length dict begin
  {1 index /FID ne {def} {pop pop} ifelse} forall
  /Encoding WinAnsiEncoding def
  currentdict
end
/Times-Roman exch definefont pop
/Helvetica-BoldOblique findfont
dup length dict begin
  {1 index /FID ne {def} {pop pop} ifelse} forall
  /Encoding WinAnsiEncoding def
  currentdict
end
/Helvetica-BoldOblique exch definefont pop
/Helvetica-Bold findfont
dup length dict begin
  {1 index /FID ne {def} {pop pop} ifelse} forall
  /Encoding WinAnsiEncoding def
  currentdict
end
/Helvetica-Bold exch definefont pop
/Helvetica-Oblique findfont
dup length dict begin
  {1 index /FID ne {def} {pop pop} ifelse} forall
  /Encoding WinAnsiEncoding def
  currentdict
end
/Helvetica-Oblique exch definefont pop
/Times-BoldItalic findfont
dup length dict begin
  {1 index /FID ne {def} {pop pop} ifelse} forall
  /Encoding WinAnsiEncoding def
  currentdict
end
/Times-BoldItalic exch definefont pop
/Courier findfont
dup length dict begin
  {1 index /FID ne {def} {pop pop} ifelse} forall
  /Encoding WinAnsiEncoding def
  currentdict
end
/Courier exch definefont pop
/Times-Italic findfont
dup length dict begin
  {1 index /FID ne {def} {pop pop} ifelse} forall
  /Encoding WinAnsiEncoding def
  currentdict
end
/Times-Italic exch definefont pop
/Times-Bold findfont
dup length dict begin
  {1 index /FID ne {def} {pop pop} ifelse} forall
  /Encoding WinAnsiEncoding def
  currentdict
end
/Times-Bold exch definefont pop
%FOPEndFontReencode
%%EndProlog
%%Page: 1 1
%%PageBoundingBox: 0 0 420 315
%%BeginPageSetup
[1 0 0 -1 0 315] CT
%%EndPageSetup
GS
[0.75 0 0 0.75 0 0] CT
1 GC
N
0 0 560 420 re
f
GR
GS
[0.75 0 0 0.75 0 0] CT
1 GC
N
0 0 560 420 re
f
GR
GS
[0.75 0 0 0.75 0 0] CT
1 GC
N
73 374 M
507 374 L
507 31 L
73 31 L
cp
f
GR
GS
[0.75 0 0 0.75 0 0] CT
0.873 GC
2 setlinecap
10.0 ML
N
73 374 M
73 31 L
S
GR
GS
[0.75 0 0 0.75 0 0] CT
0.873 GC
2 setlinecap
10.0 ML
N
121.222 374 M
121.222 31 L
S
GR
GS
[0.75 0 0 0.75 0 0] CT
0.873 GC
2 setlinecap
10.0 ML
N
169.444 374 M
169.444 31 L
S
GR
GS
[0.75 0 0 0.75 0 0] CT
0.873 GC
2 setlinecap
10.0 ML
N
217.667 374 M
217.667 31 L
S
GR
GS
[0.75 0 0 0.75 0 0] CT
0.873 GC
2 setlinecap
10.0 ML
N
265.889 374 M
265.889 31 L
S
GR
GS
[0.75 0 0 0.75 0 0] CT
0.873 GC
2 setlinecap
10.0 ML
N
314.111 374 M
314.111 31 L
S
GR
GS
[0.75 0 0 0.75 0 0] CT
0.873 GC
2 setlinecap
10.0 ML
N
362.333 374 M
362.333 31 L
S
GR
GS
[0.75 0 0 0.75 0 0] CT
0.873 GC
2 setlinecap
10.0 ML
N
410.556 374 M
410.556 31 L
S
GR
GS
[0.75 0 0 0.75 0 0] CT
0.873 GC
2 setlinecap
10.0 ML
N
458.778 374 M
458.778 31 L
S
GR
GS
[0.75 0 0 0.75 0 0] CT
0.873 GC
2 setlinecap
10.0 ML
N
507 374 M
507 31 L
S
GR
GS
[0.75 0 0 0.75 0 0] CT
0.873 GC
2 setlinecap
10.0 ML
N
507 374 M
73 374 L
S
GR
GS
[0.75 0 0 0.75 0 0] CT
0.873 GC
2 setlinecap
10.0 ML
N
507 331.125 M
73 331.125 L
S
GR
GS
[0.75 0 0 0.75 0 0] CT
0.873 GC
2 setlinecap
10.0 ML
N
507 288.25 M
73 288.25 L
S
GR
GS
[0.75 0 0 0.75 0 0] CT
0.873 GC
2 setlinecap
10.0 ML
N
507 245.375 M
73 245.375 L
S
GR
GS
[0.75 0 0 0.75 0 0] CT
0.873 GC
2 setlinecap
10.0 ML
N
507 202.5 M
73 202.5 L
S
GR
GS
[0.75 0 0 0.75 0 0] CT
0.873 GC
2 setlinecap
10.0 ML
N
507 159.625 M
73 159.625 L
S
GR
GS
[0.75 0 0 0.75 0 0] CT
0.873 GC
2 setlinecap
10.0 ML
N
507 116.75 M
73 116.75 L
S
GR
GS
[0.75 0 0 0.75 0 0] CT
0.873 GC
2 setlinecap
10.0 ML
N
507 73.875 M
73 73.875 L
S
GR
GS
[0.75 0 0 0.75 0 0] CT
0.873 GC
2 setlinecap
10.0 ML
N
507 31 M
73 31 L
S
GR
GS
[0.75 0 0 0.75 217.50016 298.24999] CT
0.149 GC
/Helvetica 15 F
GS
[1 0 0 1 0 0] CT
-39.5 14 moveto 
1 -1 scale
(time \(min\)) t 
GR
GR
GS
[0.75 0 0 0.75 0 0] CT
0.149 GC
2 setlinecap
10.0 ML
N
73 374 M
507 374 L
S
GR
GS
[0.75 0 0 0.75 0 0] CT
0.149 GC
2 setlinecap
10.0 ML
N
73 31 M
507 31 L
S
GR
GS
[0.75 0 0 0.75 0 0] CT
0.149 GC
2 setlinecap
10.0 ML
N
73 374 M
73 369.66 L
S
GR
GS
[0.75 0 0 0.75 0 0] CT
0.149 GC
2 setlinecap
10.0 ML
N
121.222 374 M
121.222 369.66 L
S
GR
GS
[0.75 0 0 0.75 0 0] CT
0.149 GC
2 setlinecap
10.0 ML
N
169.444 374 M
169.444 369.66 L
S
GR
GS
[0.75 0 0 0.75 0 0] CT
0.149 GC
2 setlinecap
10.0 ML
N
217.667 374 M
217.667 369.66 L
S
GR
GS
[0.75 0 0 0.75 0 0] CT
0.149 GC
2 setlinecap
10.0 ML
N
265.889 374 M
265.889 369.66 L
S
GR
GS
[0.75 0 0 0.75 0 0] CT
0.149 GC
2 setlinecap
10.0 ML
N
314.111 374 M
314.111 369.66 L
S
GR
GS
[0.75 0 0 0.75 0 0] CT
0.149 GC
2 setlinecap
10.0 ML
N
362.333 374 M
362.333 369.66 L
S
GR
GS
[0.75 0 0 0.75 0 0] CT
0.149 GC
2 setlinecap
10.0 ML
N
410.556 374 M
410.556 369.66 L
S
GR
GS
[0.75 0 0 0.75 0 0] CT
0.149 GC
2 setlinecap
10.0 ML
N
458.778 374 M
458.778 369.66 L
S
GR
GS
[0.75 0 0 0.75 0 0] CT
0.149 GC
2 setlinecap
10.0 ML
N
507 374 M
507 369.66 L
S
GR
GS
[0.75 0 0 0.75 0 0] CT
0.149 GC
2 setlinecap
10.0 ML
N
73 31 M
73 35.34 L
S
GR
GS
[0.75 0 0 0.75 0 0] CT
0.149 GC
2 setlinecap
10.0 ML
N
121.222 31 M
121.222 35.34 L
S
GR
GS
[0.75 0 0 0.75 0 0] CT
0.149 GC
2 setlinecap
10.0 ML
N
169.444 31 M
169.444 35.34 L
S
GR
GS
[0.75 0 0 0.75 0 0] CT
0.149 GC
2 setlinecap
10.0 ML
N
217.667 31 M
217.667 35.34 L
S
GR
GS
[0.75 0 0 0.75 0 0] CT
0.149 GC
2 setlinecap
10.0 ML
N
265.889 31 M
265.889 35.34 L
S
GR
GS
[0.75 0 0 0.75 0 0] CT
0.149 GC
2 setlinecap
10.0 ML
N
314.111 31 M
314.111 35.34 L
S
GR
GS
[0.75 0 0 0.75 0 0] CT
0.149 GC
2 setlinecap
10.0 ML
N
362.333 31 M
362.333 35.34 L
S
GR
GS
[0.75 0 0 0.75 0 0] CT
0.149 GC
2 setlinecap
10.0 ML
N
410.556 31 M
410.556 35.34 L
S
GR
GS
[0.75 0 0 0.75 0 0] CT
0.149 GC
2 setlinecap
10.0 ML
N
458.778 31 M
458.778 35.34 L
S
GR
GS
[0.75 0 0 0.75 0 0] CT
0.149 GC
2 setlinecap
10.0 ML
N
507 31 M
507 35.34 L
S
GR
GS
[0.75 0 0 0.75 54.75 284.50001] CT
0.149 GC
/Helvetica 13 F
GS
[1 0 0 1 0 0] CT
-4.5 13 moveto 
1 -1 scale
(0) t 
GR
GR
GS
[0.75 0 0 0.75 90.91667 284.50001] CT
0.149 GC
/Helvetica 13 F
GS
[1 0 0 1 0 0] CT
-8.5 13 moveto 
1 -1 scale
(20) t 
GR
GR
GS
[0.75 0 0 0.75 127.08333 284.50001] CT
0.149 GC
/Helvetica 13 F
GS
[1 0 0 1 0 0] CT
-8.5 13 moveto 
1 -1 scale
(40) t 
GR
GR
GS
[0.75 0 0 0.75 163.25 284.50001] CT
0.149 GC
/Helvetica 13 F
GS
[1 0 0 1 0 0] CT
-8.5 13 moveto 
1 -1 scale
(60) t 
GR
GR
GS
[0.75 0 0 0.75 199.41666 284.50001] CT
0.149 GC
/Helvetica 13 F
GS
[1 0 0 1 0 0] CT
-8.5 13 moveto 
1 -1 scale
(80) t 
GR
GR
GS
[0.75 0 0 0.75 235.58334 284.50001] CT
0.149 GC
/Helvetica 13 F
GS
[1 0 0 1 0 0] CT
-12.5 13 moveto 
1 -1 scale
(100) t 
GR
GR
GS
[0.75 0 0 0.75 271.75001 284.50001] CT
0.149 GC
/Helvetica 13 F
GS
[1 0 0 1 0 0] CT
-12.5 13 moveto 
1 -1 scale
(120) t 
GR
GR
GS
[0.75 0 0 0.75 307.91666 284.50001] CT
0.149 GC
/Helvetica 13 F
GS
[1 0 0 1 0 0] CT
-12.5 13 moveto 
1 -1 scale
(140) t 
GR
GR
GS
[0.75 0 0 0.75 344.08333 284.50001] CT
0.149 GC
/Helvetica 13 F
GS
[1 0 0 1 0 0] CT
-12.5 13 moveto 
1 -1 scale
(160) t 
GR
GR
GS
[0.75 0 0 0.75 380.25 284.50001] CT
0.149 GC
/Helvetica 13 F
GS
[1 0 0 1 0 0] CT
-12.5 13 moveto 
1 -1 scale
(180) t 
GR
GR
GS
[0 -0.75 0.75 0 21.75 179.25] CT
0.149 GC
/Helvetica 15 F
GS
[1 0 0 1 0 0] CT
0 0 moveto 
1 -1 scale
(V) t 
GR
GR
GS
[0 -0.75 0.75 0 27 171] CT
0.149 GC
/Helvetica 11 F
GS
[1 0 0 1 0 0] CT
0 0 moveto 
1 -1 scale
(2) t 
GR
GR
GS
[0 -0.75 0.75 0 21.75 165.75] CT
0.149 GC
/Helvetica 15 F
GS
[1 0 0 1 0 0] CT
0 0 moveto 
1 -1 scale
(C \(mol\)) t 
GR
GR
GS
[0.75 0 0 0.75 0 0] CT
0.149 GC
2 setlinecap
10.0 ML
N
73 374 M
73 31 L
S
GR
GS
[0.75 0 0 0.75 0 0] CT
0.149 GC
2 setlinecap
10.0 ML
N
507 374 M
507 31 L
S
GR
GS
[0.75 0 0 0.75 0 0] CT
0.149 GC
2 setlinecap
10.0 ML
N
73 374 M
77.34 374 L
S
GR
GS
[0.75 0 0 0.75 0 0] CT
0.149 GC
2 setlinecap
10.0 ML
N
73 331.125 M
77.34 331.125 L
S
GR
GS
[0.75 0 0 0.75 0 0] CT
0.149 GC
2 setlinecap
10.0 ML
N
73 288.25 M
77.34 288.25 L
S
GR
GS
[0.75 0 0 0.75 0 0] CT
0.149 GC
2 setlinecap
10.0 ML
N
73 245.375 M
77.34 245.375 L
S
GR
GS
[0.75 0 0 0.75 0 0] CT
0.149 GC
2 setlinecap
10.0 ML
N
73 202.5 M
77.34 202.5 L
S
GR
GS
[0.75 0 0 0.75 0 0] CT
0.149 GC
2 setlinecap
10.0 ML
N
73 159.625 M
77.34 159.625 L
S
GR
GS
[0.75 0 0 0.75 0 0] CT
0.149 GC
2 setlinecap
10.0 ML
N
73 116.75 M
77.34 116.75 L
S
GR
GS
[0.75 0 0 0.75 0 0] CT
0.149 GC
2 setlinecap
10.0 ML
N
73 73.875 M
77.34 73.875 L
S
GR
GS
[0.75 0 0 0.75 0 0] CT
0.149 GC
2 setlinecap
10.0 ML
N
73 31 M
77.34 31 L
S
GR
GS
[0.75 0 0 0.75 0 0] CT
0.149 GC
2 setlinecap
10.0 ML
N
507 374 M
502.66 374 L
S
GR
GS
[0.75 0 0 0.75 0 0] CT
0.149 GC
2 setlinecap
10.0 ML
N
507 331.125 M
502.66 331.125 L
S
GR
GS
[0.75 0 0 0.75 0 0] CT
0.149 GC
2 setlinecap
10.0 ML
N
507 288.25 M
502.66 288.25 L
S
GR
GS
[0.75 0 0 0.75 0 0] CT
0.149 GC
2 setlinecap
10.0 ML
N
507 245.375 M
502.66 245.375 L
S
GR
GS
[0.75 0 0 0.75 0 0] CT
0.149 GC
2 setlinecap
10.0 ML
N
507 202.5 M
502.66 202.5 L
S
GR
GS
[0.75 0 0 0.75 0 0] CT
0.149 GC
2 setlinecap
10.0 ML
N
507 159.625 M
502.66 159.625 L
S
GR
GS
[0.75 0 0 0.75 0 0] CT
0.149 GC
2 setlinecap
10.0 ML
N
507 116.75 M
502.66 116.75 L
S
GR
GS
[0.75 0 0 0.75 0 0] CT
0.149 GC
2 setlinecap
10.0 ML
N
507 73.875 M
502.66 73.875 L
S
GR
GS
[0.75 0 0 0.75 0 0] CT
0.149 GC
2 setlinecap
10.0 ML
N
507 31 M
502.66 31 L
S
GR
GS
[0.75 0 0 0.75 50.75 280.5] CT
0.149 GC
/Helvetica 13 F
GS
[1 0 0 1 0 0] CT
-9 4.5 moveto 
1 -1 scale
(0) t 
GR
GR
GS
[0.75 0 0 0.75 50.75 248.34375] CT
0.149 GC
/Helvetica 13 F
GS
[1 0 0 1 0 0] CT
-17 4.5 moveto 
1 -1 scale
(50) t 
GR
GR
GS
[0.75 0 0 0.75 50.75 216.1875] CT
0.149 GC
/Helvetica 13 F
GS
[1 0 0 1 0 0] CT
-25 4.5 moveto 
1 -1 scale
(100) t 
GR
GR
GS
[0.75 0 0 0.75 50.75 184.03125] CT
0.149 GC
/Helvetica 13 F
GS
[1 0 0 1 0 0] CT
-25 4.5 moveto 
1 -1 scale
(150) t 
GR
GR
GS
[0.75 0 0 0.75 50.75 151.875] CT
0.149 GC
/Helvetica 13 F
GS
[1 0 0 1 0 0] CT
-25 4.5 moveto 
1 -1 scale
(200) t 
GR
GR
GS
[0.75 0 0 0.75 50.75 119.71875] CT
0.149 GC
/Helvetica 13 F
GS
[1 0 0 1 0 0] CT
-25 4.5 moveto 
1 -1 scale
(250) t 
GR
GR
GS
[0.75 0 0 0.75 50.75 87.5625] CT
0.149 GC
/Helvetica 13 F
GS
[1 0 0 1 0 0] CT
-25 4.5 moveto 
1 -1 scale
(300) t 
GR
GR
GS
[0.75 0 0 0.75 50.75 55.40625] CT
0.149 GC
/Helvetica 13 F
GS
[1 0 0 1 0 0] CT
-25 4.5 moveto 
1 -1 scale
(350) t 
GR
GR
GS
[0.75 0 0 0.75 50.75 23.25] CT
0.149 GC
/Helvetica 13 F
GS
[1 0 0 1 0 0] CT
-25 4.5 moveto 
1 -1 scale
(400) t 
GR
GR
GS
[0.75 0 0 0.75 0 0] CT
0 0.447 0.741 RC
2 LJ
N
73 31 M
73.001 31.004 L
73.001 31.009 L
73.002 31.013 L
73.002 31.017 L
73.005 31.039 L
73.007 31.061 L
73.01 31.082 L
73.012 31.104 L
73.025 31.212 L
73.037 31.32 L
73.05 31.428 L
73.063 31.536 L
73.126 32.074 L
73.189 32.611 L
73.252 33.146 L
73.315 33.68 L
73.63 36.322 L
73.945 38.924 L
74.26 41.486 L
74.575 44.009 L
75.253 49.308 L
75.931 54.44 L
76.609 59.411 L
77.286 64.231 L
78.112 69.905 L
78.937 75.375 L
79.763 80.652 L
80.588 85.745 L
81.469 90.986 L
82.349 96.039 L
83.23 100.916 L
84.11 105.624 L
85.056 110.505 L
86.002 115.211 L
86.948 119.753 L
87.894 124.138 L
88.91 128.681 L
89.926 133.063 L
90.941 137.29 L
91.957 141.372 L
93.076 145.707 L
94.195 149.884 L
95.313 153.91 L
96.432 157.794 L
97.726 162.12 L
99.021 166.277 L
100.315 170.273 L
101.609 174.119 L
103.101 178.376 L
S
GR
GS
[0.75 0 0 0.75 0 0] CT
0 0.447 0.741 RC
2 LJ
N
103.101 178.376 M
104.593 182.455 L
106.085 186.368 L
107.577 190.124 L
109.298 194.273 L
111.019 198.239 L
112.739 202.034 L
114.46 205.668 L
116.446 209.676 L
118.431 213.498 L
120.417 217.145 L
122.403 220.631 L
124.698 224.472 L
126.993 228.125 L
129.288 231.603 L
131.584 234.92 L
134.241 238.573 L
136.899 242.038 L
139.556 245.331 L
142.214 248.463 L
145.298 251.912 L
148.383 255.177 L
151.467 258.272 L
154.551 261.209 L
158.139 264.445 L
161.728 267.5 L
165.316 270.389 L
168.905 273.126 L
172.955 276.046 L
177.006 278.802 L
181.057 281.407 L
185.107 283.874 L
189.638 286.482 L
194.169 288.943 L
198.699 291.269 L
203.23 293.471 L
208.301 295.801 L
213.372 298 L
218.443 300.079 L
223.514 302.047 L
229.189 304.129 L
234.864 306.094 L
240.539 307.951 L
246.215 309.709 L
252.483 311.546 L
258.752 313.281 L
265.021 314.922 L
271.29 316.476 L
277.559 317.951 L
283.828 319.352 L
S
GR
GS
[0.75 0 0 0.75 0 0] CT
0 0.447 0.741 RC
2 LJ
N
283.828 319.352 M
290.097 320.685 L
296.366 321.954 L
303.213 323.273 L
310.061 324.527 L
316.908 325.72 L
323.756 326.858 L
323.756 350.429 L
323.756 350.429 L
323.757 350.429 L
323.758 350.429 L
323.759 350.429 L
323.763 350.429 L
323.768 350.429 L
323.772 350.429 L
323.776 350.429 L
323.798 350.429 L
323.82 350.429 L
323.841 350.429 L
323.863 350.429 L
323.971 350.429 L
324.079 350.429 L
324.187 350.429 L
324.295 350.429 L
324.674 350.429 L
325.053 350.429 L
325.431 350.429 L
325.81 350.429 L
326.31 350.429 L
326.811 350.429 L
327.311 350.429 L
327.811 350.429 L
328.409 350.429 L
329.007 350.429 L
329.604 350.429 L
330.202 350.429 L
330.893 350.429 L
331.583 350.429 L
332.274 350.429 L
332.964 350.429 L
333.75 350.429 L
334.535 350.429 L
335.32 350.429 L
336.106 350.429 L
336.991 350.429 L
337.875 350.429 L
338.76 350.429 L
339.645 350.429 L
340.636 350.429 L
341.627 350.429 L
S
GR
GS
[0.75 0 0 0.75 0 0] CT
0 0.447 0.741 RC
2 LJ
N
341.627 350.429 M
342.617 350.429 L
343.608 350.429 L
344.712 350.429 L
345.817 350.429 L
346.921 350.429 L
348.025 350.429 L
349.211 350.429 L
350.398 350.429 L
351.584 350.429 L
352.771 350.429 L
354.022 350.429 L
355.273 350.429 L
356.524 350.429 L
357.775 350.429 L
359.089 350.429 L
360.402 350.429 L
361.715 350.429 L
363.029 350.429 L
364.4 350.429 L
365.772 350.429 L
367.143 350.429 L
368.515 350.429 L
369.94 350.429 L
371.366 350.429 L
372.791 350.429 L
374.216 350.429 L
375.69 350.429 L
377.165 350.429 L
378.639 350.429 L
380.113 350.429 L
381.632 350.429 L
383.15 350.429 L
384.668 350.429 L
386.187 350.429 L
387.744 350.429 L
389.301 350.429 L
390.859 350.429 L
392.416 350.429 L
394.008 350.429 L
395.599 350.429 L
397.191 350.429 L
398.782 350.429 L
400.404 350.429 L
402.025 350.429 L
403.646 350.429 L
405.268 350.429 L
406.914 350.429 L
408.561 350.429 L
410.208 350.429 L
S
GR
GS
[0.75 0 0 0.75 0 0] CT
0 0.447 0.741 RC
2 LJ
N
410.208 350.429 M
411.855 350.429 L
413.524 350.429 L
415.192 350.429 L
416.861 350.429 L
418.53 350.429 L
420.217 350.429 L
421.904 350.429 L
423.591 350.429 L
425.278 350.429 L
426.981 350.429 L
428.683 350.429 L
430.386 350.429 L
432.089 350.429 L
433.804 350.429 L
435.52 350.429 L
437.235 350.429 L
438.951 350.429 L
440.677 350.429 L
442.404 350.429 L
444.13 350.429 L
445.857 350.429 L
447.592 350.429 L
449.327 350.429 L
451.063 350.429 L
452.798 350.429 L
454.541 350.429 L
456.284 350.429 L
458.026 350.429 L
459.769 350.429 L
461.518 350.429 L
463.267 350.429 L
465.016 350.429 L
466.765 350.429 L
468.519 350.429 L
470.272 350.429 L
472.026 350.429 L
473.78 350.429 L
475.538 350.429 L
477.296 350.429 L
479.054 350.429 L
480.812 350.429 L
482.574 350.429 L
484.335 350.429 L
486.096 350.429 L
487.858 350.429 L
489.622 350.429 L
491.386 350.429 L
493.15 350.429 L
494.914 350.429 L
S
GR
GS
[0.75 0 0 0.75 0 0] CT
0 0.447 0.741 RC
2 LJ
N
494.914 350.429 M
496.681 350.429 L
498.447 350.429 L
500.214 350.429 L
501.98 350.429 L
503.235 350.429 L
504.49 350.429 L
505.745 350.429 L
507 350.429 L
S
GR
GS
[0.75 0 0 0.75 0 0] CT
0.851 0.325 0.098 RC
2 LJ
N
73 374 M
73.001 373.998 L
73.001 373.996 L
73.002 373.993 L
73.002 373.991 L
73.005 373.981 L
73.007 373.97 L
73.01 373.959 L
73.012 373.948 L
73.025 373.894 L
73.037 373.84 L
73.05 373.786 L
73.063 373.732 L
73.126 373.463 L
73.189 373.194 L
73.252 372.927 L
73.315 372.66 L
73.63 371.339 L
73.945 370.039 L
74.26 368.758 L
74.575 367.497 L
75.253 364.849 L
75.931 362.286 L
76.609 359.803 L
77.286 357.397 L
78.112 354.565 L
78.937 351.835 L
79.763 349.203 L
80.588 346.664 L
81.469 344.052 L
82.349 341.534 L
83.23 339.106 L
84.11 336.762 L
85.056 334.333 L
86.002 331.993 L
86.948 329.736 L
87.894 327.557 L
88.91 325.301 L
89.926 323.127 L
90.941 321.031 L
91.957 319.008 L
93.076 316.861 L
94.195 314.795 L
95.313 312.804 L
96.432 310.885 L
97.726 308.749 L
99.021 306.699 L
100.315 304.73 L
101.609 302.837 L
103.101 300.744 L
S
GR
GS
[0.75 0 0 0.75 0 0] CT
0.851 0.325 0.098 RC
2 LJ
N
103.101 300.744 M
104.593 298.741 L
106.085 296.822 L
107.577 294.982 L
109.298 292.953 L
111.019 291.017 L
112.739 289.167 L
114.46 287.399 L
116.446 285.452 L
118.431 283.6 L
120.417 281.836 L
122.403 280.154 L
124.698 278.305 L
126.993 276.552 L
129.288 274.887 L
131.584 273.304 L
134.241 271.567 L
136.899 269.925 L
139.556 268.371 L
142.214 266.898 L
145.298 265.283 L
148.383 263.762 L
151.467 262.327 L
154.551 260.973 L
158.139 259.49 L
161.728 258.099 L
165.316 256.792 L
168.905 255.563 L
172.955 254.262 L
177.006 253.045 L
181.057 251.905 L
185.107 250.835 L
189.638 249.716 L
194.169 248.672 L
198.699 247.697 L
203.23 246.785 L
208.301 245.834 L
213.372 244.95 L
218.443 244.127 L
223.514 243.361 L
229.189 242.565 L
234.864 241.83 L
240.539 241.149 L
246.215 240.519 L
252.483 239.877 L
258.752 239.288 L
265.021 238.747 L
271.29 238.25 L
277.559 237.793 L
283.828 237.375 L
S
GR
GS
[0.75 0 0 0.75 0 0] CT
0.851 0.325 0.098 RC
2 LJ
N
283.828 237.375 M
290.097 236.992 L
296.366 236.641 L
303.213 236.292 L
310.061 235.976 L
316.908 235.692 L
323.756 235.436 L
323.756 253.268 L
323.756 253.273 L
323.757 253.279 L
323.758 253.284 L
323.759 253.29 L
323.763 253.317 L
323.768 253.344 L
323.772 253.372 L
323.776 253.399 L
323.798 253.535 L
323.82 253.671 L
323.841 253.807 L
323.863 253.943 L
323.971 254.618 L
324.079 255.288 L
324.187 255.952 L
324.295 256.611 L
324.674 258.88 L
325.053 261.086 L
325.431 263.233 L
325.81 265.322 L
326.31 267.996 L
326.811 270.578 L
327.311 273.073 L
327.811 275.484 L
328.409 278.26 L
329.007 280.928 L
329.604 283.494 L
330.202 285.965 L
330.893 288.705 L
331.583 291.331 L
332.274 293.848 L
332.964 296.264 L
333.75 298.893 L
334.535 301.405 L
335.32 303.807 L
336.106 306.105 L
336.991 308.578 L
337.875 310.934 L
338.76 313.182 L
339.645 315.328 L
340.636 317.616 L
341.627 319.793 L
S
GR
GS
[0.75 0 0 0.75 0 0] CT
0.851 0.325 0.098 RC
2 LJ
N
341.627 319.793 M
342.617 321.864 L
343.608 323.836 L
344.712 325.926 L
345.817 327.908 L
346.921 329.791 L
348.025 331.58 L
349.211 333.405 L
350.398 335.135 L
351.584 336.777 L
352.771 338.337 L
354.022 339.898 L
355.273 341.379 L
356.524 342.785 L
357.775 344.12 L
359.089 345.451 L
360.402 346.713 L
361.715 347.911 L
363.029 349.05 L
364.4 350.178 L
365.772 351.249 L
367.143 352.266 L
368.515 353.232 L
369.94 354.185 L
371.366 355.089 L
372.791 355.948 L
374.216 356.764 L
375.69 357.565 L
377.165 358.326 L
378.639 359.048 L
380.113 359.734 L
381.632 360.405 L
383.15 361.042 L
384.668 361.646 L
386.187 362.221 L
387.744 362.781 L
389.301 363.312 L
390.859 363.816 L
392.416 364.296 L
394.008 364.761 L
395.599 365.203 L
397.191 365.622 L
398.782 366.02 L
400.404 366.406 L
402.025 366.772 L
403.646 367.12 L
405.268 367.45 L
406.914 367.768 L
408.561 368.071 L
410.208 368.358 L
S
GR
GS
[0.75 0 0 0.75 0 0] CT
0.851 0.325 0.098 RC
2 LJ
N
410.208 368.358 M
411.855 368.631 L
413.524 368.893 L
415.192 369.143 L
416.861 369.379 L
418.53 369.604 L
420.217 369.82 L
421.904 370.025 L
423.591 370.22 L
425.278 370.405 L
426.981 370.582 L
428.683 370.751 L
430.386 370.911 L
432.089 371.063 L
433.804 371.208 L
435.52 371.346 L
437.235 371.477 L
438.951 371.602 L
440.677 371.721 L
442.404 371.834 L
444.13 371.941 L
445.857 372.043 L
447.592 372.14 L
449.327 372.233 L
451.063 372.321 L
452.798 372.404 L
454.541 372.484 L
456.284 372.559 L
458.026 372.631 L
459.769 372.699 L
461.518 372.764 L
463.267 372.826 L
465.016 372.884 L
466.765 372.94 L
468.519 372.993 L
470.272 373.043 L
472.026 373.091 L
473.78 373.136 L
475.538 373.18 L
477.296 373.221 L
479.054 373.26 L
480.812 373.297 L
482.574 373.332 L
484.335 373.365 L
486.096 373.397 L
487.858 373.427 L
489.622 373.456 L
491.386 373.483 L
493.15 373.509 L
494.914 373.534 L
S
GR
GS
[0.75 0 0 0.75 0 0] CT
0.851 0.325 0.098 RC
2 LJ
N
494.914 373.534 M
496.681 373.557 L
498.447 373.579 L
500.214 373.6 L
501.98 373.62 L
503.235 373.634 L
504.49 373.647 L
505.745 373.66 L
507 373.672 L
S
GR
GS
[0.75 0 0 0.75 0 0] CT
0.929 0.694 0.125 RC
2 LJ
N
73 374 M
73.001 374 L
73.001 374 L
73.002 374 L
73.002 374 L
73.005 374 L
73.007 374 L
73.01 374 L
73.012 374 L
73.025 374 L
73.037 374 L
73.05 374 L
73.063 374 L
73.126 374 L
73.189 374 L
73.252 374 L
73.315 374 L
73.63 374 L
73.945 373.999 L
74.26 373.999 L
74.575 373.998 L
75.253 373.997 L
75.931 373.994 L
76.609 373.991 L
77.286 373.988 L
78.112 373.983 L
78.937 373.977 L
79.763 373.971 L
80.588 373.964 L
81.469 373.955 L
82.349 373.946 L
83.23 373.937 L
84.11 373.926 L
85.056 373.914 L
86.002 373.901 L
86.948 373.888 L
87.894 373.874 L
88.91 373.858 L
89.926 373.841 L
90.941 373.824 L
91.957 373.806 L
93.076 373.785 L
94.195 373.764 L
95.313 373.741 L
96.432 373.718 L
97.726 373.691 L
99.021 373.663 L
100.315 373.633 L
101.609 373.604 L
103.101 373.568 L
S
GR
GS
[0.75 0 0 0.75 0 0] CT
0.929 0.694 0.125 RC
2 LJ
N
103.101 373.568 M
104.593 373.531 L
106.085 373.494 L
107.577 373.455 L
109.298 373.41 L
111.019 373.363 L
112.739 373.316 L
114.46 373.267 L
116.446 373.21 L
118.431 373.151 L
120.417 373.091 L
122.403 373.03 L
124.698 372.959 L
126.993 372.886 L
129.288 372.811 L
131.584 372.736 L
134.241 372.647 L
136.899 372.556 L
139.556 372.464 L
142.214 372.371 L
145.298 372.261 L
148.383 372.15 L
151.467 372.037 L
154.551 371.922 L
158.139 371.788 L
161.728 371.651 L
165.316 371.513 L
168.905 371.374 L
172.955 371.215 L
177.006 371.054 L
181.057 370.892 L
185.107 370.728 L
189.638 370.543 L
194.169 370.356 L
198.699 370.168 L
203.23 369.979 L
208.301 369.765 L
213.372 369.55 L
218.443 369.334 L
223.514 369.116 L
229.189 368.87 L
234.864 368.624 L
240.539 368.376 L
246.215 368.126 L
252.483 367.85 L
258.752 367.572 L
265.021 367.292 L
271.29 367.012 L
277.559 366.731 L
283.828 366.449 L
S
GR
GS
[0.75 0 0 0.75 0 0] CT
0.929 0.694 0.125 RC
2 LJ
N
283.828 366.449 M
290.097 366.166 L
296.366 365.882 L
303.213 365.572 L
310.061 365.26 L
316.908 364.948 L
323.756 364.636 L
323.756 369.318 L
323.756 369.318 L
323.757 369.318 L
323.758 369.318 L
323.759 369.318 L
323.763 369.318 L
323.768 369.318 L
323.772 369.318 L
323.776 369.318 L
323.798 369.318 L
323.82 369.318 L
323.841 369.318 L
323.863 369.318 L
323.971 369.318 L
324.079 369.318 L
324.187 369.318 L
324.295 369.318 L
324.674 369.318 L
325.053 369.318 L
325.431 369.318 L
325.81 369.318 L
326.31 369.318 L
326.811 369.318 L
327.311 369.318 L
327.811 369.318 L
328.409 369.318 L
329.007 369.318 L
329.604 369.318 L
330.202 369.318 L
330.893 369.318 L
331.583 369.318 L
332.274 369.318 L
332.964 369.318 L
333.75 369.318 L
334.535 369.318 L
335.32 369.318 L
336.106 369.318 L
336.991 369.318 L
337.875 369.318 L
338.76 369.318 L
339.645 369.318 L
340.636 369.318 L
341.627 369.318 L
S
GR
GS
[0.75 0 0 0.75 0 0] CT
0.929 0.694 0.125 RC
2 LJ
N
341.627 369.318 M
342.617 369.318 L
343.608 369.318 L
344.712 369.318 L
345.817 369.318 L
346.921 369.318 L
348.025 369.318 L
349.211 369.318 L
350.398 369.318 L
351.584 369.318 L
352.771 369.318 L
354.022 369.318 L
355.273 369.318 L
356.524 369.318 L
357.775 369.318 L
359.089 369.318 L
360.402 369.318 L
361.715 369.318 L
363.029 369.318 L
364.4 369.318 L
365.772 369.318 L
367.143 369.318 L
368.515 369.318 L
369.94 369.318 L
371.366 369.318 L
372.791 369.318 L
374.216 369.318 L
375.69 369.318 L
377.165 369.318 L
378.639 369.318 L
380.113 369.318 L
381.632 369.318 L
383.15 369.318 L
384.668 369.318 L
386.187 369.318 L
387.744 369.318 L
389.301 369.318 L
390.859 369.318 L
392.416 369.318 L
394.008 369.318 L
395.599 369.318 L
397.191 369.318 L
398.782 369.318 L
400.404 369.318 L
402.025 369.318 L
403.646 369.318 L
405.268 369.318 L
406.914 369.318 L
408.561 369.318 L
410.208 369.318 L
S
GR
GS
[0.75 0 0 0.75 0 0] CT
0.929 0.694 0.125 RC
2 LJ
N
410.208 369.318 M
411.855 369.318 L
413.524 369.318 L
415.192 369.318 L
416.861 369.318 L
418.53 369.318 L
420.217 369.318 L
421.904 369.318 L
423.591 369.318 L
425.278 369.318 L
426.981 369.318 L
428.683 369.318 L
430.386 369.318 L
432.089 369.318 L
433.804 369.318 L
435.52 369.318 L
437.235 369.318 L
438.951 369.318 L
440.677 369.318 L
442.404 369.318 L
444.13 369.318 L
445.857 369.318 L
447.592 369.318 L
449.327 369.318 L
451.063 369.318 L
452.798 369.318 L
454.541 369.318 L
456.284 369.318 L
458.026 369.318 L
459.769 369.318 L
461.518 369.318 L
463.267 369.318 L
465.016 369.318 L
466.765 369.318 L
468.519 369.318 L
470.272 369.318 L
472.026 369.318 L
473.78 369.318 L
475.538 369.318 L
477.296 369.318 L
479.054 369.318 L
480.812 369.318 L
482.574 369.318 L
484.335 369.318 L
486.096 369.318 L
487.858 369.318 L
489.622 369.318 L
491.386 369.318 L
493.15 369.318 L
494.914 369.318 L
S
GR
GS
[0.75 0 0 0.75 0 0] CT
0.929 0.694 0.125 RC
2 LJ
N
494.914 369.318 M
496.681 369.318 L
498.447 369.318 L
500.214 369.318 L
501.98 369.318 L
503.235 369.318 L
504.49 369.318 L
505.745 369.318 L
507 369.318 L
S
GR
GS
[0.75 0 0 0.75 217.50021 21.1875] CT
/Helvetica-Bold 15 F
GS
[1 0 0 1 0 0] CT
-71.5 -4 moveto 
1 -1 scale
(Reaction stage 1) t 
GR
GR
GS
[0.75 0 0 0.75 0 0] CT
1 GC
N
422 114 M
422 44 L
494 44 L
494 114 L
cp
f
GR
GS
[0.75 0 0 0.75 355.5 44.25] CT
/Helvetica 12 F
GS
[1 0 0 1 0 0] CT
0 0 moveto 
1 -1 scale
(C) t 
GR
GR
GS
[0.75 0 0 0.75 362.25 48.75] CT
/Helvetica 9 F
GS
[1 0 0 1 0 0] CT
0 0 moveto 
1 -1 scale
(A) t 
GR
GR
GS
[0.75 0 0 0.75 0 0] CT
0 0.447 0.741 RC
2 LJ
N
430 57.23 M
470 57.23 L
S
GR
GS
[0.75 0 0 0.75 355.5 60.75] CT
/Helvetica 12 F
GS
[1 0 0 1 0 0] CT
0 0 moveto 
1 -1 scale
(C) t 
GR
GR
GS
[0.75 0 0 0.75 362.25 65.25] CT
/Helvetica 9 F
GS
[1 0 0 1 0 0] CT
0 0 moveto 
1 -1 scale
(B) t 
GR
GR
GS
[0.75 0 0 0.75 0 0] CT
0.851 0.325 0.098 RC
2 LJ
N
430 79 M
470 79 L
S
GR
GS
[0.75 0 0 0.75 355.5 77.25] CT
/Helvetica 12 F
GS
[1 0 0 1 0 0] CT
0 0 moveto 
1 -1 scale
(C) t 
GR
GR
GS
[0.75 0 0 0.75 362.25 81.75] CT
/Helvetica 9 F
GS
[1 0 0 1 0 0] CT
0 0 moveto 
1 -1 scale
(C) t 
GR
GR
GS
[0.75 0 0 0.75 0 0] CT
0.929 0.694 0.125 RC
2 LJ
N
430 100.77 M
470 100.77 L
S
GR
GS
[0.75 0 0 0.75 0 0] CT
0.149 GC
2 LJ
N
422 114 M
422 44 L
494 44 L
494 114 L
422 114 L
S
GR
%%Trailer
%%Pages: 1
%%EOF
