%!PS-Adobe-3.0 EPSF-3.0
%%Creator: (MATLAB, The Mathworks, Inc. Version 8.5.0.197613 \(R2015a\). Operating System: Linux)
%%Title: (/home/lukas/Dropbox/Universidad/Master/Control Theory/lab3/raport/chapter3/figures/C1\(t\).eps)
%%CreationDate: 2016-03-24T15:44:42
%%Pages: (atend)
%%BoundingBox: 0 0 420 315
%%LanguageLevel: 2
%%EndComments
%%BeginProlog
%%BeginResource: procset (Apache XML Graphics Std ProcSet) 1.2 0
%%Version: 1.2 0
%%Copyright: (Copyright 2001-2003,2010 The Apache Software Foundation. License terms: http://www.apache.org/licenses/LICENSE-2.0)
/bd{bind def}bind def
/ld{load def}bd
/GR/grestore ld
/M/moveto ld
/LJ/setlinejoin ld
/C/curveto ld
/f/fill ld
/LW/setlinewidth ld
/GC/setgray ld
/t/show ld
/N/newpath ld
/CT/concat ld
/cp/closepath ld
/S/stroke ld
/L/lineto ld
/CC/setcmykcolor ld
/A/ashow ld
/GS/gsave ld
/RC/setrgbcolor ld
/RM/rmoveto ld
/ML/setmiterlimit ld
/re {4 2 roll M
1 index 0 rlineto
0 exch rlineto
neg 0 rlineto
cp } bd
/_ctm matrix def
/_tm matrix def
/BT { _ctm currentmatrix pop matrix _tm copy pop 0 0 moveto } bd
/ET { _ctm setmatrix } bd
/iTm { _ctm setmatrix _tm concat } bd
/Tm { _tm astore pop iTm 0 0 moveto } bd
/ux 0.0 def
/uy 0.0 def
/F {
  /Tp exch def
  /Tf exch def
  Tf findfont Tp scalefont setfont
  /cf Tf def  /cs Tp def
} bd
/ULS {currentpoint /uy exch def /ux exch def} bd
/ULE {
  /Tcx currentpoint pop def
  gsave
  newpath
  cf findfont cs scalefont dup
  /FontMatrix get 0 get /Ts exch def /FontInfo get dup
  /UnderlinePosition get Ts mul /To exch def
  /UnderlineThickness get Ts mul /Tt exch def
  ux uy To add moveto  Tcx uy To add lineto
  Tt setlinewidth stroke
  grestore
} bd
/OLE {
  /Tcx currentpoint pop def
  gsave
  newpath
  cf findfont cs scalefont dup
  /FontMatrix get 0 get /Ts exch def /FontInfo get dup
  /UnderlinePosition get Ts mul /To exch def
  /UnderlineThickness get Ts mul /Tt exch def
  ux uy To add cs add moveto Tcx uy To add cs add lineto
  Tt setlinewidth stroke
  grestore
} bd
/SOE {
  /Tcx currentpoint pop def
  gsave
  newpath
  cf findfont cs scalefont dup
  /FontMatrix get 0 get /Ts exch def /FontInfo get dup
  /UnderlinePosition get Ts mul /To exch def
  /UnderlineThickness get Ts mul /Tt exch def
  ux uy To add cs 10 mul 26 idiv add moveto Tcx uy To add cs 10 mul 26 idiv add lineto
  Tt setlinewidth stroke
  grestore
} bd
/QT {
/Y22 exch store
/X22 exch store
/Y21 exch store
/X21 exch store
currentpoint
/Y21 load 2 mul add 3 div exch
/X21 load 2 mul add 3 div exch
/X21 load 2 mul /X22 load add 3 div
/Y21 load 2 mul /Y22 load add 3 div
/X22 load /Y22 load curveto
} bd
/SSPD {
dup length /d exch dict def
{
/v exch def
/k exch def
currentpagedevice k known {
/cpdv currentpagedevice k get def
v cpdv ne {
/upd false def
/nullv v type /nulltype eq def
/nullcpdv cpdv type /nulltype eq def
nullv nullcpdv or
{
/upd true def
} {
/sametype v type cpdv type eq def
sametype {
v type /arraytype eq {
/vlen v length def
/cpdvlen cpdv length def
vlen cpdvlen eq {
0 1 vlen 1 sub {
/i exch def
/obj v i get def
/cpdobj cpdv i get def
obj cpdobj ne {
/upd true def
exit
} if
} for
} {
/upd true def
} ifelse
} {
v type /dicttype eq {
v {
/dv exch def
/dk exch def
/cpddv cpdv dk get def
dv cpddv ne {
/upd true def
exit
} if
} forall
} {
/upd true def
} ifelse
} ifelse
} if
} ifelse
upd true eq {
d k v put
} if
} if
} if
} forall
d length 0 gt {
d setpagedevice
} if
} bd
%%EndResource
%%BeginResource: procset (Apache XML Graphics EPS ProcSet) 1.0 0
%%Version: 1.0 0
%%Copyright: (Copyright 2002-2003 The Apache Software Foundation. License terms: http://www.apache.org/licenses/LICENSE-2.0)
/BeginEPSF { %def
/b4_Inc_state save def         % Save state for cleanup
/dict_count countdictstack def % Count objects on dict stack
/op_count count 1 sub def      % Count objects on operand stack
userdict begin                 % Push userdict on dict stack
/showpage { } def              % Redefine showpage, { } = null proc
0 setgray 0 setlinecap         % Prepare graphics state
1 setlinewidth 0 setlinejoin
10 setmiterlimit [ ] 0 setdash newpath
/languagelevel where           % If level not equal to 1 then
{pop languagelevel             % set strokeadjust and
1 ne                           % overprint to their defaults.
{false setstrokeadjust false setoverprint
} if
} if
} bd
/EndEPSF { %def
count op_count sub {pop} repeat            % Clean up stacks
countdictstack dict_count sub {end} repeat
b4_Inc_state restore
} bd
%%EndResource
%FOPBeginFontDict
%%IncludeResource: font Courier-Bold
%%IncludeResource: font Helvetica
%%IncludeResource: font Courier-BoldOblique
%%IncludeResource: font Courier-Oblique
%%IncludeResource: font Times-Roman
%%IncludeResource: font Helvetica-BoldOblique
%%IncludeResource: font Helvetica-Bold
%%IncludeResource: font Helvetica-Oblique
%%IncludeResource: font Times-BoldItalic
%%IncludeResource: font Courier
%%IncludeResource: font Times-Italic
%%IncludeResource: font Times-Bold
%%IncludeResource: font Symbol
%%IncludeResource: font ZapfDingbats
%FOPEndFontDict
%%BeginResource: encoding WinAnsiEncoding
/WinAnsiEncoding [
/.notdef /.notdef /.notdef /.notdef /.notdef
/.notdef /.notdef /.notdef /.notdef /.notdef
/.notdef /.notdef /.notdef /.notdef /.notdef
/.notdef /.notdef /.notdef /.notdef /.notdef
/.notdef /.notdef /.notdef /.notdef /.notdef
/.notdef /.notdef /.notdef /.notdef /.notdef
/.notdef /.notdef /space /exclam /quotedbl
/numbersign /dollar /percent /ampersand /quotesingle
/parenleft /parenright /asterisk /plus /comma
/hyphen /period /slash /zero /one
/two /three /four /five /six
/seven /eight /nine /colon /semicolon
/less /equal /greater /question /at
/A /B /C /D /E
/F /G /H /I /J
/K /L /M /N /O
/P /Q /R /S /T
/U /V /W /X /Y
/Z /bracketleft /backslash /bracketright /asciicircum
/underscore /quoteleft /a /b /c
/d /e /f /g /h
/i /j /k /l /m
/n /o /p /q /r
/s /t /u /v /w
/x /y /z /braceleft /bar
/braceright /asciitilde /bullet /Euro /bullet
/quotesinglbase /florin /quotedblbase /ellipsis /dagger
/daggerdbl /circumflex /perthousand /Scaron /guilsinglleft
/OE /bullet /Zcaron /bullet /bullet
/quoteleft /quoteright /quotedblleft /quotedblright /bullet
/endash /emdash /asciitilde /trademark /scaron
/guilsinglright /oe /bullet /zcaron /Ydieresis
/space /exclamdown /cent /sterling /currency
/yen /brokenbar /section /dieresis /copyright
/ordfeminine /guillemotleft /logicalnot /sfthyphen /registered
/macron /degree /plusminus /twosuperior /threesuperior
/acute /mu /paragraph /middot /cedilla
/onesuperior /ordmasculine /guillemotright /onequarter /onehalf
/threequarters /questiondown /Agrave /Aacute /Acircumflex
/Atilde /Adieresis /Aring /AE /Ccedilla
/Egrave /Eacute /Ecircumflex /Edieresis /Igrave
/Iacute /Icircumflex /Idieresis /Eth /Ntilde
/Ograve /Oacute /Ocircumflex /Otilde /Odieresis
/multiply /Oslash /Ugrave /Uacute /Ucircumflex
/Udieresis /Yacute /Thorn /germandbls /agrave
/aacute /acircumflex /atilde /adieresis /aring
/ae /ccedilla /egrave /eacute /ecircumflex
/edieresis /igrave /iacute /icircumflex /idieresis
/eth /ntilde /ograve /oacute /ocircumflex
/otilde /odieresis /divide /oslash /ugrave
/uacute /ucircumflex /udieresis /yacute /thorn
/ydieresis
] def
%%EndResource
%FOPBeginFontReencode
/Courier-Bold findfont
dup length dict begin
  {1 index /FID ne {def} {pop pop} ifelse} forall
  /Encoding WinAnsiEncoding def
  currentdict
end
/Courier-Bold exch definefont pop
/Helvetica findfont
dup length dict begin
  {1 index /FID ne {def} {pop pop} ifelse} forall
  /Encoding WinAnsiEncoding def
  currentdict
end
/Helvetica exch definefont pop
/Courier-BoldOblique findfont
dup length dict begin
  {1 index /FID ne {def} {pop pop} ifelse} forall
  /Encoding WinAnsiEncoding def
  currentdict
end
/Courier-BoldOblique exch definefont pop
/Courier-Oblique findfont
dup length dict begin
  {1 index /FID ne {def} {pop pop} ifelse} forall
  /Encoding WinAnsiEncoding def
  currentdict
end
/Courier-Oblique exch definefont pop
/Times-Roman findfont
dup length dict begin
  {1 index /FID ne {def} {pop pop} ifelse} forall
  /Encoding WinAnsiEncoding def
  currentdict
end
/Times-Roman exch definefont pop
/Helvetica-BoldOblique findfont
dup length dict begin
  {1 index /FID ne {def} {pop pop} ifelse} forall
  /Encoding WinAnsiEncoding def
  currentdict
end
/Helvetica-BoldOblique exch definefont pop
/Helvetica-Bold findfont
dup length dict begin
  {1 index /FID ne {def} {pop pop} ifelse} forall
  /Encoding WinAnsiEncoding def
  currentdict
end
/Helvetica-Bold exch definefont pop
/Helvetica-Oblique findfont
dup length dict begin
  {1 index /FID ne {def} {pop pop} ifelse} forall
  /Encoding WinAnsiEncoding def
  currentdict
end
/Helvetica-Oblique exch definefont pop
/Times-BoldItalic findfont
dup length dict begin
  {1 index /FID ne {def} {pop pop} ifelse} forall
  /Encoding WinAnsiEncoding def
  currentdict
end
/Times-BoldItalic exch definefont pop
/Courier findfont
dup length dict begin
  {1 index /FID ne {def} {pop pop} ifelse} forall
  /Encoding WinAnsiEncoding def
  currentdict
end
/Courier exch definefont pop
/Times-Italic findfont
dup length dict begin
  {1 index /FID ne {def} {pop pop} ifelse} forall
  /Encoding WinAnsiEncoding def
  currentdict
end
/Times-Italic exch definefont pop
/Times-Bold findfont
dup length dict begin
  {1 index /FID ne {def} {pop pop} ifelse} forall
  /Encoding WinAnsiEncoding def
  currentdict
end
/Times-Bold exch definefont pop
%FOPEndFontReencode
%%EndProlog
%%Page: 1 1
%%PageBoundingBox: 0 0 420 315
%%BeginPageSetup
[1 0 0 -1 0 315] CT
%%EndPageSetup
GS
[0.75 0 0 0.75 0 0] CT
1 GC
N
0 0 560 420 re
f
GR
GS
[0.75 0 0 0.75 0 0] CT
1 GC
N
0 0 560 420 re
f
GR
GS
[0.75 0 0 0.75 0 0] CT
1 GC
N
73 374 M
507 374 L
507 31 L
73 31 L
cp
f
GR
GS
[0.75 0 0 0.75 0 0] CT
0.873 GC
2 setlinecap
10.0 ML
N
73 374 M
73 31 L
S
GR
GS
[0.75 0 0 0.75 0 0] CT
0.873 GC
2 setlinecap
10.0 ML
N
121.222 374 M
121.222 31 L
S
GR
GS
[0.75 0 0 0.75 0 0] CT
0.873 GC
2 setlinecap
10.0 ML
N
169.444 374 M
169.444 31 L
S
GR
GS
[0.75 0 0 0.75 0 0] CT
0.873 GC
2 setlinecap
10.0 ML
N
217.667 374 M
217.667 31 L
S
GR
GS
[0.75 0 0 0.75 0 0] CT
0.873 GC
2 setlinecap
10.0 ML
N
265.889 374 M
265.889 31 L
S
GR
GS
[0.75 0 0 0.75 0 0] CT
0.873 GC
2 setlinecap
10.0 ML
N
314.111 374 M
314.111 31 L
S
GR
GS
[0.75 0 0 0.75 0 0] CT
0.873 GC
2 setlinecap
10.0 ML
N
362.333 374 M
362.333 31 L
S
GR
GS
[0.75 0 0 0.75 0 0] CT
0.873 GC
2 setlinecap
10.0 ML
N
410.556 374 M
410.556 31 L
S
GR
GS
[0.75 0 0 0.75 0 0] CT
0.873 GC
2 setlinecap
10.0 ML
N
458.778 374 M
458.778 31 L
S
GR
GS
[0.75 0 0 0.75 0 0] CT
0.873 GC
2 setlinecap
10.0 ML
N
507 374 M
507 31 L
S
GR
GS
[0.75 0 0 0.75 0 0] CT
0.873 GC
2 setlinecap
10.0 ML
N
507 374 M
73 374 L
S
GR
GS
[0.75 0 0 0.75 0 0] CT
0.873 GC
2 setlinecap
10.0 ML
N
507 325 M
73 325 L
S
GR
GS
[0.75 0 0 0.75 0 0] CT
0.873 GC
2 setlinecap
10.0 ML
N
507 276 M
73 276 L
S
GR
GS
[0.75 0 0 0.75 0 0] CT
0.873 GC
2 setlinecap
10.0 ML
N
507 227 M
73 227 L
S
GR
GS
[0.75 0 0 0.75 0 0] CT
0.873 GC
2 setlinecap
10.0 ML
N
507 178 M
73 178 L
S
GR
GS
[0.75 0 0 0.75 0 0] CT
0.873 GC
2 setlinecap
10.0 ML
N
507 129 M
73 129 L
S
GR
GS
[0.75 0 0 0.75 0 0] CT
0.873 GC
2 setlinecap
10.0 ML
N
507 80 M
73 80 L
S
GR
GS
[0.75 0 0 0.75 0 0] CT
0.873 GC
2 setlinecap
10.0 ML
N
507 31 M
73 31 L
S
GR
GS
[0.75 0 0 0.75 217.50016 298.24999] CT
0.149 GC
/Helvetica 15 F
GS
[1 0 0 1 0 0] CT
-39.5 14 moveto 
1 -1 scale
(time \(min\)) t 
GR
GR
GS
[0.75 0 0 0.75 0 0] CT
0.149 GC
2 setlinecap
10.0 ML
N
73 374 M
507 374 L
S
GR
GS
[0.75 0 0 0.75 0 0] CT
0.149 GC
2 setlinecap
10.0 ML
N
73 31 M
507 31 L
S
GR
GS
[0.75 0 0 0.75 0 0] CT
0.149 GC
2 setlinecap
10.0 ML
N
73 374 M
73 369.66 L
S
GR
GS
[0.75 0 0 0.75 0 0] CT
0.149 GC
2 setlinecap
10.0 ML
N
121.222 374 M
121.222 369.66 L
S
GR
GS
[0.75 0 0 0.75 0 0] CT
0.149 GC
2 setlinecap
10.0 ML
N
169.444 374 M
169.444 369.66 L
S
GR
GS
[0.75 0 0 0.75 0 0] CT
0.149 GC
2 setlinecap
10.0 ML
N
217.667 374 M
217.667 369.66 L
S
GR
GS
[0.75 0 0 0.75 0 0] CT
0.149 GC
2 setlinecap
10.0 ML
N
265.889 374 M
265.889 369.66 L
S
GR
GS
[0.75 0 0 0.75 0 0] CT
0.149 GC
2 setlinecap
10.0 ML
N
314.111 374 M
314.111 369.66 L
S
GR
GS
[0.75 0 0 0.75 0 0] CT
0.149 GC
2 setlinecap
10.0 ML
N
362.333 374 M
362.333 369.66 L
S
GR
GS
[0.75 0 0 0.75 0 0] CT
0.149 GC
2 setlinecap
10.0 ML
N
410.556 374 M
410.556 369.66 L
S
GR
GS
[0.75 0 0 0.75 0 0] CT
0.149 GC
2 setlinecap
10.0 ML
N
458.778 374 M
458.778 369.66 L
S
GR
GS
[0.75 0 0 0.75 0 0] CT
0.149 GC
2 setlinecap
10.0 ML
N
507 374 M
507 369.66 L
S
GR
GS
[0.75 0 0 0.75 0 0] CT
0.149 GC
2 setlinecap
10.0 ML
N
73 31 M
73 35.34 L
S
GR
GS
[0.75 0 0 0.75 0 0] CT
0.149 GC
2 setlinecap
10.0 ML
N
121.222 31 M
121.222 35.34 L
S
GR
GS
[0.75 0 0 0.75 0 0] CT
0.149 GC
2 setlinecap
10.0 ML
N
169.444 31 M
169.444 35.34 L
S
GR
GS
[0.75 0 0 0.75 0 0] CT
0.149 GC
2 setlinecap
10.0 ML
N
217.667 31 M
217.667 35.34 L
S
GR
GS
[0.75 0 0 0.75 0 0] CT
0.149 GC
2 setlinecap
10.0 ML
N
265.889 31 M
265.889 35.34 L
S
GR
GS
[0.75 0 0 0.75 0 0] CT
0.149 GC
2 setlinecap
10.0 ML
N
314.111 31 M
314.111 35.34 L
S
GR
GS
[0.75 0 0 0.75 0 0] CT
0.149 GC
2 setlinecap
10.0 ML
N
362.333 31 M
362.333 35.34 L
S
GR
GS
[0.75 0 0 0.75 0 0] CT
0.149 GC
2 setlinecap
10.0 ML
N
410.556 31 M
410.556 35.34 L
S
GR
GS
[0.75 0 0 0.75 0 0] CT
0.149 GC
2 setlinecap
10.0 ML
N
458.778 31 M
458.778 35.34 L
S
GR
GS
[0.75 0 0 0.75 0 0] CT
0.149 GC
2 setlinecap
10.0 ML
N
507 31 M
507 35.34 L
S
GR
GS
[0.75 0 0 0.75 54.75 284.50001] CT
0.149 GC
/Helvetica 13 F
GS
[1 0 0 1 0 0] CT
-4.5 13 moveto 
1 -1 scale
(0) t 
GR
GR
GS
[0.75 0 0 0.75 90.91667 284.50001] CT
0.149 GC
/Helvetica 13 F
GS
[1 0 0 1 0 0] CT
-8.5 13 moveto 
1 -1 scale
(20) t 
GR
GR
GS
[0.75 0 0 0.75 127.08333 284.50001] CT
0.149 GC
/Helvetica 13 F
GS
[1 0 0 1 0 0] CT
-8.5 13 moveto 
1 -1 scale
(40) t 
GR
GR
GS
[0.75 0 0 0.75 163.25 284.50001] CT
0.149 GC
/Helvetica 13 F
GS
[1 0 0 1 0 0] CT
-8.5 13 moveto 
1 -1 scale
(60) t 
GR
GR
GS
[0.75 0 0 0.75 199.41666 284.50001] CT
0.149 GC
/Helvetica 13 F
GS
[1 0 0 1 0 0] CT
-8.5 13 moveto 
1 -1 scale
(80) t 
GR
GR
GS
[0.75 0 0 0.75 235.58334 284.50001] CT
0.149 GC
/Helvetica 13 F
GS
[1 0 0 1 0 0] CT
-12.5 13 moveto 
1 -1 scale
(100) t 
GR
GR
GS
[0.75 0 0 0.75 271.75001 284.50001] CT
0.149 GC
/Helvetica 13 F
GS
[1 0 0 1 0 0] CT
-12.5 13 moveto 
1 -1 scale
(120) t 
GR
GR
GS
[0.75 0 0 0.75 307.91666 284.50001] CT
0.149 GC
/Helvetica 13 F
GS
[1 0 0 1 0 0] CT
-12.5 13 moveto 
1 -1 scale
(140) t 
GR
GR
GS
[0.75 0 0 0.75 344.08333 284.50001] CT
0.149 GC
/Helvetica 13 F
GS
[1 0 0 1 0 0] CT
-12.5 13 moveto 
1 -1 scale
(160) t 
GR
GR
GS
[0.75 0 0 0.75 380.25 284.50001] CT
0.149 GC
/Helvetica 13 F
GS
[1 0 0 1 0 0] CT
-12.5 13 moveto 
1 -1 scale
(180) t 
GR
GR
GS
[0 -0.75 0.75 0 21.75 179.25] CT
0.149 GC
/Helvetica 15 F
GS
[1 0 0 1 0 0] CT
0 0 moveto 
1 -1 scale
(V) t 
GR
GR
GS
[0 -0.75 0.75 0 27 171] CT
0.149 GC
/Helvetica 11 F
GS
[1 0 0 1 0 0] CT
0 0 moveto 
1 -1 scale
(2) t 
GR
GR
GS
[0 -0.75 0.75 0 21.75 165.75] CT
0.149 GC
/Helvetica 15 F
GS
[1 0 0 1 0 0] CT
0 0 moveto 
1 -1 scale
(C \(mol\)) t 
GR
GR
GS
[0.75 0 0 0.75 0 0] CT
0.149 GC
2 setlinecap
10.0 ML
N
73 374 M
73 31 L
S
GR
GS
[0.75 0 0 0.75 0 0] CT
0.149 GC
2 setlinecap
10.0 ML
N
507 374 M
507 31 L
S
GR
GS
[0.75 0 0 0.75 0 0] CT
0.149 GC
2 setlinecap
10.0 ML
N
73 374 M
77.34 374 L
S
GR
GS
[0.75 0 0 0.75 0 0] CT
0.149 GC
2 setlinecap
10.0 ML
N
73 325 M
77.34 325 L
S
GR
GS
[0.75 0 0 0.75 0 0] CT
0.149 GC
2 setlinecap
10.0 ML
N
73 276 M
77.34 276 L
S
GR
GS
[0.75 0 0 0.75 0 0] CT
0.149 GC
2 setlinecap
10.0 ML
N
73 227 M
77.34 227 L
S
GR
GS
[0.75 0 0 0.75 0 0] CT
0.149 GC
2 setlinecap
10.0 ML
N
73 178 M
77.34 178 L
S
GR
GS
[0.75 0 0 0.75 0 0] CT
0.149 GC
2 setlinecap
10.0 ML
N
73 129 M
77.34 129 L
S
GR
GS
[0.75 0 0 0.75 0 0] CT
0.149 GC
2 setlinecap
10.0 ML
N
73 80 M
77.34 80 L
S
GR
GS
[0.75 0 0 0.75 0 0] CT
0.149 GC
2 setlinecap
10.0 ML
N
73 31 M
77.34 31 L
S
GR
GS
[0.75 0 0 0.75 0 0] CT
0.149 GC
2 setlinecap
10.0 ML
N
507 374 M
502.66 374 L
S
GR
GS
[0.75 0 0 0.75 0 0] CT
0.149 GC
2 setlinecap
10.0 ML
N
507 325 M
502.66 325 L
S
GR
GS
[0.75 0 0 0.75 0 0] CT
0.149 GC
2 setlinecap
10.0 ML
N
507 276 M
502.66 276 L
S
GR
GS
[0.75 0 0 0.75 0 0] CT
0.149 GC
2 setlinecap
10.0 ML
N
507 227 M
502.66 227 L
S
GR
GS
[0.75 0 0 0.75 0 0] CT
0.149 GC
2 setlinecap
10.0 ML
N
507 178 M
502.66 178 L
S
GR
GS
[0.75 0 0 0.75 0 0] CT
0.149 GC
2 setlinecap
10.0 ML
N
507 129 M
502.66 129 L
S
GR
GS
[0.75 0 0 0.75 0 0] CT
0.149 GC
2 setlinecap
10.0 ML
N
507 80 M
502.66 80 L
S
GR
GS
[0.75 0 0 0.75 0 0] CT
0.149 GC
2 setlinecap
10.0 ML
N
507 31 M
502.66 31 L
S
GR
GS
[0.75 0 0 0.75 50.75 280.5] CT
0.149 GC
/Helvetica 13 F
GS
[1 0 0 1 0 0] CT
-9 4.5 moveto 
1 -1 scale
(0) t 
GR
GR
GS
[0.75 0 0 0.75 50.75 243.75] CT
0.149 GC
/Helvetica 13 F
GS
[1 0 0 1 0 0] CT
-17 4.5 moveto 
1 -1 scale
(50) t 
GR
GR
GS
[0.75 0 0 0.75 50.75 207] CT
0.149 GC
/Helvetica 13 F
GS
[1 0 0 1 0 0] CT
-25 4.5 moveto 
1 -1 scale
(100) t 
GR
GR
GS
[0.75 0 0 0.75 50.75 170.25] CT
0.149 GC
/Helvetica 13 F
GS
[1 0 0 1 0 0] CT
-25 4.5 moveto 
1 -1 scale
(150) t 
GR
GR
GS
[0.75 0 0 0.75 50.75 133.5] CT
0.149 GC
/Helvetica 13 F
GS
[1 0 0 1 0 0] CT
-25 4.5 moveto 
1 -1 scale
(200) t 
GR
GR
GS
[0.75 0 0 0.75 50.75 96.75] CT
0.149 GC
/Helvetica 13 F
GS
[1 0 0 1 0 0] CT
-25 4.5 moveto 
1 -1 scale
(250) t 
GR
GR
GS
[0.75 0 0 0.75 50.75 60] CT
0.149 GC
/Helvetica 13 F
GS
[1 0 0 1 0 0] CT
-25 4.5 moveto 
1 -1 scale
(300) t 
GR
GR
GS
[0.75 0 0 0.75 50.75 23.25] CT
0.149 GC
/Helvetica 13 F
GS
[1 0 0 1 0 0] CT
-25 4.5 moveto 
1 -1 scale
(350) t 
GR
GR
GS
[0.75 0 0 0.75 0 0] CT
0 0.447 0.741 RC
2 LJ
N
73 40.8 M
73.001 40.804 L
73.001 40.808 L
73.002 40.813 L
73.002 40.817 L
73.005 40.838 L
73.007 40.859 L
73.01 40.88 L
73.012 40.901 L
73.025 41.006 L
73.038 41.111 L
73.051 41.216 L
73.064 41.321 L
73.129 41.844 L
73.193 42.365 L
73.258 42.885 L
73.323 43.403 L
73.646 45.97 L
73.969 48.498 L
74.293 50.986 L
74.616 53.437 L
75.311 58.585 L
76.007 63.57 L
76.702 68.4 L
77.398 73.083 L
78.249 78.622 L
79.1 83.962 L
79.952 89.112 L
80.803 94.082 L
81.711 99.196 L
82.619 104.126 L
83.527 108.882 L
84.435 113.473 L
85.41 118.234 L
86.386 122.824 L
87.362 127.253 L
88.338 131.527 L
89.387 135.958 L
90.435 140.229 L
91.483 144.35 L
92.532 148.328 L
93.683 152.539 L
94.833 156.595 L
95.984 160.506 L
97.135 164.278 L
98.466 168.48 L
99.798 172.517 L
101.129 176.398 L
102.461 180.133 L
103.996 184.267 L
S
GR
GS
[0.75 0 0 0.75 0 0] CT
0 0.447 0.741 RC
2 LJ
N
103.996 184.267 M
105.531 188.228 L
107.066 192.027 L
108.601 195.674 L
110.371 199.703 L
112.142 203.553 L
113.912 207.237 L
115.682 210.765 L
117.725 214.656 L
119.768 218.366 L
121.811 221.907 L
123.855 225.29 L
126.216 229.018 L
128.578 232.563 L
130.939 235.939 L
133.301 239.158 L
136.036 242.703 L
138.77 246.066 L
141.505 249.261 L
144.24 252.301 L
147.414 255.648 L
150.588 258.816 L
153.762 261.818 L
156.936 264.669 L
160.629 267.808 L
164.322 270.772 L
168.015 273.575 L
171.708 276.23 L
175.873 279.06 L
180.038 281.731 L
184.202 284.256 L
188.367 286.647 L
193.026 289.174 L
197.685 291.559 L
202.343 293.814 L
207.002 295.949 L
212.216 298.207 L
217.43 300.338 L
222.644 302.353 L
227.859 304.261 L
233.694 306.278 L
239.53 308.183 L
245.365 309.983 L
251.201 311.687 L
257.59 313.452 L
263.98 315.12 L
270.369 316.698 L
276.759 318.194 L
283.148 319.614 L
289.538 320.963 L
S
GR
GS
[0.75 0 0 0.75 0 0] CT
0 0.447 0.741 RC
2 LJ
N
289.538 320.963 M
295.927 322.247 L
302.316 323.471 L
308.882 324.669 L
315.447 325.811 L
322.012 326.902 L
328.578 327.945 L
328.578 346.909 L
328.579 346.909 L
328.579 346.909 L
328.58 346.909 L
328.581 346.909 L
328.585 346.909 L
328.59 346.909 L
328.594 346.909 L
328.598 346.909 L
328.619 346.909 L
328.64 346.909 L
328.661 346.909 L
328.682 346.909 L
328.787 346.909 L
328.893 346.909 L
328.998 346.909 L
329.103 346.909 L
329.475 346.909 L
329.847 346.909 L
330.219 346.909 L
330.592 346.909 L
331.084 346.909 L
331.576 346.909 L
332.068 346.909 L
332.56 346.909 L
333.149 346.909 L
333.737 346.909 L
334.325 346.909 L
334.913 346.909 L
335.593 346.909 L
336.273 346.909 L
336.953 346.909 L
337.633 346.909 L
338.407 346.909 L
339.18 346.909 L
339.954 346.909 L
340.728 346.909 L
341.6 346.909 L
342.472 346.909 L
343.344 346.909 L
344.216 346.909 L
345.193 346.909 L
346.17 346.909 L
S
GR
GS
[0.75 0 0 0.75 0 0] CT
0 0.447 0.741 RC
2 LJ
N
346.17 346.909 M
347.146 346.909 L
348.123 346.909 L
349.213 346.909 L
350.302 346.909 L
351.391 346.909 L
352.481 346.909 L
353.655 346.909 L
354.828 346.909 L
356.002 346.909 L
357.176 346.909 L
358.415 346.909 L
359.654 346.909 L
360.893 346.909 L
362.132 346.909 L
363.434 346.909 L
364.735 346.909 L
366.037 346.909 L
367.339 346.909 L
368.7 346.909 L
370.061 346.909 L
371.422 346.909 L
372.782 346.909 L
374.198 346.909 L
375.613 346.909 L
377.029 346.909 L
378.444 346.909 L
379.91 346.909 L
381.375 346.909 L
382.841 346.909 L
384.306 346.909 L
385.816 346.909 L
387.327 346.909 L
388.837 346.909 L
390.347 346.909 L
391.898 346.909 L
393.448 346.909 L
394.998 346.909 L
396.549 346.909 L
398.134 346.909 L
399.72 346.909 L
401.305 346.909 L
402.89 346.909 L
404.506 346.909 L
406.122 346.909 L
407.738 346.909 L
409.354 346.909 L
410.997 346.909 L
412.639 346.909 L
414.281 346.909 L
S
GR
GS
[0.75 0 0 0.75 0 0] CT
0 0.447 0.741 RC
2 LJ
N
414.281 346.909 M
415.924 346.909 L
417.589 346.909 L
419.253 346.909 L
420.918 346.909 L
422.583 346.909 L
424.267 346.909 L
425.951 346.909 L
427.634 346.909 L
429.318 346.909 L
431.018 346.909 L
432.718 346.909 L
434.418 346.909 L
436.118 346.909 L
437.831 346.909 L
439.545 346.909 L
441.258 346.909 L
442.971 346.909 L
444.696 346.909 L
446.42 346.909 L
448.145 346.909 L
449.869 346.909 L
451.603 346.909 L
453.337 346.909 L
455.071 346.909 L
456.804 346.909 L
458.546 346.909 L
460.287 346.909 L
462.029 346.909 L
463.77 346.909 L
465.518 346.909 L
467.266 346.909 L
469.014 346.909 L
470.761 346.909 L
472.514 346.909 L
474.268 346.909 L
476.021 346.909 L
477.774 346.909 L
479.531 346.909 L
481.288 346.909 L
483.045 346.909 L
484.803 346.909 L
486.564 346.909 L
488.324 346.909 L
490.085 346.909 L
491.846 346.909 L
493.61 346.909 L
495.373 346.909 L
497.137 346.909 L
498.901 346.909 L
S
GR
GS
[0.75 0 0 0.75 0 0] CT
0 0.447 0.741 RC
2 LJ
N
498.901 346.909 M
500.667 346.909 L
502.433 346.909 L
504.199 346.909 L
505.965 346.909 L
506.223 346.909 L
506.482 346.909 L
506.741 346.909 L
507 346.909 L
S
GR
GS
[0.75 0 0 0.75 0 0] CT
0.851 0.325 0.098 RC
2 LJ
N
73 374 M
73.001 373.998 L
73.001 373.996 L
73.002 373.994 L
73.002 373.992 L
73.005 373.981 L
73.007 373.971 L
73.01 373.96 L
73.012 373.95 L
73.025 373.897 L
73.038 373.845 L
73.051 373.792 L
73.064 373.74 L
73.129 373.478 L
73.193 373.217 L
73.258 372.958 L
73.323 372.698 L
73.646 371.415 L
73.969 370.152 L
74.293 368.908 L
74.616 367.683 L
75.311 365.111 L
76.007 362.62 L
76.702 360.208 L
77.398 357.87 L
78.249 355.105 L
79.1 352.441 L
79.952 349.872 L
80.803 347.393 L
81.711 344.845 L
82.619 342.388 L
83.527 340.019 L
84.435 337.734 L
85.41 335.365 L
86.386 333.082 L
87.362 330.881 L
88.338 328.757 L
89.387 326.557 L
90.435 324.437 L
91.483 322.393 L
92.532 320.421 L
93.683 318.336 L
94.833 316.328 L
95.984 314.394 L
97.135 312.53 L
98.466 310.455 L
99.798 308.463 L
101.129 306.55 L
102.461 304.711 L
103.996 302.678 L
S
GR
GS
[0.75 0 0 0.75 0 0] CT
0.851 0.325 0.098 RC
2 LJ
N
103.996 302.678 M
105.531 300.732 L
107.066 298.868 L
108.601 297.082 L
110.371 295.111 L
112.142 293.23 L
113.912 291.433 L
115.682 289.715 L
117.725 287.824 L
119.768 286.025 L
121.811 284.312 L
123.855 282.678 L
126.216 280.882 L
128.578 279.179 L
130.939 277.562 L
133.301 276.024 L
136.036 274.337 L
138.77 272.741 L
141.505 271.231 L
144.24 269.8 L
147.414 268.231 L
150.588 266.753 L
153.762 265.359 L
156.936 264.043 L
160.629 262.601 L
164.322 261.249 L
168.015 259.979 L
171.708 258.784 L
175.873 257.52 L
180.038 256.337 L
184.202 255.229 L
188.367 254.189 L
193.026 253.102 L
197.685 252.086 L
202.343 251.137 L
207.002 250.25 L
212.216 249.324 L
217.43 248.463 L
222.644 247.661 L
227.859 246.915 L
233.694 246.139 L
239.53 245.421 L
245.365 244.757 L
251.201 244.141 L
257.59 243.52 L
263.98 242.948 L
270.369 242.421 L
276.759 241.937 L
283.148 241.492 L
289.538 241.084 L
S
GR
GS
[0.75 0 0 0.75 0 0] CT
0.851 0.325 0.098 RC
2 LJ
N
289.538 241.084 M
295.927 240.708 L
302.316 240.364 L
308.882 240.04 L
315.447 239.745 L
322.012 239.476 L
328.578 239.231 L
328.578 253.564 L
328.579 253.57 L
328.579 253.575 L
328.58 253.58 L
328.581 253.586 L
328.585 253.613 L
328.59 253.639 L
328.594 253.666 L
328.598 253.693 L
328.619 253.827 L
328.64 253.961 L
328.661 254.095 L
328.682 254.228 L
328.787 254.892 L
328.893 255.55 L
328.998 256.204 L
329.103 256.852 L
329.475 259.103 L
329.847 261.292 L
330.219 263.422 L
330.592 265.495 L
331.084 268.152 L
331.576 270.717 L
332.068 273.196 L
332.56 275.592 L
333.149 278.351 L
333.737 281.004 L
334.325 283.556 L
334.913 286.011 L
335.593 288.737 L
336.273 291.349 L
336.953 293.853 L
337.633 296.255 L
338.407 298.872 L
339.18 301.372 L
339.954 303.762 L
340.728 306.049 L
341.6 308.511 L
342.472 310.857 L
343.344 313.095 L
344.216 315.232 L
345.193 317.512 L
346.17 319.68 L
S
GR
GS
[0.75 0 0 0.75 0 0] CT
0.851 0.325 0.098 RC
2 LJ
N
346.17 319.68 M
347.146 321.744 L
348.123 323.709 L
349.213 325.792 L
350.302 327.769 L
351.391 329.646 L
352.481 331.43 L
353.655 333.255 L
354.828 334.986 L
356.002 336.628 L
357.176 338.188 L
358.415 339.75 L
359.654 341.232 L
360.893 342.639 L
362.132 343.975 L
363.434 345.308 L
364.735 346.572 L
366.037 347.773 L
367.339 348.913 L
368.7 350.044 L
370.061 351.118 L
371.422 352.137 L
372.782 353.106 L
374.198 354.062 L
375.613 354.97 L
377.029 355.831 L
378.444 356.65 L
379.91 357.454 L
381.375 358.218 L
382.841 358.943 L
384.306 359.632 L
385.816 360.307 L
387.327 360.947 L
388.837 361.555 L
390.347 362.132 L
391.898 362.695 L
393.448 363.229 L
394.998 363.737 L
396.549 364.219 L
398.134 364.687 L
399.72 365.131 L
401.305 365.553 L
402.89 365.954 L
404.506 366.342 L
406.122 366.711 L
407.738 367.061 L
409.354 367.393 L
410.997 367.714 L
412.639 368.019 L
414.281 368.308 L
S
GR
GS
[0.75 0 0 0.75 0 0] CT
0.851 0.325 0.098 RC
2 LJ
N
414.281 368.308 M
415.924 368.583 L
417.589 368.848 L
419.253 369.099 L
420.918 369.338 L
422.583 369.564 L
424.267 369.782 L
425.951 369.989 L
427.634 370.185 L
429.318 370.372 L
431.018 370.551 L
432.718 370.72 L
434.418 370.882 L
436.118 371.035 L
437.831 371.182 L
439.545 371.321 L
441.258 371.453 L
442.971 371.579 L
444.696 371.699 L
446.42 371.813 L
448.145 371.921 L
449.869 372.024 L
451.603 372.122 L
453.337 372.216 L
455.071 372.304 L
456.804 372.388 L
458.546 372.469 L
460.287 372.545 L
462.029 372.617 L
463.77 372.686 L
465.518 372.752 L
467.266 372.814 L
469.014 372.873 L
470.761 372.929 L
472.514 372.983 L
474.268 373.034 L
476.021 373.082 L
477.774 373.128 L
479.531 373.171 L
481.288 373.213 L
483.045 373.252 L
484.803 373.29 L
486.564 373.325 L
488.324 373.359 L
490.085 373.391 L
491.846 373.421 L
493.61 373.45 L
495.373 373.478 L
497.137 373.504 L
498.901 373.529 L
S
GR
GS
[0.75 0 0 0.75 0 0] CT
0.851 0.325 0.098 RC
2 LJ
N
498.901 373.529 M
500.667 373.553 L
502.433 373.575 L
504.199 373.596 L
505.965 373.617 L
506.223 373.619 L
506.482 373.622 L
506.741 373.625 L
507 373.628 L
S
GR
GS
[0.75 0 0 0.75 0 0] CT
0.929 0.694 0.125 RC
2 LJ
N
73 374 M
73.001 374 L
73.001 374 L
73.002 374 L
73.002 374 L
73.005 374 L
73.007 374 L
73.01 374 L
73.012 374 L
73.025 374 L
73.038 374 L
73.051 374 L
73.064 374 L
73.129 374 L
73.193 374 L
73.258 374 L
73.323 374 L
73.646 374 L
73.969 373.999 L
74.293 373.999 L
74.616 373.998 L
75.311 373.997 L
76.007 373.995 L
76.702 373.992 L
77.398 373.988 L
78.249 373.984 L
79.1 373.978 L
79.952 373.972 L
80.803 373.966 L
81.711 373.958 L
82.619 373.949 L
83.527 373.94 L
84.435 373.93 L
85.41 373.918 L
86.386 373.906 L
87.362 373.893 L
88.338 373.88 L
89.387 373.864 L
90.435 373.848 L
91.483 373.832 L
92.532 373.815 L
93.683 373.795 L
94.833 373.774 L
95.984 373.753 L
97.135 373.731 L
98.466 373.705 L
99.798 373.678 L
101.129 373.651 L
102.461 373.622 L
103.996 373.588 L
S
GR
GS
[0.75 0 0 0.75 0 0] CT
0.929 0.694 0.125 RC
2 LJ
N
103.996 373.588 M
105.531 373.554 L
107.066 373.518 L
108.601 373.481 L
110.371 373.438 L
112.142 373.394 L
113.912 373.348 L
115.682 373.302 L
117.725 373.248 L
119.768 373.192 L
121.811 373.135 L
123.855 373.077 L
126.216 373.009 L
128.578 372.939 L
130.939 372.868 L
133.301 372.796 L
136.036 372.712 L
138.77 372.626 L
141.505 372.538 L
144.24 372.449 L
147.414 372.345 L
150.588 372.239 L
153.762 372.132 L
156.936 372.023 L
160.629 371.895 L
164.322 371.765 L
168.015 371.634 L
171.708 371.501 L
175.873 371.35 L
180.038 371.197 L
184.202 371.043 L
188.367 370.887 L
193.026 370.711 L
197.685 370.534 L
202.343 370.356 L
207.002 370.176 L
212.216 369.973 L
217.43 369.768 L
222.644 369.562 L
227.859 369.355 L
233.694 369.122 L
239.53 368.888 L
245.365 368.652 L
251.201 368.415 L
257.59 368.154 L
263.98 367.892 L
270.369 367.629 L
276.759 367.365 L
283.148 367.101 L
289.538 366.835 L
S
GR
GS
[0.75 0 0 0.75 0 0] CT
0.929 0.694 0.125 RC
2 LJ
N
289.538 366.835 M
295.927 366.568 L
302.316 366.301 L
308.882 366.026 L
315.447 365.75 L
322.012 365.473 L
328.578 365.196 L
328.578 368.821 L
328.579 368.821 L
328.579 368.821 L
328.58 368.821 L
328.581 368.821 L
328.585 368.821 L
328.59 368.821 L
328.594 368.821 L
328.598 368.821 L
328.619 368.821 L
328.64 368.821 L
328.661 368.821 L
328.682 368.821 L
328.787 368.821 L
328.893 368.821 L
328.998 368.821 L
329.103 368.821 L
329.475 368.821 L
329.847 368.821 L
330.219 368.821 L
330.592 368.821 L
331.084 368.821 L
331.576 368.821 L
332.068 368.821 L
332.56 368.821 L
333.149 368.821 L
333.737 368.821 L
334.325 368.821 L
334.913 368.821 L
335.593 368.821 L
336.273 368.821 L
336.953 368.821 L
337.633 368.821 L
338.407 368.821 L
339.18 368.821 L
339.954 368.821 L
340.728 368.821 L
341.6 368.821 L
342.472 368.821 L
343.344 368.821 L
344.216 368.821 L
345.193 368.821 L
346.17 368.821 L
S
GR
GS
[0.75 0 0 0.75 0 0] CT
0.929 0.694 0.125 RC
2 LJ
N
346.17 368.821 M
347.146 368.821 L
348.123 368.821 L
349.213 368.821 L
350.302 368.821 L
351.391 368.821 L
352.481 368.821 L
353.655 368.821 L
354.828 368.821 L
356.002 368.821 L
357.176 368.821 L
358.415 368.821 L
359.654 368.821 L
360.893 368.821 L
362.132 368.821 L
363.434 368.821 L
364.735 368.821 L
366.037 368.821 L
367.339 368.821 L
368.7 368.821 L
370.061 368.821 L
371.422 368.821 L
372.782 368.821 L
374.198 368.821 L
375.613 368.821 L
377.029 368.821 L
378.444 368.821 L
379.91 368.821 L
381.375 368.821 L
382.841 368.821 L
384.306 368.821 L
385.816 368.821 L
387.327 368.821 L
388.837 368.821 L
390.347 368.821 L
391.898 368.821 L
393.448 368.821 L
394.998 368.821 L
396.549 368.821 L
398.134 368.821 L
399.72 368.821 L
401.305 368.821 L
402.89 368.821 L
404.506 368.821 L
406.122 368.821 L
407.738 368.821 L
409.354 368.821 L
410.997 368.821 L
412.639 368.821 L
414.281 368.821 L
S
GR
GS
[0.75 0 0 0.75 0 0] CT
0.929 0.694 0.125 RC
2 LJ
N
414.281 368.821 M
415.924 368.821 L
417.589 368.821 L
419.253 368.821 L
420.918 368.821 L
422.583 368.821 L
424.267 368.821 L
425.951 368.821 L
427.634 368.821 L
429.318 368.821 L
431.018 368.821 L
432.718 368.821 L
434.418 368.821 L
436.118 368.821 L
437.831 368.821 L
439.545 368.821 L
441.258 368.821 L
442.971 368.821 L
444.696 368.821 L
446.42 368.821 L
448.145 368.821 L
449.869 368.821 L
451.603 368.821 L
453.337 368.821 L
455.071 368.821 L
456.804 368.821 L
458.546 368.821 L
460.287 368.821 L
462.029 368.821 L
463.77 368.821 L
465.518 368.821 L
467.266 368.821 L
469.014 368.821 L
470.761 368.821 L
472.514 368.821 L
474.268 368.821 L
476.021 368.821 L
477.774 368.821 L
479.531 368.821 L
481.288 368.821 L
483.045 368.821 L
484.803 368.821 L
486.564 368.821 L
488.324 368.821 L
490.085 368.821 L
491.846 368.821 L
493.61 368.821 L
495.373 368.821 L
497.137 368.821 L
498.901 368.821 L
S
GR
GS
[0.75 0 0 0.75 0 0] CT
0.929 0.694 0.125 RC
2 LJ
N
498.901 368.821 M
500.667 368.821 L
502.433 368.821 L
504.199 368.821 L
505.965 368.821 L
506.223 368.821 L
506.482 368.821 L
506.741 368.821 L
507 368.821 L
S
GR
GS
[0.75 0 0 0.75 217.50021 21.1875] CT
/Helvetica-Bold 15 F
GS
[1 0 0 1 0 0] CT
-71.5 -4 moveto 
1 -1 scale
(Reaction stage 1) t 
GR
GR
GS
[0.75 0 0 0.75 0 0] CT
1 GC
N
422 114 M
422 44 L
494 44 L
494 114 L
cp
f
GR
GS
[0.75 0 0 0.75 355.5 44.25] CT
/Helvetica 12 F
GS
[1 0 0 1 0 0] CT
0 0 moveto 
1 -1 scale
(C) t 
GR
GR
GS
[0.75 0 0 0.75 362.25 48.75] CT
/Helvetica 9 F
GS
[1 0 0 1 0 0] CT
0 0 moveto 
1 -1 scale
(A) t 
GR
GR
GS
[0.75 0 0 0.75 0 0] CT
0 0.447 0.741 RC
2 LJ
N
430 57.23 M
470 57.23 L
S
GR
GS
[0.75 0 0 0.75 355.5 60.75] CT
/Helvetica 12 F
GS
[1 0 0 1 0 0] CT
0 0 moveto 
1 -1 scale
(C) t 
GR
GR
GS
[0.75 0 0 0.75 362.25 65.25] CT
/Helvetica 9 F
GS
[1 0 0 1 0 0] CT
0 0 moveto 
1 -1 scale
(B) t 
GR
GR
GS
[0.75 0 0 0.75 0 0] CT
0.851 0.325 0.098 RC
2 LJ
N
430 79 M
470 79 L
S
GR
GS
[0.75 0 0 0.75 355.5 77.25] CT
/Helvetica 12 F
GS
[1 0 0 1 0 0] CT
0 0 moveto 
1 -1 scale
(C) t 
GR
GR
GS
[0.75 0 0 0.75 362.25 81.75] CT
/Helvetica 9 F
GS
[1 0 0 1 0 0] CT
0 0 moveto 
1 -1 scale
(C) t 
GR
GR
GS
[0.75 0 0 0.75 0 0] CT
0.929 0.694 0.125 RC
2 LJ
N
430 100.77 M
470 100.77 L
S
GR
GS
[0.75 0 0 0.75 0 0] CT
0.149 GC
2 LJ
N
422 114 M
422 44 L
494 44 L
494 114 L
422 114 L
S
GR
%%Trailer
%%Pages: 1
%%EOF
