%!PS-Adobe-3.0 EPSF-3.0
%%Creator: (MATLAB, The Mathworks, Inc. Version 8.5.0.197613 \(R2015a\). Operating System: Linux)
%%Title: (/home/lukas/Dropbox/Universidad/Master/Control Theory/lab3/raport/chapter3/figures/C2\(t\).eps)
%%CreationDate: 2016-03-24T16:06:23
%%Pages: (atend)
%%BoundingBox: 0 0 420 315
%%LanguageLevel: 2
%%EndComments
%%BeginProlog
%%BeginResource: procset (Apache XML Graphics Std ProcSet) 1.2 0
%%Version: 1.2 0
%%Copyright: (Copyright 2001-2003,2010 The Apache Software Foundation. License terms: http://www.apache.org/licenses/LICENSE-2.0)
/bd{bind def}bind def
/ld{load def}bd
/GR/grestore ld
/M/moveto ld
/LJ/setlinejoin ld
/C/curveto ld
/f/fill ld
/LW/setlinewidth ld
/GC/setgray ld
/t/show ld
/N/newpath ld
/CT/concat ld
/cp/closepath ld
/S/stroke ld
/L/lineto ld
/CC/setcmykcolor ld
/A/ashow ld
/GS/gsave ld
/RC/setrgbcolor ld
/RM/rmoveto ld
/ML/setmiterlimit ld
/re {4 2 roll M
1 index 0 rlineto
0 exch rlineto
neg 0 rlineto
cp } bd
/_ctm matrix def
/_tm matrix def
/BT { _ctm currentmatrix pop matrix _tm copy pop 0 0 moveto } bd
/ET { _ctm setmatrix } bd
/iTm { _ctm setmatrix _tm concat } bd
/Tm { _tm astore pop iTm 0 0 moveto } bd
/ux 0.0 def
/uy 0.0 def
/F {
  /Tp exch def
  /Tf exch def
  Tf findfont Tp scalefont setfont
  /cf Tf def  /cs Tp def
} bd
/ULS {currentpoint /uy exch def /ux exch def} bd
/ULE {
  /Tcx currentpoint pop def
  gsave
  newpath
  cf findfont cs scalefont dup
  /FontMatrix get 0 get /Ts exch def /FontInfo get dup
  /UnderlinePosition get Ts mul /To exch def
  /UnderlineThickness get Ts mul /Tt exch def
  ux uy To add moveto  Tcx uy To add lineto
  Tt setlinewidth stroke
  grestore
} bd
/OLE {
  /Tcx currentpoint pop def
  gsave
  newpath
  cf findfont cs scalefont dup
  /FontMatrix get 0 get /Ts exch def /FontInfo get dup
  /UnderlinePosition get Ts mul /To exch def
  /UnderlineThickness get Ts mul /Tt exch def
  ux uy To add cs add moveto Tcx uy To add cs add lineto
  Tt setlinewidth stroke
  grestore
} bd
/SOE {
  /Tcx currentpoint pop def
  gsave
  newpath
  cf findfont cs scalefont dup
  /FontMatrix get 0 get /Ts exch def /FontInfo get dup
  /UnderlinePosition get Ts mul /To exch def
  /UnderlineThickness get Ts mul /Tt exch def
  ux uy To add cs 10 mul 26 idiv add moveto Tcx uy To add cs 10 mul 26 idiv add lineto
  Tt setlinewidth stroke
  grestore
} bd
/QT {
/Y22 exch store
/X22 exch store
/Y21 exch store
/X21 exch store
currentpoint
/Y21 load 2 mul add 3 div exch
/X21 load 2 mul add 3 div exch
/X21 load 2 mul /X22 load add 3 div
/Y21 load 2 mul /Y22 load add 3 div
/X22 load /Y22 load curveto
} bd
/SSPD {
dup length /d exch dict def
{
/v exch def
/k exch def
currentpagedevice k known {
/cpdv currentpagedevice k get def
v cpdv ne {
/upd false def
/nullv v type /nulltype eq def
/nullcpdv cpdv type /nulltype eq def
nullv nullcpdv or
{
/upd true def
} {
/sametype v type cpdv type eq def
sametype {
v type /arraytype eq {
/vlen v length def
/cpdvlen cpdv length def
vlen cpdvlen eq {
0 1 vlen 1 sub {
/i exch def
/obj v i get def
/cpdobj cpdv i get def
obj cpdobj ne {
/upd true def
exit
} if
} for
} {
/upd true def
} ifelse
} {
v type /dicttype eq {
v {
/dv exch def
/dk exch def
/cpddv cpdv dk get def
dv cpddv ne {
/upd true def
exit
} if
} forall
} {
/upd true def
} ifelse
} ifelse
} if
} ifelse
upd true eq {
d k v put
} if
} if
} if
} forall
d length 0 gt {
d setpagedevice
} if
} bd
%%EndResource
%%BeginResource: procset (Apache XML Graphics EPS ProcSet) 1.0 0
%%Version: 1.0 0
%%Copyright: (Copyright 2002-2003 The Apache Software Foundation. License terms: http://www.apache.org/licenses/LICENSE-2.0)
/BeginEPSF { %def
/b4_Inc_state save def         % Save state for cleanup
/dict_count countdictstack def % Count objects on dict stack
/op_count count 1 sub def      % Count objects on operand stack
userdict begin                 % Push userdict on dict stack
/showpage { } def              % Redefine showpage, { } = null proc
0 setgray 0 setlinecap         % Prepare graphics state
1 setlinewidth 0 setlinejoin
10 setmiterlimit [ ] 0 setdash newpath
/languagelevel where           % If level not equal to 1 then
{pop languagelevel             % set strokeadjust and
1 ne                           % overprint to their defaults.
{false setstrokeadjust false setoverprint
} if
} if
} bd
/EndEPSF { %def
count op_count sub {pop} repeat            % Clean up stacks
countdictstack dict_count sub {end} repeat
b4_Inc_state restore
} bd
%%EndResource
%FOPBeginFontDict
%%IncludeResource: font Courier-Bold
%%IncludeResource: font Helvetica
%%IncludeResource: font Courier-BoldOblique
%%IncludeResource: font Courier-Oblique
%%IncludeResource: font Times-Roman
%%IncludeResource: font Helvetica-BoldOblique
%%IncludeResource: font Helvetica-Bold
%%IncludeResource: font Helvetica-Oblique
%%IncludeResource: font Times-BoldItalic
%%IncludeResource: font Courier
%%IncludeResource: font Times-Italic
%%IncludeResource: font Times-Bold
%%IncludeResource: font Symbol
%%IncludeResource: font ZapfDingbats
%FOPEndFontDict
%%BeginResource: encoding WinAnsiEncoding
/WinAnsiEncoding [
/.notdef /.notdef /.notdef /.notdef /.notdef
/.notdef /.notdef /.notdef /.notdef /.notdef
/.notdef /.notdef /.notdef /.notdef /.notdef
/.notdef /.notdef /.notdef /.notdef /.notdef
/.notdef /.notdef /.notdef /.notdef /.notdef
/.notdef /.notdef /.notdef /.notdef /.notdef
/.notdef /.notdef /space /exclam /quotedbl
/numbersign /dollar /percent /ampersand /quotesingle
/parenleft /parenright /asterisk /plus /comma
/hyphen /period /slash /zero /one
/two /three /four /five /six
/seven /eight /nine /colon /semicolon
/less /equal /greater /question /at
/A /B /C /D /E
/F /G /H /I /J
/K /L /M /N /O
/P /Q /R /S /T
/U /V /W /X /Y
/Z /bracketleft /backslash /bracketright /asciicircum
/underscore /quoteleft /a /b /c
/d /e /f /g /h
/i /j /k /l /m
/n /o /p /q /r
/s /t /u /v /w
/x /y /z /braceleft /bar
/braceright /asciitilde /bullet /Euro /bullet
/quotesinglbase /florin /quotedblbase /ellipsis /dagger
/daggerdbl /circumflex /perthousand /Scaron /guilsinglleft
/OE /bullet /Zcaron /bullet /bullet
/quoteleft /quoteright /quotedblleft /quotedblright /bullet
/endash /emdash /asciitilde /trademark /scaron
/guilsinglright /oe /bullet /zcaron /Ydieresis
/space /exclamdown /cent /sterling /currency
/yen /brokenbar /section /dieresis /copyright
/ordfeminine /guillemotleft /logicalnot /sfthyphen /registered
/macron /degree /plusminus /twosuperior /threesuperior
/acute /mu /paragraph /middot /cedilla
/onesuperior /ordmasculine /guillemotright /onequarter /onehalf
/threequarters /questiondown /Agrave /Aacute /Acircumflex
/Atilde /Adieresis /Aring /AE /Ccedilla
/Egrave /Eacute /Ecircumflex /Edieresis /Igrave
/Iacute /Icircumflex /Idieresis /Eth /Ntilde
/Ograve /Oacute /Ocircumflex /Otilde /Odieresis
/multiply /Oslash /Ugrave /Uacute /Ucircumflex
/Udieresis /Yacute /Thorn /germandbls /agrave
/aacute /acircumflex /atilde /adieresis /aring
/ae /ccedilla /egrave /eacute /ecircumflex
/edieresis /igrave /iacute /icircumflex /idieresis
/eth /ntilde /ograve /oacute /ocircumflex
/otilde /odieresis /divide /oslash /ugrave
/uacute /ucircumflex /udieresis /yacute /thorn
/ydieresis
] def
%%EndResource
%FOPBeginFontReencode
/Courier-Bold findfont
dup length dict begin
  {1 index /FID ne {def} {pop pop} ifelse} forall
  /Encoding WinAnsiEncoding def
  currentdict
end
/Courier-Bold exch definefont pop
/Helvetica findfont
dup length dict begin
  {1 index /FID ne {def} {pop pop} ifelse} forall
  /Encoding WinAnsiEncoding def
  currentdict
end
/Helvetica exch definefont pop
/Courier-BoldOblique findfont
dup length dict begin
  {1 index /FID ne {def} {pop pop} ifelse} forall
  /Encoding WinAnsiEncoding def
  currentdict
end
/Courier-BoldOblique exch definefont pop
/Courier-Oblique findfont
dup length dict begin
  {1 index /FID ne {def} {pop pop} ifelse} forall
  /Encoding WinAnsiEncoding def
  currentdict
end
/Courier-Oblique exch definefont pop
/Times-Roman findfont
dup length dict begin
  {1 index /FID ne {def} {pop pop} ifelse} forall
  /Encoding WinAnsiEncoding def
  currentdict
end
/Times-Roman exch definefont pop
/Helvetica-BoldOblique findfont
dup length dict begin
  {1 index /FID ne {def} {pop pop} ifelse} forall
  /Encoding WinAnsiEncoding def
  currentdict
end
/Helvetica-BoldOblique exch definefont pop
/Helvetica-Bold findfont
dup length dict begin
  {1 index /FID ne {def} {pop pop} ifelse} forall
  /Encoding WinAnsiEncoding def
  currentdict
end
/Helvetica-Bold exch definefont pop
/Helvetica-Oblique findfont
dup length dict begin
  {1 index /FID ne {def} {pop pop} ifelse} forall
  /Encoding WinAnsiEncoding def
  currentdict
end
/Helvetica-Oblique exch definefont pop
/Times-BoldItalic findfont
dup length dict begin
  {1 index /FID ne {def} {pop pop} ifelse} forall
  /Encoding WinAnsiEncoding def
  currentdict
end
/Times-BoldItalic exch definefont pop
/Courier findfont
dup length dict begin
  {1 index /FID ne {def} {pop pop} ifelse} forall
  /Encoding WinAnsiEncoding def
  currentdict
end
/Courier exch definefont pop
/Times-Italic findfont
dup length dict begin
  {1 index /FID ne {def} {pop pop} ifelse} forall
  /Encoding WinAnsiEncoding def
  currentdict
end
/Times-Italic exch definefont pop
/Times-Bold findfont
dup length dict begin
  {1 index /FID ne {def} {pop pop} ifelse} forall
  /Encoding WinAnsiEncoding def
  currentdict
end
/Times-Bold exch definefont pop
%FOPEndFontReencode
%%EndProlog
%%Page: 1 1
%%PageBoundingBox: 0 0 420 315
%%BeginPageSetup
[1 0 0 -1 0 315] CT
%%EndPageSetup
GS
[0.75 0 0 0.75 0 0] CT
1 GC
N
0 0 560 420 re
f
GR
GS
[0.75 0 0 0.75 0 0] CT
1 GC
N
0 0 560 420 re
f
GR
GS
[0.75 0 0 0.75 0 0] CT
1 GC
N
73 374 M
507 374 L
507 31 L
73 31 L
cp
f
GR
GS
[0.75 0 0 0.75 0 0] CT
0.873 GC
2 setlinecap
10.0 ML
N
73 374 M
73 31 L
S
GR
GS
[0.75 0 0 0.75 0 0] CT
0.873 GC
2 setlinecap
10.0 ML
N
121.222 374 M
121.222 31 L
S
GR
GS
[0.75 0 0 0.75 0 0] CT
0.873 GC
2 setlinecap
10.0 ML
N
169.444 374 M
169.444 31 L
S
GR
GS
[0.75 0 0 0.75 0 0] CT
0.873 GC
2 setlinecap
10.0 ML
N
217.667 374 M
217.667 31 L
S
GR
GS
[0.75 0 0 0.75 0 0] CT
0.873 GC
2 setlinecap
10.0 ML
N
265.889 374 M
265.889 31 L
S
GR
GS
[0.75 0 0 0.75 0 0] CT
0.873 GC
2 setlinecap
10.0 ML
N
314.111 374 M
314.111 31 L
S
GR
GS
[0.75 0 0 0.75 0 0] CT
0.873 GC
2 setlinecap
10.0 ML
N
362.333 374 M
362.333 31 L
S
GR
GS
[0.75 0 0 0.75 0 0] CT
0.873 GC
2 setlinecap
10.0 ML
N
410.556 374 M
410.556 31 L
S
GR
GS
[0.75 0 0 0.75 0 0] CT
0.873 GC
2 setlinecap
10.0 ML
N
458.778 374 M
458.778 31 L
S
GR
GS
[0.75 0 0 0.75 0 0] CT
0.873 GC
2 setlinecap
10.0 ML
N
507 374 M
507 31 L
S
GR
GS
[0.75 0 0 0.75 0 0] CT
0.873 GC
2 setlinecap
10.0 ML
N
507 374 M
73 374 L
S
GR
GS
[0.75 0 0 0.75 0 0] CT
0.873 GC
2 setlinecap
10.0 ML
N
507 325 M
73 325 L
S
GR
GS
[0.75 0 0 0.75 0 0] CT
0.873 GC
2 setlinecap
10.0 ML
N
507 276 M
73 276 L
S
GR
GS
[0.75 0 0 0.75 0 0] CT
0.873 GC
2 setlinecap
10.0 ML
N
507 227 M
73 227 L
S
GR
GS
[0.75 0 0 0.75 0 0] CT
0.873 GC
2 setlinecap
10.0 ML
N
507 178 M
73 178 L
S
GR
GS
[0.75 0 0 0.75 0 0] CT
0.873 GC
2 setlinecap
10.0 ML
N
507 129 M
73 129 L
S
GR
GS
[0.75 0 0 0.75 0 0] CT
0.873 GC
2 setlinecap
10.0 ML
N
507 80 M
73 80 L
S
GR
GS
[0.75 0 0 0.75 0 0] CT
0.873 GC
2 setlinecap
10.0 ML
N
507 31 M
73 31 L
S
GR
GS
[0.75 0 0 0.75 217.50016 298.24999] CT
0.149 GC
/Helvetica 15 F
GS
[1 0 0 1 0 0] CT
-39.5 14 moveto 
1 -1 scale
(time \(min\)) t 
GR
GR
GS
[0.75 0 0 0.75 0 0] CT
0.149 GC
2 setlinecap
10.0 ML
N
73 374 M
507 374 L
S
GR
GS
[0.75 0 0 0.75 0 0] CT
0.149 GC
2 setlinecap
10.0 ML
N
73 31 M
507 31 L
S
GR
GS
[0.75 0 0 0.75 0 0] CT
0.149 GC
2 setlinecap
10.0 ML
N
73 374 M
73 369.66 L
S
GR
GS
[0.75 0 0 0.75 0 0] CT
0.149 GC
2 setlinecap
10.0 ML
N
121.222 374 M
121.222 369.66 L
S
GR
GS
[0.75 0 0 0.75 0 0] CT
0.149 GC
2 setlinecap
10.0 ML
N
169.444 374 M
169.444 369.66 L
S
GR
GS
[0.75 0 0 0.75 0 0] CT
0.149 GC
2 setlinecap
10.0 ML
N
217.667 374 M
217.667 369.66 L
S
GR
GS
[0.75 0 0 0.75 0 0] CT
0.149 GC
2 setlinecap
10.0 ML
N
265.889 374 M
265.889 369.66 L
S
GR
GS
[0.75 0 0 0.75 0 0] CT
0.149 GC
2 setlinecap
10.0 ML
N
314.111 374 M
314.111 369.66 L
S
GR
GS
[0.75 0 0 0.75 0 0] CT
0.149 GC
2 setlinecap
10.0 ML
N
362.333 374 M
362.333 369.66 L
S
GR
GS
[0.75 0 0 0.75 0 0] CT
0.149 GC
2 setlinecap
10.0 ML
N
410.556 374 M
410.556 369.66 L
S
GR
GS
[0.75 0 0 0.75 0 0] CT
0.149 GC
2 setlinecap
10.0 ML
N
458.778 374 M
458.778 369.66 L
S
GR
GS
[0.75 0 0 0.75 0 0] CT
0.149 GC
2 setlinecap
10.0 ML
N
507 374 M
507 369.66 L
S
GR
GS
[0.75 0 0 0.75 0 0] CT
0.149 GC
2 setlinecap
10.0 ML
N
73 31 M
73 35.34 L
S
GR
GS
[0.75 0 0 0.75 0 0] CT
0.149 GC
2 setlinecap
10.0 ML
N
121.222 31 M
121.222 35.34 L
S
GR
GS
[0.75 0 0 0.75 0 0] CT
0.149 GC
2 setlinecap
10.0 ML
N
169.444 31 M
169.444 35.34 L
S
GR
GS
[0.75 0 0 0.75 0 0] CT
0.149 GC
2 setlinecap
10.0 ML
N
217.667 31 M
217.667 35.34 L
S
GR
GS
[0.75 0 0 0.75 0 0] CT
0.149 GC
2 setlinecap
10.0 ML
N
265.889 31 M
265.889 35.34 L
S
GR
GS
[0.75 0 0 0.75 0 0] CT
0.149 GC
2 setlinecap
10.0 ML
N
314.111 31 M
314.111 35.34 L
S
GR
GS
[0.75 0 0 0.75 0 0] CT
0.149 GC
2 setlinecap
10.0 ML
N
362.333 31 M
362.333 35.34 L
S
GR
GS
[0.75 0 0 0.75 0 0] CT
0.149 GC
2 setlinecap
10.0 ML
N
410.556 31 M
410.556 35.34 L
S
GR
GS
[0.75 0 0 0.75 0 0] CT
0.149 GC
2 setlinecap
10.0 ML
N
458.778 31 M
458.778 35.34 L
S
GR
GS
[0.75 0 0 0.75 0 0] CT
0.149 GC
2 setlinecap
10.0 ML
N
507 31 M
507 35.34 L
S
GR
GS
[0.75 0 0 0.75 54.75 284.50001] CT
0.149 GC
/Helvetica 13 F
GS
[1 0 0 1 0 0] CT
-4.5 13 moveto 
1 -1 scale
(0) t 
GR
GR
GS
[0.75 0 0 0.75 90.91667 284.50001] CT
0.149 GC
/Helvetica 13 F
GS
[1 0 0 1 0 0] CT
-8.5 13 moveto 
1 -1 scale
(20) t 
GR
GR
GS
[0.75 0 0 0.75 127.08333 284.50001] CT
0.149 GC
/Helvetica 13 F
GS
[1 0 0 1 0 0] CT
-8.5 13 moveto 
1 -1 scale
(40) t 
GR
GR
GS
[0.75 0 0 0.75 163.25 284.50001] CT
0.149 GC
/Helvetica 13 F
GS
[1 0 0 1 0 0] CT
-8.5 13 moveto 
1 -1 scale
(60) t 
GR
GR
GS
[0.75 0 0 0.75 199.41666 284.50001] CT
0.149 GC
/Helvetica 13 F
GS
[1 0 0 1 0 0] CT
-8.5 13 moveto 
1 -1 scale
(80) t 
GR
GR
GS
[0.75 0 0 0.75 235.58334 284.50001] CT
0.149 GC
/Helvetica 13 F
GS
[1 0 0 1 0 0] CT
-12.5 13 moveto 
1 -1 scale
(100) t 
GR
GR
GS
[0.75 0 0 0.75 271.75001 284.50001] CT
0.149 GC
/Helvetica 13 F
GS
[1 0 0 1 0 0] CT
-12.5 13 moveto 
1 -1 scale
(120) t 
GR
GR
GS
[0.75 0 0 0.75 307.91666 284.50001] CT
0.149 GC
/Helvetica 13 F
GS
[1 0 0 1 0 0] CT
-12.5 13 moveto 
1 -1 scale
(140) t 
GR
GR
GS
[0.75 0 0 0.75 344.08333 284.50001] CT
0.149 GC
/Helvetica 13 F
GS
[1 0 0 1 0 0] CT
-12.5 13 moveto 
1 -1 scale
(160) t 
GR
GR
GS
[0.75 0 0 0.75 380.25 284.50001] CT
0.149 GC
/Helvetica 13 F
GS
[1 0 0 1 0 0] CT
-12.5 13 moveto 
1 -1 scale
(180) t 
GR
GR
GS
[0 -0.75 0.75 0 27.75 179.25] CT
0.149 GC
/Helvetica 15 F
GS
[1 0 0 1 0 0] CT
0 0 moveto 
1 -1 scale
(V) t 
GR
GR
GS
[0 -0.75 0.75 0 33 171] CT
0.149 GC
/Helvetica 11 F
GS
[1 0 0 1 0 0] CT
0 0 moveto 
1 -1 scale
(2) t 
GR
GR
GS
[0 -0.75 0.75 0 27.75 165.75] CT
0.149 GC
/Helvetica 15 F
GS
[1 0 0 1 0 0] CT
0 0 moveto 
1 -1 scale
(C \(mol\)) t 
GR
GR
GS
[0.75 0 0 0.75 0 0] CT
0.149 GC
2 setlinecap
10.0 ML
N
73 374 M
73 31 L
S
GR
GS
[0.75 0 0 0.75 0 0] CT
0.149 GC
2 setlinecap
10.0 ML
N
507 374 M
507 31 L
S
GR
GS
[0.75 0 0 0.75 0 0] CT
0.149 GC
2 setlinecap
10.0 ML
N
73 374 M
77.34 374 L
S
GR
GS
[0.75 0 0 0.75 0 0] CT
0.149 GC
2 setlinecap
10.0 ML
N
73 325 M
77.34 325 L
S
GR
GS
[0.75 0 0 0.75 0 0] CT
0.149 GC
2 setlinecap
10.0 ML
N
73 276 M
77.34 276 L
S
GR
GS
[0.75 0 0 0.75 0 0] CT
0.149 GC
2 setlinecap
10.0 ML
N
73 227 M
77.34 227 L
S
GR
GS
[0.75 0 0 0.75 0 0] CT
0.149 GC
2 setlinecap
10.0 ML
N
73 178 M
77.34 178 L
S
GR
GS
[0.75 0 0 0.75 0 0] CT
0.149 GC
2 setlinecap
10.0 ML
N
73 129 M
77.34 129 L
S
GR
GS
[0.75 0 0 0.75 0 0] CT
0.149 GC
2 setlinecap
10.0 ML
N
73 80 M
77.34 80 L
S
GR
GS
[0.75 0 0 0.75 0 0] CT
0.149 GC
2 setlinecap
10.0 ML
N
73 31 M
77.34 31 L
S
GR
GS
[0.75 0 0 0.75 0 0] CT
0.149 GC
2 setlinecap
10.0 ML
N
507 374 M
502.66 374 L
S
GR
GS
[0.75 0 0 0.75 0 0] CT
0.149 GC
2 setlinecap
10.0 ML
N
507 325 M
502.66 325 L
S
GR
GS
[0.75 0 0 0.75 0 0] CT
0.149 GC
2 setlinecap
10.0 ML
N
507 276 M
502.66 276 L
S
GR
GS
[0.75 0 0 0.75 0 0] CT
0.149 GC
2 setlinecap
10.0 ML
N
507 227 M
502.66 227 L
S
GR
GS
[0.75 0 0 0.75 0 0] CT
0.149 GC
2 setlinecap
10.0 ML
N
507 178 M
502.66 178 L
S
GR
GS
[0.75 0 0 0.75 0 0] CT
0.149 GC
2 setlinecap
10.0 ML
N
507 129 M
502.66 129 L
S
GR
GS
[0.75 0 0 0.75 0 0] CT
0.149 GC
2 setlinecap
10.0 ML
N
507 80 M
502.66 80 L
S
GR
GS
[0.75 0 0 0.75 0 0] CT
0.149 GC
2 setlinecap
10.0 ML
N
507 31 M
502.66 31 L
S
GR
GS
[0.75 0 0 0.75 50.75 280.5] CT
0.149 GC
/Helvetica 13 F
GS
[1 0 0 1 0 0] CT
-9 4.5 moveto 
1 -1 scale
(0) t 
GR
GR
GS
[0.75 0 0 0.75 50.75 243.75] CT
0.149 GC
/Helvetica 13 F
GS
[1 0 0 1 0 0] CT
-17 4.5 moveto 
1 -1 scale
(10) t 
GR
GR
GS
[0.75 0 0 0.75 50.75 207] CT
0.149 GC
/Helvetica 13 F
GS
[1 0 0 1 0 0] CT
-17 4.5 moveto 
1 -1 scale
(20) t 
GR
GR
GS
[0.75 0 0 0.75 50.75 170.25] CT
0.149 GC
/Helvetica 13 F
GS
[1 0 0 1 0 0] CT
-17 4.5 moveto 
1 -1 scale
(30) t 
GR
GR
GS
[0.75 0 0 0.75 50.75 133.5] CT
0.149 GC
/Helvetica 13 F
GS
[1 0 0 1 0 0] CT
-17 4.5 moveto 
1 -1 scale
(40) t 
GR
GR
GS
[0.75 0 0 0.75 50.75 96.75] CT
0.149 GC
/Helvetica 13 F
GS
[1 0 0 1 0 0] CT
-17 4.5 moveto 
1 -1 scale
(50) t 
GR
GR
GS
[0.75 0 0 0.75 50.75 60] CT
0.149 GC
/Helvetica 13 F
GS
[1 0 0 1 0 0] CT
-17 4.5 moveto 
1 -1 scale
(60) t 
GR
GR
GS
[0.75 0 0 0.75 50.75 23.25] CT
0.149 GC
/Helvetica 13 F
GS
[1 0 0 1 0 0] CT
-17 4.5 moveto 
1 -1 scale
(70) t 
GR
GR
GS
[0.75 0 0 0.75 0 0] CT
0 0.447 0.741 RC
2 LJ
N
73 374 M
73.001 374 L
73.001 374 L
73.002 374 L
73.002 374 L
73.005 374 L
73.007 374 L
73.01 374 L
73.012 374 L
73.025 374 L
73.038 374 L
73.051 374 L
73.064 374 L
73.129 374 L
73.193 374 L
73.258 374 L
73.323 374 L
73.646 374 L
73.969 374 L
74.293 374 L
74.616 374 L
75.311 374 L
76.007 374 L
76.702 374 L
77.398 374 L
78.249 374 L
79.1 374 L
79.952 374 L
80.803 374 L
81.711 374 L
82.619 374 L
83.527 374 L
84.435 374 L
85.41 374 L
86.386 374 L
87.362 374 L
88.338 374 L
89.387 374 L
90.435 374 L
91.483 374 L
92.532 374 L
93.683 374 L
94.833 374 L
95.984 374 L
97.135 374 L
98.466 374 L
99.798 374 L
101.129 374 L
102.461 374 L
103.996 374 L
S
GR
GS
[0.75 0 0 0.75 0 0] CT
0 0.447 0.741 RC
2 LJ
N
103.996 374 M
105.531 374 L
107.066 374 L
108.601 374 L
110.371 374 L
112.142 374 L
113.912 374 L
115.682 374 L
117.725 374 L
119.768 374 L
121.811 374 L
123.855 374 L
126.216 374 L
128.578 374 L
130.939 374 L
133.301 374 L
136.036 374 L
138.77 374 L
141.505 374 L
144.24 374 L
147.414 374 L
150.588 374 L
153.762 374 L
156.936 374 L
160.629 374 L
164.322 374 L
168.015 374 L
171.708 374 L
175.873 374 L
180.038 374 L
184.202 374 L
188.367 374 L
193.026 374 L
197.685 374 L
202.343 374 L
207.002 374 L
212.216 374 L
217.43 374 L
222.644 374 L
227.859 374 L
233.694 374 L
239.53 374 L
245.365 374 L
251.201 374 L
257.59 374 L
263.98 374 L
270.369 374 L
276.759 374 L
283.148 374 L
289.538 374 L
S
GR
GS
[0.75 0 0 0.75 0 0] CT
0 0.447 0.741 RC
2 LJ
N
289.538 374 M
295.927 374 L
302.316 374 L
308.882 374 L
315.447 374 L
322.012 374 L
328.578 374 L
328.578 374 L
328.579 373.996 L
328.579 373.992 L
328.58 373.987 L
328.581 373.983 L
328.585 373.962 L
328.59 373.941 L
328.594 373.92 L
328.598 373.899 L
328.619 373.794 L
328.64 373.689 L
328.661 373.585 L
328.682 373.48 L
328.787 372.959 L
328.893 372.44 L
328.998 371.925 L
329.103 371.412 L
329.475 369.622 L
329.847 367.865 L
330.219 366.142 L
330.592 364.452 L
331.084 362.264 L
331.576 360.13 L
332.068 358.047 L
332.56 356.014 L
333.149 353.647 L
333.737 351.346 L
334.325 349.109 L
334.913 346.932 L
335.593 344.489 L
336.273 342.122 L
336.953 339.827 L
337.633 337.6 L
338.407 335.148 L
339.18 332.778 L
339.954 330.486 L
340.728 328.27 L
341.6 325.857 L
342.472 323.531 L
343.344 321.288 L
344.216 319.124 L
345.193 316.79 L
346.17 314.545 L
S
GR
GS
[0.75 0 0 0.75 0 0] CT
0 0.447 0.741 RC
2 LJ
N
346.17 314.545 M
347.146 312.387 L
348.123 310.309 L
349.213 308.085 L
350.302 305.952 L
351.391 303.906 L
352.481 301.943 L
353.655 299.915 L
354.828 297.974 L
356.002 296.115 L
357.176 294.334 L
358.415 292.534 L
359.654 290.813 L
360.893 289.165 L
362.132 287.588 L
363.434 286.004 L
364.735 284.489 L
366.037 283.041 L
367.339 281.656 L
368.7 280.272 L
370.061 278.95 L
371.422 277.688 L
372.782 276.481 L
374.198 275.283 L
375.613 274.139 L
377.029 273.048 L
378.444 272.005 L
379.91 270.976 L
381.375 269.993 L
382.841 269.056 L
384.306 268.162 L
385.816 267.284 L
387.327 266.446 L
388.837 265.648 L
390.347 264.886 L
391.898 264.142 L
393.448 263.432 L
394.998 262.756 L
396.549 262.112 L
398.134 261.484 L
399.72 260.886 L
401.305 260.317 L
402.89 259.775 L
404.506 259.249 L
406.122 258.748 L
407.738 258.271 L
409.354 257.817 L
410.997 257.378 L
412.639 256.961 L
414.281 256.563 L
S
GR
GS
[0.75 0 0 0.75 0 0] CT
0 0.447 0.741 RC
2 LJ
N
414.281 256.563 M
415.924 256.185 L
417.589 255.82 L
419.253 255.473 L
420.918 255.143 L
422.583 254.829 L
424.267 254.527 L
425.951 254.24 L
427.634 253.966 L
429.318 253.707 L
431.018 253.457 L
432.718 253.22 L
434.418 252.995 L
436.118 252.78 L
437.831 252.575 L
439.545 252.379 L
441.258 252.194 L
442.971 252.017 L
444.696 251.848 L
446.42 251.688 L
448.145 251.536 L
449.869 251.391 L
451.603 251.252 L
453.337 251.12 L
455.071 250.995 L
456.804 250.876 L
458.546 250.763 L
460.287 250.655 L
462.029 250.553 L
463.77 250.455 L
465.518 250.362 L
467.266 250.274 L
469.014 250.19 L
470.761 250.111 L
472.514 250.035 L
474.268 249.963 L
476.021 249.894 L
477.774 249.829 L
479.531 249.767 L
481.288 249.708 L
483.045 249.653 L
484.803 249.599 L
486.564 249.549 L
488.324 249.501 L
490.085 249.455 L
491.846 249.412 L
493.61 249.371 L
495.373 249.331 L
497.137 249.294 L
498.901 249.259 L
S
GR
GS
[0.75 0 0 0.75 0 0] CT
0 0.447 0.741 RC
2 LJ
N
498.901 249.259 M
500.667 249.225 L
502.433 249.193 L
504.199 249.163 L
505.965 249.134 L
506.223 249.13 L
506.482 249.126 L
506.741 249.122 L
507 249.118 L
S
GR
GS
[0.75 0 0 0.75 0 0] CT
0.851 0.325 0.098 RC
2 LJ
N
73 374 M
73.001 374 L
73.001 374 L
73.002 374 L
73.002 374 L
73.005 374 L
73.007 374 L
73.01 374 L
73.012 374 L
73.025 374 L
73.038 374 L
73.051 374 L
73.064 374 L
73.129 374 L
73.193 374 L
73.258 374 L
73.323 374 L
73.646 374 L
73.969 374 L
74.293 374 L
74.616 374 L
75.311 374 L
76.007 374 L
76.702 374 L
77.398 374 L
78.249 374 L
79.1 374 L
79.952 374 L
80.803 374 L
81.711 374 L
82.619 374 L
83.527 374 L
84.435 374 L
85.41 374 L
86.386 374 L
87.362 374 L
88.338 374 L
89.387 374 L
90.435 374 L
91.483 374 L
92.532 374 L
93.683 374 L
94.833 374 L
95.984 374 L
97.135 374 L
98.466 374 L
99.798 374 L
101.129 374 L
102.461 374 L
103.996 374 L
S
GR
GS
[0.75 0 0 0.75 0 0] CT
0.851 0.325 0.098 RC
2 LJ
N
103.996 374 M
105.531 374 L
107.066 374 L
108.601 374 L
110.371 374 L
112.142 374 L
113.912 374 L
115.682 374 L
117.725 374 L
119.768 374 L
121.811 374 L
123.855 374 L
126.216 374 L
128.578 374 L
130.939 374 L
133.301 374 L
136.036 374 L
138.77 374 L
141.505 374 L
144.24 374 L
147.414 374 L
150.588 374 L
153.762 374 L
156.936 374 L
160.629 374 L
164.322 374 L
168.015 374 L
171.708 374 L
175.873 374 L
180.038 374 L
184.202 374 L
188.367 374 L
193.026 374 L
197.685 374 L
202.343 374 L
207.002 374 L
212.216 374 L
217.43 374 L
222.644 374 L
227.859 374 L
233.694 374 L
239.53 374 L
245.365 374 L
251.201 374 L
257.59 374 L
263.98 374 L
270.369 374 L
276.759 374 L
283.148 374 L
289.538 374 L
S
GR
GS
[0.75 0 0 0.75 0 0] CT
0.851 0.325 0.098 RC
2 LJ
N
289.538 374 M
295.927 374 L
302.316 374 L
308.882 374 L
315.447 374 L
322.012 374 L
328.578 374 L
328.578 374 L
328.579 373.99 L
328.579 373.979 L
328.58 373.968 L
328.581 373.958 L
328.585 373.905 L
328.59 373.853 L
328.594 373.8 L
328.598 373.748 L
328.619 373.485 L
328.64 373.223 L
328.661 372.962 L
328.682 372.7 L
328.787 371.397 L
328.893 370.101 L
328.998 368.812 L
329.103 367.531 L
329.475 363.054 L
329.847 358.663 L
330.219 354.356 L
330.592 350.129 L
331.084 344.66 L
331.576 339.324 L
332.068 334.117 L
332.56 329.034 L
333.149 323.117 L
333.737 317.365 L
334.325 311.771 L
334.913 306.33 L
335.593 300.224 L
336.273 294.305 L
336.953 288.567 L
337.633 283.001 L
338.407 276.871 L
339.18 270.945 L
339.954 265.216 L
340.728 259.674 L
341.6 253.643 L
342.472 247.828 L
343.344 242.221 L
344.216 236.811 L
345.193 230.975 L
346.17 225.363 L
S
GR
GS
[0.75 0 0 0.75 0 0] CT
0.851 0.325 0.098 RC
2 LJ
N
346.17 225.363 M
347.146 219.967 L
348.123 214.774 L
349.213 209.212 L
350.302 203.88 L
351.391 198.765 L
352.481 193.857 L
353.655 188.788 L
354.828 183.935 L
356.002 179.287 L
357.176 174.834 L
358.415 170.335 L
359.654 166.031 L
360.893 161.913 L
362.132 157.971 L
363.434 154.009 L
364.735 150.222 L
366.037 146.601 L
367.339 143.139 L
368.7 139.68 L
370.061 136.376 L
371.422 133.22 L
372.782 130.204 L
374.198 127.208 L
375.613 124.349 L
377.029 121.619 L
378.444 119.013 L
379.91 116.439 L
381.375 113.983 L
382.841 111.641 L
384.306 109.406 L
385.816 107.209 L
387.327 105.116 L
388.837 103.119 L
390.347 101.216 L
391.898 99.354 L
393.448 97.58 L
394.998 95.89 L
396.549 94.279 L
398.134 92.71 L
399.72 91.216 L
401.305 89.793 L
402.89 88.437 L
404.506 87.122 L
406.122 85.87 L
407.738 84.678 L
409.354 83.544 L
410.997 82.446 L
412.639 81.402 L
414.281 80.408 L
S
GR
GS
[0.75 0 0 0.75 0 0] CT
0.851 0.325 0.098 RC
2 LJ
N
414.281 80.408 M
415.924 79.463 L
417.589 78.551 L
419.253 77.683 L
420.918 76.858 L
422.583 76.073 L
424.267 75.317 L
425.951 74.599 L
427.634 73.916 L
429.318 73.267 L
431.018 72.643 L
432.718 72.05 L
434.418 71.486 L
436.118 70.95 L
437.831 70.437 L
439.545 69.949 L
441.258 69.485 L
442.971 69.043 L
444.696 68.621 L
446.42 68.22 L
448.145 67.839 L
449.869 67.476 L
451.603 67.13 L
453.337 66.801 L
455.071 66.488 L
456.804 66.191 L
458.546 65.907 L
460.287 65.638 L
462.029 65.382 L
463.77 65.138 L
465.518 64.906 L
467.266 64.686 L
469.014 64.476 L
470.761 64.277 L
472.514 64.087 L
474.268 63.907 L
476.021 63.736 L
477.774 63.573 L
479.531 63.418 L
481.288 63.271 L
483.045 63.131 L
484.803 62.998 L
486.564 62.872 L
488.324 62.752 L
490.085 62.638 L
491.846 62.529 L
493.61 62.426 L
495.373 62.328 L
497.137 62.235 L
498.901 62.147 L
S
GR
GS
[0.75 0 0 0.75 0 0] CT
0.851 0.325 0.098 RC
2 LJ
N
498.901 62.147 M
500.667 62.063 L
502.433 61.983 L
504.199 61.907 L
505.965 61.835 L
506.223 61.825 L
506.482 61.815 L
506.741 61.805 L
507 61.794 L
S
GR
GS
[0.75 0 0 0.75 0 0] CT
0.929 0.694 0.125 RC
2 LJ
N
73 374 M
73.001 374 L
73.001 374 L
73.002 374 L
73.002 374 L
73.005 374 L
73.007 374 L
73.01 374 L
73.012 374 L
73.025 374 L
73.038 374 L
73.051 374 L
73.064 374 L
73.129 374 L
73.193 374 L
73.258 374 L
73.323 374 L
73.646 374 L
73.969 374 L
74.293 374 L
74.616 374 L
75.311 374 L
76.007 374 L
76.702 374 L
77.398 374 L
78.249 374 L
79.1 374 L
79.952 374 L
80.803 374 L
81.711 374 L
82.619 374 L
83.527 374 L
84.435 374 L
85.41 374 L
86.386 374 L
87.362 374 L
88.338 374 L
89.387 374 L
90.435 374 L
91.483 374 L
92.532 374 L
93.683 374 L
94.833 374 L
95.984 374 L
97.135 374 L
98.466 374 L
99.798 374 L
101.129 374 L
102.461 374 L
103.996 374 L
S
GR
GS
[0.75 0 0 0.75 0 0] CT
0.929 0.694 0.125 RC
2 LJ
N
103.996 374 M
105.531 374 L
107.066 374 L
108.601 374 L
110.371 374 L
112.142 374 L
113.912 374 L
115.682 374 L
117.725 374 L
119.768 374 L
121.811 374 L
123.855 374 L
126.216 374 L
128.578 374 L
130.939 374 L
133.301 374 L
136.036 374 L
138.77 374 L
141.505 374 L
144.24 374 L
147.414 374 L
150.588 374 L
153.762 374 L
156.936 374 L
160.629 374 L
164.322 374 L
168.015 374 L
171.708 374 L
175.873 374 L
180.038 374 L
184.202 374 L
188.367 374 L
193.026 374 L
197.685 374 L
202.343 374 L
207.002 374 L
212.216 374 L
217.43 374 L
222.644 374 L
227.859 374 L
233.694 374 L
239.53 374 L
245.365 374 L
251.201 374 L
257.59 374 L
263.98 374 L
270.369 374 L
276.759 374 L
283.148 374 L
289.538 374 L
S
GR
GS
[0.75 0 0 0.75 0 0] CT
0.929 0.694 0.125 RC
2 LJ
N
289.538 374 M
295.927 374 L
302.316 374 L
308.882 374 L
315.447 374 L
322.012 374 L
328.578 374 L
328.578 374 L
328.579 373.994 L
328.579 373.988 L
328.58 373.982 L
328.581 373.976 L
328.585 373.945 L
328.59 373.915 L
328.594 373.885 L
328.598 373.854 L
328.619 373.703 L
328.64 373.552 L
328.661 373.401 L
328.682 373.25 L
328.787 372.503 L
328.893 371.764 L
328.998 371.033 L
329.103 370.31 L
329.475 367.816 L
329.847 365.416 L
330.219 363.107 L
330.592 360.884 L
331.084 358.069 L
331.576 355.39 L
332.068 352.839 L
332.56 350.408 L
333.149 347.651 L
333.737 345.045 L
334.325 342.582 L
334.913 340.251 L
335.593 337.711 L
336.273 335.325 L
336.953 333.082 L
337.633 330.972 L
338.407 328.722 L
339.18 326.62 L
339.954 324.655 L
340.728 322.816 L
341.6 320.884 L
342.472 319.088 L
343.344 317.418 L
344.216 315.864 L
345.193 314.249 L
346.17 312.756 L
S
GR
GS
[0.75 0 0 0.75 0 0] CT
0.929 0.694 0.125 RC
2 LJ
N
346.17 312.756 M
347.146 311.375 L
348.123 310.097 L
349.213 308.781 L
350.302 307.572 L
351.391 306.46 L
352.481 305.436 L
353.655 304.422 L
354.828 303.492 L
356.002 302.64 L
357.176 301.858 L
358.415 301.101 L
359.654 300.408 L
360.893 299.774 L
362.132 299.193 L
363.434 298.635 L
364.735 298.125 L
366.037 297.658 L
367.339 297.232 L
368.7 296.824 L
370.061 296.453 L
371.422 296.114 L
372.782 295.804 L
374.198 295.51 L
375.613 295.243 L
377.029 294.999 L
378.444 294.777 L
379.91 294.567 L
381.375 294.377 L
382.841 294.203 L
384.306 294.045 L
385.816 293.897 L
387.327 293.763 L
388.837 293.641 L
390.347 293.53 L
391.898 293.426 L
393.448 293.332 L
394.998 293.247 L
396.549 293.169 L
398.134 293.097 L
399.72 293.032 L
401.305 292.973 L
402.89 292.919 L
404.506 292.87 L
406.122 292.825 L
407.738 292.784 L
409.354 292.747 L
410.997 292.713 L
412.639 292.682 L
414.281 292.654 L
S
GR
GS
[0.75 0 0 0.75 0 0] CT
0.929 0.694 0.125 RC
2 LJ
N
414.281 292.654 M
415.924 292.629 L
417.589 292.606 L
419.253 292.585 L
420.918 292.566 L
422.583 292.549 L
424.267 292.533 L
425.951 292.519 L
427.634 292.506 L
429.318 292.495 L
431.018 292.484 L
432.718 292.475 L
434.418 292.466 L
436.118 292.458 L
437.831 292.451 L
439.545 292.444 L
441.258 292.439 L
442.971 292.433 L
444.696 292.429 L
446.42 292.424 L
448.145 292.42 L
449.869 292.417 L
451.603 292.414 L
453.337 292.411 L
455.071 292.408 L
456.804 292.406 L
458.546 292.404 L
460.287 292.402 L
462.029 292.4 L
463.77 292.398 L
465.518 292.397 L
467.266 292.396 L
469.014 292.395 L
470.761 292.393 L
472.514 292.393 L
474.268 292.392 L
476.021 292.391 L
477.774 292.39 L
479.531 292.39 L
481.288 292.389 L
483.045 292.388 L
484.803 292.388 L
486.564 292.388 L
488.324 292.387 L
490.085 292.387 L
491.846 292.387 L
493.61 292.386 L
495.373 292.386 L
497.137 292.386 L
498.901 292.386 L
S
GR
GS
[0.75 0 0 0.75 0 0] CT
0.929 0.694 0.125 RC
2 LJ
N
498.901 292.386 M
500.667 292.385 L
502.433 292.385 L
504.199 292.385 L
505.965 292.385 L
506.223 292.385 L
506.482 292.385 L
506.741 292.385 L
507 292.385 L
S
GR
GS
[0.75 0 0 0.75 217.50021 21.18749] CT
/Helvetica-Bold 15 F
GS
[1 0 0 1 0 0] CT
-71.5 -4 moveto 
1 -1 scale
(Reaction stage 2) t 
GR
GR
GS
[0.75 0 0 0.75 0 0] CT
N
502.3 254.7 M
502.3 244.3 L
512.7 244.3 L
512.7 254.7 L
cp
f
GR
GS
[0.75 0 0 0.75 0 0] CT
1 1 0.863 RC
2 setlinecap
10.0 ML
1.333 LW
N
502.3 254.7 M
502.3 244.3 L
512.7 244.3 L
512.7 254.7 L
502.3 254.7 L
S
GR
GS
[0.75 0 0 0.75 0 0] CT
1 GC
N
422 114 M
422 44 L
494 44 L
494 114 L
cp
f
GR
GS
[0.75 0 0 0.75 355.5 44.25] CT
/Helvetica 12 F
GS
[1 0 0 1 0 0] CT
0 0 moveto 
1 -1 scale
(C) t 
GR
GR
GS
[0.75 0 0 0.75 362.25 48.75] CT
/Helvetica 9 F
GS
[1 0 0 1 0 0] CT
0 0 moveto 
1 -1 scale
(D) t 
GR
GR
GS
[0.75 0 0 0.75 0 0] CT
0 0.447 0.741 RC
2 setlinecap
10.0 ML
N
430 57.23 M
470 57.23 L
S
GR
GS
[0.75 0 0 0.75 355.5 60.75] CT
/Helvetica 12 F
GS
[1 0 0 1 0 0] CT
0 0 moveto 
1 -1 scale
(C) t 
GR
GR
GS
[0.75 0 0 0.75 362.25 65.25] CT
/Helvetica 9 F
GS
[1 0 0 1 0 0] CT
0 0 moveto 
1 -1 scale
(E) t 
GR
GR
GS
[0.75 0 0 0.75 0 0] CT
0.851 0.325 0.098 RC
2 setlinecap
10.0 ML
N
430 79 M
470 79 L
S
GR
GS
[0.75 0 0 0.75 355.5 77.25] CT
/Helvetica 12 F
GS
[1 0 0 1 0 0] CT
0 0 moveto 
1 -1 scale
(C) t 
GR
GR
GS
[0.75 0 0 0.75 362.25 81.75] CT
/Helvetica 9 F
GS
[1 0 0 1 0 0] CT
0 0 moveto 
1 -1 scale
(F) t 
GR
GR
GS
[0.75 0 0 0.75 0 0] CT
0.929 0.694 0.125 RC
2 setlinecap
10.0 ML
N
430 100.77 M
470 100.77 L
S
GR
GS
[0.75 0 0 0.75 0 0] CT
0.149 GC
2 setlinecap
10.0 ML
N
422 114 M
422 44 L
494 44 L
494 114 L
422 114 L
S
GR
GS
[0.75 0 0 0.75 0 0] CT
1 1 0.933 RC
N
438.333 242.451 M
500.333 242.451 L
500.333 200.451 L
438.333 200.451 L
cp
f
GR
GS
[0.75 0 0 0.75 0 0] CT
0.8 GC
2 setlinecap
10.0 ML
N
438.333 242.451 M
500.333 242.451 L
500.333 200.451 L
438.333 200.451 L
438.333 242.451 L
S
GR
GS
[0.75 0 0 0.75 331.74998 178.83836] CT
/Helvetica 13 F
GS
[1 0 0 1 0 0] CT
0 -21 moveto 
1 -1 scale
(X: 180) t 
GR
GR
GS
[0.75 0 0 0.75 331.74998 178.83836] CT
/Helvetica 13 F
GS
[1 0 0 1 0 0] CT
0 -4 moveto 
1 -1 scale
(Y: 25.49) t 
GR
GR
GS
[0.75 0 0 0.75 0 0] CT
0.608 GC
N
501.3 254.7 M
501.3 244.3 L
511.7 244.3 L
511.7 254.7 L
cp
f
GR
GS
[0.75 0 0 0.75 0 0] CT
1 1 0.863 RC
2 setlinecap
10.0 ML
1.333 LW
N
501.3 254.7 M
501.3 244.3 L
511.7 244.3 L
511.7 254.7 L
501.3 254.7 L
S
GR
%%Trailer
%%Pages: 1
%%EOF
