%!PS-Adobe-3.0 EPSF-3.0
%%Creator: (MATLAB, The Mathworks, Inc. Version 8.5.0.197613 \(R2015a\). Operating System: Linux)
%%Title: (/home/lukas/Dropbox/Universidad/Master/Control Theory/lab3/raport/chapter3/figures/C2\(t\)_1.eps)
%%CreationDate: 2016-03-24T16:03:18
%%Pages: (atend)
%%BoundingBox: 0 0 426 316
%%LanguageLevel: 2
%%EndComments
%%BeginProlog
%%BeginResource: procset (Apache XML Graphics Std ProcSet) 1.2 0
%%Version: 1.2 0
%%Copyright: (Copyright 2001-2003,2010 The Apache Software Foundation. License terms: http://www.apache.org/licenses/LICENSE-2.0)
/bd{bind def}bind def
/ld{load def}bd
/GR/grestore ld
/M/moveto ld
/LJ/setlinejoin ld
/C/curveto ld
/f/fill ld
/LW/setlinewidth ld
/GC/setgray ld
/t/show ld
/N/newpath ld
/CT/concat ld
/cp/closepath ld
/S/stroke ld
/L/lineto ld
/CC/setcmykcolor ld
/A/ashow ld
/GS/gsave ld
/RC/setrgbcolor ld
/RM/rmoveto ld
/ML/setmiterlimit ld
/re {4 2 roll M
1 index 0 rlineto
0 exch rlineto
neg 0 rlineto
cp } bd
/_ctm matrix def
/_tm matrix def
/BT { _ctm currentmatrix pop matrix _tm copy pop 0 0 moveto } bd
/ET { _ctm setmatrix } bd
/iTm { _ctm setmatrix _tm concat } bd
/Tm { _tm astore pop iTm 0 0 moveto } bd
/ux 0.0 def
/uy 0.0 def
/F {
  /Tp exch def
  /Tf exch def
  Tf findfont Tp scalefont setfont
  /cf Tf def  /cs Tp def
} bd
/ULS {currentpoint /uy exch def /ux exch def} bd
/ULE {
  /Tcx currentpoint pop def
  gsave
  newpath
  cf findfont cs scalefont dup
  /FontMatrix get 0 get /Ts exch def /FontInfo get dup
  /UnderlinePosition get Ts mul /To exch def
  /UnderlineThickness get Ts mul /Tt exch def
  ux uy To add moveto  Tcx uy To add lineto
  Tt setlinewidth stroke
  grestore
} bd
/OLE {
  /Tcx currentpoint pop def
  gsave
  newpath
  cf findfont cs scalefont dup
  /FontMatrix get 0 get /Ts exch def /FontInfo get dup
  /UnderlinePosition get Ts mul /To exch def
  /UnderlineThickness get Ts mul /Tt exch def
  ux uy To add cs add moveto Tcx uy To add cs add lineto
  Tt setlinewidth stroke
  grestore
} bd
/SOE {
  /Tcx currentpoint pop def
  gsave
  newpath
  cf findfont cs scalefont dup
  /FontMatrix get 0 get /Ts exch def /FontInfo get dup
  /UnderlinePosition get Ts mul /To exch def
  /UnderlineThickness get Ts mul /Tt exch def
  ux uy To add cs 10 mul 26 idiv add moveto Tcx uy To add cs 10 mul 26 idiv add lineto
  Tt setlinewidth stroke
  grestore
} bd
/QT {
/Y22 exch store
/X22 exch store
/Y21 exch store
/X21 exch store
currentpoint
/Y21 load 2 mul add 3 div exch
/X21 load 2 mul add 3 div exch
/X21 load 2 mul /X22 load add 3 div
/Y21 load 2 mul /Y22 load add 3 div
/X22 load /Y22 load curveto
} bd
/SSPD {
dup length /d exch dict def
{
/v exch def
/k exch def
currentpagedevice k known {
/cpdv currentpagedevice k get def
v cpdv ne {
/upd false def
/nullv v type /nulltype eq def
/nullcpdv cpdv type /nulltype eq def
nullv nullcpdv or
{
/upd true def
} {
/sametype v type cpdv type eq def
sametype {
v type /arraytype eq {
/vlen v length def
/cpdvlen cpdv length def
vlen cpdvlen eq {
0 1 vlen 1 sub {
/i exch def
/obj v i get def
/cpdobj cpdv i get def
obj cpdobj ne {
/upd true def
exit
} if
} for
} {
/upd true def
} ifelse
} {
v type /dicttype eq {
v {
/dv exch def
/dk exch def
/cpddv cpdv dk get def
dv cpddv ne {
/upd true def
exit
} if
} forall
} {
/upd true def
} ifelse
} ifelse
} if
} ifelse
upd true eq {
d k v put
} if
} if
} if
} forall
d length 0 gt {
d setpagedevice
} if
} bd
%%EndResource
%%BeginResource: procset (Apache XML Graphics EPS ProcSet) 1.0 0
%%Version: 1.0 0
%%Copyright: (Copyright 2002-2003 The Apache Software Foundation. License terms: http://www.apache.org/licenses/LICENSE-2.0)
/BeginEPSF { %def
/b4_Inc_state save def         % Save state for cleanup
/dict_count countdictstack def % Count objects on dict stack
/op_count count 1 sub def      % Count objects on operand stack
userdict begin                 % Push userdict on dict stack
/showpage { } def              % Redefine showpage, { } = null proc
0 setgray 0 setlinecap         % Prepare graphics state
1 setlinewidth 0 setlinejoin
10 setmiterlimit [ ] 0 setdash newpath
/languagelevel where           % If level not equal to 1 then
{pop languagelevel             % set strokeadjust and
1 ne                           % overprint to their defaults.
{false setstrokeadjust false setoverprint
} if
} if
} bd
/EndEPSF { %def
count op_count sub {pop} repeat            % Clean up stacks
countdictstack dict_count sub {end} repeat
b4_Inc_state restore
} bd
%%EndResource
%FOPBeginFontDict
%%IncludeResource: font Courier-Bold
%%IncludeResource: font Helvetica
%%IncludeResource: font Courier-BoldOblique
%%IncludeResource: font Courier-Oblique
%%IncludeResource: font Times-Roman
%%IncludeResource: font Helvetica-BoldOblique
%%IncludeResource: font Helvetica-Bold
%%IncludeResource: font Helvetica-Oblique
%%IncludeResource: font Times-BoldItalic
%%IncludeResource: font Courier
%%IncludeResource: font Times-Italic
%%IncludeResource: font Times-Bold
%%IncludeResource: font Symbol
%%IncludeResource: font ZapfDingbats
%FOPEndFontDict
%%BeginResource: encoding WinAnsiEncoding
/WinAnsiEncoding [
/.notdef /.notdef /.notdef /.notdef /.notdef
/.notdef /.notdef /.notdef /.notdef /.notdef
/.notdef /.notdef /.notdef /.notdef /.notdef
/.notdef /.notdef /.notdef /.notdef /.notdef
/.notdef /.notdef /.notdef /.notdef /.notdef
/.notdef /.notdef /.notdef /.notdef /.notdef
/.notdef /.notdef /space /exclam /quotedbl
/numbersign /dollar /percent /ampersand /quotesingle
/parenleft /parenright /asterisk /plus /comma
/hyphen /period /slash /zero /one
/two /three /four /five /six
/seven /eight /nine /colon /semicolon
/less /equal /greater /question /at
/A /B /C /D /E
/F /G /H /I /J
/K /L /M /N /O
/P /Q /R /S /T
/U /V /W /X /Y
/Z /bracketleft /backslash /bracketright /asciicircum
/underscore /quoteleft /a /b /c
/d /e /f /g /h
/i /j /k /l /m
/n /o /p /q /r
/s /t /u /v /w
/x /y /z /braceleft /bar
/braceright /asciitilde /bullet /Euro /bullet
/quotesinglbase /florin /quotedblbase /ellipsis /dagger
/daggerdbl /circumflex /perthousand /Scaron /guilsinglleft
/OE /bullet /Zcaron /bullet /bullet
/quoteleft /quoteright /quotedblleft /quotedblright /bullet
/endash /emdash /asciitilde /trademark /scaron
/guilsinglright /oe /bullet /zcaron /Ydieresis
/space /exclamdown /cent /sterling /currency
/yen /brokenbar /section /dieresis /copyright
/ordfeminine /guillemotleft /logicalnot /sfthyphen /registered
/macron /degree /plusminus /twosuperior /threesuperior
/acute /mu /paragraph /middot /cedilla
/onesuperior /ordmasculine /guillemotright /onequarter /onehalf
/threequarters /questiondown /Agrave /Aacute /Acircumflex
/Atilde /Adieresis /Aring /AE /Ccedilla
/Egrave /Eacute /Ecircumflex /Edieresis /Igrave
/Iacute /Icircumflex /Idieresis /Eth /Ntilde
/Ograve /Oacute /Ocircumflex /Otilde /Odieresis
/multiply /Oslash /Ugrave /Uacute /Ucircumflex
/Udieresis /Yacute /Thorn /germandbls /agrave
/aacute /acircumflex /atilde /adieresis /aring
/ae /ccedilla /egrave /eacute /ecircumflex
/edieresis /igrave /iacute /icircumflex /idieresis
/eth /ntilde /ograve /oacute /ocircumflex
/otilde /odieresis /divide /oslash /ugrave
/uacute /ucircumflex /udieresis /yacute /thorn
/ydieresis
] def
%%EndResource
%FOPBeginFontReencode
/Courier-Bold findfont
dup length dict begin
  {1 index /FID ne {def} {pop pop} ifelse} forall
  /Encoding WinAnsiEncoding def
  currentdict
end
/Courier-Bold exch definefont pop
/Helvetica findfont
dup length dict begin
  {1 index /FID ne {def} {pop pop} ifelse} forall
  /Encoding WinAnsiEncoding def
  currentdict
end
/Helvetica exch definefont pop
/Courier-BoldOblique findfont
dup length dict begin
  {1 index /FID ne {def} {pop pop} ifelse} forall
  /Encoding WinAnsiEncoding def
  currentdict
end
/Courier-BoldOblique exch definefont pop
/Courier-Oblique findfont
dup length dict begin
  {1 index /FID ne {def} {pop pop} ifelse} forall
  /Encoding WinAnsiEncoding def
  currentdict
end
/Courier-Oblique exch definefont pop
/Times-Roman findfont
dup length dict begin
  {1 index /FID ne {def} {pop pop} ifelse} forall
  /Encoding WinAnsiEncoding def
  currentdict
end
/Times-Roman exch definefont pop
/Helvetica-BoldOblique findfont
dup length dict begin
  {1 index /FID ne {def} {pop pop} ifelse} forall
  /Encoding WinAnsiEncoding def
  currentdict
end
/Helvetica-BoldOblique exch definefont pop
/Helvetica-Bold findfont
dup length dict begin
  {1 index /FID ne {def} {pop pop} ifelse} forall
  /Encoding WinAnsiEncoding def
  currentdict
end
/Helvetica-Bold exch definefont pop
/Helvetica-Oblique findfont
dup length dict begin
  {1 index /FID ne {def} {pop pop} ifelse} forall
  /Encoding WinAnsiEncoding def
  currentdict
end
/Helvetica-Oblique exch definefont pop
/Times-BoldItalic findfont
dup length dict begin
  {1 index /FID ne {def} {pop pop} ifelse} forall
  /Encoding WinAnsiEncoding def
  currentdict
end
/Times-BoldItalic exch definefont pop
/Courier findfont
dup length dict begin
  {1 index /FID ne {def} {pop pop} ifelse} forall
  /Encoding WinAnsiEncoding def
  currentdict
end
/Courier exch definefont pop
/Times-Italic findfont
dup length dict begin
  {1 index /FID ne {def} {pop pop} ifelse} forall
  /Encoding WinAnsiEncoding def
  currentdict
end
/Times-Italic exch definefont pop
/Times-Bold findfont
dup length dict begin
  {1 index /FID ne {def} {pop pop} ifelse} forall
  /Encoding WinAnsiEncoding def
  currentdict
end
/Times-Bold exch definefont pop
%FOPEndFontReencode
%%EndProlog
%%Page: 1 1
%%PageBoundingBox: 0 0 426 316
%%BeginPageSetup
[1 0 0 -1 0 316] CT
%%EndPageSetup
GS
[0.75 0 0 0.75 0 0.25] CT
1 GC
N
0 0 568 421 re
f
GR
GS
[0.75 0 0 0.75 0 0.25] CT
1 GC
N
0 0 568 421 re
f
GR
GS
[0.75 0 0 0.75 0 0.25] CT
1 GC
N
74 375 M
514 375 L
514 32 L
74 32 L
cp
f
GR
GS
[0.75 0 0 0.75 0 0.25] CT
0.873 GC
2 setlinecap
10.0 ML
N
74 375 M
74 32 L
S
GR
GS
[0.75 0 0 0.75 0 0.25] CT
0.873 GC
2 setlinecap
10.0 ML
N
122.889 375 M
122.889 32 L
S
GR
GS
[0.75 0 0 0.75 0 0.25] CT
0.873 GC
2 setlinecap
10.0 ML
N
171.778 375 M
171.778 32 L
S
GR
GS
[0.75 0 0 0.75 0 0.25] CT
0.873 GC
2 setlinecap
10.0 ML
N
220.667 375 M
220.667 32 L
S
GR
GS
[0.75 0 0 0.75 0 0.25] CT
0.873 GC
2 setlinecap
10.0 ML
N
269.556 375 M
269.556 32 L
S
GR
GS
[0.75 0 0 0.75 0 0.25] CT
0.873 GC
2 setlinecap
10.0 ML
N
318.444 375 M
318.444 32 L
S
GR
GS
[0.75 0 0 0.75 0 0.25] CT
0.873 GC
2 setlinecap
10.0 ML
N
367.333 375 M
367.333 32 L
S
GR
GS
[0.75 0 0 0.75 0 0.25] CT
0.873 GC
2 setlinecap
10.0 ML
N
416.222 375 M
416.222 32 L
S
GR
GS
[0.75 0 0 0.75 0 0.25] CT
0.873 GC
2 setlinecap
10.0 ML
N
465.111 375 M
465.111 32 L
S
GR
GS
[0.75 0 0 0.75 0 0.25] CT
0.873 GC
2 setlinecap
10.0 ML
N
514 375 M
514 32 L
S
GR
GS
[0.75 0 0 0.75 0 0.25] CT
0.873 GC
2 setlinecap
10.0 ML
N
514 375 M
74 375 L
S
GR
GS
[0.75 0 0 0.75 0 0.25] CT
0.873 GC
2 setlinecap
10.0 ML
N
514 332.125 M
74 332.125 L
S
GR
GS
[0.75 0 0 0.75 0 0.25] CT
0.873 GC
2 setlinecap
10.0 ML
N
514 289.25 M
74 289.25 L
S
GR
GS
[0.75 0 0 0.75 0 0.25] CT
0.873 GC
2 setlinecap
10.0 ML
N
514 246.375 M
74 246.375 L
S
GR
GS
[0.75 0 0 0.75 0 0.25] CT
0.873 GC
2 setlinecap
10.0 ML
N
514 203.5 M
74 203.5 L
S
GR
GS
[0.75 0 0 0.75 0 0.25] CT
0.873 GC
2 setlinecap
10.0 ML
N
514 160.625 M
74 160.625 L
S
GR
GS
[0.75 0 0 0.75 0 0.25] CT
0.873 GC
2 setlinecap
10.0 ML
N
514 117.75 M
74 117.75 L
S
GR
GS
[0.75 0 0 0.75 0 0.25] CT
0.873 GC
2 setlinecap
10.0 ML
N
514 74.875 M
74 74.875 L
S
GR
GS
[0.75 0 0 0.75 0 0.25] CT
0.873 GC
2 setlinecap
10.0 ML
N
514 32 M
74 32 L
S
GR
GS
[0.75 0 0 0.75 220.50016 299.24999] CT
0.149 GC
/Helvetica 15 F
GS
[1 0 0 1 0 0] CT
-39.5 14 moveto 
1 -1 scale
(time \(min\)) t 
GR
GR
GS
[0.75 0 0 0.75 0 0.25] CT
0.149 GC
2 setlinecap
10.0 ML
N
74 375 M
514 375 L
S
GR
GS
[0.75 0 0 0.75 0 0.25] CT
0.149 GC
2 setlinecap
10.0 ML
N
74 32 M
514 32 L
S
GR
GS
[0.75 0 0 0.75 0 0.25] CT
0.149 GC
2 setlinecap
10.0 ML
N
74 375 M
74 370.6 L
S
GR
GS
[0.75 0 0 0.75 0 0.25] CT
0.149 GC
2 setlinecap
10.0 ML
N
122.889 375 M
122.889 370.6 L
S
GR
GS
[0.75 0 0 0.75 0 0.25] CT
0.149 GC
2 setlinecap
10.0 ML
N
171.778 375 M
171.778 370.6 L
S
GR
GS
[0.75 0 0 0.75 0 0.25] CT
0.149 GC
2 setlinecap
10.0 ML
N
220.667 375 M
220.667 370.6 L
S
GR
GS
[0.75 0 0 0.75 0 0.25] CT
0.149 GC
2 setlinecap
10.0 ML
N
269.556 375 M
269.556 370.6 L
S
GR
GS
[0.75 0 0 0.75 0 0.25] CT
0.149 GC
2 setlinecap
10.0 ML
N
318.444 375 M
318.444 370.6 L
S
GR
GS
[0.75 0 0 0.75 0 0.25] CT
0.149 GC
2 setlinecap
10.0 ML
N
367.333 375 M
367.333 370.6 L
S
GR
GS
[0.75 0 0 0.75 0 0.25] CT
0.149 GC
2 setlinecap
10.0 ML
N
416.222 375 M
416.222 370.6 L
S
GR
GS
[0.75 0 0 0.75 0 0.25] CT
0.149 GC
2 setlinecap
10.0 ML
N
465.111 375 M
465.111 370.6 L
S
GR
GS
[0.75 0 0 0.75 0 0.25] CT
0.149 GC
2 setlinecap
10.0 ML
N
514 375 M
514 370.6 L
S
GR
GS
[0.75 0 0 0.75 0 0.25] CT
0.149 GC
2 setlinecap
10.0 ML
N
74 32 M
74 36.4 L
S
GR
GS
[0.75 0 0 0.75 0 0.25] CT
0.149 GC
2 setlinecap
10.0 ML
N
122.889 32 M
122.889 36.4 L
S
GR
GS
[0.75 0 0 0.75 0 0.25] CT
0.149 GC
2 setlinecap
10.0 ML
N
171.778 32 M
171.778 36.4 L
S
GR
GS
[0.75 0 0 0.75 0 0.25] CT
0.149 GC
2 setlinecap
10.0 ML
N
220.667 32 M
220.667 36.4 L
S
GR
GS
[0.75 0 0 0.75 0 0.25] CT
0.149 GC
2 setlinecap
10.0 ML
N
269.556 32 M
269.556 36.4 L
S
GR
GS
[0.75 0 0 0.75 0 0.25] CT
0.149 GC
2 setlinecap
10.0 ML
N
318.444 32 M
318.444 36.4 L
S
GR
GS
[0.75 0 0 0.75 0 0.25] CT
0.149 GC
2 setlinecap
10.0 ML
N
367.333 32 M
367.333 36.4 L
S
GR
GS
[0.75 0 0 0.75 0 0.25] CT
0.149 GC
2 setlinecap
10.0 ML
N
416.222 32 M
416.222 36.4 L
S
GR
GS
[0.75 0 0 0.75 0 0.25] CT
0.149 GC
2 setlinecap
10.0 ML
N
465.111 32 M
465.111 36.4 L
S
GR
GS
[0.75 0 0 0.75 0 0.25] CT
0.149 GC
2 setlinecap
10.0 ML
N
514 32 M
514 36.4 L
S
GR
GS
[0.75 0 0 0.75 55.5 285.50001] CT
0.149 GC
/Helvetica 13 F
GS
[1 0 0 1 0 0] CT
-4.5 13 moveto 
1 -1 scale
(0) t 
GR
GR
GS
[0.75 0 0 0.75 92.16666 285.50001] CT
0.149 GC
/Helvetica 13 F
GS
[1 0 0 1 0 0] CT
-8.5 13 moveto 
1 -1 scale
(20) t 
GR
GR
GS
[0.75 0 0 0.75 128.83333 285.50001] CT
0.149 GC
/Helvetica 13 F
GS
[1 0 0 1 0 0] CT
-8.5 13 moveto 
1 -1 scale
(40) t 
GR
GR
GS
[0.75 0 0 0.75 165.5 285.50001] CT
0.149 GC
/Helvetica 13 F
GS
[1 0 0 1 0 0] CT
-8.5 13 moveto 
1 -1 scale
(60) t 
GR
GR
GS
[0.75 0 0 0.75 202.16666 285.50001] CT
0.149 GC
/Helvetica 13 F
GS
[1 0 0 1 0 0] CT
-8.5 13 moveto 
1 -1 scale
(80) t 
GR
GR
GS
[0.75 0 0 0.75 238.83334 285.50001] CT
0.149 GC
/Helvetica 13 F
GS
[1 0 0 1 0 0] CT
-12.5 13 moveto 
1 -1 scale
(100) t 
GR
GR
GS
[0.75 0 0 0.75 275.50001 285.50001] CT
0.149 GC
/Helvetica 13 F
GS
[1 0 0 1 0 0] CT
-12.5 13 moveto 
1 -1 scale
(120) t 
GR
GR
GS
[0.75 0 0 0.75 312.16667 285.50001] CT
0.149 GC
/Helvetica 13 F
GS
[1 0 0 1 0 0] CT
-12.5 13 moveto 
1 -1 scale
(140) t 
GR
GR
GS
[0.75 0 0 0.75 348.83334 285.50001] CT
0.149 GC
/Helvetica 13 F
GS
[1 0 0 1 0 0] CT
-12.5 13 moveto 
1 -1 scale
(160) t 
GR
GR
GS
[0.75 0 0 0.75 385.5 285.50001] CT
0.149 GC
/Helvetica 13 F
GS
[1 0 0 1 0 0] CT
-12.5 13 moveto 
1 -1 scale
(180) t 
GR
GR
GS
[0 -0.75 0.75 0 28.5 180.25] CT
0.149 GC
/Helvetica 15 F
GS
[1 0 0 1 0 0] CT
0 0 moveto 
1 -1 scale
(V) t 
GR
GR
GS
[0 -0.75 0.75 0 33.75 172] CT
0.149 GC
/Helvetica 11 F
GS
[1 0 0 1 0 0] CT
0 0 moveto 
1 -1 scale
(2) t 
GR
GR
GS
[0 -0.75 0.75 0 28.5 166.75] CT
0.149 GC
/Helvetica 15 F
GS
[1 0 0 1 0 0] CT
0 0 moveto 
1 -1 scale
(C \(mol\)) t 
GR
GR
GS
[0.75 0 0 0.75 0 0.25] CT
0.149 GC
2 setlinecap
10.0 ML
N
74 375 M
74 32 L
S
GR
GS
[0.75 0 0 0.75 0 0.25] CT
0.149 GC
2 setlinecap
10.0 ML
N
514 375 M
514 32 L
S
GR
GS
[0.75 0 0 0.75 0 0.25] CT
0.149 GC
2 setlinecap
10.0 ML
N
74 375 M
78.4 375 L
S
GR
GS
[0.75 0 0 0.75 0 0.25] CT
0.149 GC
2 setlinecap
10.0 ML
N
74 332.125 M
78.4 332.125 L
S
GR
GS
[0.75 0 0 0.75 0 0.25] CT
0.149 GC
2 setlinecap
10.0 ML
N
74 289.25 M
78.4 289.25 L
S
GR
GS
[0.75 0 0 0.75 0 0.25] CT
0.149 GC
2 setlinecap
10.0 ML
N
74 246.375 M
78.4 246.375 L
S
GR
GS
[0.75 0 0 0.75 0 0.25] CT
0.149 GC
2 setlinecap
10.0 ML
N
74 203.5 M
78.4 203.5 L
S
GR
GS
[0.75 0 0 0.75 0 0.25] CT
0.149 GC
2 setlinecap
10.0 ML
N
74 160.625 M
78.4 160.625 L
S
GR
GS
[0.75 0 0 0.75 0 0.25] CT
0.149 GC
2 setlinecap
10.0 ML
N
74 117.75 M
78.4 117.75 L
S
GR
GS
[0.75 0 0 0.75 0 0.25] CT
0.149 GC
2 setlinecap
10.0 ML
N
74 74.875 M
78.4 74.875 L
S
GR
GS
[0.75 0 0 0.75 0 0.25] CT
0.149 GC
2 setlinecap
10.0 ML
N
74 32 M
78.4 32 L
S
GR
GS
[0.75 0 0 0.75 0 0.25] CT
0.149 GC
2 setlinecap
10.0 ML
N
514 375 M
509.6 375 L
S
GR
GS
[0.75 0 0 0.75 0 0.25] CT
0.149 GC
2 setlinecap
10.0 ML
N
514 332.125 M
509.6 332.125 L
S
GR
GS
[0.75 0 0 0.75 0 0.25] CT
0.149 GC
2 setlinecap
10.0 ML
N
514 289.25 M
509.6 289.25 L
S
GR
GS
[0.75 0 0 0.75 0 0.25] CT
0.149 GC
2 setlinecap
10.0 ML
N
514 246.375 M
509.6 246.375 L
S
GR
GS
[0.75 0 0 0.75 0 0.25] CT
0.149 GC
2 setlinecap
10.0 ML
N
514 203.5 M
509.6 203.5 L
S
GR
GS
[0.75 0 0 0.75 0 0.25] CT
0.149 GC
2 setlinecap
10.0 ML
N
514 160.625 M
509.6 160.625 L
S
GR
GS
[0.75 0 0 0.75 0 0.25] CT
0.149 GC
2 setlinecap
10.0 ML
N
514 117.75 M
509.6 117.75 L
S
GR
GS
[0.75 0 0 0.75 0 0.25] CT
0.149 GC
2 setlinecap
10.0 ML
N
514 74.875 M
509.6 74.875 L
S
GR
GS
[0.75 0 0 0.75 0 0.25] CT
0.149 GC
2 setlinecap
10.0 ML
N
514 32 M
509.6 32 L
S
GR
GS
[0.75 0 0 0.75 51.5 281.5] CT
0.149 GC
/Helvetica 13 F
GS
[1 0 0 1 0 0] CT
-9 4.5 moveto 
1 -1 scale
(0) t 
GR
GR
GS
[0.75 0 0 0.75 51.5 249.34375] CT
0.149 GC
/Helvetica 13 F
GS
[1 0 0 1 0 0] CT
-17 4.5 moveto 
1 -1 scale
(10) t 
GR
GR
GS
[0.75 0 0 0.75 51.5 217.1875] CT
0.149 GC
/Helvetica 13 F
GS
[1 0 0 1 0 0] CT
-17 4.5 moveto 
1 -1 scale
(20) t 
GR
GR
GS
[0.75 0 0 0.75 51.5 185.03125] CT
0.149 GC
/Helvetica 13 F
GS
[1 0 0 1 0 0] CT
-17 4.5 moveto 
1 -1 scale
(30) t 
GR
GR
GS
[0.75 0 0 0.75 51.5 152.875] CT
0.149 GC
/Helvetica 13 F
GS
[1 0 0 1 0 0] CT
-17 4.5 moveto 
1 -1 scale
(40) t 
GR
GR
GS
[0.75 0 0 0.75 51.5 120.71875] CT
0.149 GC
/Helvetica 13 F
GS
[1 0 0 1 0 0] CT
-17 4.5 moveto 
1 -1 scale
(50) t 
GR
GR
GS
[0.75 0 0 0.75 51.5 88.5625] CT
0.149 GC
/Helvetica 13 F
GS
[1 0 0 1 0 0] CT
-17 4.5 moveto 
1 -1 scale
(60) t 
GR
GR
GS
[0.75 0 0 0.75 51.5 56.40625] CT
0.149 GC
/Helvetica 13 F
GS
[1 0 0 1 0 0] CT
-17 4.5 moveto 
1 -1 scale
(70) t 
GR
GR
GS
[0.75 0 0 0.75 51.5 24.25] CT
0.149 GC
/Helvetica 13 F
GS
[1 0 0 1 0 0] CT
-17 4.5 moveto 
1 -1 scale
(80) t 
GR
GR
GS
[0.75 0 0 0.75 0 0.25] CT
0 0.447 0.741 RC
2 LJ
N
74 375 M
74.001 375 L
74.001 375 L
74.002 375 L
74.002 375 L
74.005 375 L
74.007 375 L
74.01 375 L
74.012 375 L
74.025 375 L
74.038 375 L
74.051 375 L
74.063 375 L
74.127 375 L
74.191 375 L
74.255 375 L
74.319 375 L
74.638 375 L
74.958 375 L
75.277 375 L
75.597 375 L
76.284 375 L
76.971 375 L
77.658 375 L
78.346 375 L
79.182 375 L
80.019 375 L
80.856 375 L
81.693 375 L
82.586 375 L
83.478 375 L
84.371 375 L
85.264 375 L
86.223 375 L
87.182 375 L
88.141 375 L
89.1 375 L
90.13 375 L
91.16 375 L
92.19 375 L
93.219 375 L
94.354 375 L
95.488 375 L
96.622 375 L
97.756 375 L
99.068 375 L
100.38 375 L
101.693 375 L
103.005 375 L
104.517 375 L
S
GR
GS
[0.75 0 0 0.75 0 0.25] CT
0 0.447 0.741 RC
2 LJ
N
104.517 375 M
106.03 375 L
107.543 375 L
109.055 375 L
110.8 375 L
112.544 375 L
114.289 375 L
116.033 375 L
118.046 375 L
120.059 375 L
122.073 375 L
124.086 375 L
126.413 375 L
128.74 375 L
131.067 375 L
133.393 375 L
136.088 375 L
138.782 375 L
141.477 375 L
144.171 375 L
147.298 375 L
150.425 375 L
153.552 375 L
156.678 375 L
160.316 375 L
163.955 375 L
167.593 375 L
171.231 375 L
175.337 375 L
179.444 375 L
183.551 375 L
187.657 375 L
192.251 375 L
196.844 375 L
201.437 375 L
206.03 375 L
211.171 375 L
216.312 375 L
221.453 375 L
226.594 375 L
232.348 375 L
238.102 375 L
243.855 375 L
249.609 375 L
255.965 375 L
262.32 375 L
268.676 375 L
275.031 375 L
281.387 375 L
287.743 375 L
S
GR
GS
[0.75 0 0 0.75 0 0.25] CT
0 0.447 0.741 RC
2 LJ
N
287.743 375 M
294.098 375 L
300.454 375 L
307.396 375 L
314.338 375 L
321.28 375 L
328.222 375 L
328.222 375 L
328.223 374.996 L
328.224 374.991 L
328.225 374.987 L
328.226 374.983 L
328.23 374.961 L
328.234 374.939 L
328.239 374.918 L
328.243 374.896 L
328.265 374.788 L
328.287 374.68 L
328.309 374.572 L
328.331 374.465 L
328.44 373.928 L
328.55 373.395 L
328.66 372.864 L
328.769 372.337 L
329.153 370.51 L
329.537 368.719 L
329.921 366.962 L
330.305 365.239 L
330.812 363.011 L
331.32 360.839 L
331.827 358.718 L
332.334 356.649 L
332.94 354.242 L
333.546 351.902 L
334.152 349.627 L
334.758 347.414 L
335.458 344.932 L
336.158 342.527 L
336.858 340.196 L
337.558 337.935 L
338.355 335.446 L
339.151 333.041 L
339.947 330.716 L
340.743 328.467 L
341.64 326.021 L
342.537 323.664 L
343.434 321.391 L
344.331 319.199 L
345.336 316.835 L
346.34 314.564 L
S
GR
GS
[0.75 0 0 0.75 0 0.25] CT
0 0.447 0.741 RC
2 LJ
N
346.34 314.564 M
347.345 312.379 L
348.349 310.278 L
349.469 308.029 L
350.588 305.873 L
351.708 303.805 L
352.827 301.822 L
354.03 299.78 L
355.233 297.825 L
356.436 295.954 L
357.638 294.161 L
358.907 292.351 L
360.175 290.62 L
361.444 288.964 L
362.712 287.38 L
364.044 285.789 L
365.375 284.268 L
366.707 282.815 L
368.038 281.425 L
369.429 280.038 L
370.819 278.714 L
372.21 277.449 L
373.6 276.24 L
375.045 275.041 L
376.49 273.896 L
377.935 272.804 L
379.38 271.761 L
380.875 270.732 L
382.37 269.75 L
383.865 268.814 L
385.359 267.921 L
386.898 267.044 L
388.438 266.208 L
389.977 265.412 L
391.516 264.652 L
393.095 263.909 L
394.674 263.202 L
396.253 262.528 L
397.832 261.886 L
399.445 261.261 L
401.059 260.666 L
402.673 260.099 L
404.286 259.559 L
405.93 259.036 L
407.574 258.537 L
409.217 258.063 L
410.861 257.612 L
412.531 257.175 L
414.2 256.76 L
415.87 256.365 L
S
GR
GS
[0.75 0 0 0.75 0 0.25] CT
0 0.447 0.741 RC
2 LJ
N
415.87 256.365 M
417.54 255.989 L
419.231 255.626 L
420.923 255.282 L
422.615 254.954 L
424.307 254.642 L
426.017 254.342 L
427.727 254.057 L
429.438 253.785 L
431.148 253.527 L
432.875 253.28 L
434.601 253.045 L
436.327 252.821 L
438.053 252.608 L
439.792 252.404 L
441.532 252.211 L
443.271 252.027 L
445.01 251.851 L
446.761 251.684 L
448.511 251.525 L
450.261 251.374 L
452.011 251.23 L
453.771 251.093 L
455.53 250.962 L
457.289 250.838 L
459.049 250.72 L
460.816 250.608 L
462.583 250.501 L
464.349 250.4 L
466.116 250.303 L
467.889 250.211 L
469.662 250.124 L
471.435 250.041 L
473.208 249.962 L
474.987 249.887 L
476.765 249.815 L
478.543 249.747 L
480.321 249.683 L
482.103 249.621 L
483.886 249.563 L
485.668 249.508 L
487.45 249.455 L
489.236 249.405 L
491.022 249.357 L
492.807 249.312 L
494.593 249.269 L
496.382 249.228 L
498.17 249.19 L
499.959 249.153 L
501.747 249.118 L
S
GR
GS
[0.75 0 0 0.75 0 0.25] CT
0 0.447 0.741 RC
2 LJ
N
501.747 249.118 M
503.538 249.084 L
505.329 249.053 L
507.12 249.023 L
508.911 248.994 L
510.183 248.975 L
511.455 248.956 L
512.728 248.938 L
514 248.921 L
S
GR
GS
[0.75 0 0 0.75 0 0.25] CT
0.851 0.325 0.098 RC
2 LJ
N
74 375 M
74.001 375 L
74.001 375 L
74.002 375 L
74.002 375 L
74.005 375 L
74.007 375 L
74.01 375 L
74.012 375 L
74.025 375 L
74.038 375 L
74.051 375 L
74.063 375 L
74.127 375 L
74.191 375 L
74.255 375 L
74.319 375 L
74.638 375 L
74.958 375 L
75.277 375 L
75.597 375 L
76.284 375 L
76.971 375 L
77.658 375 L
78.346 375 L
79.182 375 L
80.019 375 L
80.856 375 L
81.693 375 L
82.586 375 L
83.478 375 L
84.371 375 L
85.264 375 L
86.223 375 L
87.182 375 L
88.141 375 L
89.1 375 L
90.13 375 L
91.16 375 L
92.19 375 L
93.219 375 L
94.354 375 L
95.488 375 L
96.622 375 L
97.756 375 L
99.068 375 L
100.38 375 L
101.693 375 L
103.005 375 L
104.517 375 L
S
GR
GS
[0.75 0 0 0.75 0 0.25] CT
0.851 0.325 0.098 RC
2 LJ
N
104.517 375 M
106.03 375 L
107.543 375 L
109.055 375 L
110.8 375 L
112.544 375 L
114.289 375 L
116.033 375 L
118.046 375 L
120.059 375 L
122.073 375 L
124.086 375 L
126.413 375 L
128.74 375 L
131.067 375 L
133.393 375 L
136.088 375 L
138.782 375 L
141.477 375 L
144.171 375 L
147.298 375 L
150.425 375 L
153.552 375 L
156.678 375 L
160.316 375 L
163.955 375 L
167.593 375 L
171.231 375 L
175.337 375 L
179.444 375 L
183.551 375 L
187.657 375 L
192.251 375 L
196.844 375 L
201.437 375 L
206.03 375 L
211.171 375 L
216.312 375 L
221.453 375 L
226.594 375 L
232.348 375 L
238.102 375 L
243.855 375 L
249.609 375 L
255.965 375 L
262.32 375 L
268.676 375 L
275.031 375 L
281.387 375 L
287.743 375 L
S
GR
GS
[0.75 0 0 0.75 0 0.25] CT
0.851 0.325 0.098 RC
2 LJ
N
287.743 375 M
294.098 375 L
300.454 375 L
307.396 375 L
314.338 375 L
321.28 375 L
328.222 375 L
328.222 375 L
328.223 374.989 L
328.224 374.978 L
328.225 374.968 L
328.226 374.957 L
328.23 374.903 L
328.234 374.849 L
328.239 374.794 L
328.243 374.74 L
328.265 374.47 L
328.287 374.201 L
328.309 373.931 L
328.331 373.662 L
328.44 372.321 L
328.55 370.987 L
328.66 369.661 L
328.769 368.342 L
329.153 363.776 L
329.537 359.298 L
329.921 354.906 L
330.305 350.596 L
330.812 345.028 L
331.32 339.596 L
331.827 334.296 L
332.334 329.123 L
332.94 323.105 L
333.546 317.255 L
334.152 311.568 L
334.758 306.036 L
335.458 299.831 L
336.158 293.818 L
336.858 287.99 L
337.558 282.338 L
338.355 276.116 L
339.151 270.103 L
339.947 264.29 L
340.743 258.668 L
341.64 252.554 L
342.537 246.66 L
343.434 240.978 L
344.331 235.497 L
345.336 229.589 L
346.34 223.909 L
S
GR
GS
[0.75 0 0 0.75 0 0.25] CT
0.851 0.325 0.098 RC
2 LJ
N
346.34 223.909 M
347.345 218.448 L
348.349 213.194 L
349.469 207.571 L
350.588 202.182 L
351.708 197.014 L
352.827 192.055 L
354.03 186.95 L
355.233 182.064 L
356.436 177.384 L
357.638 172.902 L
358.907 168.378 L
360.175 164.051 L
361.444 159.911 L
362.712 155.949 L
364.044 151.972 L
365.375 148.171 L
366.707 144.537 L
368.038 141.063 L
369.429 137.595 L
370.819 134.284 L
372.21 131.122 L
373.6 128.1 L
375.045 125.102 L
376.49 122.241 L
377.935 119.51 L
379.38 116.903 L
380.875 114.33 L
382.37 111.876 L
383.865 109.536 L
385.359 107.303 L
386.898 105.11 L
388.438 103.021 L
389.977 101.029 L
391.516 99.13 L
393.095 97.273 L
394.674 95.505 L
396.253 93.82 L
397.832 92.215 L
399.445 90.652 L
401.059 89.164 L
402.673 87.747 L
404.286 86.398 L
405.93 85.089 L
407.574 83.843 L
409.217 82.658 L
410.861 81.529 L
412.531 80.438 L
414.2 79.4 L
415.87 78.412 L
S
GR
GS
[0.75 0 0 0.75 0 0.25] CT
0.851 0.325 0.098 RC
2 LJ
N
415.87 78.412 M
417.54 77.472 L
419.231 76.566 L
420.923 75.704 L
422.615 74.885 L
424.307 74.105 L
426.017 73.355 L
427.727 72.642 L
429.438 71.964 L
431.148 71.319 L
432.875 70.7 L
434.601 70.112 L
436.327 69.552 L
438.053 69.02 L
439.792 68.511 L
441.532 68.027 L
443.271 67.566 L
445.01 67.129 L
446.761 66.71 L
448.511 66.312 L
450.261 65.934 L
452.011 65.575 L
453.771 65.232 L
455.53 64.905 L
457.289 64.595 L
459.049 64.301 L
460.816 64.02 L
462.583 63.753 L
464.349 63.499 L
466.116 63.258 L
467.889 63.028 L
469.662 62.809 L
471.435 62.601 L
473.208 62.404 L
474.987 62.216 L
476.765 62.038 L
478.543 61.868 L
480.321 61.707 L
482.103 61.554 L
483.886 61.408 L
485.668 61.269 L
487.45 61.138 L
489.236 61.012 L
491.022 60.893 L
492.807 60.781 L
494.593 60.673 L
496.382 60.571 L
498.17 60.474 L
499.959 60.382 L
501.747 60.294 L
S
GR
GS
[0.75 0 0 0.75 0 0.25] CT
0.851 0.325 0.098 RC
2 LJ
N
501.747 60.294 M
503.538 60.211 L
505.329 60.132 L
507.12 60.057 L
508.911 59.985 L
510.183 59.937 L
511.455 59.89 L
512.728 59.845 L
514 59.802 L
S
GR
GS
[0.75 0 0 0.75 0 0.25] CT
0.929 0.694 0.125 RC
2 LJ
N
74 375 M
74.001 375 L
74.001 375 L
74.002 375 L
74.002 375 L
74.005 375 L
74.007 375 L
74.01 375 L
74.012 375 L
74.025 375 L
74.038 375 L
74.051 375 L
74.063 375 L
74.127 375 L
74.191 375 L
74.255 375 L
74.319 375 L
74.638 375 L
74.958 375 L
75.277 375 L
75.597 375 L
76.284 375 L
76.971 375 L
77.658 375 L
78.346 375 L
79.182 375 L
80.019 375 L
80.856 375 L
81.693 375 L
82.586 375 L
83.478 375 L
84.371 375 L
85.264 375 L
86.223 375 L
87.182 375 L
88.141 375 L
89.1 375 L
90.13 375 L
91.16 375 L
92.19 375 L
93.219 375 L
94.354 375 L
95.488 375 L
96.622 375 L
97.756 375 L
99.068 375 L
100.38 375 L
101.693 375 L
103.005 375 L
104.517 375 L
S
GR
GS
[0.75 0 0 0.75 0 0.25] CT
0.929 0.694 0.125 RC
2 LJ
N
104.517 375 M
106.03 375 L
107.543 375 L
109.055 375 L
110.8 375 L
112.544 375 L
114.289 375 L
116.033 375 L
118.046 375 L
120.059 375 L
122.073 375 L
124.086 375 L
126.413 375 L
128.74 375 L
131.067 375 L
133.393 375 L
136.088 375 L
138.782 375 L
141.477 375 L
144.171 375 L
147.298 375 L
150.425 375 L
153.552 375 L
156.678 375 L
160.316 375 L
163.955 375 L
167.593 375 L
171.231 375 L
175.337 375 L
179.444 375 L
183.551 375 L
187.657 375 L
192.251 375 L
196.844 375 L
201.437 375 L
206.03 375 L
211.171 375 L
216.312 375 L
221.453 375 L
226.594 375 L
232.348 375 L
238.102 375 L
243.855 375 L
249.609 375 L
255.965 375 L
262.32 375 L
268.676 375 L
275.031 375 L
281.387 375 L
287.743 375 L
S
GR
GS
[0.75 0 0 0.75 0 0.25] CT
0.929 0.694 0.125 RC
2 LJ
N
287.743 375 M
294.098 375 L
300.454 375 L
307.396 375 L
314.338 375 L
321.28 375 L
328.222 375 L
328.222 375 L
328.223 374.994 L
328.224 374.988 L
328.225 374.982 L
328.226 374.976 L
328.23 374.945 L
328.234 374.915 L
328.239 374.884 L
328.243 374.854 L
328.265 374.702 L
328.287 374.551 L
328.309 374.399 L
328.331 374.249 L
328.44 373.5 L
328.55 372.759 L
328.66 372.026 L
328.769 371.302 L
329.153 368.826 L
329.537 366.445 L
329.921 364.153 L
330.305 361.948 L
330.812 359.16 L
331.32 356.506 L
331.827 353.98 L
332.334 351.574 L
332.94 348.847 L
333.546 346.271 L
334.152 343.836 L
334.758 341.533 L
335.458 339.024 L
336.158 336.669 L
336.858 334.456 L
337.558 332.374 L
338.355 330.156 L
339.151 328.085 L
339.947 326.149 L
340.743 324.339 L
341.64 322.437 L
342.537 320.671 L
343.434 319.03 L
344.331 317.502 L
345.336 315.917 L
346.34 314.452 L
S
GR
GS
[0.75 0 0 0.75 0 0.25] CT
0.929 0.694 0.125 RC
2 LJ
N
346.34 314.452 M
347.345 313.097 L
348.349 311.844 L
349.469 310.555 L
350.588 309.372 L
351.708 308.283 L
352.827 307.281 L
354.03 306.293 L
355.233 305.387 L
356.436 304.557 L
357.638 303.795 L
358.907 303.059 L
360.175 302.386 L
361.444 301.769 L
362.712 301.205 L
364.044 300.663 L
365.375 300.168 L
366.707 299.715 L
368.038 299.302 L
369.429 298.907 L
370.819 298.548 L
372.21 298.22 L
373.6 297.92 L
375.045 297.636 L
376.49 297.378 L
377.935 297.142 L
379.38 296.928 L
380.875 296.726 L
382.37 296.542 L
383.865 296.375 L
385.359 296.223 L
386.898 296.08 L
388.438 295.951 L
389.977 295.833 L
391.516 295.726 L
393.095 295.627 L
394.674 295.536 L
396.253 295.454 L
397.832 295.38 L
399.445 295.311 L
401.059 295.248 L
402.673 295.191 L
404.286 295.14 L
405.93 295.092 L
407.574 295.049 L
409.217 295.01 L
410.861 294.975 L
412.531 294.943 L
414.2 294.913 L
415.87 294.886 L
S
GR
GS
[0.75 0 0 0.75 0 0.25] CT
0.929 0.694 0.125 RC
2 LJ
N
415.87 294.886 M
417.54 294.862 L
419.231 294.84 L
420.923 294.82 L
422.615 294.802 L
424.307 294.786 L
426.017 294.771 L
427.727 294.757 L
429.438 294.745 L
431.148 294.734 L
432.875 294.724 L
434.601 294.714 L
436.327 294.706 L
438.053 294.699 L
439.792 294.692 L
441.532 294.686 L
443.271 294.68 L
445.01 294.675 L
446.761 294.671 L
448.511 294.666 L
450.261 294.663 L
452.011 294.659 L
453.771 294.656 L
455.53 294.654 L
457.289 294.651 L
459.049 294.649 L
460.816 294.647 L
462.583 294.645 L
464.349 294.643 L
466.116 294.642 L
467.889 294.64 L
469.662 294.639 L
471.435 294.638 L
473.208 294.637 L
474.987 294.636 L
476.765 294.635 L
478.543 294.635 L
480.321 294.634 L
482.103 294.633 L
483.886 294.633 L
485.668 294.632 L
487.45 294.632 L
489.236 294.631 L
491.022 294.631 L
492.807 294.631 L
494.593 294.63 L
496.382 294.63 L
498.17 294.63 L
499.959 294.63 L
501.747 294.629 L
S
GR
GS
[0.75 0 0 0.75 0 0.25] CT
0.929 0.694 0.125 RC
2 LJ
N
501.747 294.629 M
503.538 294.629 L
505.329 294.629 L
507.12 294.629 L
508.911 294.629 L
510.183 294.629 L
511.455 294.629 L
512.728 294.629 L
514 294.629 L
S
GR
GS
[0.75 0 0 0.75 220.50021 22.18749] CT
/Helvetica-Bold 15 F
GS
[1 0 0 1 0 0] CT
-71.5 -4 moveto 
1 -1 scale
(Reaction stage 2) t 
GR
GR
GS
[0.75 0 0 0.75 0 0.25] CT
N
509.3 253.7 M
509.3 243.3 L
519.7 243.3 L
519.7 253.7 L
cp
f
GR
GS
[0.75 0 0 0.75 0 0.25] CT
1 1 0.863 RC
2 setlinecap
10.0 ML
1.333 LW
N
509.3 253.7 M
509.3 243.3 L
519.7 243.3 L
519.7 253.7 L
509.3 253.7 L
S
GR
GS
[0.75 0 0 0.75 0 0.25] CT
1 GC
N
429 115 M
429 45 L
501 45 L
501 115 L
cp
f
GR
GS
[0.75 0 0 0.75 360.75 45.25] CT
/Helvetica 12 F
GS
[1 0 0 1 0 0] CT
0 0 moveto 
1 -1 scale
(C) t 
GR
GR
GS
[0.75 0 0 0.75 367.5 49.75] CT
/Helvetica 9 F
GS
[1 0 0 1 0 0] CT
0 0 moveto 
1 -1 scale
(D) t 
GR
GR
GS
[0.75 0 0 0.75 0 0.25] CT
0 0.447 0.741 RC
2 setlinecap
10.0 ML
N
437 58.23 M
477 58.23 L
S
GR
GS
[0.75 0 0 0.75 360.75 61.75] CT
/Helvetica 12 F
GS
[1 0 0 1 0 0] CT
0 0 moveto 
1 -1 scale
(C) t 
GR
GR
GS
[0.75 0 0 0.75 367.5 66.25] CT
/Helvetica 9 F
GS
[1 0 0 1 0 0] CT
0 0 moveto 
1 -1 scale
(E) t 
GR
GR
GS
[0.75 0 0 0.75 0 0.25] CT
0.851 0.325 0.098 RC
2 setlinecap
10.0 ML
N
437 80 M
477 80 L
S
GR
GS
[0.75 0 0 0.75 360.75 78.25] CT
/Helvetica 12 F
GS
[1 0 0 1 0 0] CT
0 0 moveto 
1 -1 scale
(C) t 
GR
GR
GS
[0.75 0 0 0.75 367.5 82.75] CT
/Helvetica 9 F
GS
[1 0 0 1 0 0] CT
0 0 moveto 
1 -1 scale
(F) t 
GR
GR
GS
[0.75 0 0 0.75 0 0.25] CT
0.929 0.694 0.125 RC
2 setlinecap
10.0 ML
N
437 101.77 M
477 101.77 L
S
GR
GS
[0.75 0 0 0.75 0 0.25] CT
0.149 GC
2 setlinecap
10.0 ML
N
429 115 M
429 45 L
501 45 L
501 115 L
429 115 L
S
GR
GS
[0.75 0 0 0.75 0 0.25] CT
1 1 0.933 RC
N
445.333 242.254 M
507.333 242.254 L
507.333 200.254 L
445.333 200.254 L
cp
f
GR
GS
[0.75 0 0 0.75 0 0.25] CT
0.8 GC
2 setlinecap
10.0 ML
N
445.333 242.254 M
507.333 242.254 L
507.333 200.254 L
445.333 200.254 L
445.333 242.254 L
S
GR
GS
[0.75 0 0 0.75 337.00001 178.94049] CT
/Helvetica 13 F
GS
[1 0 0 1 0 0] CT
0 -21 moveto 
1 -1 scale
(X: 180) t 
GR
GR
GS
[0.75 0 0 0.75 337.00001 178.94049] CT
/Helvetica 13 F
GS
[1 0 0 1 0 0] CT
0 -4 moveto 
1 -1 scale
(Y: 29.41) t 
GR
GR
GS
[0.75 0 0 0.75 0 0.25] CT
0.608 GC
N
509.3 253.7 M
509.3 243.3 L
519.7 243.3 L
519.7 253.7 L
cp
f
GR
GS
[0.75 0 0 0.75 0 0.25] CT
1 1 0.863 RC
2 setlinecap
10.0 ML
1.333 LW
N
509.3 253.7 M
509.3 243.3 L
519.7 243.3 L
519.7 253.7 L
509.3 253.7 L
S
GR
%%Trailer
%%Pages: 1
%%EOF
