%!PS-Adobe-3.0 EPSF-3.0
%%Creator: (MATLAB, The Mathworks, Inc. Version 8.5.0.197613 \(R2015a\). Operating System: Linux)
%%Title: (/home/lukas/Dropbox/Universidad/Master/Control Theory/lab6/raport/chapter3/figures/1.eps)
%%CreationDate: 2016-04-24T10:45:22
%%Pages: (atend)
%%BoundingBox: 0 0 420 315
%%LanguageLevel: 2
%%EndComments
%%BeginProlog
%%BeginResource: procset (Apache XML Graphics Std ProcSet) 1.2 0
%%Version: 1.2 0
%%Copyright: (Copyright 2001-2003,2010 The Apache Software Foundation. License terms: http://www.apache.org/licenses/LICENSE-2.0)
/bd{bind def}bind def
/ld{load def}bd
/GR/grestore ld
/M/moveto ld
/LJ/setlinejoin ld
/C/curveto ld
/f/fill ld
/LW/setlinewidth ld
/GC/setgray ld
/t/show ld
/N/newpath ld
/CT/concat ld
/cp/closepath ld
/S/stroke ld
/L/lineto ld
/CC/setcmykcolor ld
/A/ashow ld
/GS/gsave ld
/RC/setrgbcolor ld
/RM/rmoveto ld
/ML/setmiterlimit ld
/re {4 2 roll M
1 index 0 rlineto
0 exch rlineto
neg 0 rlineto
cp } bd
/_ctm matrix def
/_tm matrix def
/BT { _ctm currentmatrix pop matrix _tm copy pop 0 0 moveto } bd
/ET { _ctm setmatrix } bd
/iTm { _ctm setmatrix _tm concat } bd
/Tm { _tm astore pop iTm 0 0 moveto } bd
/ux 0.0 def
/uy 0.0 def
/F {
  /Tp exch def
  /Tf exch def
  Tf findfont Tp scalefont setfont
  /cf Tf def  /cs Tp def
} bd
/ULS {currentpoint /uy exch def /ux exch def} bd
/ULE {
  /Tcx currentpoint pop def
  gsave
  newpath
  cf findfont cs scalefont dup
  /FontMatrix get 0 get /Ts exch def /FontInfo get dup
  /UnderlinePosition get Ts mul /To exch def
  /UnderlineThickness get Ts mul /Tt exch def
  ux uy To add moveto  Tcx uy To add lineto
  Tt setlinewidth stroke
  grestore
} bd
/OLE {
  /Tcx currentpoint pop def
  gsave
  newpath
  cf findfont cs scalefont dup
  /FontMatrix get 0 get /Ts exch def /FontInfo get dup
  /UnderlinePosition get Ts mul /To exch def
  /UnderlineThickness get Ts mul /Tt exch def
  ux uy To add cs add moveto Tcx uy To add cs add lineto
  Tt setlinewidth stroke
  grestore
} bd
/SOE {
  /Tcx currentpoint pop def
  gsave
  newpath
  cf findfont cs scalefont dup
  /FontMatrix get 0 get /Ts exch def /FontInfo get dup
  /UnderlinePosition get Ts mul /To exch def
  /UnderlineThickness get Ts mul /Tt exch def
  ux uy To add cs 10 mul 26 idiv add moveto Tcx uy To add cs 10 mul 26 idiv add lineto
  Tt setlinewidth stroke
  grestore
} bd
/QT {
/Y22 exch store
/X22 exch store
/Y21 exch store
/X21 exch store
currentpoint
/Y21 load 2 mul add 3 div exch
/X21 load 2 mul add 3 div exch
/X21 load 2 mul /X22 load add 3 div
/Y21 load 2 mul /Y22 load add 3 div
/X22 load /Y22 load curveto
} bd
/SSPD {
dup length /d exch dict def
{
/v exch def
/k exch def
currentpagedevice k known {
/cpdv currentpagedevice k get def
v cpdv ne {
/upd false def
/nullv v type /nulltype eq def
/nullcpdv cpdv type /nulltype eq def
nullv nullcpdv or
{
/upd true def
} {
/sametype v type cpdv type eq def
sametype {
v type /arraytype eq {
/vlen v length def
/cpdvlen cpdv length def
vlen cpdvlen eq {
0 1 vlen 1 sub {
/i exch def
/obj v i get def
/cpdobj cpdv i get def
obj cpdobj ne {
/upd true def
exit
} if
} for
} {
/upd true def
} ifelse
} {
v type /dicttype eq {
v {
/dv exch def
/dk exch def
/cpddv cpdv dk get def
dv cpddv ne {
/upd true def
exit
} if
} forall
} {
/upd true def
} ifelse
} ifelse
} if
} ifelse
upd true eq {
d k v put
} if
} if
} if
} forall
d length 0 gt {
d setpagedevice
} if
} bd
%%EndResource
%%BeginResource: procset (Apache XML Graphics EPS ProcSet) 1.0 0
%%Version: 1.0 0
%%Copyright: (Copyright 2002-2003 The Apache Software Foundation. License terms: http://www.apache.org/licenses/LICENSE-2.0)
/BeginEPSF { %def
/b4_Inc_state save def         % Save state for cleanup
/dict_count countdictstack def % Count objects on dict stack
/op_count count 1 sub def      % Count objects on operand stack
userdict begin                 % Push userdict on dict stack
/showpage { } def              % Redefine showpage, { } = null proc
0 setgray 0 setlinecap         % Prepare graphics state
1 setlinewidth 0 setlinejoin
10 setmiterlimit [ ] 0 setdash newpath
/languagelevel where           % If level not equal to 1 then
{pop languagelevel             % set strokeadjust and
1 ne                           % overprint to their defaults.
{false setstrokeadjust false setoverprint
} if
} if
} bd
/EndEPSF { %def
count op_count sub {pop} repeat            % Clean up stacks
countdictstack dict_count sub {end} repeat
b4_Inc_state restore
} bd
%%EndResource
%FOPBeginFontDict
%%IncludeResource: font Courier-Bold
%%IncludeResource: font Helvetica
%%IncludeResource: font Courier-BoldOblique
%%IncludeResource: font Courier-Oblique
%%IncludeResource: font Times-Roman
%%IncludeResource: font Helvetica-BoldOblique
%%IncludeResource: font Helvetica-Bold
%%IncludeResource: font Helvetica-Oblique
%%IncludeResource: font Times-BoldItalic
%%IncludeResource: font Courier
%%IncludeResource: font Times-Italic
%%IncludeResource: font Times-Bold
%%IncludeResource: font Symbol
%%IncludeResource: font ZapfDingbats
%FOPEndFontDict
%%BeginResource: encoding WinAnsiEncoding
/WinAnsiEncoding [
/.notdef /.notdef /.notdef /.notdef /.notdef
/.notdef /.notdef /.notdef /.notdef /.notdef
/.notdef /.notdef /.notdef /.notdef /.notdef
/.notdef /.notdef /.notdef /.notdef /.notdef
/.notdef /.notdef /.notdef /.notdef /.notdef
/.notdef /.notdef /.notdef /.notdef /.notdef
/.notdef /.notdef /space /exclam /quotedbl
/numbersign /dollar /percent /ampersand /quotesingle
/parenleft /parenright /asterisk /plus /comma
/hyphen /period /slash /zero /one
/two /three /four /five /six
/seven /eight /nine /colon /semicolon
/less /equal /greater /question /at
/A /B /C /D /E
/F /G /H /I /J
/K /L /M /N /O
/P /Q /R /S /T
/U /V /W /X /Y
/Z /bracketleft /backslash /bracketright /asciicircum
/underscore /quoteleft /a /b /c
/d /e /f /g /h
/i /j /k /l /m
/n /o /p /q /r
/s /t /u /v /w
/x /y /z /braceleft /bar
/braceright /asciitilde /bullet /Euro /bullet
/quotesinglbase /florin /quotedblbase /ellipsis /dagger
/daggerdbl /circumflex /perthousand /Scaron /guilsinglleft
/OE /bullet /Zcaron /bullet /bullet
/quoteleft /quoteright /quotedblleft /quotedblright /bullet
/endash /emdash /asciitilde /trademark /scaron
/guilsinglright /oe /bullet /zcaron /Ydieresis
/space /exclamdown /cent /sterling /currency
/yen /brokenbar /section /dieresis /copyright
/ordfeminine /guillemotleft /logicalnot /sfthyphen /registered
/macron /degree /plusminus /twosuperior /threesuperior
/acute /mu /paragraph /middot /cedilla
/onesuperior /ordmasculine /guillemotright /onequarter /onehalf
/threequarters /questiondown /Agrave /Aacute /Acircumflex
/Atilde /Adieresis /Aring /AE /Ccedilla
/Egrave /Eacute /Ecircumflex /Edieresis /Igrave
/Iacute /Icircumflex /Idieresis /Eth /Ntilde
/Ograve /Oacute /Ocircumflex /Otilde /Odieresis
/multiply /Oslash /Ugrave /Uacute /Ucircumflex
/Udieresis /Yacute /Thorn /germandbls /agrave
/aacute /acircumflex /atilde /adieresis /aring
/ae /ccedilla /egrave /eacute /ecircumflex
/edieresis /igrave /iacute /icircumflex /idieresis
/eth /ntilde /ograve /oacute /ocircumflex
/otilde /odieresis /divide /oslash /ugrave
/uacute /ucircumflex /udieresis /yacute /thorn
/ydieresis
] def
%%EndResource
%FOPBeginFontReencode
/Courier-Bold findfont
dup length dict begin
  {1 index /FID ne {def} {pop pop} ifelse} forall
  /Encoding WinAnsiEncoding def
  currentdict
end
/Courier-Bold exch definefont pop
/Helvetica findfont
dup length dict begin
  {1 index /FID ne {def} {pop pop} ifelse} forall
  /Encoding WinAnsiEncoding def
  currentdict
end
/Helvetica exch definefont pop
/Courier-BoldOblique findfont
dup length dict begin
  {1 index /FID ne {def} {pop pop} ifelse} forall
  /Encoding WinAnsiEncoding def
  currentdict
end
/Courier-BoldOblique exch definefont pop
/Courier-Oblique findfont
dup length dict begin
  {1 index /FID ne {def} {pop pop} ifelse} forall
  /Encoding WinAnsiEncoding def
  currentdict
end
/Courier-Oblique exch definefont pop
/Times-Roman findfont
dup length dict begin
  {1 index /FID ne {def} {pop pop} ifelse} forall
  /Encoding WinAnsiEncoding def
  currentdict
end
/Times-Roman exch definefont pop
/Helvetica-BoldOblique findfont
dup length dict begin
  {1 index /FID ne {def} {pop pop} ifelse} forall
  /Encoding WinAnsiEncoding def
  currentdict
end
/Helvetica-BoldOblique exch definefont pop
/Helvetica-Bold findfont
dup length dict begin
  {1 index /FID ne {def} {pop pop} ifelse} forall
  /Encoding WinAnsiEncoding def
  currentdict
end
/Helvetica-Bold exch definefont pop
/Helvetica-Oblique findfont
dup length dict begin
  {1 index /FID ne {def} {pop pop} ifelse} forall
  /Encoding WinAnsiEncoding def
  currentdict
end
/Helvetica-Oblique exch definefont pop
/Times-BoldItalic findfont
dup length dict begin
  {1 index /FID ne {def} {pop pop} ifelse} forall
  /Encoding WinAnsiEncoding def
  currentdict
end
/Times-BoldItalic exch definefont pop
/Courier findfont
dup length dict begin
  {1 index /FID ne {def} {pop pop} ifelse} forall
  /Encoding WinAnsiEncoding def
  currentdict
end
/Courier exch definefont pop
/Times-Italic findfont
dup length dict begin
  {1 index /FID ne {def} {pop pop} ifelse} forall
  /Encoding WinAnsiEncoding def
  currentdict
end
/Times-Italic exch definefont pop
/Times-Bold findfont
dup length dict begin
  {1 index /FID ne {def} {pop pop} ifelse} forall
  /Encoding WinAnsiEncoding def
  currentdict
end
/Times-Bold exch definefont pop
%FOPEndFontReencode
%%EndProlog
%%Page: 1 1
%%PageBoundingBox: 0 0 420 315
%%BeginPageSetup
[1 0 0 -1 0 315] CT
%%EndPageSetup
GS
[0.75 0 0 0.75 0 0] CT
1 GC
N
0 0 560 420 re
f
GR
GS
[0.75 0 0 0.75 0 0] CT
1 GC
N
0 0 560 420 re
f
GR
GS
[0.75 0 0 0.75 0 0] CT
1 GC
N
73 374 M
507 374 L
507 31 L
73 31 L
cp
f
GR
GS
[0.75 0 0 0.75 217.50014 298.24999] CT
0.149 GC
/Helvetica 15 F
GS
[1 0 0 1 0 0] CT
-30 14 moveto 
1 -1 scale
(time \(h\)) t 
GR
GR
GS
[0.75 0 0 0.75 0 0] CT
0.149 GC
2 setlinecap
10.0 ML
N
73 374 M
507 374 L
S
GR
GS
[0.75 0 0 0.75 0 0] CT
0.149 GC
2 setlinecap
10.0 ML
N
73 31 M
507 31 L
S
GR
GS
[0.75 0 0 0.75 0 0] CT
0.149 GC
2 setlinecap
10.0 ML
N
73 374 M
73 369.66 L
S
GR
GS
[0.75 0 0 0.75 0 0] CT
0.149 GC
2 setlinecap
10.0 ML
N
143.95 374 M
143.95 369.66 L
S
GR
GS
[0.75 0 0 0.75 0 0] CT
0.149 GC
2 setlinecap
10.0 ML
N
214.9 374 M
214.9 369.66 L
S
GR
GS
[0.75 0 0 0.75 0 0] CT
0.149 GC
2 setlinecap
10.0 ML
N
285.849 374 M
285.849 369.66 L
S
GR
GS
[0.75 0 0 0.75 0 0] CT
0.149 GC
2 setlinecap
10.0 ML
N
356.799 374 M
356.799 369.66 L
S
GR
GS
[0.75 0 0 0.75 0 0] CT
0.149 GC
2 setlinecap
10.0 ML
N
427.749 374 M
427.749 369.66 L
S
GR
GS
[0.75 0 0 0.75 0 0] CT
0.149 GC
2 setlinecap
10.0 ML
N
498.699 374 M
498.699 369.66 L
S
GR
GS
[0.75 0 0 0.75 0 0] CT
0.149 GC
2 setlinecap
10.0 ML
N
73 31 M
73 35.34 L
S
GR
GS
[0.75 0 0 0.75 0 0] CT
0.149 GC
2 setlinecap
10.0 ML
N
143.95 31 M
143.95 35.34 L
S
GR
GS
[0.75 0 0 0.75 0 0] CT
0.149 GC
2 setlinecap
10.0 ML
N
214.9 31 M
214.9 35.34 L
S
GR
GS
[0.75 0 0 0.75 0 0] CT
0.149 GC
2 setlinecap
10.0 ML
N
285.849 31 M
285.849 35.34 L
S
GR
GS
[0.75 0 0 0.75 0 0] CT
0.149 GC
2 setlinecap
10.0 ML
N
356.799 31 M
356.799 35.34 L
S
GR
GS
[0.75 0 0 0.75 0 0] CT
0.149 GC
2 setlinecap
10.0 ML
N
427.749 31 M
427.749 35.34 L
S
GR
GS
[0.75 0 0 0.75 0 0] CT
0.149 GC
2 setlinecap
10.0 ML
N
498.699 31 M
498.699 35.34 L
S
GR
GS
[0.75 0 0 0.75 54.75 284.50001] CT
0.149 GC
/Helvetica 13 F
GS
[1 0 0 1 0 0] CT
-4.5 13 moveto 
1 -1 scale
(0) t 
GR
GR
GS
[0.75 0 0 0.75 107.96236 284.50001] CT
0.149 GC
/Helvetica 13 F
GS
[1 0 0 1 0 0] CT
-8.5 13 moveto 
1 -1 scale
(10) t 
GR
GR
GS
[0.75 0 0 0.75 161.17472 284.50001] CT
0.149 GC
/Helvetica 13 F
GS
[1 0 0 1 0 0] CT
-8.5 13 moveto 
1 -1 scale
(20) t 
GR
GR
GS
[0.75 0 0 0.75 214.38707 284.50001] CT
0.149 GC
/Helvetica 13 F
GS
[1 0 0 1 0 0] CT
-8.5 13 moveto 
1 -1 scale
(30) t 
GR
GR
GS
[0.75 0 0 0.75 267.59944 284.50001] CT
0.149 GC
/Helvetica 13 F
GS
[1 0 0 1 0 0] CT
-8.5 13 moveto 
1 -1 scale
(40) t 
GR
GR
GS
[0.75 0 0 0.75 320.81179 284.50001] CT
0.149 GC
/Helvetica 13 F
GS
[1 0 0 1 0 0] CT
-8.5 13 moveto 
1 -1 scale
(50) t 
GR
GR
GS
[0.75 0 0 0.75 374.02416 284.50001] CT
0.149 GC
/Helvetica 13 F
GS
[1 0 0 1 0 0] CT
-8.5 13 moveto 
1 -1 scale
(60) t 
GR
GR
GS
[0 -0.75 0.75 0 35 151.87487] CT
0.149 GC
/Helvetica 15 F
GS
[1 0 0 1 0 0] CT
-5 -4 moveto 
1 -1 scale
(u) t 
GR
GR
GS
[0.75 0 0 0.75 0 0] CT
0.149 GC
2 setlinecap
10.0 ML
N
73 374 M
73 31 L
S
GR
GS
[0.75 0 0 0.75 0 0] CT
0.149 GC
2 setlinecap
10.0 ML
N
507 374 M
507 31 L
S
GR
GS
[0.75 0 0 0.75 0 0] CT
0.149 GC
2 setlinecap
10.0 ML
N
73 374 M
77.34 374 L
S
GR
GS
[0.75 0 0 0.75 0 0] CT
0.149 GC
2 setlinecap
10.0 ML
N
73 316.833 M
77.34 316.833 L
S
GR
GS
[0.75 0 0 0.75 0 0] CT
0.149 GC
2 setlinecap
10.0 ML
N
73 259.667 M
77.34 259.667 L
S
GR
GS
[0.75 0 0 0.75 0 0] CT
0.149 GC
2 setlinecap
10.0 ML
N
73 202.5 M
77.34 202.5 L
S
GR
GS
[0.75 0 0 0.75 0 0] CT
0.149 GC
2 setlinecap
10.0 ML
N
73 145.333 M
77.34 145.333 L
S
GR
GS
[0.75 0 0 0.75 0 0] CT
0.149 GC
2 setlinecap
10.0 ML
N
73 88.167 M
77.34 88.167 L
S
GR
GS
[0.75 0 0 0.75 0 0] CT
0.149 GC
2 setlinecap
10.0 ML
N
73 31 M
77.34 31 L
S
GR
GS
[0.75 0 0 0.75 0 0] CT
0.149 GC
2 setlinecap
10.0 ML
N
507 374 M
502.66 374 L
S
GR
GS
[0.75 0 0 0.75 0 0] CT
0.149 GC
2 setlinecap
10.0 ML
N
507 316.833 M
502.66 316.833 L
S
GR
GS
[0.75 0 0 0.75 0 0] CT
0.149 GC
2 setlinecap
10.0 ML
N
507 259.667 M
502.66 259.667 L
S
GR
GS
[0.75 0 0 0.75 0 0] CT
0.149 GC
2 setlinecap
10.0 ML
N
507 202.5 M
502.66 202.5 L
S
GR
GS
[0.75 0 0 0.75 0 0] CT
0.149 GC
2 setlinecap
10.0 ML
N
507 145.333 M
502.66 145.333 L
S
GR
GS
[0.75 0 0 0.75 0 0] CT
0.149 GC
2 setlinecap
10.0 ML
N
507 88.167 M
502.66 88.167 L
S
GR
GS
[0.75 0 0 0.75 0 0] CT
0.149 GC
2 setlinecap
10.0 ML
N
507 31 M
502.66 31 L
S
GR
GS
[0.75 0 0 0.75 50.75 280.5] CT
0.149 GC
/Helvetica 13 F
GS
[1 0 0 1 0 0] CT
-9 4.5 moveto 
1 -1 scale
(0) t 
GR
GR
GS
[0.75 0 0 0.75 50.75 237.62501] CT
0.149 GC
/Helvetica 13 F
GS
[1 0 0 1 0 0] CT
-9 4.5 moveto 
1 -1 scale
(2) t 
GR
GR
GS
[0.75 0 0 0.75 50.75 194.74999] CT
0.149 GC
/Helvetica 13 F
GS
[1 0 0 1 0 0] CT
-9 4.5 moveto 
1 -1 scale
(4) t 
GR
GR
GS
[0.75 0 0 0.75 50.75 151.875] CT
0.149 GC
/Helvetica 13 F
GS
[1 0 0 1 0 0] CT
-9 4.5 moveto 
1 -1 scale
(6) t 
GR
GR
GS
[0.75 0 0 0.75 50.75 109] CT
0.149 GC
/Helvetica 13 F
GS
[1 0 0 1 0 0] CT
-9 4.5 moveto 
1 -1 scale
(8) t 
GR
GR
GS
[0.75 0 0 0.75 50.75 66.125] CT
0.149 GC
/Helvetica 13 F
GS
[1 0 0 1 0 0] CT
-17 4.5 moveto 
1 -1 scale
(10) t 
GR
GR
GS
[0.75 0 0 0.75 50.75 23.25] CT
0.149 GC
/Helvetica 13 F
GS
[1 0 0 1 0 0] CT
-17 4.5 moveto 
1 -1 scale
(12) t 
GR
GR
GS
[0.75 0 0 0.75 0 0] CT
0 0.447 0.741 RC
2 LJ
N
73 374 M
73 374 L
73.001 374 L
73.001 374 L
73.001 374 L
73.003 374 L
73.005 374 L
73.007 374 L
73.009 374 L
73.018 374 L
73.026 374 L
73.035 374 L
73.044 374 L
73.089 374 L
73.134 374 L
73.178 374 L
73.223 374 L
73.446 374 L
73.67 374 L
73.893 374 L
74.117 374 L
75.234 374 L
76.351 374 L
77.468 374 L
78.585 374 L
80.755 374 L
82.925 374 L
85.095 374 L
87.265 374 L
89.435 374 L
91.605 374 L
93.775 374 L
95.945 374 L
98.115 374 L
100.285 374 L
102.455 374 L
104.625 374 L
106.795 374 L
108.965 374 L
111.135 374 L
113.305 374 L
115.475 374 L
117.645 374 L
119.815 374 L
121.985 374 L
124.155 374 L
126.325 374 L
128.495 374 L
130.665 374 L
132.835 374 L
S
GR
GS
[0.75 0 0 0.75 0 0] CT
0 0.447 0.741 RC
2 LJ
N
132.835 374 M
135.005 374 L
137.175 374 L
139.345 374 L
141.515 374 L
143.685 374 L
145.855 374 L
148.025 374 L
150.195 374 L
152.365 374 L
154.535 374 L
156.705 374 L
157.479 374 L
158.253 374 L
159.026 374 L
159.8 374 L
159.8 262.98 L
159.973 262.98 L
160.145 262.98 L
160.318 262.98 L
160.49 262.98 L
161.353 262.98 L
162.216 262.98 L
163.079 262.98 L
163.942 262.98 L
166.112 262.98 L
168.282 262.98 L
170.452 262.98 L
172.622 262.98 L
174.792 262.98 L
176.962 262.98 L
179.132 262.98 L
181.302 262.98 L
183.472 262.98 L
185.642 262.98 L
187.812 262.98 L
189.982 262.98 L
192.152 262.98 L
194.322 262.98 L
196.492 262.98 L
198.662 262.98 L
200.832 262.98 L
203.002 262.98 L
205.172 262.98 L
207.342 262.98 L
209.512 262.98 L
211.682 262.98 L
213.852 262.98 L
216.022 262.98 L
218.192 262.98 L
S
GR
GS
[0.75 0 0 0.75 0 0] CT
0 0.447 0.741 RC
2 LJ
N
218.192 262.98 M
220.362 262.98 L
222.532 262.98 L
224.702 262.98 L
226.872 262.98 L
229.042 262.98 L
231.212 262.98 L
233.382 262.98 L
235.552 262.98 L
237.722 262.98 L
239.892 262.98 L
242.062 262.98 L
243.197 262.98 L
244.331 262.98 L
245.466 262.98 L
246.6 262.98 L
246.6 110.635 L
248.77 110.635 L
250.94 110.635 L
253.11 110.635 L
255.28 110.635 L
257.45 110.635 L
259.62 110.635 L
261.79 110.635 L
263.96 110.635 L
266.13 110.635 L
268.3 110.635 L
270.47 110.635 L
272.64 110.635 L
274.81 110.635 L
276.98 110.635 L
279.15 110.635 L
281.32 110.635 L
283.49 110.635 L
285.66 110.635 L
287.83 110.635 L
290 110.635 L
292.17 110.635 L
294.34 110.635 L
296.51 110.635 L
298.68 110.635 L
300.85 110.635 L
303.02 110.635 L
305.19 110.635 L
307.36 110.635 L
309.53 110.635 L
311.7 110.635 L
313.87 110.635 L
316.04 110.635 L
318.21 110.635 L
S
GR
GS
[0.75 0 0 0.75 0 0] CT
0 0.447 0.741 RC
2 LJ
N
318.21 110.635 M
320.38 110.635 L
322.55 110.635 L
324.72 110.635 L
326.89 110.635 L
329.06 110.635 L
331.23 110.635 L
333.4 110.635 L
333.4 303.928 L
335.57 303.928 L
337.74 303.928 L
339.91 303.928 L
342.08 303.928 L
344.25 303.928 L
346.42 303.928 L
348.59 303.928 L
350.76 303.928 L
352.93 303.928 L
355.1 303.928 L
357.27 303.928 L
359.44 303.928 L
361.61 303.928 L
363.78 303.928 L
365.95 303.928 L
368.12 303.928 L
370.29 303.928 L
372.46 303.928 L
374.63 303.928 L
376.8 303.928 L
377.124 303.928 L
377.447 303.928 L
377.771 303.928 L
378.095 303.928 L
378.231 303.928 L
378.368 303.928 L
378.505 303.928 L
378.641 303.928 L
378.778 303.928 L
378.915 303.928 L
379.052 303.928 L
379.188 303.928 L
379.254 303.928 L
379.319 303.928 L
379.384 303.928 L
379.449 303.928 L
379.515 303.928 L
379.58 303.928 L
379.645 303.928 L
379.711 303.928 L
379.789 303.928 L
S
GR
GS
[0.75 0 0 0.75 0 0] CT
0 0.447 0.741 RC
2 LJ
N
379.789 303.928 M
379.867 303.928 L
379.945 303.928 L
380.023 303.928 L
380.1 303.928 L
380.176 303.928 L
380.252 303.928 L
380.328 303.928 L
380.415 303.928 L
380.502 303.928 L
380.589 303.928 L
380.675 303.928 L
380.778 303.928 L
380.881 303.928 L
380.984 303.928 L
381.087 303.928 L
381.215 303.928 L
381.344 303.928 L
381.472 303.928 L
381.6 303.928 L
381.767 303.928 L
381.934 303.928 L
382.1 303.928 L
382.267 303.928 L
382.494 303.928 L
382.721 303.928 L
382.948 303.928 L
383.175 303.928 L
383.468 303.928 L
383.761 303.928 L
384.054 303.928 L
384.347 303.928 L
384.553 303.928 L
384.759 303.928 L
384.965 303.928 L
385.171 303.928 L
385.377 303.928 L
385.583 303.928 L
385.789 303.928 L
385.995 303.928 L
386.24 303.928 L
386.485 303.928 L
386.73 303.928 L
386.975 303.928 L
387.241 303.928 L
387.508 303.928 L
387.774 303.928 L
388.041 303.928 L
388.279 303.928 L
388.517 303.928 L
S
GR
GS
[0.75 0 0 0.75 0 0] CT
0 0.447 0.741 RC
2 LJ
N
388.517 303.928 M
388.756 303.928 L
388.994 303.928 L
389.192 303.928 L
389.39 303.928 L
389.588 303.928 L
389.786 303.928 L
389.977 303.928 L
390.168 303.928 L
390.36 303.928 L
390.551 303.928 L
390.774 303.928 L
390.998 303.928 L
391.222 303.928 L
391.445 303.928 L
391.708 303.928 L
391.97 303.928 L
392.232 303.928 L
392.495 303.928 L
392.751 303.928 L
393.008 303.928 L
393.264 303.928 L
393.521 303.928 L
393.733 303.928 L
393.945 303.928 L
394.156 303.928 L
394.368 303.928 L
394.553 303.928 L
394.738 303.928 L
394.923 303.928 L
395.108 303.928 L
395.31 303.928 L
395.512 303.928 L
395.714 303.928 L
395.916 303.928 L
396.162 303.928 L
396.408 303.928 L
396.653 303.928 L
396.899 303.928 L
397.166 303.928 L
397.433 303.928 L
397.7 303.928 L
397.967 303.928 L
398.2 303.928 L
398.432 303.928 L
398.665 303.928 L
398.898 303.928 L
399.087 303.928 L
399.277 303.928 L
399.467 303.928 L
S
GR
GS
[0.75 0 0 0.75 0 0] CT
0 0.447 0.741 RC
2 LJ
N
399.467 303.928 M
399.656 303.928 L
399.842 303.928 L
400.027 303.928 L
400.212 303.928 L
400.397 303.928 L
400.619 303.928 L
400.842 303.928 L
401.064 303.928 L
401.286 303.928 L
401.549 303.928 L
401.813 303.928 L
402.076 303.928 L
402.34 303.928 L
402.593 303.928 L
402.847 303.928 L
403.101 303.928 L
403.355 303.928 L
403.56 303.928 L
403.764 303.928 L
403.969 303.928 L
404.174 303.928 L
404.352 303.928 L
404.53 303.928 L
404.708 303.928 L
404.886 303.928 L
405.085 303.928 L
405.283 303.928 L
405.482 303.928 L
405.68 303.928 L
405.926 303.928 L
406.171 303.928 L
406.417 303.928 L
406.663 303.928 L
406.929 303.928 L
407.195 303.928 L
407.462 303.928 L
407.728 303.928 L
407.955 303.928 L
408.183 303.928 L
408.41 303.928 L
408.638 303.928 L
408.821 303.928 L
409.004 303.928 L
409.187 303.928 L
409.369 303.928 L
409.55 303.928 L
409.73 303.928 L
409.91 303.928 L
410.091 303.928 L
S
GR
GS
[0.75 0 0 0.75 0 0] CT
0 0.447 0.741 RC
2 LJ
N
410.091 303.928 M
410.311 303.928 L
410.532 303.928 L
410.752 303.928 L
410.973 303.928 L
411.236 303.928 L
411.499 303.928 L
411.763 303.928 L
412.026 303.928 L
412.225 303.928 L
412.423 303.928 L
412.622 303.928 L
412.821 303.928 L
413.02 303.928 L
413.218 303.928 L
413.417 303.928 L
413.616 303.928 L
413.846 303.928 L
414.076 303.928 L
414.306 303.928 L
414.536 303.928 L
414.784 303.928 L
415.032 303.928 L
415.281 303.928 L
415.529 303.928 L
415.756 303.928 L
415.984 303.928 L
416.211 303.928 L
416.438 303.928 L
416.632 303.928 L
416.826 303.928 L
417.02 303.928 L
417.214 303.928 L
417.401 303.928 L
417.588 303.928 L
417.775 303.928 L
417.962 303.928 L
418.175 303.928 L
418.387 303.928 L
418.6 303.928 L
418.813 303.928 L
419.058 303.928 L
419.303 303.928 L
419.548 303.928 L
419.793 303.928 L
419.894 303.928 L
419.996 303.928 L
420.098 303.928 L
420.2 303.928 L
420.2 374 L
S
GR
GS
[0.75 0 0 0.75 0 0] CT
0 0.447 0.741 RC
2 LJ
N
420.2 374 M
420.21 374 L
420.221 374 L
420.231 374 L
420.242 374 L
420.29 374 L
420.338 374 L
420.386 374 L
420.434 374 L
420.474 374 L
420.514 374 L
420.554 374 L
420.594 374 L
420.629 374 L
420.665 374 L
420.7 374 L
420.736 374 L
420.77 374 L
420.804 374 L
420.838 374 L
420.872 374 L
420.905 374 L
420.939 374 L
420.972 374 L
421.006 374 L
421.039 374 L
421.072 374 L
421.105 374 L
421.138 374 L
421.175 374 L
421.212 374 L
421.249 374 L
421.286 374 L
421.33 374 L
421.373 374 L
421.416 374 L
421.459 374 L
421.509 374 L
421.56 374 L
421.611 374 L
421.662 374 L
421.723 374 L
421.785 374 L
421.846 374 L
421.908 374 L
421.985 374 L
422.062 374 L
422.139 374 L
422.216 374 L
422.317 374 L
S
GR
GS
[0.75 0 0 0.75 0 0] CT
0 0.447 0.741 RC
2 LJ
N
422.317 374 M
422.417 374 L
422.518 374 L
422.618 374 L
422.755 374 L
422.892 374 L
423.028 374 L
423.165 374 L
423.343 374 L
423.521 374 L
423.698 374 L
423.876 374 L
424.003 374 L
424.129 374 L
424.256 374 L
424.383 374 L
424.509 374 L
424.636 374 L
424.762 374 L
424.889 374 L
425.038 374 L
425.186 374 L
425.335 374 L
425.484 374 L
425.644 374 L
425.805 374 L
425.966 374 L
426.127 374 L
426.272 374 L
426.418 374 L
426.563 374 L
426.709 374 L
426.831 374 L
426.954 374 L
427.077 374 L
427.2 374 L
427.319 374 L
427.438 374 L
427.558 374 L
427.677 374 L
427.814 374 L
427.952 374 L
428.089 374 L
428.227 374 L
428.386 374 L
428.546 374 L
428.706 374 L
428.865 374 L
429.022 374 L
429.179 374 L
S
GR
GS
[0.75 0 0 0.75 0 0] CT
0 0.447 0.741 RC
2 LJ
N
429.179 374 M
429.336 374 L
429.493 374 L
429.625 374 L
429.757 374 L
429.888 374 L
430.02 374 L
430.137 374 L
430.253 374 L
430.37 374 L
430.486 374 L
430.612 374 L
430.738 374 L
430.864 374 L
430.99 374 L
431.141 374 L
431.293 374 L
431.444 374 L
431.595 374 L
431.759 374 L
431.923 374 L
432.087 374 L
432.251 374 L
432.396 374 L
432.541 374 L
432.686 374 L
432.831 374 L
432.951 374 L
433.071 374 L
433.191 374 L
433.311 374 L
433.428 374 L
433.545 374 L
433.663 374 L
433.78 374 L
433.918 374 L
434.057 374 L
434.195 374 L
434.334 374 L
434.497 374 L
434.66 374 L
434.823 374 L
434.986 374 L
435.144 374 L
435.302 374 L
435.46 374 L
435.618 374 L
435.748 374 L
435.878 374 L
436.008 374 L
S
GR
GS
[0.75 0 0 0.75 0 0] CT
0 0.447 0.741 RC
2 LJ
N
436.008 374 M
436.138 374 L
436.252 374 L
436.366 374 L
436.48 374 L
436.594 374 L
436.72 374 L
436.845 374 L
436.971 374 L
437.096 374 L
437.25 374 L
437.403 374 L
437.557 374 L
437.71 374 L
437.877 374 L
438.043 374 L
438.209 374 L
438.376 374 L
438.52 374 L
438.665 374 L
438.809 374 L
438.954 374 L
439.072 374 L
439.189 374 L
439.307 374 L
439.425 374 L
439.541 374 L
439.656 374 L
439.772 374 L
439.888 374 L
440.027 374 L
440.167 374 L
440.306 374 L
440.445 374 L
440.611 374 L
440.776 374 L
440.942 374 L
441.107 374 L
441.266 374 L
441.426 374 L
441.585 374 L
441.744 374 L
441.873 374 L
442.001 374 L
442.13 374 L
442.258 374 L
442.37 374 L
442.482 374 L
442.594 374 L
442.706 374 L
S
GR
GS
[0.75 0 0 0.75 0 0] CT
0 0.447 0.741 RC
2 LJ
N
442.706 374 M
442.832 374 L
442.957 374 L
443.082 374 L
443.207 374 L
443.362 374 L
443.517 374 L
443.672 374 L
443.827 374 L
443.996 374 L
444.164 374 L
444.332 374 L
444.501 374 L
444.645 374 L
444.789 374 L
444.933 374 L
445.077 374 L
445.193 374 L
445.31 374 L
445.426 374 L
445.542 374 L
445.657 374 L
445.771 374 L
445.886 374 L
446.001 374 L
446.141 374 L
446.28 374 L
446.42 374 L
446.56 374 L
446.727 374 L
446.895 374 L
447.062 374 L
447.229 374 L
447.356 374 L
447.484 374 L
447.611 374 L
447.739 374 L
447.866 374 L
447.994 374 L
448.121 374 L
448.249 374 L
448.395 374 L
448.541 374 L
448.688 374 L
448.834 374 L
448.992 374 L
449.149 374 L
449.307 374 L
449.465 374 L
449.61 374 L
S
GR
GS
[0.75 0 0 0.75 0 0] CT
0 0.447 0.741 RC
2 LJ
N
449.61 374 M
449.756 374 L
449.901 374 L
450.047 374 L
450.172 374 L
450.298 374 L
450.424 374 L
450.549 374 L
450.671 374 L
450.792 374 L
450.913 374 L
451.034 374 L
451.171 374 L
451.308 374 L
451.445 374 L
451.581 374 L
451.738 374 L
451.894 374 L
452.05 374 L
452.207 374 L
452.362 374 L
452.517 374 L
452.672 374 L
452.827 374 L
452.961 374 L
453.095 374 L
453.229 374 L
453.362 374 L
453.481 374 L
453.601 374 L
453.72 374 L
453.839 374 L
453.966 374 L
454.092 374 L
454.219 374 L
454.346 374 L
454.495 374 L
454.644 374 L
454.793 374 L
454.942 374 L
455.103 374 L
455.264 374 L
455.425 374 L
455.586 374 L
455.731 374 L
455.876 374 L
456.021 374 L
456.167 374 L
456.289 374 L
456.412 374 L
S
GR
GS
[0.75 0 0 0.75 0 0] CT
0 0.447 0.741 RC
2 LJ
N
456.412 374 M
456.534 374 L
456.657 374 L
456.776 374 L
456.895 374 L
457.014 374 L
457.133 374 L
457.271 374 L
457.409 374 L
457.547 374 L
457.684 374 L
457.844 374 L
458.004 374 L
458.164 374 L
458.324 374 L
458.481 374 L
458.638 374 L
458.795 374 L
458.951 374 L
459.083 374 L
459.215 374 L
459.346 374 L
459.478 374 L
459.594 374 L
459.71 374 L
459.827 374 L
459.943 374 L
460.069 374 L
460.195 374 L
460.321 374 L
460.447 374 L
460.599 374 L
460.751 374 L
460.902 374 L
461.054 374 L
461.218 374 L
461.382 374 L
461.546 374 L
461.71 374 L
461.855 374 L
461.999 374 L
462.144 374 L
462.289 374 L
462.408 374 L
462.528 374 L
462.648 374 L
462.768 374 L
462.885 374 L
463.002 374 L
463.119 374 L
S
GR
GS
[0.75 0 0 0.75 0 0] CT
0 0.447 0.741 RC
2 LJ
N
463.119 374 M
463.237 374 L
463.376 374 L
463.514 374 L
463.653 374 L
463.792 374 L
463.955 374 L
464.118 374 L
464.282 374 L
464.445 374 L
464.603 374 L
464.761 374 L
464.919 374 L
465.077 374 L
465.207 374 L
465.336 374 L
465.466 374 L
465.596 374 L
465.709 374 L
465.823 374 L
465.937 374 L
466.051 374 L
466.177 374 L
466.302 374 L
466.428 374 L
466.554 374 L
466.708 374 L
466.862 374 L
467.015 374 L
467.169 374 L
467.336 374 L
467.502 374 L
467.669 374 L
467.835 374 L
467.979 374 L
468.123 374 L
468.268 374 L
468.412 374 L
468.529 374 L
468.647 374 L
468.764 374 L
468.882 374 L
468.998 374 L
469.114 374 L
469.229 374 L
469.345 374 L
469.485 374 L
469.624 374 L
469.764 374 L
469.904 374 L
S
GR
GS
[0.75 0 0 0.75 0 0] CT
0 0.447 0.741 RC
2 LJ
N
469.904 374 M
470.07 374 L
470.235 374 L
470.401 374 L
470.566 374 L
470.726 374 L
470.885 374 L
471.044 374 L
471.203 374 L
471.331 374 L
471.459 374 L
471.587 374 L
471.715 374 L
471.827 374 L
471.939 374 L
472.051 374 L
472.163 374 L
472.289 374 L
472.414 374 L
472.54 374 L
472.665 374 L
472.82 374 L
472.976 374 L
473.131 374 L
473.287 374 L
473.455 374 L
473.623 374 L
473.792 374 L
473.96 374 L
474.104 374 L
474.247 374 L
474.391 374 L
474.535 374 L
474.651 374 L
474.767 374 L
474.883 374 L
474.999 374 L
475.114 374 L
475.228 374 L
475.343 374 L
475.458 374 L
475.598 374 L
475.738 374 L
475.879 374 L
476.019 374 L
476.186 374 L
476.354 374 L
476.521 374 L
476.688 374 L
476.816 374 L
S
GR
GS
[0.75 0 0 0.75 0 0] CT
0 0.447 0.741 RC
2 LJ
N
476.816 374 M
476.943 374 L
477.07 374 L
477.197 374 L
477.324 374 L
477.451 374 L
477.579 374 L
477.706 374 L
477.852 374 L
477.999 374 L
478.145 374 L
478.291 374 L
478.449 374 L
478.608 374 L
478.766 374 L
478.924 374 L
479.069 374 L
479.215 374 L
479.361 374 L
479.507 374 L
479.632 374 L
479.758 374 L
479.883 374 L
480.009 374 L
480.13 374 L
480.25 374 L
480.371 374 L
480.492 374 L
480.629 374 L
480.765 374 L
480.902 374 L
481.038 374 L
481.195 374 L
481.352 374 L
481.508 374 L
481.665 374 L
481.821 374 L
481.976 374 L
482.132 374 L
482.287 374 L
482.421 374 L
482.555 374 L
482.689 374 L
482.822 374 L
482.941 374 L
483.06 374 L
483.179 374 L
483.298 374 L
483.424 374 L
483.551 374 L
S
GR
GS
[0.75 0 0 0.75 0 0] CT
0 0.447 0.741 RC
2 LJ
N
483.551 374 M
483.677 374 L
483.803 374 L
483.952 374 L
484.101 374 L
484.25 374 L
484.399 374 L
484.561 374 L
484.722 374 L
484.884 374 L
485.045 374 L
485.191 374 L
485.336 374 L
485.482 374 L
485.627 374 L
485.749 374 L
485.872 374 L
485.994 374 L
486.117 374 L
486.235 374 L
486.354 374 L
486.473 374 L
486.591 374 L
486.729 374 L
486.867 374 L
487.004 374 L
487.142 374 L
487.302 374 L
487.462 374 L
487.623 374 L
487.783 374 L
487.94 374 L
488.097 374 L
488.254 374 L
488.412 374 L
488.543 374 L
488.675 374 L
488.807 374 L
488.938 374 L
489.054 374 L
489.17 374 L
489.286 374 L
489.402 374 L
489.528 374 L
489.654 374 L
489.78 374 L
489.905 374 L
490.057 374 L
490.209 374 L
490.36 374 L
S
GR
GS
[0.75 0 0 0.75 0 0] CT
0 0.447 0.741 RC
2 LJ
N
490.36 374 M
490.512 374 L
490.676 374 L
490.841 374 L
491.005 374 L
491.169 374 L
491.314 374 L
491.459 374 L
491.604 374 L
491.749 374 L
491.869 374 L
491.989 374 L
492.108 374 L
492.228 374 L
492.345 374 L
492.462 374 L
492.579 374 L
492.696 374 L
492.834 374 L
492.973 374 L
493.111 374 L
493.25 374 L
493.413 374 L
493.577 374 L
493.74 374 L
493.903 374 L
494.062 374 L
494.22 374 L
494.379 374 L
494.537 374 L
494.667 374 L
494.797 374 L
494.927 374 L
495.057 374 L
495.17 374 L
495.284 374 L
495.397 374 L
495.511 374 L
495.636 374 L
495.762 374 L
495.887 374 L
496.013 374 L
496.166 374 L
496.32 374 L
496.473 374 L
496.627 374 L
496.794 374 L
496.961 374 L
497.128 374 L
497.295 374 L
S
GR
GS
[0.75 0 0 0.75 0 0] CT
0 0.447 0.741 RC
2 LJ
N
497.295 374 M
497.439 374 L
497.584 374 L
497.728 374 L
497.873 374 L
497.99 374 L
498.108 374 L
498.225 374 L
498.343 374 L
498.458 374 L
498.574 374 L
498.689 374 L
498.805 374 L
498.944 374 L
499.083 374 L
499.223 374 L
499.362 374 L
499.528 374 L
499.694 374 L
499.859 374 L
500.025 374 L
500.185 374 L
500.344 374 L
500.504 374 L
500.663 374 L
500.791 374 L
500.92 374 L
501.048 374 L
501.177 374 L
501.288 374 L
501.4 374 L
501.512 374 L
501.624 374 L
501.749 374 L
501.874 374 L
501.999 374 L
502.124 374 L
502.279 374 L
502.434 374 L
502.59 374 L
502.745 374 L
502.913 374 L
503.082 374 L
503.25 374 L
503.419 374 L
503.563 374 L
503.708 374 L
503.852 374 L
503.996 374 L
504.112 374 L
S
GR
GS
[0.75 0 0 0.75 0 0] CT
0 0.447 0.741 RC
2 LJ
N
504.112 374 M
504.228 374 L
504.344 374 L
504.46 374 L
504.575 374 L
504.689 374 L
504.804 374 L
504.918 374 L
505.058 374 L
505.198 374 L
505.337 374 L
505.477 374 L
505.645 374 L
505.812 374 L
505.979 374 L
506.147 374 L
506.274 374 L
506.402 374 L
506.529 374 L
506.657 374 L
506.743 374 L
506.828 374 L
506.914 374 L
507 374 L
S
GR
GS
[0.75 0 0 0.75 217.50021 21.18751] CT
/Helvetica-Bold 15 F
GS
[1 0 0 1 0 0] CT
-59 -4 moveto 
1 -1 scale
(tF = 61.17 \(h\)) t 
GR
GR
%%Trailer
%%Pages: 1
%%EOF
