%!PS-Adobe-3.0 EPSF-3.0
%%Creator: (MATLAB, The Mathworks, Inc. Version 8.5.0.197613 \(R2015a\). Operating System: Linux)
%%Title: (/home/lukas/Dropbox/Universidad/Master/Control Theory/lab6/raport/chapter3/figures/2.eps)
%%CreationDate: 2016-04-24T10:45:11
%%Pages: (atend)
%%BoundingBox: 0 0 420 315
%%LanguageLevel: 2
%%EndComments
%%BeginProlog
%%BeginResource: procset (Apache XML Graphics Std ProcSet) 1.2 0
%%Version: 1.2 0
%%Copyright: (Copyright 2001-2003,2010 The Apache Software Foundation. License terms: http://www.apache.org/licenses/LICENSE-2.0)
/bd{bind def}bind def
/ld{load def}bd
/GR/grestore ld
/M/moveto ld
/LJ/setlinejoin ld
/C/curveto ld
/f/fill ld
/LW/setlinewidth ld
/GC/setgray ld
/t/show ld
/N/newpath ld
/CT/concat ld
/cp/closepath ld
/S/stroke ld
/L/lineto ld
/CC/setcmykcolor ld
/A/ashow ld
/GS/gsave ld
/RC/setrgbcolor ld
/RM/rmoveto ld
/ML/setmiterlimit ld
/re {4 2 roll M
1 index 0 rlineto
0 exch rlineto
neg 0 rlineto
cp } bd
/_ctm matrix def
/_tm matrix def
/BT { _ctm currentmatrix pop matrix _tm copy pop 0 0 moveto } bd
/ET { _ctm setmatrix } bd
/iTm { _ctm setmatrix _tm concat } bd
/Tm { _tm astore pop iTm 0 0 moveto } bd
/ux 0.0 def
/uy 0.0 def
/F {
  /Tp exch def
  /Tf exch def
  Tf findfont Tp scalefont setfont
  /cf Tf def  /cs Tp def
} bd
/ULS {currentpoint /uy exch def /ux exch def} bd
/ULE {
  /Tcx currentpoint pop def
  gsave
  newpath
  cf findfont cs scalefont dup
  /FontMatrix get 0 get /Ts exch def /FontInfo get dup
  /UnderlinePosition get Ts mul /To exch def
  /UnderlineThickness get Ts mul /Tt exch def
  ux uy To add moveto  Tcx uy To add lineto
  Tt setlinewidth stroke
  grestore
} bd
/OLE {
  /Tcx currentpoint pop def
  gsave
  newpath
  cf findfont cs scalefont dup
  /FontMatrix get 0 get /Ts exch def /FontInfo get dup
  /UnderlinePosition get Ts mul /To exch def
  /UnderlineThickness get Ts mul /Tt exch def
  ux uy To add cs add moveto Tcx uy To add cs add lineto
  Tt setlinewidth stroke
  grestore
} bd
/SOE {
  /Tcx currentpoint pop def
  gsave
  newpath
  cf findfont cs scalefont dup
  /FontMatrix get 0 get /Ts exch def /FontInfo get dup
  /UnderlinePosition get Ts mul /To exch def
  /UnderlineThickness get Ts mul /Tt exch def
  ux uy To add cs 10 mul 26 idiv add moveto Tcx uy To add cs 10 mul 26 idiv add lineto
  Tt setlinewidth stroke
  grestore
} bd
/QT {
/Y22 exch store
/X22 exch store
/Y21 exch store
/X21 exch store
currentpoint
/Y21 load 2 mul add 3 div exch
/X21 load 2 mul add 3 div exch
/X21 load 2 mul /X22 load add 3 div
/Y21 load 2 mul /Y22 load add 3 div
/X22 load /Y22 load curveto
} bd
/SSPD {
dup length /d exch dict def
{
/v exch def
/k exch def
currentpagedevice k known {
/cpdv currentpagedevice k get def
v cpdv ne {
/upd false def
/nullv v type /nulltype eq def
/nullcpdv cpdv type /nulltype eq def
nullv nullcpdv or
{
/upd true def
} {
/sametype v type cpdv type eq def
sametype {
v type /arraytype eq {
/vlen v length def
/cpdvlen cpdv length def
vlen cpdvlen eq {
0 1 vlen 1 sub {
/i exch def
/obj v i get def
/cpdobj cpdv i get def
obj cpdobj ne {
/upd true def
exit
} if
} for
} {
/upd true def
} ifelse
} {
v type /dicttype eq {
v {
/dv exch def
/dk exch def
/cpddv cpdv dk get def
dv cpddv ne {
/upd true def
exit
} if
} forall
} {
/upd true def
} ifelse
} ifelse
} if
} ifelse
upd true eq {
d k v put
} if
} if
} if
} forall
d length 0 gt {
d setpagedevice
} if
} bd
%%EndResource
%%BeginResource: procset (Apache XML Graphics EPS ProcSet) 1.0 0
%%Version: 1.0 0
%%Copyright: (Copyright 2002-2003 The Apache Software Foundation. License terms: http://www.apache.org/licenses/LICENSE-2.0)
/BeginEPSF { %def
/b4_Inc_state save def         % Save state for cleanup
/dict_count countdictstack def % Count objects on dict stack
/op_count count 1 sub def      % Count objects on operand stack
userdict begin                 % Push userdict on dict stack
/showpage { } def              % Redefine showpage, { } = null proc
0 setgray 0 setlinecap         % Prepare graphics state
1 setlinewidth 0 setlinejoin
10 setmiterlimit [ ] 0 setdash newpath
/languagelevel where           % If level not equal to 1 then
{pop languagelevel             % set strokeadjust and
1 ne                           % overprint to their defaults.
{false setstrokeadjust false setoverprint
} if
} if
} bd
/EndEPSF { %def
count op_count sub {pop} repeat            % Clean up stacks
countdictstack dict_count sub {end} repeat
b4_Inc_state restore
} bd
%%EndResource
%FOPBeginFontDict
%%IncludeResource: font Courier-Bold
%%IncludeResource: font Helvetica
%%IncludeResource: font Courier-BoldOblique
%%IncludeResource: font Courier-Oblique
%%IncludeResource: font Times-Roman
%%IncludeResource: font Helvetica-BoldOblique
%%IncludeResource: font Helvetica-Bold
%%IncludeResource: font Helvetica-Oblique
%%IncludeResource: font Times-BoldItalic
%%IncludeResource: font Courier
%%IncludeResource: font Times-Italic
%%IncludeResource: font Times-Bold
%%IncludeResource: font Symbol
%%IncludeResource: font ZapfDingbats
%FOPEndFontDict
%%BeginResource: encoding WinAnsiEncoding
/WinAnsiEncoding [
/.notdef /.notdef /.notdef /.notdef /.notdef
/.notdef /.notdef /.notdef /.notdef /.notdef
/.notdef /.notdef /.notdef /.notdef /.notdef
/.notdef /.notdef /.notdef /.notdef /.notdef
/.notdef /.notdef /.notdef /.notdef /.notdef
/.notdef /.notdef /.notdef /.notdef /.notdef
/.notdef /.notdef /space /exclam /quotedbl
/numbersign /dollar /percent /ampersand /quotesingle
/parenleft /parenright /asterisk /plus /comma
/hyphen /period /slash /zero /one
/two /three /four /five /six
/seven /eight /nine /colon /semicolon
/less /equal /greater /question /at
/A /B /C /D /E
/F /G /H /I /J
/K /L /M /N /O
/P /Q /R /S /T
/U /V /W /X /Y
/Z /bracketleft /backslash /bracketright /asciicircum
/underscore /quoteleft /a /b /c
/d /e /f /g /h
/i /j /k /l /m
/n /o /p /q /r
/s /t /u /v /w
/x /y /z /braceleft /bar
/braceright /asciitilde /bullet /Euro /bullet
/quotesinglbase /florin /quotedblbase /ellipsis /dagger
/daggerdbl /circumflex /perthousand /Scaron /guilsinglleft
/OE /bullet /Zcaron /bullet /bullet
/quoteleft /quoteright /quotedblleft /quotedblright /bullet
/endash /emdash /asciitilde /trademark /scaron
/guilsinglright /oe /bullet /zcaron /Ydieresis
/space /exclamdown /cent /sterling /currency
/yen /brokenbar /section /dieresis /copyright
/ordfeminine /guillemotleft /logicalnot /sfthyphen /registered
/macron /degree /plusminus /twosuperior /threesuperior
/acute /mu /paragraph /middot /cedilla
/onesuperior /ordmasculine /guillemotright /onequarter /onehalf
/threequarters /questiondown /Agrave /Aacute /Acircumflex
/Atilde /Adieresis /Aring /AE /Ccedilla
/Egrave /Eacute /Ecircumflex /Edieresis /Igrave
/Iacute /Icircumflex /Idieresis /Eth /Ntilde
/Ograve /Oacute /Ocircumflex /Otilde /Odieresis
/multiply /Oslash /Ugrave /Uacute /Ucircumflex
/Udieresis /Yacute /Thorn /germandbls /agrave
/aacute /acircumflex /atilde /adieresis /aring
/ae /ccedilla /egrave /eacute /ecircumflex
/edieresis /igrave /iacute /icircumflex /idieresis
/eth /ntilde /ograve /oacute /ocircumflex
/otilde /odieresis /divide /oslash /ugrave
/uacute /ucircumflex /udieresis /yacute /thorn
/ydieresis
] def
%%EndResource
%FOPBeginFontReencode
/Courier-Bold findfont
dup length dict begin
  {1 index /FID ne {def} {pop pop} ifelse} forall
  /Encoding WinAnsiEncoding def
  currentdict
end
/Courier-Bold exch definefont pop
/Helvetica findfont
dup length dict begin
  {1 index /FID ne {def} {pop pop} ifelse} forall
  /Encoding WinAnsiEncoding def
  currentdict
end
/Helvetica exch definefont pop
/Courier-BoldOblique findfont
dup length dict begin
  {1 index /FID ne {def} {pop pop} ifelse} forall
  /Encoding WinAnsiEncoding def
  currentdict
end
/Courier-BoldOblique exch definefont pop
/Courier-Oblique findfont
dup length dict begin
  {1 index /FID ne {def} {pop pop} ifelse} forall
  /Encoding WinAnsiEncoding def
  currentdict
end
/Courier-Oblique exch definefont pop
/Times-Roman findfont
dup length dict begin
  {1 index /FID ne {def} {pop pop} ifelse} forall
  /Encoding WinAnsiEncoding def
  currentdict
end
/Times-Roman exch definefont pop
/Helvetica-BoldOblique findfont
dup length dict begin
  {1 index /FID ne {def} {pop pop} ifelse} forall
  /Encoding WinAnsiEncoding def
  currentdict
end
/Helvetica-BoldOblique exch definefont pop
/Helvetica-Bold findfont
dup length dict begin
  {1 index /FID ne {def} {pop pop} ifelse} forall
  /Encoding WinAnsiEncoding def
  currentdict
end
/Helvetica-Bold exch definefont pop
/Helvetica-Oblique findfont
dup length dict begin
  {1 index /FID ne {def} {pop pop} ifelse} forall
  /Encoding WinAnsiEncoding def
  currentdict
end
/Helvetica-Oblique exch definefont pop
/Times-BoldItalic findfont
dup length dict begin
  {1 index /FID ne {def} {pop pop} ifelse} forall
  /Encoding WinAnsiEncoding def
  currentdict
end
/Times-BoldItalic exch definefont pop
/Courier findfont
dup length dict begin
  {1 index /FID ne {def} {pop pop} ifelse} forall
  /Encoding WinAnsiEncoding def
  currentdict
end
/Courier exch definefont pop
/Times-Italic findfont
dup length dict begin
  {1 index /FID ne {def} {pop pop} ifelse} forall
  /Encoding WinAnsiEncoding def
  currentdict
end
/Times-Italic exch definefont pop
/Times-Bold findfont
dup length dict begin
  {1 index /FID ne {def} {pop pop} ifelse} forall
  /Encoding WinAnsiEncoding def
  currentdict
end
/Times-Bold exch definefont pop
%FOPEndFontReencode
%%EndProlog
%%Page: 1 1
%%PageBoundingBox: 0 0 420 315
%%BeginPageSetup
[1 0 0 -1 0 315] CT
%%EndPageSetup
GS
[0.75 0 0 0.75 0 0] CT
1 GC
N
0 0 560 420 re
f
GR
GS
[0.75 0 0 0.75 0 0] CT
1 GC
N
0 0 560 420 re
f
GR
GS
[0.75 0 0 0.75 0 0] CT
1 GC
N
73 374 M
507 374 L
507 31 L
73 31 L
cp
f
GR
GS
[0.75 0 0 0.75 0 0] CT
0.873 GC
2 setlinecap
10.0 ML
N
73 374 M
73 31 L
S
GR
GS
[0.75 0 0 0.75 0 0] CT
0.873 GC
2 setlinecap
10.0 ML
N
143.95 374 M
143.95 31 L
S
GR
GS
[0.75 0 0 0.75 0 0] CT
0.873 GC
2 setlinecap
10.0 ML
N
214.9 374 M
214.9 31 L
S
GR
GS
[0.75 0 0 0.75 0 0] CT
0.873 GC
2 setlinecap
10.0 ML
N
285.849 374 M
285.849 31 L
S
GR
GS
[0.75 0 0 0.75 0 0] CT
0.873 GC
2 setlinecap
10.0 ML
N
356.799 374 M
356.799 31 L
S
GR
GS
[0.75 0 0 0.75 0 0] CT
0.873 GC
2 setlinecap
10.0 ML
N
427.749 374 M
427.749 31 L
S
GR
GS
[0.75 0 0 0.75 0 0] CT
0.873 GC
2 setlinecap
10.0 ML
N
498.699 374 M
498.699 31 L
S
GR
GS
[0.75 0 0 0.75 0 0] CT
0.873 GC
2 setlinecap
10.0 ML
N
507 374 M
73 374 L
S
GR
GS
[0.75 0 0 0.75 0 0] CT
0.873 GC
2 setlinecap
10.0 ML
N
507 305.4 M
73 305.4 L
S
GR
GS
[0.75 0 0 0.75 0 0] CT
0.873 GC
2 setlinecap
10.0 ML
N
507 236.8 M
73 236.8 L
S
GR
GS
[0.75 0 0 0.75 0 0] CT
0.873 GC
2 setlinecap
10.0 ML
N
507 168.2 M
73 168.2 L
S
GR
GS
[0.75 0 0 0.75 0 0] CT
0.873 GC
2 setlinecap
10.0 ML
N
507 99.6 M
73 99.6 L
S
GR
GS
[0.75 0 0 0.75 0 0] CT
0.873 GC
2 setlinecap
10.0 ML
N
507 31 M
73 31 L
S
GR
GS
[0.75 0 0 0.75 217.50014 298.24999] CT
0.149 GC
/Helvetica 15 F
GS
[1 0 0 1 0 0] CT
-30 14 moveto 
1 -1 scale
(time \(h\)) t 
GR
GR
GS
[0.75 0 0 0.75 0 0] CT
0.149 GC
2 setlinecap
10.0 ML
N
73 374 M
507 374 L
S
GR
GS
[0.75 0 0 0.75 0 0] CT
0.149 GC
2 setlinecap
10.0 ML
N
73 31 M
507 31 L
S
GR
GS
[0.75 0 0 0.75 0 0] CT
0.149 GC
2 setlinecap
10.0 ML
N
73 374 M
73 369.66 L
S
GR
GS
[0.75 0 0 0.75 0 0] CT
0.149 GC
2 setlinecap
10.0 ML
N
143.95 374 M
143.95 369.66 L
S
GR
GS
[0.75 0 0 0.75 0 0] CT
0.149 GC
2 setlinecap
10.0 ML
N
214.9 374 M
214.9 369.66 L
S
GR
GS
[0.75 0 0 0.75 0 0] CT
0.149 GC
2 setlinecap
10.0 ML
N
285.849 374 M
285.849 369.66 L
S
GR
GS
[0.75 0 0 0.75 0 0] CT
0.149 GC
2 setlinecap
10.0 ML
N
356.799 374 M
356.799 369.66 L
S
GR
GS
[0.75 0 0 0.75 0 0] CT
0.149 GC
2 setlinecap
10.0 ML
N
427.749 374 M
427.749 369.66 L
S
GR
GS
[0.75 0 0 0.75 0 0] CT
0.149 GC
2 setlinecap
10.0 ML
N
498.699 374 M
498.699 369.66 L
S
GR
GS
[0.75 0 0 0.75 0 0] CT
0.149 GC
2 setlinecap
10.0 ML
N
73 31 M
73 35.34 L
S
GR
GS
[0.75 0 0 0.75 0 0] CT
0.149 GC
2 setlinecap
10.0 ML
N
143.95 31 M
143.95 35.34 L
S
GR
GS
[0.75 0 0 0.75 0 0] CT
0.149 GC
2 setlinecap
10.0 ML
N
214.9 31 M
214.9 35.34 L
S
GR
GS
[0.75 0 0 0.75 0 0] CT
0.149 GC
2 setlinecap
10.0 ML
N
285.849 31 M
285.849 35.34 L
S
GR
GS
[0.75 0 0 0.75 0 0] CT
0.149 GC
2 setlinecap
10.0 ML
N
356.799 31 M
356.799 35.34 L
S
GR
GS
[0.75 0 0 0.75 0 0] CT
0.149 GC
2 setlinecap
10.0 ML
N
427.749 31 M
427.749 35.34 L
S
GR
GS
[0.75 0 0 0.75 0 0] CT
0.149 GC
2 setlinecap
10.0 ML
N
498.699 31 M
498.699 35.34 L
S
GR
GS
[0.75 0 0 0.75 54.75 284.50001] CT
0.149 GC
/Helvetica 13 F
GS
[1 0 0 1 0 0] CT
-4.5 13 moveto 
1 -1 scale
(0) t 
GR
GR
GS
[0.75 0 0 0.75 107.96236 284.50001] CT
0.149 GC
/Helvetica 13 F
GS
[1 0 0 1 0 0] CT
-8.5 13 moveto 
1 -1 scale
(10) t 
GR
GR
GS
[0.75 0 0 0.75 161.17472 284.50001] CT
0.149 GC
/Helvetica 13 F
GS
[1 0 0 1 0 0] CT
-8.5 13 moveto 
1 -1 scale
(20) t 
GR
GR
GS
[0.75 0 0 0.75 214.38707 284.50001] CT
0.149 GC
/Helvetica 13 F
GS
[1 0 0 1 0 0] CT
-8.5 13 moveto 
1 -1 scale
(30) t 
GR
GR
GS
[0.75 0 0 0.75 267.59944 284.50001] CT
0.149 GC
/Helvetica 13 F
GS
[1 0 0 1 0 0] CT
-8.5 13 moveto 
1 -1 scale
(40) t 
GR
GR
GS
[0.75 0 0 0.75 320.81179 284.50001] CT
0.149 GC
/Helvetica 13 F
GS
[1 0 0 1 0 0] CT
-8.5 13 moveto 
1 -1 scale
(50) t 
GR
GR
GS
[0.75 0 0 0.75 374.02416 284.50001] CT
0.149 GC
/Helvetica 13 F
GS
[1 0 0 1 0 0] CT
-8.5 13 moveto 
1 -1 scale
(60) t 
GR
GR
GS
[0 -0.75 0.75 0 29 151.87487] CT
0.149 GC
/Helvetica 15 F
GS
[1 0 0 1 0 0] CT
-4.5 -4 moveto 
1 -1 scale
(x) t 
GR
GR
GS
[0.75 0 0 0.75 0 0] CT
0.149 GC
2 setlinecap
10.0 ML
N
73 374 M
73 31 L
S
GR
GS
[0.75 0 0 0.75 0 0] CT
0.149 GC
2 setlinecap
10.0 ML
N
507 374 M
507 31 L
S
GR
GS
[0.75 0 0 0.75 0 0] CT
0.149 GC
2 setlinecap
10.0 ML
N
73 374 M
77.34 374 L
S
GR
GS
[0.75 0 0 0.75 0 0] CT
0.149 GC
2 setlinecap
10.0 ML
N
73 305.4 M
77.34 305.4 L
S
GR
GS
[0.75 0 0 0.75 0 0] CT
0.149 GC
2 setlinecap
10.0 ML
N
73 236.8 M
77.34 236.8 L
S
GR
GS
[0.75 0 0 0.75 0 0] CT
0.149 GC
2 setlinecap
10.0 ML
N
73 168.2 M
77.34 168.2 L
S
GR
GS
[0.75 0 0 0.75 0 0] CT
0.149 GC
2 setlinecap
10.0 ML
N
73 99.6 M
77.34 99.6 L
S
GR
GS
[0.75 0 0 0.75 0 0] CT
0.149 GC
2 setlinecap
10.0 ML
N
73 31 M
77.34 31 L
S
GR
GS
[0.75 0 0 0.75 0 0] CT
0.149 GC
2 setlinecap
10.0 ML
N
507 374 M
502.66 374 L
S
GR
GS
[0.75 0 0 0.75 0 0] CT
0.149 GC
2 setlinecap
10.0 ML
N
507 305.4 M
502.66 305.4 L
S
GR
GS
[0.75 0 0 0.75 0 0] CT
0.149 GC
2 setlinecap
10.0 ML
N
507 236.8 M
502.66 236.8 L
S
GR
GS
[0.75 0 0 0.75 0 0] CT
0.149 GC
2 setlinecap
10.0 ML
N
507 168.2 M
502.66 168.2 L
S
GR
GS
[0.75 0 0 0.75 0 0] CT
0.149 GC
2 setlinecap
10.0 ML
N
507 99.6 M
502.66 99.6 L
S
GR
GS
[0.75 0 0 0.75 0 0] CT
0.149 GC
2 setlinecap
10.0 ML
N
507 31 M
502.66 31 L
S
GR
GS
[0.75 0 0 0.75 50.75 280.5] CT
0.149 GC
/Helvetica 13 F
GS
[1 0 0 1 0 0] CT
-9 4.5 moveto 
1 -1 scale
(0) t 
GR
GR
GS
[0.75 0 0 0.75 50.75 229.05] CT
0.149 GC
/Helvetica 13 F
GS
[1 0 0 1 0 0] CT
-17 4.5 moveto 
1 -1 scale
(50) t 
GR
GR
GS
[0.75 0 0 0.75 50.75 177.6] CT
0.149 GC
/Helvetica 13 F
GS
[1 0 0 1 0 0] CT
-25 4.5 moveto 
1 -1 scale
(100) t 
GR
GR
GS
[0.75 0 0 0.75 50.75 126.15] CT
0.149 GC
/Helvetica 13 F
GS
[1 0 0 1 0 0] CT
-25 4.5 moveto 
1 -1 scale
(150) t 
GR
GR
GS
[0.75 0 0 0.75 50.75 74.7] CT
0.149 GC
/Helvetica 13 F
GS
[1 0 0 1 0 0] CT
-25 4.5 moveto 
1 -1 scale
(200) t 
GR
GR
GS
[0.75 0 0 0.75 50.75 23.25] CT
0.149 GC
/Helvetica 13 F
GS
[1 0 0 1 0 0] CT
-25 4.5 moveto 
1 -1 scale
(250) t 
GR
GR
GS
[0.75 0 0 0.75 0 0] CT
0 0.447 0.741 RC
2 LJ
N
73 372.628 M
73 372.628 L
73.001 372.628 L
73.001 372.628 L
73.001 372.628 L
73.003 372.628 L
73.005 372.628 L
73.007 372.627 L
73.009 372.627 L
73.018 372.627 L
73.026 372.626 L
73.035 372.625 L
73.044 372.625 L
73.089 372.621 L
73.134 372.617 L
73.178 372.614 L
73.223 372.61 L
73.446 372.592 L
73.67 372.574 L
73.893 372.556 L
74.117 372.538 L
75.234 372.442 L
76.351 372.342 L
77.468 372.236 L
78.585 372.125 L
80.755 371.894 L
82.925 371.641 L
85.095 371.366 L
87.265 371.069 L
89.435 370.75 L
91.605 370.409 L
93.775 370.047 L
95.945 369.664 L
98.115 369.261 L
100.285 368.84 L
102.455 368.401 L
104.625 367.947 L
106.795 367.478 L
108.965 366.996 L
111.135 366.503 L
113.305 366 L
115.475 365.488 L
117.645 364.97 L
119.815 364.445 L
121.985 363.915 L
124.155 363.381 L
126.325 362.845 L
128.495 362.306 L
130.665 361.766 L
132.835 361.226 L
S
GR
GS
[0.75 0 0 0.75 0 0] CT
0 0.447 0.741 RC
2 LJ
N
132.835 361.226 M
135.005 360.685 L
137.175 360.145 L
139.345 359.605 L
141.515 359.067 L
143.685 358.53 L
145.855 357.996 L
148.025 357.463 L
150.195 356.933 L
152.365 356.405 L
154.535 355.88 L
156.705 355.358 L
157.479 355.172 L
158.253 354.987 L
159.026 354.803 L
159.8 354.618 L
159.8 354.618 L
159.973 354.759 L
160.145 354.897 L
160.318 355.032 L
160.49 355.164 L
161.353 355.786 L
162.216 356.349 L
163.079 356.862 L
163.942 357.329 L
166.112 358.337 L
168.282 359.151 L
170.452 359.816 L
172.622 360.365 L
174.792 360.82 L
176.962 361.197 L
179.132 361.511 L
181.302 361.772 L
183.472 361.988 L
185.642 362.166 L
187.812 362.311 L
189.982 362.427 L
192.152 362.518 L
194.322 362.587 L
196.492 362.636 L
198.662 362.668 L
200.832 362.685 L
203.002 362.687 L
205.172 362.677 L
207.342 362.656 L
209.512 362.624 L
211.682 362.582 L
213.852 362.532 L
216.022 362.473 L
218.192 362.408 L
S
GR
GS
[0.75 0 0 0.75 0 0] CT
0 0.447 0.741 RC
2 LJ
N
218.192 362.408 M
220.362 362.336 L
222.532 362.257 L
224.702 362.172 L
226.872 362.083 L
229.042 361.988 L
231.212 361.888 L
233.382 361.784 L
235.552 361.676 L
237.722 361.565 L
239.892 361.45 L
242.062 361.331 L
243.197 361.268 L
244.331 361.204 L
245.466 361.139 L
246.6 361.073 L
246.6 361.073 L
248.77 361.295 L
250.94 361.481 L
253.11 361.637 L
255.28 361.767 L
257.45 361.873 L
259.62 361.957 L
261.79 362.024 L
263.96 362.073 L
266.13 362.107 L
268.3 362.127 L
270.47 362.135 L
272.64 362.131 L
274.81 362.117 L
276.98 362.093 L
279.15 362.06 L
281.32 362.019 L
283.49 361.97 L
285.66 361.915 L
287.83 361.853 L
290 361.785 L
292.17 361.711 L
294.34 361.632 L
296.51 361.548 L
298.68 361.459 L
300.85 361.366 L
303.02 361.269 L
305.19 361.168 L
307.36 361.064 L
309.53 360.956 L
311.7 360.845 L
313.87 360.731 L
316.04 360.614 L
318.21 360.495 L
S
GR
GS
[0.75 0 0 0.75 0 0] CT
0 0.447 0.741 RC
2 LJ
N
318.21 360.495 M
320.38 360.372 L
322.55 360.248 L
324.72 360.121 L
326.89 359.993 L
329.06 359.862 L
331.23 359.729 L
333.4 359.595 L
333.4 359.595 L
335.57 359.285 L
337.74 358.975 L
339.91 358.666 L
342.08 358.357 L
344.25 358.048 L
346.42 357.741 L
348.59 357.434 L
350.76 357.128 L
352.93 356.823 L
355.1 356.519 L
357.27 356.216 L
359.44 355.914 L
361.61 355.613 L
363.78 355.314 L
365.95 355.017 L
368.12 354.722 L
370.29 354.429 L
372.46 354.14 L
374.63 353.857 L
376.8 353.588 L
377.124 353.551 L
377.447 353.514 L
377.771 353.479 L
378.095 353.446 L
378.231 353.433 L
378.368 353.421 L
378.505 353.409 L
378.641 353.399 L
378.778 353.389 L
378.915 353.381 L
379.052 353.374 L
379.188 353.368 L
379.254 353.366 L
379.319 353.364 L
379.384 353.363 L
379.449 353.361 L
379.515 353.36 L
379.58 353.359 L
379.645 353.358 L
379.711 353.357 L
379.789 353.357 L
S
GR
GS
[0.75 0 0 0.75 0 0] CT
0 0.447 0.741 RC
2 LJ
N
379.789 353.357 M
379.867 353.356 L
379.945 353.356 L
380.023 353.356 L
380.1 353.355 L
380.176 353.355 L
380.252 353.355 L
380.328 353.355 L
380.415 353.355 L
380.502 353.355 L
380.589 353.355 L
380.675 353.355 L
380.778 353.355 L
380.881 353.355 L
380.984 353.355 L
381.087 353.355 L
381.215 353.355 L
381.344 353.355 L
381.472 353.355 L
381.6 353.355 L
381.767 353.355 L
381.934 353.355 L
382.1 353.355 L
382.267 353.355 L
382.494 353.355 L
382.721 353.355 L
382.948 353.355 L
383.175 353.355 L
383.468 353.355 L
383.761 353.355 L
384.054 353.355 L
384.347 353.355 L
384.553 353.355 L
384.759 353.355 L
384.965 353.355 L
385.171 353.355 L
385.377 353.355 L
385.583 353.355 L
385.789 353.355 L
385.995 353.355 L
386.24 353.355 L
386.485 353.355 L
386.73 353.355 L
386.975 353.355 L
387.241 353.355 L
387.508 353.356 L
387.774 353.356 L
388.041 353.356 L
388.279 353.356 L
388.517 353.356 L
S
GR
GS
[0.75 0 0 0.75 0 0] CT
0 0.447 0.741 RC
2 LJ
N
388.517 353.356 M
388.756 353.356 L
388.994 353.356 L
389.192 353.356 L
389.39 353.356 L
389.588 353.356 L
389.786 353.356 L
389.977 353.356 L
390.168 353.356 L
390.36 353.356 L
390.551 353.356 L
390.774 353.356 L
390.998 353.356 L
391.222 353.356 L
391.445 353.356 L
391.708 353.356 L
391.97 353.356 L
392.232 353.356 L
392.495 353.356 L
392.751 353.356 L
393.008 353.356 L
393.264 353.356 L
393.521 353.356 L
393.733 353.356 L
393.945 353.356 L
394.156 353.356 L
394.368 353.356 L
394.553 353.356 L
394.738 353.356 L
394.923 353.356 L
395.108 353.356 L
395.31 353.356 L
395.512 353.356 L
395.714 353.356 L
395.916 353.356 L
396.162 353.356 L
396.408 353.356 L
396.653 353.357 L
396.899 353.357 L
397.166 353.357 L
397.433 353.357 L
397.7 353.357 L
397.967 353.357 L
398.2 353.357 L
398.432 353.357 L
398.665 353.357 L
398.898 353.357 L
399.087 353.357 L
399.277 353.357 L
399.467 353.357 L
S
GR
GS
[0.75 0 0 0.75 0 0] CT
0 0.447 0.741 RC
2 LJ
N
399.467 353.357 M
399.656 353.357 L
399.842 353.357 L
400.027 353.357 L
400.212 353.357 L
400.397 353.357 L
400.619 353.357 L
400.842 353.357 L
401.064 353.357 L
401.286 353.357 L
401.549 353.357 L
401.813 353.357 L
402.076 353.357 L
402.34 353.357 L
402.593 353.357 L
402.847 353.357 L
403.101 353.357 L
403.355 353.357 L
403.56 353.357 L
403.764 353.357 L
403.969 353.357 L
404.174 353.357 L
404.352 353.357 L
404.53 353.357 L
404.708 353.357 L
404.886 353.357 L
405.085 353.357 L
405.283 353.357 L
405.482 353.357 L
405.68 353.357 L
405.926 353.357 L
406.171 353.357 L
406.417 353.358 L
406.663 353.358 L
406.929 353.358 L
407.195 353.358 L
407.462 353.358 L
407.728 353.358 L
407.955 353.358 L
408.183 353.358 L
408.41 353.358 L
408.638 353.358 L
408.821 353.358 L
409.004 353.358 L
409.187 353.358 L
409.369 353.358 L
409.55 353.358 L
409.73 353.358 L
409.91 353.358 L
410.091 353.358 L
S
GR
GS
[0.75 0 0 0.75 0 0] CT
0 0.447 0.741 RC
2 LJ
N
410.091 353.358 M
410.311 353.358 L
410.532 353.358 L
410.752 353.358 L
410.973 353.358 L
411.236 353.358 L
411.499 353.358 L
411.763 353.358 L
412.026 353.358 L
412.225 353.358 L
412.423 353.358 L
412.622 353.358 L
412.821 353.358 L
413.02 353.358 L
413.218 353.358 L
413.417 353.358 L
413.616 353.358 L
413.846 353.358 L
414.076 353.358 L
414.306 353.358 L
414.536 353.358 L
414.784 353.358 L
415.032 353.358 L
415.281 353.358 L
415.529 353.358 L
415.756 353.358 L
415.984 353.358 L
416.211 353.359 L
416.438 353.359 L
416.632 353.359 L
416.826 353.359 L
417.02 353.359 L
417.214 353.359 L
417.401 353.359 L
417.588 353.359 L
417.775 353.359 L
417.962 353.359 L
418.175 353.359 L
418.387 353.359 L
418.6 353.359 L
418.813 353.359 L
419.058 353.359 L
419.303 353.359 L
419.548 353.359 L
419.793 353.359 L
419.894 353.359 L
419.996 353.359 L
420.098 353.359 L
420.2 353.359 L
420.2 353.359 L
S
GR
GS
[0.75 0 0 0.75 0 0] CT
0 0.447 0.741 RC
2 LJ
N
420.2 353.359 M
420.21 353.359 L
420.221 353.358 L
420.231 353.358 L
420.242 353.358 L
420.29 353.356 L
420.338 353.355 L
420.386 353.354 L
420.434 353.354 L
420.474 353.353 L
420.514 353.353 L
420.554 353.353 L
420.594 353.352 L
420.629 353.352 L
420.665 353.352 L
420.7 353.352 L
420.736 353.352 L
420.77 353.352 L
420.804 353.352 L
420.838 353.352 L
420.872 353.352 L
420.905 353.352 L
420.939 353.352 L
420.972 353.352 L
421.006 353.352 L
421.039 353.352 L
421.072 353.352 L
421.105 353.352 L
421.138 353.352 L
421.175 353.352 L
421.212 353.352 L
421.249 353.352 L
421.286 353.352 L
421.33 353.352 L
421.373 353.352 L
421.416 353.351 L
421.459 353.351 L
421.509 353.351 L
421.56 353.351 L
421.611 353.351 L
421.662 353.351 L
421.723 353.351 L
421.785 353.351 L
421.846 353.351 L
421.908 353.351 L
421.985 353.351 L
422.062 353.351 L
422.139 353.351 L
422.216 353.351 L
422.317 353.351 L
S
GR
GS
[0.75 0 0 0.75 0 0] CT
0 0.447 0.741 RC
2 LJ
N
422.317 353.351 M
422.417 353.351 L
422.518 353.351 L
422.618 353.351 L
422.755 353.351 L
422.892 353.351 L
423.028 353.351 L
423.165 353.351 L
423.343 353.351 L
423.521 353.351 L
423.698 353.351 L
423.876 353.351 L
424.003 353.351 L
424.129 353.351 L
424.256 353.351 L
424.383 353.351 L
424.509 353.351 L
424.636 353.351 L
424.762 353.351 L
424.889 353.351 L
425.038 353.351 L
425.186 353.351 L
425.335 353.351 L
425.484 353.351 L
425.644 353.351 L
425.805 353.351 L
425.966 353.351 L
426.127 353.351 L
426.272 353.351 L
426.418 353.351 L
426.563 353.351 L
426.709 353.351 L
426.831 353.351 L
426.954 353.351 L
427.077 353.351 L
427.2 353.351 L
427.319 353.351 L
427.438 353.351 L
427.558 353.351 L
427.677 353.351 L
427.814 353.351 L
427.952 353.351 L
428.089 353.351 L
428.227 353.351 L
428.386 353.351 L
428.546 353.351 L
428.706 353.351 L
428.865 353.351 L
429.022 353.351 L
429.179 353.351 L
S
GR
GS
[0.75 0 0 0.75 0 0] CT
0 0.447 0.741 RC
2 LJ
N
429.179 353.351 M
429.336 353.351 L
429.493 353.351 L
429.625 353.351 L
429.757 353.351 L
429.888 353.351 L
430.02 353.351 L
430.137 353.351 L
430.253 353.351 L
430.37 353.351 L
430.486 353.351 L
430.612 353.351 L
430.738 353.351 L
430.864 353.351 L
430.99 353.351 L
431.141 353.351 L
431.293 353.351 L
431.444 353.351 L
431.595 353.351 L
431.759 353.351 L
431.923 353.351 L
432.087 353.351 L
432.251 353.351 L
432.396 353.351 L
432.541 353.351 L
432.686 353.351 L
432.831 353.351 L
432.951 353.351 L
433.071 353.351 L
433.191 353.351 L
433.311 353.351 L
433.428 353.351 L
433.545 353.351 L
433.663 353.351 L
433.78 353.351 L
433.918 353.351 L
434.057 353.351 L
434.195 353.351 L
434.334 353.351 L
434.497 353.351 L
434.66 353.351 L
434.823 353.351 L
434.986 353.351 L
435.144 353.351 L
435.302 353.351 L
435.46 353.351 L
435.618 353.351 L
435.748 353.351 L
435.878 353.351 L
436.008 353.351 L
S
GR
GS
[0.75 0 0 0.75 0 0] CT
0 0.447 0.741 RC
2 LJ
N
436.008 353.351 M
436.138 353.351 L
436.252 353.351 L
436.366 353.351 L
436.48 353.351 L
436.594 353.351 L
436.72 353.351 L
436.845 353.351 L
436.971 353.351 L
437.096 353.351 L
437.25 353.351 L
437.403 353.351 L
437.557 353.351 L
437.71 353.351 L
437.877 353.351 L
438.043 353.351 L
438.209 353.351 L
438.376 353.351 L
438.52 353.351 L
438.665 353.351 L
438.809 353.351 L
438.954 353.351 L
439.072 353.351 L
439.189 353.351 L
439.307 353.351 L
439.425 353.351 L
439.541 353.351 L
439.656 353.351 L
439.772 353.351 L
439.888 353.351 L
440.027 353.351 L
440.167 353.351 L
440.306 353.351 L
440.445 353.351 L
440.611 353.351 L
440.776 353.351 L
440.942 353.351 L
441.107 353.351 L
441.266 353.351 L
441.426 353.351 L
441.585 353.351 L
441.744 353.351 L
441.873 353.351 L
442.001 353.351 L
442.13 353.351 L
442.258 353.351 L
442.37 353.351 L
442.482 353.351 L
442.594 353.351 L
442.706 353.351 L
S
GR
GS
[0.75 0 0 0.75 0 0] CT
0 0.447 0.741 RC
2 LJ
N
442.706 353.351 M
442.832 353.351 L
442.957 353.351 L
443.082 353.351 L
443.207 353.351 L
443.362 353.351 L
443.517 353.351 L
443.672 353.351 L
443.827 353.351 L
443.996 353.351 L
444.164 353.351 L
444.332 353.351 L
444.501 353.351 L
444.645 353.351 L
444.789 353.351 L
444.933 353.351 L
445.077 353.351 L
445.193 353.351 L
445.31 353.351 L
445.426 353.351 L
445.542 353.351 L
445.657 353.351 L
445.771 353.351 L
445.886 353.351 L
446.001 353.351 L
446.141 353.351 L
446.28 353.351 L
446.42 353.351 L
446.56 353.351 L
446.727 353.351 L
446.895 353.351 L
447.062 353.351 L
447.229 353.351 L
447.356 353.351 L
447.484 353.351 L
447.611 353.351 L
447.739 353.351 L
447.866 353.351 L
447.994 353.351 L
448.121 353.351 L
448.249 353.351 L
448.395 353.351 L
448.541 353.351 L
448.688 353.351 L
448.834 353.351 L
448.992 353.351 L
449.149 353.351 L
449.307 353.351 L
449.465 353.351 L
449.61 353.351 L
S
GR
GS
[0.75 0 0 0.75 0 0] CT
0 0.447 0.741 RC
2 LJ
N
449.61 353.351 M
449.756 353.351 L
449.901 353.351 L
450.047 353.351 L
450.172 353.351 L
450.298 353.351 L
450.424 353.351 L
450.549 353.351 L
450.671 353.351 L
450.792 353.351 L
450.913 353.351 L
451.034 353.351 L
451.171 353.351 L
451.308 353.351 L
451.445 353.351 L
451.581 353.351 L
451.738 353.351 L
451.894 353.351 L
452.05 353.351 L
452.207 353.351 L
452.362 353.351 L
452.517 353.351 L
452.672 353.351 L
452.827 353.351 L
452.961 353.351 L
453.095 353.351 L
453.229 353.351 L
453.362 353.351 L
453.481 353.351 L
453.601 353.351 L
453.72 353.351 L
453.839 353.351 L
453.966 353.351 L
454.092 353.351 L
454.219 353.351 L
454.346 353.351 L
454.495 353.351 L
454.644 353.351 L
454.793 353.351 L
454.942 353.351 L
455.103 353.351 L
455.264 353.351 L
455.425 353.351 L
455.586 353.351 L
455.731 353.351 L
455.876 353.351 L
456.021 353.351 L
456.167 353.351 L
456.289 353.351 L
456.412 353.351 L
S
GR
GS
[0.75 0 0 0.75 0 0] CT
0 0.447 0.741 RC
2 LJ
N
456.412 353.351 M
456.534 353.351 L
456.657 353.351 L
456.776 353.351 L
456.895 353.351 L
457.014 353.351 L
457.133 353.351 L
457.271 353.351 L
457.409 353.351 L
457.547 353.351 L
457.684 353.351 L
457.844 353.351 L
458.004 353.351 L
458.164 353.351 L
458.324 353.351 L
458.481 353.351 L
458.638 353.351 L
458.795 353.351 L
458.951 353.351 L
459.083 353.351 L
459.215 353.351 L
459.346 353.351 L
459.478 353.351 L
459.594 353.351 L
459.71 353.351 L
459.827 353.351 L
459.943 353.351 L
460.069 353.351 L
460.195 353.351 L
460.321 353.351 L
460.447 353.351 L
460.599 353.351 L
460.751 353.351 L
460.902 353.351 L
461.054 353.351 L
461.218 353.351 L
461.382 353.351 L
461.546 353.351 L
461.71 353.351 L
461.855 353.351 L
461.999 353.351 L
462.144 353.351 L
462.289 353.351 L
462.408 353.351 L
462.528 353.351 L
462.648 353.351 L
462.768 353.351 L
462.885 353.351 L
463.002 353.351 L
463.119 353.351 L
S
GR
GS
[0.75 0 0 0.75 0 0] CT
0 0.447 0.741 RC
2 LJ
N
463.119 353.351 M
463.237 353.351 L
463.376 353.351 L
463.514 353.351 L
463.653 353.351 L
463.792 353.351 L
463.955 353.351 L
464.118 353.351 L
464.282 353.351 L
464.445 353.351 L
464.603 353.351 L
464.761 353.351 L
464.919 353.351 L
465.077 353.351 L
465.207 353.351 L
465.336 353.351 L
465.466 353.351 L
465.596 353.351 L
465.709 353.351 L
465.823 353.351 L
465.937 353.351 L
466.051 353.351 L
466.177 353.351 L
466.302 353.351 L
466.428 353.351 L
466.554 353.351 L
466.708 353.351 L
466.862 353.351 L
467.015 353.351 L
467.169 353.351 L
467.336 353.351 L
467.502 353.351 L
467.669 353.351 L
467.835 353.351 L
467.979 353.351 L
468.123 353.351 L
468.268 353.351 L
468.412 353.351 L
468.529 353.351 L
468.647 353.351 L
468.764 353.351 L
468.882 353.351 L
468.998 353.351 L
469.114 353.351 L
469.229 353.351 L
469.345 353.351 L
469.485 353.351 L
469.624 353.351 L
469.764 353.351 L
469.904 353.351 L
S
GR
GS
[0.75 0 0 0.75 0 0] CT
0 0.447 0.741 RC
2 LJ
N
469.904 353.351 M
470.07 353.351 L
470.235 353.351 L
470.401 353.351 L
470.566 353.351 L
470.726 353.351 L
470.885 353.351 L
471.044 353.351 L
471.203 353.351 L
471.331 353.351 L
471.459 353.351 L
471.587 353.351 L
471.715 353.351 L
471.827 353.351 L
471.939 353.351 L
472.051 353.351 L
472.163 353.351 L
472.289 353.351 L
472.414 353.351 L
472.54 353.351 L
472.665 353.351 L
472.82 353.351 L
472.976 353.351 L
473.131 353.351 L
473.287 353.351 L
473.455 353.351 L
473.623 353.351 L
473.792 353.351 L
473.96 353.351 L
474.104 353.351 L
474.247 353.351 L
474.391 353.351 L
474.535 353.351 L
474.651 353.351 L
474.767 353.351 L
474.883 353.351 L
474.999 353.351 L
475.114 353.351 L
475.228 353.351 L
475.343 353.351 L
475.458 353.351 L
475.598 353.351 L
475.738 353.351 L
475.879 353.351 L
476.019 353.351 L
476.186 353.351 L
476.354 353.351 L
476.521 353.351 L
476.688 353.351 L
476.816 353.351 L
S
GR
GS
[0.75 0 0 0.75 0 0] CT
0 0.447 0.741 RC
2 LJ
N
476.816 353.351 M
476.943 353.351 L
477.07 353.351 L
477.197 353.351 L
477.324 353.351 L
477.451 353.351 L
477.579 353.351 L
477.706 353.351 L
477.852 353.351 L
477.999 353.351 L
478.145 353.351 L
478.291 353.351 L
478.449 353.351 L
478.608 353.351 L
478.766 353.351 L
478.924 353.351 L
479.069 353.351 L
479.215 353.351 L
479.361 353.351 L
479.507 353.351 L
479.632 353.351 L
479.758 353.351 L
479.883 353.351 L
480.009 353.351 L
480.13 353.351 L
480.25 353.351 L
480.371 353.351 L
480.492 353.351 L
480.629 353.351 L
480.765 353.351 L
480.902 353.351 L
481.038 353.351 L
481.195 353.351 L
481.352 353.351 L
481.508 353.351 L
481.665 353.351 L
481.821 353.351 L
481.976 353.351 L
482.132 353.351 L
482.287 353.351 L
482.421 353.351 L
482.555 353.351 L
482.689 353.351 L
482.822 353.351 L
482.941 353.351 L
483.06 353.351 L
483.179 353.351 L
483.298 353.351 L
483.424 353.351 L
483.551 353.351 L
S
GR
GS
[0.75 0 0 0.75 0 0] CT
0 0.447 0.741 RC
2 LJ
N
483.551 353.351 M
483.677 353.351 L
483.803 353.351 L
483.952 353.351 L
484.101 353.351 L
484.25 353.351 L
484.399 353.351 L
484.561 353.351 L
484.722 353.351 L
484.884 353.351 L
485.045 353.351 L
485.191 353.351 L
485.336 353.351 L
485.482 353.351 L
485.627 353.351 L
485.749 353.351 L
485.872 353.351 L
485.994 353.351 L
486.117 353.351 L
486.235 353.351 L
486.354 353.351 L
486.473 353.351 L
486.591 353.351 L
486.729 353.351 L
486.867 353.351 L
487.004 353.351 L
487.142 353.351 L
487.302 353.351 L
487.462 353.351 L
487.623 353.351 L
487.783 353.351 L
487.94 353.351 L
488.097 353.351 L
488.254 353.351 L
488.412 353.351 L
488.543 353.351 L
488.675 353.351 L
488.807 353.351 L
488.938 353.351 L
489.054 353.351 L
489.17 353.351 L
489.286 353.351 L
489.402 353.351 L
489.528 353.351 L
489.654 353.351 L
489.78 353.351 L
489.905 353.351 L
490.057 353.351 L
490.209 353.351 L
490.36 353.351 L
S
GR
GS
[0.75 0 0 0.75 0 0] CT
0 0.447 0.741 RC
2 LJ
N
490.36 353.351 M
490.512 353.351 L
490.676 353.351 L
490.841 353.351 L
491.005 353.351 L
491.169 353.351 L
491.314 353.351 L
491.459 353.351 L
491.604 353.351 L
491.749 353.351 L
491.869 353.351 L
491.989 353.351 L
492.108 353.351 L
492.228 353.351 L
492.345 353.351 L
492.462 353.351 L
492.579 353.351 L
492.696 353.351 L
492.834 353.351 L
492.973 353.351 L
493.111 353.351 L
493.25 353.351 L
493.413 353.351 L
493.577 353.351 L
493.74 353.351 L
493.903 353.351 L
494.062 353.351 L
494.22 353.351 L
494.379 353.351 L
494.537 353.351 L
494.667 353.351 L
494.797 353.351 L
494.927 353.351 L
495.057 353.351 L
495.17 353.351 L
495.284 353.351 L
495.397 353.351 L
495.511 353.351 L
495.636 353.351 L
495.762 353.351 L
495.887 353.351 L
496.013 353.351 L
496.166 353.351 L
496.32 353.351 L
496.473 353.351 L
496.627 353.351 L
496.794 353.351 L
496.961 353.351 L
497.128 353.351 L
497.295 353.351 L
S
GR
GS
[0.75 0 0 0.75 0 0] CT
0 0.447 0.741 RC
2 LJ
N
497.295 353.351 M
497.439 353.351 L
497.584 353.351 L
497.728 353.351 L
497.873 353.351 L
497.99 353.351 L
498.108 353.351 L
498.225 353.351 L
498.343 353.351 L
498.458 353.351 L
498.574 353.351 L
498.689 353.351 L
498.805 353.351 L
498.944 353.351 L
499.083 353.351 L
499.223 353.351 L
499.362 353.351 L
499.528 353.351 L
499.694 353.351 L
499.859 353.351 L
500.025 353.351 L
500.185 353.351 L
500.344 353.351 L
500.504 353.351 L
500.663 353.351 L
500.791 353.351 L
500.92 353.351 L
501.048 353.351 L
501.177 353.351 L
501.288 353.351 L
501.4 353.351 L
501.512 353.351 L
501.624 353.351 L
501.749 353.351 L
501.874 353.351 L
501.999 353.351 L
502.124 353.351 L
502.279 353.351 L
502.434 353.351 L
502.59 353.351 L
502.745 353.351 L
502.913 353.351 L
503.082 353.351 L
503.25 353.351 L
503.419 353.351 L
503.563 353.351 L
503.708 353.351 L
503.852 353.351 L
503.996 353.351 L
504.112 353.351 L
S
GR
GS
[0.75 0 0 0.75 0 0] CT
0 0.447 0.741 RC
2 LJ
N
504.112 353.351 M
504.228 353.351 L
504.344 353.351 L
504.46 353.351 L
504.575 353.351 L
504.689 353.351 L
504.804 353.351 L
504.918 353.351 L
505.058 353.351 L
505.198 353.351 L
505.337 353.351 L
505.477 353.351 L
505.645 353.351 L
505.812 353.351 L
505.979 353.351 L
506.147 353.351 L
506.274 353.351 L
506.402 353.351 L
506.529 353.351 L
506.657 353.351 L
506.743 353.351 L
506.828 353.351 L
506.914 353.351 L
507 353.351 L
S
GR
GS
[0.75 0 0 0.75 0 0] CT
0.851 0.325 0.098 RC
2 LJ
N
73 168.2 M
73 168.2 L
73.001 168.201 L
73.001 168.201 L
73.001 168.201 L
73.003 168.203 L
73.005 168.204 L
73.007 168.205 L
73.009 168.207 L
73.018 168.214 L
73.026 168.221 L
73.035 168.228 L
73.044 168.235 L
73.089 168.27 L
73.134 168.306 L
73.178 168.341 L
73.223 168.377 L
73.446 168.556 L
73.67 168.736 L
73.893 168.919 L
74.117 169.104 L
75.234 170.058 L
76.351 171.062 L
77.468 172.119 L
78.585 173.229 L
80.755 175.543 L
82.925 178.071 L
85.095 180.818 L
87.265 183.786 L
89.435 186.976 L
91.605 190.386 L
93.775 194.01 L
95.945 197.84 L
98.115 201.868 L
100.285 206.081 L
102.455 210.467 L
104.625 215.012 L
106.795 219.7 L
108.965 224.517 L
111.135 229.449 L
113.305 234.479 L
115.475 239.596 L
117.645 244.785 L
119.815 250.034 L
121.985 255.331 L
124.155 260.667 L
126.325 266.032 L
128.495 271.418 L
130.665 276.818 L
132.835 282.224 L
S
GR
GS
[0.75 0 0 0.75 0 0] CT
0.851 0.325 0.098 RC
2 LJ
N
132.835 282.224 M
135.005 287.631 L
137.175 293.033 L
139.345 298.428 L
141.515 303.81 L
143.685 309.176 L
145.855 314.524 L
148.025 319.851 L
150.195 325.154 L
152.365 330.432 L
154.535 335.683 L
156.705 340.904 L
157.479 342.759 L
158.253 344.608 L
159.026 346.454 L
159.8 348.295 L
159.8 348.295 L
159.973 347.017 L
160.145 345.766 L
160.318 344.541 L
160.49 343.342 L
161.353 337.697 L
162.216 332.589 L
163.079 327.95 L
163.942 323.726 L
166.112 314.636 L
168.282 307.321 L
170.452 301.369 L
172.622 296.487 L
174.792 292.469 L
176.962 289.156 L
179.132 286.424 L
181.302 284.177 L
183.472 282.342 L
185.642 280.859 L
187.812 279.678 L
189.982 278.76 L
192.152 278.071 L
194.322 277.585 L
196.492 277.278 L
198.662 277.13 L
200.832 277.126 L
203.002 277.25 L
205.172 277.491 L
207.342 277.837 L
209.512 278.278 L
211.682 278.808 L
213.852 279.417 L
216.022 280.101 L
218.192 280.852 L
S
GR
GS
[0.75 0 0 0.75 0 0] CT
0.851 0.325 0.098 RC
2 LJ
N
218.192 280.852 M
220.362 281.666 L
222.532 282.537 L
224.702 283.463 L
226.872 284.438 L
229.042 285.459 L
231.212 286.524 L
233.382 287.628 L
235.552 288.77 L
237.722 289.947 L
239.892 291.157 L
242.062 292.397 L
243.197 293.057 L
244.331 293.724 L
245.466 294.399 L
246.6 295.08 L
246.6 295.08 L
248.77 292.979 L
250.94 291.216 L
253.11 289.748 L
255.28 288.538 L
257.45 287.558 L
259.62 286.782 L
261.79 286.188 L
263.96 285.758 L
266.13 285.477 L
268.3 285.329 L
270.47 285.304 L
272.64 285.389 L
274.81 285.577 L
276.98 285.859 L
279.15 286.226 L
281.32 286.673 L
283.49 287.194 L
285.66 287.784 L
287.83 288.436 L
290 289.148 L
292.17 289.915 L
294.34 290.734 L
296.51 291.6 L
298.68 292.512 L
300.85 293.466 L
303.02 294.459 L
305.19 295.49 L
307.36 296.556 L
309.53 297.655 L
311.7 298.785 L
313.87 299.944 L
316.04 301.131 L
318.21 302.343 L
S
GR
GS
[0.75 0 0 0.75 0 0] CT
0.851 0.325 0.098 RC
2 LJ
N
318.21 302.343 M
320.38 303.58 L
322.55 304.841 L
324.72 306.123 L
326.89 307.425 L
329.06 308.747 L
331.23 310.087 L
333.4 311.445 L
333.4 311.445 L
335.57 314.55 L
337.74 317.651 L
339.91 320.748 L
342.08 323.841 L
344.25 326.927 L
346.42 330.007 L
348.59 333.079 L
350.76 336.143 L
352.93 339.197 L
355.1 342.242 L
357.27 345.275 L
359.44 348.297 L
361.61 351.305 L
363.78 354.298 L
365.95 357.274 L
368.12 360.229 L
370.29 363.158 L
372.46 366.057 L
374.63 368.89 L
376.8 371.575 L
377.124 371.954 L
377.447 372.321 L
377.771 372.672 L
378.095 373.001 L
378.231 373.13 L
378.368 373.254 L
378.505 373.369 L
378.641 373.475 L
378.778 373.57 L
378.915 373.653 L
379.052 373.723 L
379.188 373.779 L
379.254 373.802 L
379.319 373.821 L
379.384 373.838 L
379.449 373.852 L
379.515 373.864 L
379.58 373.874 L
379.645 373.882 L
379.711 373.889 L
379.789 373.895 L
S
GR
GS
[0.75 0 0 0.75 0 0] CT
0.851 0.325 0.098 RC
2 LJ
N
379.789 373.895 M
379.867 373.9 L
379.945 373.904 L
380.023 373.907 L
380.1 373.909 L
380.176 373.911 L
380.252 373.913 L
380.328 373.914 L
380.415 373.914 L
380.502 373.915 L
380.589 373.916 L
380.675 373.916 L
380.778 373.916 L
380.881 373.916 L
380.984 373.917 L
381.087 373.917 L
381.215 373.917 L
381.344 373.917 L
381.472 373.917 L
381.6 373.917 L
381.767 373.917 L
381.934 373.917 L
382.1 373.917 L
382.267 373.917 L
382.494 373.917 L
382.721 373.917 L
382.948 373.917 L
383.175 373.917 L
383.468 373.918 L
383.761 373.918 L
384.054 373.918 L
384.347 373.918 L
384.553 373.918 L
384.759 373.918 L
384.965 373.918 L
385.171 373.918 L
385.377 373.918 L
385.583 373.918 L
385.789 373.918 L
385.995 373.918 L
386.24 373.918 L
386.485 373.918 L
386.73 373.918 L
386.975 373.918 L
387.241 373.919 L
387.508 373.919 L
387.774 373.919 L
388.041 373.919 L
388.279 373.919 L
388.517 373.919 L
S
GR
GS
[0.75 0 0 0.75 0 0] CT
0.851 0.325 0.098 RC
2 LJ
N
388.517 373.919 M
388.756 373.919 L
388.994 373.919 L
389.192 373.919 L
389.39 373.919 L
389.588 373.919 L
389.786 373.919 L
389.977 373.919 L
390.168 373.919 L
390.36 373.919 L
390.551 373.919 L
390.774 373.919 L
390.998 373.919 L
391.222 373.919 L
391.445 373.919 L
391.708 373.92 L
391.97 373.92 L
392.232 373.92 L
392.495 373.92 L
392.751 373.92 L
393.008 373.92 L
393.264 373.92 L
393.521 373.92 L
393.733 373.92 L
393.945 373.92 L
394.156 373.92 L
394.368 373.92 L
394.553 373.92 L
394.738 373.92 L
394.923 373.92 L
395.108 373.92 L
395.31 373.92 L
395.512 373.92 L
395.714 373.921 L
395.916 373.921 L
396.162 373.921 L
396.408 373.921 L
396.653 373.921 L
396.899 373.921 L
397.166 373.921 L
397.433 373.921 L
397.7 373.921 L
397.967 373.921 L
398.2 373.921 L
398.432 373.921 L
398.665 373.921 L
398.898 373.921 L
399.087 373.921 L
399.277 373.921 L
399.467 373.921 L
S
GR
GS
[0.75 0 0 0.75 0 0] CT
0.851 0.325 0.098 RC
2 LJ
N
399.467 373.921 M
399.656 373.921 L
399.842 373.921 L
400.027 373.921 L
400.212 373.922 L
400.397 373.922 L
400.619 373.922 L
400.842 373.922 L
401.064 373.922 L
401.286 373.922 L
401.549 373.922 L
401.813 373.922 L
402.076 373.922 L
402.34 373.922 L
402.593 373.922 L
402.847 373.922 L
403.101 373.922 L
403.355 373.922 L
403.56 373.922 L
403.764 373.922 L
403.969 373.922 L
404.174 373.922 L
404.352 373.922 L
404.53 373.922 L
404.708 373.923 L
404.886 373.923 L
405.085 373.923 L
405.283 373.923 L
405.482 373.923 L
405.68 373.923 L
405.926 373.923 L
406.171 373.923 L
406.417 373.923 L
406.663 373.923 L
406.929 373.923 L
407.195 373.923 L
407.462 373.923 L
407.728 373.923 L
407.955 373.923 L
408.183 373.923 L
408.41 373.923 L
408.638 373.923 L
408.821 373.923 L
409.004 373.923 L
409.187 373.923 L
409.369 373.924 L
409.55 373.924 L
409.73 373.924 L
409.91 373.924 L
410.091 373.924 L
S
GR
GS
[0.75 0 0 0.75 0 0] CT
0.851 0.325 0.098 RC
2 LJ
N
410.091 373.924 M
410.311 373.924 L
410.532 373.924 L
410.752 373.924 L
410.973 373.924 L
411.236 373.924 L
411.499 373.924 L
411.763 373.924 L
412.026 373.924 L
412.225 373.924 L
412.423 373.924 L
412.622 373.924 L
412.821 373.924 L
413.02 373.924 L
413.218 373.924 L
413.417 373.924 L
413.616 373.924 L
413.846 373.925 L
414.076 373.925 L
414.306 373.925 L
414.536 373.925 L
414.784 373.925 L
415.032 373.925 L
415.281 373.925 L
415.529 373.925 L
415.756 373.925 L
415.984 373.925 L
416.211 373.925 L
416.438 373.925 L
416.632 373.925 L
416.826 373.925 L
417.02 373.925 L
417.214 373.925 L
417.401 373.925 L
417.588 373.925 L
417.775 373.925 L
417.962 373.925 L
418.175 373.925 L
418.387 373.925 L
418.6 373.926 L
418.813 373.926 L
419.058 373.926 L
419.303 373.926 L
419.548 373.926 L
419.793 373.926 L
419.894 373.926 L
419.996 373.926 L
420.098 373.926 L
420.2 373.926 L
420.2 373.926 L
S
GR
GS
[0.75 0 0 0.75 0 0] CT
0.851 0.325 0.098 RC
2 LJ
N
420.2 373.926 M
420.21 373.929 L
420.221 373.933 L
420.231 373.936 L
420.242 373.94 L
420.29 373.953 L
420.338 373.963 L
420.386 373.972 L
420.434 373.978 L
420.474 373.983 L
420.514 373.986 L
420.554 373.989 L
420.594 373.991 L
420.629 373.993 L
420.665 373.994 L
420.7 373.995 L
420.736 373.996 L
420.77 373.997 L
420.804 373.997 L
420.838 373.998 L
420.872 373.998 L
420.905 373.999 L
420.939 373.999 L
420.972 373.999 L
421.006 373.999 L
421.039 373.999 L
421.072 373.999 L
421.105 374 L
421.138 374 L
421.175 374 L
421.212 374 L
421.249 374 L
421.286 374 L
421.33 374 L
421.373 374 L
421.416 374 L
421.459 374 L
421.509 374 L
421.56 374 L
421.611 374 L
421.662 374 L
421.723 374 L
421.785 374 L
421.846 374 L
421.908 374 L
421.985 374 L
422.062 374 L
422.139 374 L
422.216 374 L
422.317 374 L
S
GR
GS
[0.75 0 0 0.75 0 0] CT
0.851 0.325 0.098 RC
2 LJ
N
422.317 374 M
422.417 374 L
422.518 374 L
422.618 374 L
422.755 374 L
422.892 374 L
423.028 374 L
423.165 374 L
423.343 374 L
423.521 374 L
423.698 374 L
423.876 374 L
424.003 374 L
424.129 374 L
424.256 374 L
424.383 374 L
424.509 374 L
424.636 374 L
424.762 374 L
424.889 374 L
425.038 374 L
425.186 374 L
425.335 374 L
425.484 374 L
425.644 374 L
425.805 374 L
425.966 374 L
426.127 374 L
426.272 374 L
426.418 374 L
426.563 374 L
426.709 374 L
426.831 374 L
426.954 374 L
427.077 374 L
427.2 374 L
427.319 374 L
427.438 374 L
427.558 374 L
427.677 374 L
427.814 374 L
427.952 374 L
428.089 374 L
428.227 374 L
428.386 374 L
428.546 374 L
428.706 374 L
428.865 374 L
429.022 374 L
429.179 374 L
S
GR
GS
[0.75 0 0 0.75 0 0] CT
0.851 0.325 0.098 RC
2 LJ
N
429.179 374 M
429.336 374 L
429.493 374 L
429.625 374 L
429.757 374 L
429.888 374 L
430.02 374 L
430.137 374 L
430.253 374 L
430.37 374 L
430.486 374 L
430.612 374 L
430.738 374 L
430.864 374 L
430.99 374 L
431.141 374 L
431.293 374 L
431.444 374 L
431.595 374 L
431.759 374 L
431.923 374 L
432.087 374 L
432.251 374 L
432.396 374 L
432.541 374 L
432.686 374 L
432.831 374 L
432.951 374 L
433.071 374 L
433.191 374 L
433.311 374 L
433.428 374 L
433.545 374 L
433.663 374 L
433.78 374 L
433.918 374 L
434.057 374 L
434.195 374 L
434.334 374 L
434.497 374 L
434.66 374 L
434.823 374 L
434.986 374 L
435.144 374 L
435.302 374 L
435.46 374 L
435.618 374 L
435.748 374 L
435.878 374 L
436.008 374 L
S
GR
GS
[0.75 0 0 0.75 0 0] CT
0.851 0.325 0.098 RC
2 LJ
N
436.008 374 M
436.138 374 L
436.252 374 L
436.366 374 L
436.48 374 L
436.594 374 L
436.72 374 L
436.845 374 L
436.971 374 L
437.096 374 L
437.25 374 L
437.403 374 L
437.557 374 L
437.71 374 L
437.877 374 L
438.043 374 L
438.209 374 L
438.376 374 L
438.52 374 L
438.665 374 L
438.809 374 L
438.954 374 L
439.072 374 L
439.189 374 L
439.307 374 L
439.425 374 L
439.541 374 L
439.656 374 L
439.772 374 L
439.888 374 L
440.027 374 L
440.167 374 L
440.306 374 L
440.445 374 L
440.611 374 L
440.776 374 L
440.942 374 L
441.107 374 L
441.266 374 L
441.426 374 L
441.585 374 L
441.744 374 L
441.873 374 L
442.001 374 L
442.13 374 L
442.258 374 L
442.37 374 L
442.482 374 L
442.594 374 L
442.706 374 L
S
GR
GS
[0.75 0 0 0.75 0 0] CT
0.851 0.325 0.098 RC
2 LJ
N
442.706 374 M
442.832 374 L
442.957 374 L
443.082 374 L
443.207 374 L
443.362 374 L
443.517 374 L
443.672 374 L
443.827 374 L
443.996 374 L
444.164 374 L
444.332 374 L
444.501 374 L
444.645 374 L
444.789 374 L
444.933 374 L
445.077 374 L
445.193 374 L
445.31 374 L
445.426 374 L
445.542 374 L
445.657 374 L
445.771 374 L
445.886 374 L
446.001 374 L
446.141 374 L
446.28 374 L
446.42 374 L
446.56 374 L
446.727 374 L
446.895 374 L
447.062 374 L
447.229 374 L
447.356 374 L
447.484 374 L
447.611 374 L
447.739 374 L
447.866 374 L
447.994 374 L
448.121 374 L
448.249 374 L
448.395 374 L
448.541 374 L
448.688 374 L
448.834 374 L
448.992 374 L
449.149 374 L
449.307 374 L
449.465 374 L
449.61 374 L
S
GR
GS
[0.75 0 0 0.75 0 0] CT
0.851 0.325 0.098 RC
2 LJ
N
449.61 374 M
449.756 374 L
449.901 374 L
450.047 374 L
450.172 374 L
450.298 374 L
450.424 374 L
450.549 374 L
450.671 374 L
450.792 374 L
450.913 374 L
451.034 374 L
451.171 374 L
451.308 374 L
451.445 374 L
451.581 374 L
451.738 374 L
451.894 374 L
452.05 374 L
452.207 374 L
452.362 374 L
452.517 374 L
452.672 374 L
452.827 374 L
452.961 374 L
453.095 374 L
453.229 374 L
453.362 374 L
453.481 374 L
453.601 374 L
453.72 374 L
453.839 374 L
453.966 374 L
454.092 374 L
454.219 374 L
454.346 374 L
454.495 374 L
454.644 374 L
454.793 374 L
454.942 374 L
455.103 374 L
455.264 374 L
455.425 374 L
455.586 374 L
455.731 374 L
455.876 374 L
456.021 374 L
456.167 374 L
456.289 374 L
456.412 374 L
S
GR
GS
[0.75 0 0 0.75 0 0] CT
0.851 0.325 0.098 RC
2 LJ
N
456.412 374 M
456.534 374 L
456.657 374 L
456.776 374 L
456.895 374 L
457.014 374 L
457.133 374 L
457.271 374 L
457.409 374 L
457.547 374 L
457.684 374 L
457.844 374 L
458.004 374 L
458.164 374 L
458.324 374 L
458.481 374 L
458.638 374 L
458.795 374 L
458.951 374 L
459.083 374 L
459.215 374 L
459.346 374 L
459.478 374 L
459.594 374 L
459.71 374 L
459.827 374 L
459.943 374 L
460.069 374 L
460.195 374 L
460.321 374 L
460.447 374 L
460.599 374 L
460.751 374 L
460.902 374 L
461.054 374 L
461.218 374 L
461.382 374 L
461.546 374 L
461.71 374 L
461.855 374 L
461.999 374 L
462.144 374 L
462.289 374 L
462.408 374 L
462.528 374 L
462.648 374 L
462.768 374 L
462.885 374 L
463.002 374 L
463.119 374 L
S
GR
GS
[0.75 0 0 0.75 0 0] CT
0.851 0.325 0.098 RC
2 LJ
N
463.119 374 M
463.237 374 L
463.376 374 L
463.514 374 L
463.653 374 L
463.792 374 L
463.955 374 L
464.118 374 L
464.282 374 L
464.445 374 L
464.603 374 L
464.761 374 L
464.919 374 L
465.077 374 L
465.207 374 L
465.336 374 L
465.466 374 L
465.596 374 L
465.709 374 L
465.823 374 L
465.937 374 L
466.051 374 L
466.177 374 L
466.302 374 L
466.428 374 L
466.554 374 L
466.708 374 L
466.862 374 L
467.015 374 L
467.169 374 L
467.336 374 L
467.502 374 L
467.669 374 L
467.835 374 L
467.979 374 L
468.123 374 L
468.268 374 L
468.412 374 L
468.529 374 L
468.647 374 L
468.764 374 L
468.882 374 L
468.998 374 L
469.114 374 L
469.229 374 L
469.345 374 L
469.485 374 L
469.624 374 L
469.764 374 L
469.904 374 L
S
GR
GS
[0.75 0 0 0.75 0 0] CT
0.851 0.325 0.098 RC
2 LJ
N
469.904 374 M
470.07 374 L
470.235 374 L
470.401 374 L
470.566 374 L
470.726 374 L
470.885 374 L
471.044 374 L
471.203 374 L
471.331 374 L
471.459 374 L
471.587 374 L
471.715 374 L
471.827 374 L
471.939 374 L
472.051 374 L
472.163 374 L
472.289 374 L
472.414 374 L
472.54 374 L
472.665 374 L
472.82 374 L
472.976 374 L
473.131 374 L
473.287 374 L
473.455 374 L
473.623 374 L
473.792 374 L
473.96 374 L
474.104 374 L
474.247 374 L
474.391 374 L
474.535 374 L
474.651 374 L
474.767 374 L
474.883 374 L
474.999 374 L
475.114 374 L
475.228 374 L
475.343 374 L
475.458 374 L
475.598 374 L
475.738 374 L
475.879 374 L
476.019 374 L
476.186 374 L
476.354 374 L
476.521 374 L
476.688 374 L
476.816 374 L
S
GR
GS
[0.75 0 0 0.75 0 0] CT
0.851 0.325 0.098 RC
2 LJ
N
476.816 374 M
476.943 374 L
477.07 374 L
477.197 374 L
477.324 374 L
477.451 374 L
477.579 374 L
477.706 374 L
477.852 374 L
477.999 374 L
478.145 374 L
478.291 374 L
478.449 374 L
478.608 374 L
478.766 374 L
478.924 374 L
479.069 374 L
479.215 374 L
479.361 374 L
479.507 374 L
479.632 374 L
479.758 374 L
479.883 374 L
480.009 374 L
480.13 374 L
480.25 374 L
480.371 374 L
480.492 374 L
480.629 374 L
480.765 374 L
480.902 374 L
481.038 374 L
481.195 374 L
481.352 374 L
481.508 374 L
481.665 374 L
481.821 374 L
481.976 374 L
482.132 374 L
482.287 374 L
482.421 374 L
482.555 374 L
482.689 374 L
482.822 374 L
482.941 374 L
483.06 374 L
483.179 374 L
483.298 374 L
483.424 374 L
483.551 374 L
S
GR
GS
[0.75 0 0 0.75 0 0] CT
0.851 0.325 0.098 RC
2 LJ
N
483.551 374 M
483.677 374 L
483.803 374 L
483.952 374 L
484.101 374 L
484.25 374 L
484.399 374 L
484.561 374 L
484.722 374 L
484.884 374 L
485.045 374 L
485.191 374 L
485.336 374 L
485.482 374 L
485.627 374 L
485.749 374 L
485.872 374 L
485.994 374 L
486.117 374 L
486.235 374 L
486.354 374 L
486.473 374 L
486.591 374 L
486.729 374 L
486.867 374 L
487.004 374 L
487.142 374 L
487.302 374 L
487.462 374 L
487.623 374 L
487.783 374 L
487.94 374 L
488.097 374 L
488.254 374 L
488.412 374 L
488.543 374 L
488.675 374 L
488.807 374 L
488.938 374 L
489.054 374 L
489.17 374 L
489.286 374 L
489.402 374 L
489.528 374 L
489.654 374 L
489.78 374 L
489.905 374 L
490.057 374 L
490.209 374 L
490.36 374 L
S
GR
GS
[0.75 0 0 0.75 0 0] CT
0.851 0.325 0.098 RC
2 LJ
N
490.36 374 M
490.512 374 L
490.676 374 L
490.841 374 L
491.005 374 L
491.169 374 L
491.314 374 L
491.459 374 L
491.604 374 L
491.749 374 L
491.869 374 L
491.989 374 L
492.108 374 L
492.228 374 L
492.345 374 L
492.462 374 L
492.579 374 L
492.696 374 L
492.834 374 L
492.973 374 L
493.111 374 L
493.25 374 L
493.413 374 L
493.577 374 L
493.74 374 L
493.903 374 L
494.062 374 L
494.22 374 L
494.379 374 L
494.537 374 L
494.667 374 L
494.797 374 L
494.927 374 L
495.057 374 L
495.17 374 L
495.284 374 L
495.397 374 L
495.511 374 L
495.636 374 L
495.762 374 L
495.887 374 L
496.013 374 L
496.166 374 L
496.32 374 L
496.473 374 L
496.627 374 L
496.794 374 L
496.961 374 L
497.128 374 L
497.295 374 L
S
GR
GS
[0.75 0 0 0.75 0 0] CT
0.851 0.325 0.098 RC
2 LJ
N
497.295 374 M
497.439 374 L
497.584 374 L
497.728 374 L
497.873 374 L
497.99 374 L
498.108 374 L
498.225 374 L
498.343 374 L
498.458 374 L
498.574 374 L
498.689 374 L
498.805 374 L
498.944 374 L
499.083 374 L
499.223 374 L
499.362 374 L
499.528 374 L
499.694 374 L
499.859 374 L
500.025 374 L
500.185 374 L
500.344 374 L
500.504 374 L
500.663 374 L
500.791 374 L
500.92 374 L
501.048 374 L
501.177 374 L
501.288 374 L
501.4 374 L
501.512 374 L
501.624 374 L
501.749 374 L
501.874 374 L
501.999 374 L
502.124 374 L
502.279 374 L
502.434 374 L
502.59 374 L
502.745 374 L
502.913 374 L
503.082 374 L
503.25 374 L
503.419 374 L
503.563 374 L
503.708 374 L
503.852 374 L
503.996 374 L
504.112 374 L
S
GR
GS
[0.75 0 0 0.75 0 0] CT
0.851 0.325 0.098 RC
2 LJ
N
504.112 374 M
504.228 374 L
504.344 374 L
504.46 374 L
504.575 374 L
504.689 374 L
504.804 374 L
504.918 374 L
505.058 374 L
505.198 374 L
505.337 374 L
505.477 374 L
505.645 374 L
505.812 374 L
505.979 374 L
506.147 374 L
506.274 374 L
506.402 374 L
506.529 374 L
506.657 374 L
506.743 374 L
506.828 374 L
506.914 374 L
507 374 L
S
GR
GS
[0.75 0 0 0.75 0 0] CT
0.929 0.694 0.125 RC
2 LJ
N
73 374 M
73 374 L
73.001 374 L
73.001 374 L
73.001 374 L
73.003 373.999 L
73.005 373.999 L
73.007 373.999 L
73.009 373.998 L
73.018 373.997 L
73.026 373.995 L
73.035 373.993 L
73.044 373.991 L
73.089 373.983 L
73.134 373.974 L
73.178 373.965 L
73.223 373.957 L
73.446 373.913 L
73.67 373.868 L
73.893 373.823 L
74.117 373.778 L
75.234 373.542 L
76.351 373.291 L
77.468 373.025 L
78.585 372.742 L
80.755 372.145 L
82.925 371.48 L
85.095 370.741 L
87.265 369.924 L
89.435 369.024 L
91.605 368.037 L
93.775 366.959 L
95.945 365.787 L
98.115 364.519 L
100.285 363.153 L
102.455 361.687 L
104.625 360.121 L
106.795 358.456 L
108.965 356.691 L
111.135 354.829 L
113.305 352.872 L
115.475 350.821 L
117.645 348.68 L
119.815 346.452 L
121.985 344.14 L
124.155 341.748 L
126.325 339.279 L
128.495 336.737 L
130.665 334.126 L
132.835 331.45 L
S
GR
GS
[0.75 0 0 0.75 0 0] CT
0.929 0.694 0.125 RC
2 LJ
N
132.835 331.45 M
135.005 328.713 L
137.175 325.918 L
139.345 323.069 L
141.515 320.169 L
143.685 317.222 L
145.855 314.232 L
148.025 311.201 L
150.195 308.133 L
152.365 305.032 L
154.535 301.901 L
156.705 298.744 L
157.479 297.613 L
158.253 296.479 L
159.026 295.343 L
159.8 294.206 L
159.8 294.206 L
159.973 294.7 L
160.145 295.184 L
160.318 295.657 L
160.49 296.121 L
161.353 298.297 L
162.216 300.262 L
163.079 302.042 L
163.942 303.659 L
166.112 307.123 L
168.282 309.891 L
170.452 312.122 L
172.622 313.932 L
174.792 315.399 L
176.962 316.586 L
179.132 317.54 L
181.302 318.298 L
183.472 318.889 L
185.642 319.335 L
187.812 319.654 L
189.982 319.864 L
192.152 319.975 L
194.322 319.998 L
196.492 319.942 L
198.662 319.815 L
200.832 319.623 L
203.002 319.371 L
205.172 319.064 L
207.342 318.707 L
209.512 318.302 L
211.682 317.853 L
213.852 317.362 L
216.022 316.833 L
218.192 316.267 L
S
GR
GS
[0.75 0 0 0.75 0 0] CT
0.929 0.694 0.125 RC
2 LJ
N
218.192 316.267 M
220.362 315.667 L
222.532 315.034 L
224.702 314.37 L
226.872 313.676 L
229.042 312.955 L
231.212 312.206 L
233.382 311.431 L
235.552 310.632 L
237.722 309.809 L
239.892 308.963 L
242.062 308.096 L
243.197 307.634 L
244.331 307.166 L
245.466 306.693 L
246.6 306.215 L
246.6 306.215 L
248.77 307.128 L
250.94 307.881 L
253.11 308.493 L
255.28 308.98 L
257.45 309.356 L
259.62 309.631 L
261.79 309.816 L
263.96 309.919 L
266.13 309.946 L
268.3 309.905 L
270.47 309.8 L
272.64 309.637 L
274.81 309.419 L
276.98 309.151 L
279.15 308.834 L
281.32 308.474 L
283.49 308.071 L
285.66 307.629 L
287.83 307.149 L
290 306.634 L
292.17 306.085 L
294.34 305.504 L
296.51 304.893 L
298.68 304.252 L
300.85 303.584 L
303.02 302.888 L
305.19 302.168 L
307.36 301.422 L
309.53 300.653 L
311.7 299.862 L
313.87 299.048 L
316.04 298.214 L
318.21 297.359 L
S
GR
GS
[0.75 0 0 0.75 0 0] CT
0.929 0.694 0.125 RC
2 LJ
N
318.21 297.359 M
320.38 296.485 L
322.55 295.592 L
324.72 294.681 L
326.89 293.752 L
329.06 292.806 L
331.23 291.844 L
333.4 290.865 L
333.4 290.865 L
335.57 288.861 L
337.74 286.842 L
339.91 284.808 L
342.08 282.76 L
344.25 280.699 L
346.42 278.626 L
348.59 276.543 L
350.76 274.45 L
352.93 272.348 L
355.1 270.24 L
357.27 268.125 L
359.44 266.005 L
361.61 263.884 L
363.78 261.762 L
365.95 259.644 L
368.12 257.534 L
370.29 255.441 L
372.46 253.37 L
374.63 251.369 L
376.8 249.538 L
377.124 249.29 L
377.447 249.055 L
377.771 248.837 L
378.095 248.642 L
378.231 248.569 L
378.368 248.501 L
378.505 248.441 L
378.641 248.387 L
378.778 248.343 L
378.915 248.306 L
379.052 248.279 L
379.188 248.261 L
379.254 248.254 L
379.319 248.25 L
379.384 248.247 L
379.449 248.245 L
379.515 248.244 L
379.58 248.245 L
379.645 248.246 L
379.711 248.248 L
379.789 248.251 L
S
GR
GS
[0.75 0 0 0.75 0 0] CT
0.929 0.694 0.125 RC
2 LJ
N
379.789 248.251 M
379.867 248.255 L
379.945 248.259 L
380.023 248.264 L
380.1 248.269 L
380.176 248.274 L
380.252 248.28 L
380.328 248.285 L
380.415 248.291 L
380.502 248.298 L
380.589 248.305 L
380.675 248.311 L
380.778 248.319 L
380.881 248.327 L
380.984 248.335 L
381.087 248.343 L
381.215 248.353 L
381.344 248.363 L
381.472 248.373 L
381.6 248.383 L
381.767 248.396 L
381.934 248.409 L
382.1 248.422 L
382.267 248.435 L
382.494 248.453 L
382.721 248.471 L
382.948 248.488 L
383.175 248.506 L
383.468 248.529 L
383.761 248.551 L
384.054 248.574 L
384.347 248.597 L
384.553 248.613 L
384.759 248.629 L
384.965 248.645 L
385.171 248.661 L
385.377 248.677 L
385.583 248.693 L
385.789 248.709 L
385.995 248.725 L
386.24 248.743 L
386.485 248.762 L
386.73 248.781 L
386.975 248.8 L
387.241 248.821 L
387.508 248.841 L
387.774 248.862 L
388.041 248.882 L
388.279 248.9 L
388.517 248.919 L
S
GR
GS
[0.75 0 0 0.75 0 0] CT
0.929 0.694 0.125 RC
2 LJ
N
388.517 248.919 M
388.756 248.937 L
388.994 248.955 L
389.192 248.97 L
389.39 248.985 L
389.588 249.001 L
389.786 249.016 L
389.977 249.03 L
390.168 249.045 L
390.36 249.06 L
390.551 249.074 L
390.774 249.091 L
390.998 249.108 L
391.222 249.125 L
391.445 249.142 L
391.708 249.162 L
391.97 249.182 L
392.232 249.202 L
392.495 249.222 L
392.751 249.241 L
393.008 249.261 L
393.264 249.28 L
393.521 249.3 L
393.733 249.316 L
393.945 249.332 L
394.156 249.348 L
394.368 249.364 L
394.553 249.378 L
394.738 249.392 L
394.923 249.406 L
395.108 249.42 L
395.31 249.435 L
395.512 249.45 L
395.714 249.465 L
395.916 249.48 L
396.162 249.499 L
396.408 249.517 L
396.653 249.536 L
396.899 249.554 L
397.166 249.574 L
397.433 249.594 L
397.7 249.614 L
397.967 249.634 L
398.2 249.651 L
398.432 249.669 L
398.665 249.686 L
398.898 249.703 L
399.087 249.718 L
399.277 249.732 L
399.467 249.746 L
S
GR
GS
[0.75 0 0 0.75 0 0] CT
0.929 0.694 0.125 RC
2 LJ
N
399.467 249.746 M
399.656 249.76 L
399.842 249.774 L
400.027 249.787 L
400.212 249.801 L
400.397 249.815 L
400.619 249.831 L
400.842 249.848 L
401.064 249.864 L
401.286 249.881 L
401.549 249.9 L
401.813 249.92 L
402.076 249.939 L
402.34 249.959 L
402.593 249.977 L
402.847 249.996 L
403.101 250.015 L
403.355 250.034 L
403.56 250.049 L
403.764 250.064 L
403.969 250.079 L
404.174 250.094 L
404.352 250.107 L
404.53 250.12 L
404.708 250.133 L
404.886 250.146 L
405.085 250.161 L
405.283 250.175 L
405.482 250.19 L
405.68 250.204 L
405.926 250.222 L
406.171 250.24 L
406.417 250.258 L
406.663 250.276 L
406.929 250.296 L
407.195 250.315 L
407.462 250.334 L
407.728 250.354 L
407.955 250.37 L
408.183 250.387 L
408.41 250.403 L
408.638 250.42 L
408.821 250.433 L
409.004 250.447 L
409.187 250.46 L
409.369 250.473 L
409.55 250.486 L
409.73 250.499 L
409.91 250.512 L
410.091 250.525 L
S
GR
GS
[0.75 0 0 0.75 0 0] CT
0.929 0.694 0.125 RC
2 LJ
N
410.091 250.525 M
410.311 250.541 L
410.532 250.557 L
410.752 250.573 L
410.973 250.589 L
411.236 250.608 L
411.499 250.627 L
411.763 250.646 L
412.026 250.665 L
412.225 250.679 L
412.423 250.693 L
412.622 250.708 L
412.821 250.722 L
413.02 250.736 L
413.218 250.751 L
413.417 250.765 L
413.616 250.779 L
413.846 250.796 L
414.076 250.812 L
414.306 250.828 L
414.536 250.845 L
414.784 250.863 L
415.032 250.88 L
415.281 250.898 L
415.529 250.916 L
415.756 250.932 L
415.984 250.948 L
416.211 250.964 L
416.438 250.981 L
416.632 250.994 L
416.826 251.008 L
417.02 251.022 L
417.214 251.036 L
417.401 251.049 L
417.588 251.062 L
417.775 251.075 L
417.962 251.089 L
418.175 251.104 L
418.387 251.119 L
418.6 251.134 L
418.813 251.149 L
419.058 251.166 L
419.303 251.183 L
419.548 251.201 L
419.793 251.218 L
419.894 251.225 L
419.996 251.232 L
420.098 251.24 L
420.2 251.247 L
420.2 251.247 L
S
GR
GS
[0.75 0 0 0.75 0 0] CT
0.929 0.694 0.125 RC
2 LJ
N
420.2 251.247 M
420.21 251.245 L
420.221 251.244 L
420.231 251.243 L
420.242 251.241 L
420.29 251.236 L
420.338 251.232 L
420.386 251.229 L
420.434 251.227 L
420.474 251.225 L
420.514 251.224 L
420.554 251.223 L
420.594 251.222 L
420.629 251.221 L
420.665 251.221 L
420.7 251.22 L
420.736 251.22 L
420.77 251.22 L
420.804 251.22 L
420.838 251.219 L
420.872 251.219 L
420.905 251.219 L
420.939 251.219 L
420.972 251.219 L
421.006 251.219 L
421.039 251.219 L
421.072 251.219 L
421.105 251.219 L
421.138 251.219 L
421.175 251.219 L
421.212 251.219 L
421.249 251.219 L
421.286 251.219 L
421.33 251.219 L
421.373 251.219 L
421.416 251.219 L
421.459 251.219 L
421.509 251.219 L
421.56 251.219 L
421.611 251.219 L
421.662 251.219 L
421.723 251.219 L
421.785 251.219 L
421.846 251.219 L
421.908 251.219 L
421.985 251.219 L
422.062 251.219 L
422.139 251.219 L
422.216 251.219 L
422.317 251.219 L
S
GR
GS
[0.75 0 0 0.75 0 0] CT
0.929 0.694 0.125 RC
2 LJ
N
422.317 251.219 M
422.417 251.219 L
422.518 251.219 L
422.618 251.219 L
422.755 251.219 L
422.892 251.219 L
423.028 251.219 L
423.165 251.219 L
423.343 251.219 L
423.521 251.219 L
423.698 251.219 L
423.876 251.219 L
424.003 251.219 L
424.129 251.219 L
424.256 251.219 L
424.383 251.219 L
424.509 251.219 L
424.636 251.219 L
424.762 251.219 L
424.889 251.219 L
425.038 251.219 L
425.186 251.219 L
425.335 251.219 L
425.484 251.219 L
425.644 251.219 L
425.805 251.219 L
425.966 251.219 L
426.127 251.219 L
426.272 251.219 L
426.418 251.219 L
426.563 251.219 L
426.709 251.219 L
426.831 251.219 L
426.954 251.219 L
427.077 251.219 L
427.2 251.219 L
427.319 251.219 L
427.438 251.219 L
427.558 251.219 L
427.677 251.219 L
427.814 251.219 L
427.952 251.219 L
428.089 251.219 L
428.227 251.219 L
428.386 251.219 L
428.546 251.219 L
428.706 251.219 L
428.865 251.219 L
429.022 251.219 L
429.179 251.219 L
S
GR
GS
[0.75 0 0 0.75 0 0] CT
0.929 0.694 0.125 RC
2 LJ
N
429.179 251.219 M
429.336 251.219 L
429.493 251.219 L
429.625 251.219 L
429.757 251.219 L
429.888 251.219 L
430.02 251.219 L
430.137 251.219 L
430.253 251.219 L
430.37 251.219 L
430.486 251.219 L
430.612 251.219 L
430.738 251.219 L
430.864 251.219 L
430.99 251.219 L
431.141 251.219 L
431.293 251.219 L
431.444 251.219 L
431.595 251.219 L
431.759 251.219 L
431.923 251.219 L
432.087 251.219 L
432.251 251.219 L
432.396 251.219 L
432.541 251.219 L
432.686 251.219 L
432.831 251.219 L
432.951 251.219 L
433.071 251.219 L
433.191 251.219 L
433.311 251.219 L
433.428 251.219 L
433.545 251.219 L
433.663 251.219 L
433.78 251.219 L
433.918 251.219 L
434.057 251.219 L
434.195 251.219 L
434.334 251.219 L
434.497 251.219 L
434.66 251.219 L
434.823 251.219 L
434.986 251.219 L
435.144 251.219 L
435.302 251.219 L
435.46 251.219 L
435.618 251.219 L
435.748 251.219 L
435.878 251.219 L
436.008 251.219 L
S
GR
GS
[0.75 0 0 0.75 0 0] CT
0.929 0.694 0.125 RC
2 LJ
N
436.008 251.219 M
436.138 251.219 L
436.252 251.219 L
436.366 251.219 L
436.48 251.219 L
436.594 251.219 L
436.72 251.219 L
436.845 251.219 L
436.971 251.219 L
437.096 251.219 L
437.25 251.219 L
437.403 251.219 L
437.557 251.219 L
437.71 251.219 L
437.877 251.219 L
438.043 251.219 L
438.209 251.219 L
438.376 251.219 L
438.52 251.219 L
438.665 251.219 L
438.809 251.219 L
438.954 251.219 L
439.072 251.219 L
439.189 251.219 L
439.307 251.219 L
439.425 251.219 L
439.541 251.219 L
439.656 251.219 L
439.772 251.219 L
439.888 251.219 L
440.027 251.219 L
440.167 251.219 L
440.306 251.219 L
440.445 251.219 L
440.611 251.219 L
440.776 251.219 L
440.942 251.219 L
441.107 251.219 L
441.266 251.219 L
441.426 251.219 L
441.585 251.219 L
441.744 251.219 L
441.873 251.219 L
442.001 251.219 L
442.13 251.219 L
442.258 251.219 L
442.37 251.219 L
442.482 251.219 L
442.594 251.219 L
442.706 251.219 L
S
GR
GS
[0.75 0 0 0.75 0 0] CT
0.929 0.694 0.125 RC
2 LJ
N
442.706 251.219 M
442.832 251.219 L
442.957 251.219 L
443.082 251.219 L
443.207 251.219 L
443.362 251.219 L
443.517 251.219 L
443.672 251.219 L
443.827 251.219 L
443.996 251.219 L
444.164 251.219 L
444.332 251.219 L
444.501 251.219 L
444.645 251.219 L
444.789 251.219 L
444.933 251.219 L
445.077 251.219 L
445.193 251.219 L
445.31 251.219 L
445.426 251.219 L
445.542 251.219 L
445.657 251.219 L
445.771 251.219 L
445.886 251.219 L
446.001 251.219 L
446.141 251.219 L
446.28 251.219 L
446.42 251.219 L
446.56 251.219 L
446.727 251.219 L
446.895 251.219 L
447.062 251.219 L
447.229 251.219 L
447.356 251.219 L
447.484 251.219 L
447.611 251.219 L
447.739 251.219 L
447.866 251.219 L
447.994 251.219 L
448.121 251.219 L
448.249 251.219 L
448.395 251.219 L
448.541 251.219 L
448.688 251.219 L
448.834 251.219 L
448.992 251.219 L
449.149 251.219 L
449.307 251.219 L
449.465 251.219 L
449.61 251.219 L
S
GR
GS
[0.75 0 0 0.75 0 0] CT
0.929 0.694 0.125 RC
2 LJ
N
449.61 251.219 M
449.756 251.219 L
449.901 251.219 L
450.047 251.219 L
450.172 251.219 L
450.298 251.219 L
450.424 251.219 L
450.549 251.219 L
450.671 251.219 L
450.792 251.219 L
450.913 251.219 L
451.034 251.219 L
451.171 251.219 L
451.308 251.219 L
451.445 251.219 L
451.581 251.219 L
451.738 251.219 L
451.894 251.219 L
452.05 251.219 L
452.207 251.219 L
452.362 251.219 L
452.517 251.219 L
452.672 251.219 L
452.827 251.219 L
452.961 251.219 L
453.095 251.219 L
453.229 251.219 L
453.362 251.219 L
453.481 251.219 L
453.601 251.219 L
453.72 251.219 L
453.839 251.219 L
453.966 251.219 L
454.092 251.219 L
454.219 251.219 L
454.346 251.219 L
454.495 251.219 L
454.644 251.219 L
454.793 251.219 L
454.942 251.219 L
455.103 251.219 L
455.264 251.219 L
455.425 251.219 L
455.586 251.219 L
455.731 251.219 L
455.876 251.219 L
456.021 251.219 L
456.167 251.219 L
456.289 251.219 L
456.412 251.219 L
S
GR
GS
[0.75 0 0 0.75 0 0] CT
0.929 0.694 0.125 RC
2 LJ
N
456.412 251.219 M
456.534 251.219 L
456.657 251.219 L
456.776 251.219 L
456.895 251.219 L
457.014 251.219 L
457.133 251.219 L
457.271 251.219 L
457.409 251.219 L
457.547 251.219 L
457.684 251.219 L
457.844 251.219 L
458.004 251.219 L
458.164 251.219 L
458.324 251.219 L
458.481 251.219 L
458.638 251.219 L
458.795 251.219 L
458.951 251.219 L
459.083 251.219 L
459.215 251.219 L
459.346 251.219 L
459.478 251.219 L
459.594 251.219 L
459.71 251.219 L
459.827 251.219 L
459.943 251.219 L
460.069 251.219 L
460.195 251.219 L
460.321 251.219 L
460.447 251.219 L
460.599 251.219 L
460.751 251.219 L
460.902 251.219 L
461.054 251.219 L
461.218 251.219 L
461.382 251.219 L
461.546 251.219 L
461.71 251.219 L
461.855 251.219 L
461.999 251.219 L
462.144 251.219 L
462.289 251.219 L
462.408 251.219 L
462.528 251.219 L
462.648 251.219 L
462.768 251.219 L
462.885 251.219 L
463.002 251.219 L
463.119 251.219 L
S
GR
GS
[0.75 0 0 0.75 0 0] CT
0.929 0.694 0.125 RC
2 LJ
N
463.119 251.219 M
463.237 251.219 L
463.376 251.219 L
463.514 251.219 L
463.653 251.219 L
463.792 251.219 L
463.955 251.219 L
464.118 251.219 L
464.282 251.219 L
464.445 251.219 L
464.603 251.219 L
464.761 251.219 L
464.919 251.219 L
465.077 251.219 L
465.207 251.219 L
465.336 251.219 L
465.466 251.219 L
465.596 251.219 L
465.709 251.219 L
465.823 251.219 L
465.937 251.219 L
466.051 251.219 L
466.177 251.219 L
466.302 251.219 L
466.428 251.219 L
466.554 251.219 L
466.708 251.219 L
466.862 251.219 L
467.015 251.219 L
467.169 251.219 L
467.336 251.219 L
467.502 251.219 L
467.669 251.219 L
467.835 251.219 L
467.979 251.219 L
468.123 251.219 L
468.268 251.219 L
468.412 251.219 L
468.529 251.219 L
468.647 251.219 L
468.764 251.219 L
468.882 251.219 L
468.998 251.219 L
469.114 251.219 L
469.229 251.219 L
469.345 251.219 L
469.485 251.219 L
469.624 251.219 L
469.764 251.219 L
469.904 251.219 L
S
GR
GS
[0.75 0 0 0.75 0 0] CT
0.929 0.694 0.125 RC
2 LJ
N
469.904 251.219 M
470.07 251.219 L
470.235 251.219 L
470.401 251.219 L
470.566 251.219 L
470.726 251.219 L
470.885 251.219 L
471.044 251.219 L
471.203 251.219 L
471.331 251.219 L
471.459 251.219 L
471.587 251.219 L
471.715 251.219 L
471.827 251.219 L
471.939 251.219 L
472.051 251.219 L
472.163 251.219 L
472.289 251.219 L
472.414 251.219 L
472.54 251.219 L
472.665 251.219 L
472.82 251.219 L
472.976 251.219 L
473.131 251.219 L
473.287 251.219 L
473.455 251.219 L
473.623 251.219 L
473.792 251.219 L
473.96 251.219 L
474.104 251.219 L
474.247 251.219 L
474.391 251.219 L
474.535 251.219 L
474.651 251.219 L
474.767 251.219 L
474.883 251.219 L
474.999 251.219 L
475.114 251.219 L
475.228 251.219 L
475.343 251.219 L
475.458 251.219 L
475.598 251.219 L
475.738 251.219 L
475.879 251.219 L
476.019 251.219 L
476.186 251.219 L
476.354 251.219 L
476.521 251.219 L
476.688 251.219 L
476.816 251.219 L
S
GR
GS
[0.75 0 0 0.75 0 0] CT
0.929 0.694 0.125 RC
2 LJ
N
476.816 251.219 M
476.943 251.219 L
477.07 251.219 L
477.197 251.219 L
477.324 251.219 L
477.451 251.219 L
477.579 251.219 L
477.706 251.219 L
477.852 251.219 L
477.999 251.219 L
478.145 251.219 L
478.291 251.219 L
478.449 251.219 L
478.608 251.219 L
478.766 251.219 L
478.924 251.219 L
479.069 251.219 L
479.215 251.219 L
479.361 251.219 L
479.507 251.219 L
479.632 251.219 L
479.758 251.219 L
479.883 251.219 L
480.009 251.219 L
480.13 251.219 L
480.25 251.219 L
480.371 251.219 L
480.492 251.219 L
480.629 251.219 L
480.765 251.219 L
480.902 251.219 L
481.038 251.219 L
481.195 251.219 L
481.352 251.219 L
481.508 251.219 L
481.665 251.219 L
481.821 251.219 L
481.976 251.219 L
482.132 251.219 L
482.287 251.219 L
482.421 251.219 L
482.555 251.219 L
482.689 251.219 L
482.822 251.219 L
482.941 251.219 L
483.06 251.219 L
483.179 251.219 L
483.298 251.219 L
483.424 251.219 L
483.551 251.219 L
S
GR
GS
[0.75 0 0 0.75 0 0] CT
0.929 0.694 0.125 RC
2 LJ
N
483.551 251.219 M
483.677 251.219 L
483.803 251.219 L
483.952 251.219 L
484.101 251.219 L
484.25 251.219 L
484.399 251.219 L
484.561 251.219 L
484.722 251.219 L
484.884 251.219 L
485.045 251.219 L
485.191 251.219 L
485.336 251.219 L
485.482 251.219 L
485.627 251.219 L
485.749 251.219 L
485.872 251.219 L
485.994 251.219 L
486.117 251.219 L
486.235 251.219 L
486.354 251.219 L
486.473 251.219 L
486.591 251.219 L
486.729 251.219 L
486.867 251.219 L
487.004 251.219 L
487.142 251.219 L
487.302 251.219 L
487.462 251.219 L
487.623 251.219 L
487.783 251.219 L
487.94 251.219 L
488.097 251.219 L
488.254 251.219 L
488.412 251.219 L
488.543 251.219 L
488.675 251.219 L
488.807 251.219 L
488.938 251.219 L
489.054 251.219 L
489.17 251.219 L
489.286 251.219 L
489.402 251.219 L
489.528 251.219 L
489.654 251.219 L
489.78 251.219 L
489.905 251.219 L
490.057 251.219 L
490.209 251.219 L
490.36 251.219 L
S
GR
GS
[0.75 0 0 0.75 0 0] CT
0.929 0.694 0.125 RC
2 LJ
N
490.36 251.219 M
490.512 251.219 L
490.676 251.219 L
490.841 251.219 L
491.005 251.219 L
491.169 251.219 L
491.314 251.219 L
491.459 251.219 L
491.604 251.219 L
491.749 251.219 L
491.869 251.219 L
491.989 251.219 L
492.108 251.219 L
492.228 251.219 L
492.345 251.219 L
492.462 251.219 L
492.579 251.219 L
492.696 251.219 L
492.834 251.219 L
492.973 251.219 L
493.111 251.219 L
493.25 251.219 L
493.413 251.219 L
493.577 251.219 L
493.74 251.219 L
493.903 251.219 L
494.062 251.219 L
494.22 251.219 L
494.379 251.219 L
494.537 251.219 L
494.667 251.219 L
494.797 251.219 L
494.927 251.219 L
495.057 251.219 L
495.17 251.219 L
495.284 251.219 L
495.397 251.219 L
495.511 251.219 L
495.636 251.219 L
495.762 251.219 L
495.887 251.219 L
496.013 251.219 L
496.166 251.219 L
496.32 251.219 L
496.473 251.219 L
496.627 251.219 L
496.794 251.219 L
496.961 251.219 L
497.128 251.219 L
497.295 251.219 L
S
GR
GS
[0.75 0 0 0.75 0 0] CT
0.929 0.694 0.125 RC
2 LJ
N
497.295 251.219 M
497.439 251.219 L
497.584 251.219 L
497.728 251.219 L
497.873 251.219 L
497.99 251.219 L
498.108 251.219 L
498.225 251.219 L
498.343 251.219 L
498.458 251.219 L
498.574 251.219 L
498.689 251.219 L
498.805 251.219 L
498.944 251.219 L
499.083 251.219 L
499.223 251.219 L
499.362 251.219 L
499.528 251.219 L
499.694 251.219 L
499.859 251.219 L
500.025 251.219 L
500.185 251.219 L
500.344 251.219 L
500.504 251.219 L
500.663 251.219 L
500.791 251.219 L
500.92 251.219 L
501.048 251.219 L
501.177 251.219 L
501.288 251.219 L
501.4 251.219 L
501.512 251.219 L
501.624 251.219 L
501.749 251.219 L
501.874 251.219 L
501.999 251.219 L
502.124 251.219 L
502.279 251.219 L
502.434 251.219 L
502.59 251.219 L
502.745 251.219 L
502.913 251.219 L
503.082 251.219 L
503.25 251.219 L
503.419 251.219 L
503.563 251.219 L
503.708 251.219 L
503.852 251.219 L
503.996 251.219 L
504.112 251.219 L
S
GR
GS
[0.75 0 0 0.75 0 0] CT
0.929 0.694 0.125 RC
2 LJ
N
504.112 251.219 M
504.228 251.219 L
504.344 251.219 L
504.46 251.219 L
504.575 251.219 L
504.689 251.219 L
504.804 251.219 L
504.918 251.219 L
505.058 251.219 L
505.198 251.219 L
505.337 251.219 L
505.477 251.219 L
505.645 251.219 L
505.812 251.219 L
505.979 251.219 L
506.147 251.219 L
506.274 251.219 L
506.402 251.219 L
506.529 251.219 L
506.657 251.219 L
506.743 251.219 L
506.828 251.219 L
506.914 251.219 L
507 251.219 L
S
GR
GS
[0.75 0 0 0.75 0 0] CT
0.494 0.184 0.557 RC
2 LJ
N
73 360.28 M
73 360.28 L
73.001 360.28 L
73.001 360.28 L
73.001 360.28 L
73.003 360.28 L
73.005 360.28 L
73.007 360.28 L
73.009 360.28 L
73.018 360.28 L
73.026 360.28 L
73.035 360.28 L
73.044 360.28 L
73.089 360.28 L
73.134 360.28 L
73.178 360.28 L
73.223 360.28 L
73.446 360.28 L
73.67 360.28 L
73.893 360.28 L
74.117 360.28 L
75.234 360.28 L
76.351 360.28 L
77.468 360.28 L
78.585 360.28 L
80.755 360.28 L
82.925 360.28 L
85.095 360.28 L
87.265 360.28 L
89.435 360.28 L
91.605 360.28 L
93.775 360.28 L
95.945 360.28 L
98.115 360.28 L
100.285 360.28 L
102.455 360.28 L
104.625 360.28 L
106.795 360.28 L
108.965 360.28 L
111.135 360.28 L
113.305 360.28 L
115.475 360.28 L
117.645 360.28 L
119.815 360.28 L
121.985 360.28 L
124.155 360.28 L
126.325 360.28 L
128.495 360.28 L
130.665 360.28 L
132.835 360.28 L
S
GR
GS
[0.75 0 0 0.75 0 0] CT
0.494 0.184 0.557 RC
2 LJ
N
132.835 360.28 M
135.005 360.28 L
137.175 360.28 L
139.345 360.28 L
141.515 360.28 L
143.685 360.28 L
145.855 360.28 L
148.025 360.28 L
150.195 360.28 L
152.365 360.28 L
154.535 360.28 L
156.705 360.28 L
157.479 360.28 L
158.253 360.28 L
159.026 360.28 L
159.8 360.28 L
159.8 360.28 L
159.973 360.15 L
160.145 360.021 L
160.318 359.891 L
160.49 359.762 L
161.353 359.113 L
162.216 358.465 L
163.079 357.817 L
163.942 357.169 L
166.112 355.539 L
168.282 353.909 L
170.452 352.279 L
172.622 350.65 L
174.792 349.02 L
176.962 347.39 L
179.132 345.76 L
181.302 344.13 L
183.472 342.5 L
185.642 340.87 L
187.812 339.24 L
189.982 337.611 L
192.152 335.981 L
194.322 334.351 L
196.492 332.721 L
198.662 331.091 L
200.832 329.461 L
203.002 327.831 L
205.172 326.202 L
207.342 324.572 L
209.512 322.942 L
211.682 321.312 L
213.852 319.682 L
216.022 318.052 L
218.192 316.422 L
S
GR
GS
[0.75 0 0 0.75 0 0] CT
0.494 0.184 0.557 RC
2 LJ
N
218.192 316.422 M
220.362 314.792 L
222.532 313.163 L
224.702 311.533 L
226.872 309.903 L
229.042 308.273 L
231.212 306.643 L
233.382 305.013 L
235.552 303.383 L
237.722 301.754 L
239.892 300.124 L
242.062 298.494 L
243.197 297.642 L
244.331 296.79 L
245.466 295.938 L
246.6 295.085 L
246.6 295.085 L
248.77 291.219 L
250.94 287.353 L
253.11 283.486 L
255.28 279.62 L
257.45 275.753 L
259.62 271.887 L
261.79 268.021 L
263.96 264.154 L
266.13 260.288 L
268.3 256.421 L
270.47 252.555 L
272.64 248.689 L
274.81 244.822 L
276.98 240.956 L
279.15 237.089 L
281.32 233.223 L
283.49 229.356 L
285.66 225.49 L
287.83 221.624 L
290 217.757 L
292.17 213.891 L
294.34 210.024 L
296.51 206.158 L
298.68 202.292 L
300.85 198.425 L
303.02 194.559 L
305.19 190.692 L
307.36 186.826 L
309.53 182.96 L
311.7 179.093 L
313.87 175.227 L
316.04 171.36 L
318.21 167.494 L
S
GR
GS
[0.75 0 0 0.75 0 0] CT
0.494 0.184 0.557 RC
2 LJ
N
318.21 167.494 M
320.38 163.627 L
322.55 159.761 L
324.72 155.895 L
326.89 152.028 L
329.06 148.162 L
331.23 144.295 L
333.4 140.429 L
333.4 140.429 L
335.57 139.4 L
337.74 138.372 L
339.91 137.343 L
342.08 136.314 L
344.25 135.285 L
346.42 134.257 L
348.59 133.228 L
350.76 132.199 L
352.93 131.171 L
355.1 130.142 L
357.27 129.113 L
359.44 128.084 L
361.61 127.056 L
363.78 126.027 L
365.95 124.998 L
368.12 123.97 L
370.29 122.941 L
372.46 121.912 L
374.63 120.884 L
376.8 119.855 L
377.124 119.701 L
377.447 119.548 L
377.771 119.395 L
378.095 119.241 L
378.231 119.176 L
378.368 119.111 L
378.505 119.047 L
378.641 118.982 L
378.778 118.917 L
378.915 118.852 L
379.052 118.787 L
379.188 118.723 L
379.254 118.692 L
379.319 118.661 L
379.384 118.63 L
379.449 118.599 L
379.515 118.568 L
379.58 118.537 L
379.645 118.506 L
379.711 118.475 L
379.789 118.438 L
S
GR
GS
[0.75 0 0 0.75 0 0] CT
0.494 0.184 0.557 RC
2 LJ
N
379.789 118.438 M
379.867 118.401 L
379.945 118.364 L
380.023 118.327 L
380.1 118.291 L
380.176 118.254 L
380.252 118.218 L
380.328 118.182 L
380.415 118.141 L
380.502 118.1 L
380.589 118.059 L
380.675 118.018 L
380.778 117.969 L
380.881 117.92 L
380.984 117.871 L
381.087 117.822 L
381.215 117.762 L
381.344 117.701 L
381.472 117.64 L
381.6 117.579 L
381.767 117.5 L
381.934 117.421 L
382.1 117.342 L
382.267 117.263 L
382.494 117.155 L
382.721 117.048 L
382.948 116.94 L
383.175 116.833 L
383.468 116.694 L
383.761 116.555 L
384.054 116.416 L
384.347 116.277 L
384.553 116.18 L
384.759 116.082 L
384.965 115.984 L
385.171 115.887 L
385.377 115.789 L
385.583 115.691 L
385.789 115.594 L
385.995 115.496 L
386.24 115.38 L
386.485 115.264 L
386.73 115.148 L
386.975 115.031 L
387.241 114.905 L
387.508 114.779 L
387.774 114.652 L
388.041 114.526 L
388.279 114.413 L
388.517 114.3 L
S
GR
GS
[0.75 0 0 0.75 0 0] CT
0.494 0.184 0.557 RC
2 LJ
N
388.517 114.3 M
388.756 114.187 L
388.994 114.074 L
389.192 113.98 L
389.39 113.886 L
389.588 113.793 L
389.786 113.699 L
389.977 113.608 L
390.168 113.517 L
390.36 113.427 L
390.551 113.336 L
390.774 113.23 L
390.998 113.124 L
391.222 113.018 L
391.445 112.912 L
391.708 112.788 L
391.97 112.663 L
392.232 112.539 L
392.495 112.415 L
392.751 112.293 L
393.008 112.171 L
393.264 112.05 L
393.521 111.928 L
393.733 111.828 L
393.945 111.727 L
394.156 111.627 L
394.368 111.526 L
394.553 111.439 L
394.738 111.351 L
394.923 111.263 L
395.108 111.176 L
395.31 111.08 L
395.512 110.984 L
395.714 110.888 L
395.916 110.793 L
396.162 110.676 L
396.408 110.56 L
396.653 110.443 L
396.899 110.327 L
397.166 110.2 L
397.433 110.074 L
397.7 109.947 L
397.967 109.82 L
398.2 109.71 L
398.432 109.6 L
398.665 109.489 L
398.898 109.379 L
399.087 109.289 L
399.277 109.199 L
399.467 109.109 L
S
GR
GS
[0.75 0 0 0.75 0 0] CT
0.494 0.184 0.557 RC
2 LJ
N
399.467 109.109 M
399.656 109.02 L
399.842 108.932 L
400.027 108.844 L
400.212 108.756 L
400.397 108.668 L
400.619 108.563 L
400.842 108.458 L
401.064 108.352 L
401.286 108.247 L
401.549 108.122 L
401.813 107.997 L
402.076 107.872 L
402.34 107.748 L
402.593 107.627 L
402.847 107.507 L
403.101 107.387 L
403.355 107.266 L
403.56 107.169 L
403.764 107.072 L
403.969 106.975 L
404.174 106.878 L
404.352 106.794 L
404.53 106.709 L
404.708 106.625 L
404.886 106.54 L
405.085 106.446 L
405.283 106.352 L
405.482 106.258 L
405.68 106.164 L
405.926 106.047 L
406.171 105.931 L
406.417 105.815 L
406.663 105.698 L
406.929 105.572 L
407.195 105.446 L
407.462 105.319 L
407.728 105.193 L
407.955 105.085 L
408.183 104.977 L
408.41 104.87 L
408.638 104.762 L
408.821 104.675 L
409.004 104.588 L
409.187 104.502 L
409.369 104.415 L
409.55 104.329 L
409.73 104.244 L
409.91 104.158 L
410.091 104.073 L
S
GR
GS
[0.75 0 0 0.75 0 0] CT
0.494 0.184 0.557 RC
2 LJ
N
410.091 104.073 M
410.311 103.968 L
410.532 103.864 L
410.752 103.759 L
410.973 103.655 L
411.236 103.53 L
411.499 103.405 L
411.763 103.28 L
412.026 103.156 L
412.225 103.061 L
412.423 102.967 L
412.622 102.873 L
412.821 102.779 L
413.02 102.685 L
413.218 102.59 L
413.417 102.496 L
413.616 102.402 L
413.846 102.293 L
414.076 102.184 L
414.306 102.075 L
414.536 101.966 L
414.784 101.848 L
415.032 101.73 L
415.281 101.613 L
415.529 101.495 L
415.756 101.387 L
415.984 101.279 L
416.211 101.172 L
416.438 101.064 L
416.632 100.972 L
416.826 100.88 L
417.02 100.788 L
417.214 100.696 L
417.401 100.607 L
417.588 100.519 L
417.775 100.43 L
417.962 100.342 L
418.175 100.241 L
418.387 100.14 L
418.6 100.039 L
418.813 99.938 L
419.058 99.822 L
419.303 99.706 L
419.548 99.59 L
419.793 99.474 L
419.894 99.426 L
419.996 99.377 L
420.098 99.329 L
420.2 99.281 L
420.2 99.281 L
S
GR
GS
[0.75 0 0 0.75 0 0] CT
0.494 0.184 0.557 RC
2 LJ
N
420.2 99.281 M
420.21 99.281 L
420.221 99.281 L
420.231 99.281 L
420.242 99.281 L
420.29 99.281 L
420.338 99.281 L
420.386 99.281 L
420.434 99.281 L
420.474 99.281 L
420.514 99.281 L
420.554 99.281 L
420.594 99.281 L
420.629 99.281 L
420.665 99.281 L
420.7 99.281 L
420.736 99.281 L
420.77 99.281 L
420.804 99.281 L
420.838 99.281 L
420.872 99.281 L
420.905 99.281 L
420.939 99.281 L
420.972 99.281 L
421.006 99.281 L
421.039 99.281 L
421.072 99.281 L
421.105 99.281 L
421.138 99.281 L
421.175 99.281 L
421.212 99.281 L
421.249 99.281 L
421.286 99.281 L
421.33 99.281 L
421.373 99.281 L
421.416 99.281 L
421.459 99.281 L
421.509 99.281 L
421.56 99.281 L
421.611 99.281 L
421.662 99.281 L
421.723 99.281 L
421.785 99.281 L
421.846 99.281 L
421.908 99.281 L
421.985 99.281 L
422.062 99.281 L
422.139 99.281 L
422.216 99.281 L
422.317 99.281 L
S
GR
GS
[0.75 0 0 0.75 0 0] CT
0.494 0.184 0.557 RC
2 LJ
N
422.317 99.281 M
422.417 99.281 L
422.518 99.281 L
422.618 99.281 L
422.755 99.281 L
422.892 99.281 L
423.028 99.281 L
423.165 99.281 L
423.343 99.281 L
423.521 99.281 L
423.698 99.281 L
423.876 99.281 L
424.003 99.281 L
424.129 99.281 L
424.256 99.281 L
424.383 99.281 L
424.509 99.281 L
424.636 99.281 L
424.762 99.281 L
424.889 99.281 L
425.038 99.281 L
425.186 99.281 L
425.335 99.281 L
425.484 99.281 L
425.644 99.281 L
425.805 99.281 L
425.966 99.281 L
426.127 99.281 L
426.272 99.281 L
426.418 99.281 L
426.563 99.281 L
426.709 99.281 L
426.831 99.281 L
426.954 99.281 L
427.077 99.281 L
427.2 99.281 L
427.319 99.281 L
427.438 99.281 L
427.558 99.281 L
427.677 99.281 L
427.814 99.281 L
427.952 99.281 L
428.089 99.281 L
428.227 99.281 L
428.386 99.281 L
428.546 99.281 L
428.706 99.281 L
428.865 99.281 L
429.022 99.281 L
429.179 99.281 L
S
GR
GS
[0.75 0 0 0.75 0 0] CT
0.494 0.184 0.557 RC
2 LJ
N
429.179 99.281 M
429.336 99.281 L
429.493 99.281 L
429.625 99.281 L
429.757 99.281 L
429.888 99.281 L
430.02 99.281 L
430.137 99.281 L
430.253 99.281 L
430.37 99.281 L
430.486 99.281 L
430.612 99.281 L
430.738 99.281 L
430.864 99.281 L
430.99 99.281 L
431.141 99.281 L
431.293 99.281 L
431.444 99.281 L
431.595 99.281 L
431.759 99.281 L
431.923 99.281 L
432.087 99.281 L
432.251 99.281 L
432.396 99.281 L
432.541 99.281 L
432.686 99.281 L
432.831 99.281 L
432.951 99.281 L
433.071 99.281 L
433.191 99.281 L
433.311 99.281 L
433.428 99.281 L
433.545 99.281 L
433.663 99.281 L
433.78 99.281 L
433.918 99.281 L
434.057 99.281 L
434.195 99.281 L
434.334 99.281 L
434.497 99.281 L
434.66 99.281 L
434.823 99.281 L
434.986 99.281 L
435.144 99.281 L
435.302 99.281 L
435.46 99.281 L
435.618 99.281 L
435.748 99.281 L
435.878 99.281 L
436.008 99.281 L
S
GR
GS
[0.75 0 0 0.75 0 0] CT
0.494 0.184 0.557 RC
2 LJ
N
436.008 99.281 M
436.138 99.281 L
436.252 99.281 L
436.366 99.281 L
436.48 99.281 L
436.594 99.281 L
436.72 99.281 L
436.845 99.281 L
436.971 99.281 L
437.096 99.281 L
437.25 99.281 L
437.403 99.281 L
437.557 99.281 L
437.71 99.281 L
437.877 99.281 L
438.043 99.281 L
438.209 99.281 L
438.376 99.281 L
438.52 99.281 L
438.665 99.281 L
438.809 99.281 L
438.954 99.281 L
439.072 99.281 L
439.189 99.281 L
439.307 99.281 L
439.425 99.281 L
439.541 99.281 L
439.656 99.281 L
439.772 99.281 L
439.888 99.281 L
440.027 99.281 L
440.167 99.281 L
440.306 99.281 L
440.445 99.281 L
440.611 99.281 L
440.776 99.281 L
440.942 99.281 L
441.107 99.281 L
441.266 99.281 L
441.426 99.281 L
441.585 99.281 L
441.744 99.281 L
441.873 99.281 L
442.001 99.281 L
442.13 99.281 L
442.258 99.281 L
442.37 99.281 L
442.482 99.281 L
442.594 99.281 L
442.706 99.281 L
S
GR
GS
[0.75 0 0 0.75 0 0] CT
0.494 0.184 0.557 RC
2 LJ
N
442.706 99.281 M
442.832 99.281 L
442.957 99.281 L
443.082 99.281 L
443.207 99.281 L
443.362 99.281 L
443.517 99.281 L
443.672 99.281 L
443.827 99.281 L
443.996 99.281 L
444.164 99.281 L
444.332 99.281 L
444.501 99.281 L
444.645 99.281 L
444.789 99.281 L
444.933 99.281 L
445.077 99.281 L
445.193 99.281 L
445.31 99.281 L
445.426 99.281 L
445.542 99.281 L
445.657 99.281 L
445.771 99.281 L
445.886 99.281 L
446.001 99.281 L
446.141 99.281 L
446.28 99.281 L
446.42 99.281 L
446.56 99.281 L
446.727 99.281 L
446.895 99.281 L
447.062 99.281 L
447.229 99.281 L
447.356 99.281 L
447.484 99.281 L
447.611 99.281 L
447.739 99.281 L
447.866 99.281 L
447.994 99.281 L
448.121 99.281 L
448.249 99.281 L
448.395 99.281 L
448.541 99.281 L
448.688 99.281 L
448.834 99.281 L
448.992 99.281 L
449.149 99.281 L
449.307 99.281 L
449.465 99.281 L
449.61 99.281 L
S
GR
GS
[0.75 0 0 0.75 0 0] CT
0.494 0.184 0.557 RC
2 LJ
N
449.61 99.281 M
449.756 99.281 L
449.901 99.281 L
450.047 99.281 L
450.172 99.281 L
450.298 99.281 L
450.424 99.281 L
450.549 99.281 L
450.671 99.281 L
450.792 99.281 L
450.913 99.281 L
451.034 99.281 L
451.171 99.281 L
451.308 99.281 L
451.445 99.281 L
451.581 99.281 L
451.738 99.281 L
451.894 99.281 L
452.05 99.281 L
452.207 99.281 L
452.362 99.281 L
452.517 99.281 L
452.672 99.281 L
452.827 99.281 L
452.961 99.281 L
453.095 99.281 L
453.229 99.281 L
453.362 99.281 L
453.481 99.281 L
453.601 99.281 L
453.72 99.281 L
453.839 99.281 L
453.966 99.281 L
454.092 99.281 L
454.219 99.281 L
454.346 99.281 L
454.495 99.281 L
454.644 99.281 L
454.793 99.281 L
454.942 99.281 L
455.103 99.281 L
455.264 99.281 L
455.425 99.281 L
455.586 99.281 L
455.731 99.281 L
455.876 99.281 L
456.021 99.281 L
456.167 99.281 L
456.289 99.281 L
456.412 99.281 L
S
GR
GS
[0.75 0 0 0.75 0 0] CT
0.494 0.184 0.557 RC
2 LJ
N
456.412 99.281 M
456.534 99.281 L
456.657 99.281 L
456.776 99.281 L
456.895 99.281 L
457.014 99.281 L
457.133 99.281 L
457.271 99.281 L
457.409 99.281 L
457.547 99.281 L
457.684 99.281 L
457.844 99.281 L
458.004 99.281 L
458.164 99.281 L
458.324 99.281 L
458.481 99.281 L
458.638 99.281 L
458.795 99.281 L
458.951 99.281 L
459.083 99.281 L
459.215 99.281 L
459.346 99.281 L
459.478 99.281 L
459.594 99.281 L
459.71 99.281 L
459.827 99.281 L
459.943 99.281 L
460.069 99.281 L
460.195 99.281 L
460.321 99.281 L
460.447 99.281 L
460.599 99.281 L
460.751 99.281 L
460.902 99.281 L
461.054 99.281 L
461.218 99.281 L
461.382 99.281 L
461.546 99.281 L
461.71 99.281 L
461.855 99.281 L
461.999 99.281 L
462.144 99.281 L
462.289 99.281 L
462.408 99.281 L
462.528 99.281 L
462.648 99.281 L
462.768 99.281 L
462.885 99.281 L
463.002 99.281 L
463.119 99.281 L
S
GR
GS
[0.75 0 0 0.75 0 0] CT
0.494 0.184 0.557 RC
2 LJ
N
463.119 99.281 M
463.237 99.281 L
463.376 99.281 L
463.514 99.281 L
463.653 99.281 L
463.792 99.281 L
463.955 99.281 L
464.118 99.281 L
464.282 99.281 L
464.445 99.281 L
464.603 99.281 L
464.761 99.281 L
464.919 99.281 L
465.077 99.281 L
465.207 99.281 L
465.336 99.281 L
465.466 99.281 L
465.596 99.281 L
465.709 99.281 L
465.823 99.281 L
465.937 99.281 L
466.051 99.281 L
466.177 99.281 L
466.302 99.281 L
466.428 99.281 L
466.554 99.281 L
466.708 99.281 L
466.862 99.281 L
467.015 99.281 L
467.169 99.281 L
467.336 99.281 L
467.502 99.281 L
467.669 99.281 L
467.835 99.281 L
467.979 99.281 L
468.123 99.281 L
468.268 99.281 L
468.412 99.281 L
468.529 99.281 L
468.647 99.281 L
468.764 99.281 L
468.882 99.281 L
468.998 99.281 L
469.114 99.281 L
469.229 99.281 L
469.345 99.281 L
469.485 99.281 L
469.624 99.281 L
469.764 99.281 L
469.904 99.281 L
S
GR
GS
[0.75 0 0 0.75 0 0] CT
0.494 0.184 0.557 RC
2 LJ
N
469.904 99.281 M
470.07 99.281 L
470.235 99.281 L
470.401 99.281 L
470.566 99.281 L
470.726 99.281 L
470.885 99.281 L
471.044 99.281 L
471.203 99.281 L
471.331 99.281 L
471.459 99.281 L
471.587 99.281 L
471.715 99.281 L
471.827 99.281 L
471.939 99.281 L
472.051 99.281 L
472.163 99.281 L
472.289 99.281 L
472.414 99.281 L
472.54 99.281 L
472.665 99.281 L
472.82 99.281 L
472.976 99.281 L
473.131 99.281 L
473.287 99.281 L
473.455 99.281 L
473.623 99.281 L
473.792 99.281 L
473.96 99.281 L
474.104 99.281 L
474.247 99.281 L
474.391 99.281 L
474.535 99.281 L
474.651 99.281 L
474.767 99.281 L
474.883 99.281 L
474.999 99.281 L
475.114 99.281 L
475.228 99.281 L
475.343 99.281 L
475.458 99.281 L
475.598 99.281 L
475.738 99.281 L
475.879 99.281 L
476.019 99.281 L
476.186 99.281 L
476.354 99.281 L
476.521 99.281 L
476.688 99.281 L
476.816 99.281 L
S
GR
GS
[0.75 0 0 0.75 0 0] CT
0.494 0.184 0.557 RC
2 LJ
N
476.816 99.281 M
476.943 99.281 L
477.07 99.281 L
477.197 99.281 L
477.324 99.281 L
477.451 99.281 L
477.579 99.281 L
477.706 99.281 L
477.852 99.281 L
477.999 99.281 L
478.145 99.281 L
478.291 99.281 L
478.449 99.281 L
478.608 99.281 L
478.766 99.281 L
478.924 99.281 L
479.069 99.281 L
479.215 99.281 L
479.361 99.281 L
479.507 99.281 L
479.632 99.281 L
479.758 99.281 L
479.883 99.281 L
480.009 99.281 L
480.13 99.281 L
480.25 99.281 L
480.371 99.281 L
480.492 99.281 L
480.629 99.281 L
480.765 99.281 L
480.902 99.281 L
481.038 99.281 L
481.195 99.281 L
481.352 99.281 L
481.508 99.281 L
481.665 99.281 L
481.821 99.281 L
481.976 99.281 L
482.132 99.281 L
482.287 99.281 L
482.421 99.281 L
482.555 99.281 L
482.689 99.281 L
482.822 99.281 L
482.941 99.281 L
483.06 99.281 L
483.179 99.281 L
483.298 99.281 L
483.424 99.281 L
483.551 99.281 L
S
GR
GS
[0.75 0 0 0.75 0 0] CT
0.494 0.184 0.557 RC
2 LJ
N
483.551 99.281 M
483.677 99.281 L
483.803 99.281 L
483.952 99.281 L
484.101 99.281 L
484.25 99.281 L
484.399 99.281 L
484.561 99.281 L
484.722 99.281 L
484.884 99.281 L
485.045 99.281 L
485.191 99.281 L
485.336 99.281 L
485.482 99.281 L
485.627 99.281 L
485.749 99.281 L
485.872 99.281 L
485.994 99.281 L
486.117 99.281 L
486.235 99.281 L
486.354 99.281 L
486.473 99.281 L
486.591 99.281 L
486.729 99.281 L
486.867 99.281 L
487.004 99.281 L
487.142 99.281 L
487.302 99.281 L
487.462 99.281 L
487.623 99.281 L
487.783 99.281 L
487.94 99.281 L
488.097 99.281 L
488.254 99.281 L
488.412 99.281 L
488.543 99.281 L
488.675 99.281 L
488.807 99.281 L
488.938 99.281 L
489.054 99.281 L
489.17 99.281 L
489.286 99.281 L
489.402 99.281 L
489.528 99.281 L
489.654 99.281 L
489.78 99.281 L
489.905 99.281 L
490.057 99.281 L
490.209 99.281 L
490.36 99.281 L
S
GR
GS
[0.75 0 0 0.75 0 0] CT
0.494 0.184 0.557 RC
2 LJ
N
490.36 99.281 M
490.512 99.281 L
490.676 99.281 L
490.841 99.281 L
491.005 99.281 L
491.169 99.281 L
491.314 99.281 L
491.459 99.281 L
491.604 99.281 L
491.749 99.281 L
491.869 99.281 L
491.989 99.281 L
492.108 99.281 L
492.228 99.281 L
492.345 99.281 L
492.462 99.281 L
492.579 99.281 L
492.696 99.281 L
492.834 99.281 L
492.973 99.281 L
493.111 99.281 L
493.25 99.281 L
493.413 99.281 L
493.577 99.281 L
493.74 99.281 L
493.903 99.281 L
494.062 99.281 L
494.22 99.281 L
494.379 99.281 L
494.537 99.281 L
494.667 99.281 L
494.797 99.281 L
494.927 99.281 L
495.057 99.281 L
495.17 99.281 L
495.284 99.281 L
495.397 99.281 L
495.511 99.281 L
495.636 99.281 L
495.762 99.281 L
495.887 99.281 L
496.013 99.281 L
496.166 99.281 L
496.32 99.281 L
496.473 99.281 L
496.627 99.281 L
496.794 99.281 L
496.961 99.281 L
497.128 99.281 L
497.295 99.281 L
S
GR
GS
[0.75 0 0 0.75 0 0] CT
0.494 0.184 0.557 RC
2 LJ
N
497.295 99.281 M
497.439 99.281 L
497.584 99.281 L
497.728 99.281 L
497.873 99.281 L
497.99 99.281 L
498.108 99.281 L
498.225 99.281 L
498.343 99.281 L
498.458 99.281 L
498.574 99.281 L
498.689 99.281 L
498.805 99.281 L
498.944 99.281 L
499.083 99.281 L
499.223 99.281 L
499.362 99.281 L
499.528 99.281 L
499.694 99.281 L
499.859 99.281 L
500.025 99.281 L
500.185 99.281 L
500.344 99.281 L
500.504 99.281 L
500.663 99.281 L
500.791 99.281 L
500.92 99.281 L
501.048 99.281 L
501.177 99.281 L
501.288 99.281 L
501.4 99.281 L
501.512 99.281 L
501.624 99.281 L
501.749 99.281 L
501.874 99.281 L
501.999 99.281 L
502.124 99.281 L
502.279 99.281 L
502.434 99.281 L
502.59 99.281 L
502.745 99.281 L
502.913 99.281 L
503.082 99.281 L
503.25 99.281 L
503.419 99.281 L
503.563 99.281 L
503.708 99.281 L
503.852 99.281 L
503.996 99.281 L
504.112 99.281 L
S
GR
GS
[0.75 0 0 0.75 0 0] CT
0.494 0.184 0.557 RC
2 LJ
N
504.112 99.281 M
504.228 99.281 L
504.344 99.281 L
504.46 99.281 L
504.575 99.281 L
504.689 99.281 L
504.804 99.281 L
504.918 99.281 L
505.058 99.281 L
505.198 99.281 L
505.337 99.281 L
505.477 99.281 L
505.645 99.281 L
505.812 99.281 L
505.979 99.281 L
506.147 99.281 L
506.274 99.281 L
506.402 99.281 L
506.529 99.281 L
506.657 99.281 L
506.743 99.281 L
506.828 99.281 L
506.914 99.281 L
507 99.281 L
S
GR
GS
[0.75 0 0 0.75 217.50021 21.18749] CT
/Helvetica-Bold 15 F
GS
[1 0 0 1 0 0] CT
-55.5 -4 moveto 
1 -1 scale
(J = 17865 \(g\)) t 
GR
GR
GS
[0.75 0 0 0.75 0 0] CT
1 GC
N
424 136 M
424 44 L
494 44 L
494 136 L
cp
f
GR
GS
[0.75 0 0 0.75 357 44.25] CT
/Helvetica 12 F
GS
[1 0 0 1 0 0] CT
0 0 moveto 
1 -1 scale
(x) t 
GR
GR
GS
[0.75 0 0 0.75 363 48.75] CT
/Helvetica 9 F
GS
[1 0 0 1 0 0] CT
0 0 moveto 
1 -1 scale
(1) t 
GR
GR
GS
[0.75 0 0 0.75 0 0] CT
0 0.447 0.741 RC
2 LJ
N
432 57.263 M
472 57.263 L
S
GR
GS
[0.75 0 0 0.75 357 60.75] CT
/Helvetica 12 F
GS
[1 0 0 1 0 0] CT
0 0 moveto 
1 -1 scale
(x) t 
GR
GR
GS
[0.75 0 0 0.75 363 65.25] CT
/Helvetica 9 F
GS
[1 0 0 1 0 0] CT
0 0 moveto 
1 -1 scale
(2) t 
GR
GR
GS
[0.75 0 0 0.75 0 0] CT
0.851 0.325 0.098 RC
2 LJ
N
432 79.088 M
472 79.088 L
S
GR
GS
[0.75 0 0 0.75 357 77.25] CT
/Helvetica 12 F
GS
[1 0 0 1 0 0] CT
0 0 moveto 
1 -1 scale
(x) t 
GR
GR
GS
[0.75 0 0 0.75 363 81.75] CT
/Helvetica 9 F
GS
[1 0 0 1 0 0] CT
0 0 moveto 
1 -1 scale
(3) t 
GR
GR
GS
[0.75 0 0 0.75 0 0] CT
0.929 0.694 0.125 RC
2 LJ
N
432 100.912 M
472 100.912 L
S
GR
GS
[0.75 0 0 0.75 357 93.75] CT
/Helvetica 12 F
GS
[1 0 0 1 0 0] CT
0 0 moveto 
1 -1 scale
(x) t 
GR
GR
GS
[0.75 0 0 0.75 363 98.25] CT
/Helvetica 9 F
GS
[1 0 0 1 0 0] CT
0 0 moveto 
1 -1 scale
(4) t 
GR
GR
GS
[0.75 0 0 0.75 0 0] CT
0.494 0.184 0.557 RC
2 LJ
N
432 122.737 M
472 122.737 L
S
GR
GS
[0.75 0 0 0.75 0 0] CT
0.149 GC
2 LJ
N
424 136 M
424 44 L
494 44 L
494 136 L
424 136 L
S
GR
%%Trailer
%%Pages: 1
%%EOF
