%!PS-Adobe-3.0 EPSF-3.0
%%Creator: (MATLAB, The Mathworks, Inc. Version 8.5.0.197613 \(R2015a\). Operating System: Linux)
%%Title: (/home/lukas/Dropbox/Universidad/Master/Control Theory/lab6/raport/chapter3/figures/3.eps)
%%CreationDate: 2016-04-24T11:03:38
%%Pages: (atend)
%%BoundingBox: 0 0 420 313
%%LanguageLevel: 2
%%EndComments
%%BeginProlog
%%BeginResource: procset (Apache XML Graphics Std ProcSet) 1.2 0
%%Version: 1.2 0
%%Copyright: (Copyright 2001-2003,2010 The Apache Software Foundation. License terms: http://www.apache.org/licenses/LICENSE-2.0)
/bd{bind def}bind def
/ld{load def}bd
/GR/grestore ld
/M/moveto ld
/LJ/setlinejoin ld
/C/curveto ld
/f/fill ld
/LW/setlinewidth ld
/GC/setgray ld
/t/show ld
/N/newpath ld
/CT/concat ld
/cp/closepath ld
/S/stroke ld
/L/lineto ld
/CC/setcmykcolor ld
/A/ashow ld
/GS/gsave ld
/RC/setrgbcolor ld
/RM/rmoveto ld
/ML/setmiterlimit ld
/re {4 2 roll M
1 index 0 rlineto
0 exch rlineto
neg 0 rlineto
cp } bd
/_ctm matrix def
/_tm matrix def
/BT { _ctm currentmatrix pop matrix _tm copy pop 0 0 moveto } bd
/ET { _ctm setmatrix } bd
/iTm { _ctm setmatrix _tm concat } bd
/Tm { _tm astore pop iTm 0 0 moveto } bd
/ux 0.0 def
/uy 0.0 def
/F {
  /Tp exch def
  /Tf exch def
  Tf findfont Tp scalefont setfont
  /cf Tf def  /cs Tp def
} bd
/ULS {currentpoint /uy exch def /ux exch def} bd
/ULE {
  /Tcx currentpoint pop def
  gsave
  newpath
  cf findfont cs scalefont dup
  /FontMatrix get 0 get /Ts exch def /FontInfo get dup
  /UnderlinePosition get Ts mul /To exch def
  /UnderlineThickness get Ts mul /Tt exch def
  ux uy To add moveto  Tcx uy To add lineto
  Tt setlinewidth stroke
  grestore
} bd
/OLE {
  /Tcx currentpoint pop def
  gsave
  newpath
  cf findfont cs scalefont dup
  /FontMatrix get 0 get /Ts exch def /FontInfo get dup
  /UnderlinePosition get Ts mul /To exch def
  /UnderlineThickness get Ts mul /Tt exch def
  ux uy To add cs add moveto Tcx uy To add cs add lineto
  Tt setlinewidth stroke
  grestore
} bd
/SOE {
  /Tcx currentpoint pop def
  gsave
  newpath
  cf findfont cs scalefont dup
  /FontMatrix get 0 get /Ts exch def /FontInfo get dup
  /UnderlinePosition get Ts mul /To exch def
  /UnderlineThickness get Ts mul /Tt exch def
  ux uy To add cs 10 mul 26 idiv add moveto Tcx uy To add cs 10 mul 26 idiv add lineto
  Tt setlinewidth stroke
  grestore
} bd
/QT {
/Y22 exch store
/X22 exch store
/Y21 exch store
/X21 exch store
currentpoint
/Y21 load 2 mul add 3 div exch
/X21 load 2 mul add 3 div exch
/X21 load 2 mul /X22 load add 3 div
/Y21 load 2 mul /Y22 load add 3 div
/X22 load /Y22 load curveto
} bd
/SSPD {
dup length /d exch dict def
{
/v exch def
/k exch def
currentpagedevice k known {
/cpdv currentpagedevice k get def
v cpdv ne {
/upd false def
/nullv v type /nulltype eq def
/nullcpdv cpdv type /nulltype eq def
nullv nullcpdv or
{
/upd true def
} {
/sametype v type cpdv type eq def
sametype {
v type /arraytype eq {
/vlen v length def
/cpdvlen cpdv length def
vlen cpdvlen eq {
0 1 vlen 1 sub {
/i exch def
/obj v i get def
/cpdobj cpdv i get def
obj cpdobj ne {
/upd true def
exit
} if
} for
} {
/upd true def
} ifelse
} {
v type /dicttype eq {
v {
/dv exch def
/dk exch def
/cpddv cpdv dk get def
dv cpddv ne {
/upd true def
exit
} if
} forall
} {
/upd true def
} ifelse
} ifelse
} if
} ifelse
upd true eq {
d k v put
} if
} if
} if
} forall
d length 0 gt {
d setpagedevice
} if
} bd
%%EndResource
%%BeginResource: procset (Apache XML Graphics EPS ProcSet) 1.0 0
%%Version: 1.0 0
%%Copyright: (Copyright 2002-2003 The Apache Software Foundation. License terms: http://www.apache.org/licenses/LICENSE-2.0)
/BeginEPSF { %def
/b4_Inc_state save def         % Save state for cleanup
/dict_count countdictstack def % Count objects on dict stack
/op_count count 1 sub def      % Count objects on operand stack
userdict begin                 % Push userdict on dict stack
/showpage { } def              % Redefine showpage, { } = null proc
0 setgray 0 setlinecap         % Prepare graphics state
1 setlinewidth 0 setlinejoin
10 setmiterlimit [ ] 0 setdash newpath
/languagelevel where           % If level not equal to 1 then
{pop languagelevel             % set strokeadjust and
1 ne                           % overprint to their defaults.
{false setstrokeadjust false setoverprint
} if
} if
} bd
/EndEPSF { %def
count op_count sub {pop} repeat            % Clean up stacks
countdictstack dict_count sub {end} repeat
b4_Inc_state restore
} bd
%%EndResource
%FOPBeginFontDict
%%IncludeResource: font Courier-Bold
%%IncludeResource: font Helvetica
%%IncludeResource: font Courier-BoldOblique
%%IncludeResource: font Courier-Oblique
%%IncludeResource: font Times-Roman
%%IncludeResource: font Helvetica-BoldOblique
%%IncludeResource: font Helvetica-Bold
%%IncludeResource: font Helvetica-Oblique
%%IncludeResource: font Times-BoldItalic
%%IncludeResource: font Courier
%%IncludeResource: font Times-Italic
%%IncludeResource: font Times-Bold
%%IncludeResource: font Symbol
%%IncludeResource: font ZapfDingbats
%FOPEndFontDict
%%BeginResource: encoding WinAnsiEncoding
/WinAnsiEncoding [
/.notdef /.notdef /.notdef /.notdef /.notdef
/.notdef /.notdef /.notdef /.notdef /.notdef
/.notdef /.notdef /.notdef /.notdef /.notdef
/.notdef /.notdef /.notdef /.notdef /.notdef
/.notdef /.notdef /.notdef /.notdef /.notdef
/.notdef /.notdef /.notdef /.notdef /.notdef
/.notdef /.notdef /space /exclam /quotedbl
/numbersign /dollar /percent /ampersand /quotesingle
/parenleft /parenright /asterisk /plus /comma
/hyphen /period /slash /zero /one
/two /three /four /five /six
/seven /eight /nine /colon /semicolon
/less /equal /greater /question /at
/A /B /C /D /E
/F /G /H /I /J
/K /L /M /N /O
/P /Q /R /S /T
/U /V /W /X /Y
/Z /bracketleft /backslash /bracketright /asciicircum
/underscore /quoteleft /a /b /c
/d /e /f /g /h
/i /j /k /l /m
/n /o /p /q /r
/s /t /u /v /w
/x /y /z /braceleft /bar
/braceright /asciitilde /bullet /Euro /bullet
/quotesinglbase /florin /quotedblbase /ellipsis /dagger
/daggerdbl /circumflex /perthousand /Scaron /guilsinglleft
/OE /bullet /Zcaron /bullet /bullet
/quoteleft /quoteright /quotedblleft /quotedblright /bullet
/endash /emdash /asciitilde /trademark /scaron
/guilsinglright /oe /bullet /zcaron /Ydieresis
/space /exclamdown /cent /sterling /currency
/yen /brokenbar /section /dieresis /copyright
/ordfeminine /guillemotleft /logicalnot /sfthyphen /registered
/macron /degree /plusminus /twosuperior /threesuperior
/acute /mu /paragraph /middot /cedilla
/onesuperior /ordmasculine /guillemotright /onequarter /onehalf
/threequarters /questiondown /Agrave /Aacute /Acircumflex
/Atilde /Adieresis /Aring /AE /Ccedilla
/Egrave /Eacute /Ecircumflex /Edieresis /Igrave
/Iacute /Icircumflex /Idieresis /Eth /Ntilde
/Ograve /Oacute /Ocircumflex /Otilde /Odieresis
/multiply /Oslash /Ugrave /Uacute /Ucircumflex
/Udieresis /Yacute /Thorn /germandbls /agrave
/aacute /acircumflex /atilde /adieresis /aring
/ae /ccedilla /egrave /eacute /ecircumflex
/edieresis /igrave /iacute /icircumflex /idieresis
/eth /ntilde /ograve /oacute /ocircumflex
/otilde /odieresis /divide /oslash /ugrave
/uacute /ucircumflex /udieresis /yacute /thorn
/ydieresis
] def
%%EndResource
%FOPBeginFontReencode
/Courier-Bold findfont
dup length dict begin
  {1 index /FID ne {def} {pop pop} ifelse} forall
  /Encoding WinAnsiEncoding def
  currentdict
end
/Courier-Bold exch definefont pop
/Helvetica findfont
dup length dict begin
  {1 index /FID ne {def} {pop pop} ifelse} forall
  /Encoding WinAnsiEncoding def
  currentdict
end
/Helvetica exch definefont pop
/Courier-BoldOblique findfont
dup length dict begin
  {1 index /FID ne {def} {pop pop} ifelse} forall
  /Encoding WinAnsiEncoding def
  currentdict
end
/Courier-BoldOblique exch definefont pop
/Courier-Oblique findfont
dup length dict begin
  {1 index /FID ne {def} {pop pop} ifelse} forall
  /Encoding WinAnsiEncoding def
  currentdict
end
/Courier-Oblique exch definefont pop
/Times-Roman findfont
dup length dict begin
  {1 index /FID ne {def} {pop pop} ifelse} forall
  /Encoding WinAnsiEncoding def
  currentdict
end
/Times-Roman exch definefont pop
/Helvetica-BoldOblique findfont
dup length dict begin
  {1 index /FID ne {def} {pop pop} ifelse} forall
  /Encoding WinAnsiEncoding def
  currentdict
end
/Helvetica-BoldOblique exch definefont pop
/Helvetica-Bold findfont
dup length dict begin
  {1 index /FID ne {def} {pop pop} ifelse} forall
  /Encoding WinAnsiEncoding def
  currentdict
end
/Helvetica-Bold exch definefont pop
/Helvetica-Oblique findfont
dup length dict begin
  {1 index /FID ne {def} {pop pop} ifelse} forall
  /Encoding WinAnsiEncoding def
  currentdict
end
/Helvetica-Oblique exch definefont pop
/Times-BoldItalic findfont
dup length dict begin
  {1 index /FID ne {def} {pop pop} ifelse} forall
  /Encoding WinAnsiEncoding def
  currentdict
end
/Times-BoldItalic exch definefont pop
/Courier findfont
dup length dict begin
  {1 index /FID ne {def} {pop pop} ifelse} forall
  /Encoding WinAnsiEncoding def
  currentdict
end
/Courier exch definefont pop
/Times-Italic findfont
dup length dict begin
  {1 index /FID ne {def} {pop pop} ifelse} forall
  /Encoding WinAnsiEncoding def
  currentdict
end
/Times-Italic exch definefont pop
/Times-Bold findfont
dup length dict begin
  {1 index /FID ne {def} {pop pop} ifelse} forall
  /Encoding WinAnsiEncoding def
  currentdict
end
/Times-Bold exch definefont pop
%FOPEndFontReencode
%%EndProlog
%%Page: 1 1
%%PageBoundingBox: 0 0 420 313
%%BeginPageSetup
[1 0 0 -1 0 313] CT
%%EndPageSetup
GS
[0.75 0 0 0.75 0 0.25] CT
1 GC
N
0 0 560 417 re
f
GR
GS
[0.75 0 0 0.75 0 0.25] CT
1 GC
N
0 0 560 417 re
f
GR
GS
[0.75 0 0 0.75 0 0.25] CT
1 GC
N
73 371 M
507 371 L
507 31 L
73 31 L
cp
f
GR
GS
[0.75 0 0 0.75 217.50014 296.24999] CT
0.149 GC
/Helvetica 15 F
GS
[1 0 0 1 0 0] CT
-30 14 moveto 
1 -1 scale
(time \(h\)) t 
GR
GR
GS
[0.75 0 0 0.75 0 0.25] CT
0.149 GC
2 setlinecap
10.0 ML
N
73 371 M
507 371 L
S
GR
GS
[0.75 0 0 0.75 0 0.25] CT
0.149 GC
2 setlinecap
10.0 ML
N
73 31 M
507 31 L
S
GR
GS
[0.75 0 0 0.75 0 0.25] CT
0.149 GC
2 setlinecap
10.0 ML
N
73 371 M
73 366.66 L
S
GR
GS
[0.75 0 0 0.75 0 0.25] CT
0.149 GC
2 setlinecap
10.0 ML
N
143.95 371 M
143.95 366.66 L
S
GR
GS
[0.75 0 0 0.75 0 0.25] CT
0.149 GC
2 setlinecap
10.0 ML
N
214.9 371 M
214.9 366.66 L
S
GR
GS
[0.75 0 0 0.75 0 0.25] CT
0.149 GC
2 setlinecap
10.0 ML
N
285.849 371 M
285.849 366.66 L
S
GR
GS
[0.75 0 0 0.75 0 0.25] CT
0.149 GC
2 setlinecap
10.0 ML
N
356.799 371 M
356.799 366.66 L
S
GR
GS
[0.75 0 0 0.75 0 0.25] CT
0.149 GC
2 setlinecap
10.0 ML
N
427.749 371 M
427.749 366.66 L
S
GR
GS
[0.75 0 0 0.75 0 0.25] CT
0.149 GC
2 setlinecap
10.0 ML
N
498.699 371 M
498.699 366.66 L
S
GR
GS
[0.75 0 0 0.75 0 0.25] CT
0.149 GC
2 setlinecap
10.0 ML
N
73 31 M
73 35.34 L
S
GR
GS
[0.75 0 0 0.75 0 0.25] CT
0.149 GC
2 setlinecap
10.0 ML
N
143.95 31 M
143.95 35.34 L
S
GR
GS
[0.75 0 0 0.75 0 0.25] CT
0.149 GC
2 setlinecap
10.0 ML
N
214.9 31 M
214.9 35.34 L
S
GR
GS
[0.75 0 0 0.75 0 0.25] CT
0.149 GC
2 setlinecap
10.0 ML
N
285.849 31 M
285.849 35.34 L
S
GR
GS
[0.75 0 0 0.75 0 0.25] CT
0.149 GC
2 setlinecap
10.0 ML
N
356.799 31 M
356.799 35.34 L
S
GR
GS
[0.75 0 0 0.75 0 0.25] CT
0.149 GC
2 setlinecap
10.0 ML
N
427.749 31 M
427.749 35.34 L
S
GR
GS
[0.75 0 0 0.75 0 0.25] CT
0.149 GC
2 setlinecap
10.0 ML
N
498.699 31 M
498.699 35.34 L
S
GR
GS
[0.75 0 0 0.75 54.75 282.50001] CT
0.149 GC
/Helvetica 13 F
GS
[1 0 0 1 0 0] CT
-4.5 13 moveto 
1 -1 scale
(0) t 
GR
GR
GS
[0.75 0 0 0.75 107.96236 282.50001] CT
0.149 GC
/Helvetica 13 F
GS
[1 0 0 1 0 0] CT
-8.5 13 moveto 
1 -1 scale
(10) t 
GR
GR
GS
[0.75 0 0 0.75 161.17472 282.50001] CT
0.149 GC
/Helvetica 13 F
GS
[1 0 0 1 0 0] CT
-8.5 13 moveto 
1 -1 scale
(20) t 
GR
GR
GS
[0.75 0 0 0.75 214.38707 282.50001] CT
0.149 GC
/Helvetica 13 F
GS
[1 0 0 1 0 0] CT
-8.5 13 moveto 
1 -1 scale
(30) t 
GR
GR
GS
[0.75 0 0 0.75 267.59944 282.50001] CT
0.149 GC
/Helvetica 13 F
GS
[1 0 0 1 0 0] CT
-8.5 13 moveto 
1 -1 scale
(40) t 
GR
GR
GS
[0.75 0 0 0.75 320.81179 282.50001] CT
0.149 GC
/Helvetica 13 F
GS
[1 0 0 1 0 0] CT
-8.5 13 moveto 
1 -1 scale
(50) t 
GR
GR
GS
[0.75 0 0 0.75 374.02416 282.50001] CT
0.149 GC
/Helvetica 13 F
GS
[1 0 0 1 0 0] CT
-8.5 13 moveto 
1 -1 scale
(60) t 
GR
GR
GS
[0 -0.75 0.75 0 35 150.99987] CT
0.149 GC
/Helvetica 15 F
GS
[1 0 0 1 0 0] CT
-5 -4 moveto 
1 -1 scale
(u) t 
GR
GR
GS
[0.75 0 0 0.75 0 0.25] CT
0.149 GC
2 setlinecap
10.0 ML
N
73 371 M
73 31 L
S
GR
GS
[0.75 0 0 0.75 0 0.25] CT
0.149 GC
2 setlinecap
10.0 ML
N
507 371 M
507 31 L
S
GR
GS
[0.75 0 0 0.75 0 0.25] CT
0.149 GC
2 setlinecap
10.0 ML
N
73 371 M
77.34 371 L
S
GR
GS
[0.75 0 0 0.75 0 0.25] CT
0.149 GC
2 setlinecap
10.0 ML
N
73 314.333 M
77.34 314.333 L
S
GR
GS
[0.75 0 0 0.75 0 0.25] CT
0.149 GC
2 setlinecap
10.0 ML
N
73 257.667 M
77.34 257.667 L
S
GR
GS
[0.75 0 0 0.75 0 0.25] CT
0.149 GC
2 setlinecap
10.0 ML
N
73 201 M
77.34 201 L
S
GR
GS
[0.75 0 0 0.75 0 0.25] CT
0.149 GC
2 setlinecap
10.0 ML
N
73 144.333 M
77.34 144.333 L
S
GR
GS
[0.75 0 0 0.75 0 0.25] CT
0.149 GC
2 setlinecap
10.0 ML
N
73 87.667 M
77.34 87.667 L
S
GR
GS
[0.75 0 0 0.75 0 0.25] CT
0.149 GC
2 setlinecap
10.0 ML
N
73 31 M
77.34 31 L
S
GR
GS
[0.75 0 0 0.75 0 0.25] CT
0.149 GC
2 setlinecap
10.0 ML
N
507 371 M
502.66 371 L
S
GR
GS
[0.75 0 0 0.75 0 0.25] CT
0.149 GC
2 setlinecap
10.0 ML
N
507 314.333 M
502.66 314.333 L
S
GR
GS
[0.75 0 0 0.75 0 0.25] CT
0.149 GC
2 setlinecap
10.0 ML
N
507 257.667 M
502.66 257.667 L
S
GR
GS
[0.75 0 0 0.75 0 0.25] CT
0.149 GC
2 setlinecap
10.0 ML
N
507 201 M
502.66 201 L
S
GR
GS
[0.75 0 0 0.75 0 0.25] CT
0.149 GC
2 setlinecap
10.0 ML
N
507 144.333 M
502.66 144.333 L
S
GR
GS
[0.75 0 0 0.75 0 0.25] CT
0.149 GC
2 setlinecap
10.0 ML
N
507 87.667 M
502.66 87.667 L
S
GR
GS
[0.75 0 0 0.75 0 0.25] CT
0.149 GC
2 setlinecap
10.0 ML
N
507 31 M
502.66 31 L
S
GR
GS
[0.75 0 0 0.75 50.75 278.5] CT
0.149 GC
/Helvetica 13 F
GS
[1 0 0 1 0 0] CT
-9 4.5 moveto 
1 -1 scale
(0) t 
GR
GR
GS
[0.75 0 0 0.75 50.75 236.00001] CT
0.149 GC
/Helvetica 13 F
GS
[1 0 0 1 0 0] CT
-9 4.5 moveto 
1 -1 scale
(2) t 
GR
GR
GS
[0.75 0 0 0.75 50.75 193.49999] CT
0.149 GC
/Helvetica 13 F
GS
[1 0 0 1 0 0] CT
-9 4.5 moveto 
1 -1 scale
(4) t 
GR
GR
GS
[0.75 0 0 0.75 50.75 151] CT
0.149 GC
/Helvetica 13 F
GS
[1 0 0 1 0 0] CT
-9 4.5 moveto 
1 -1 scale
(6) t 
GR
GR
GS
[0.75 0 0 0.75 50.75 108.5] CT
0.149 GC
/Helvetica 13 F
GS
[1 0 0 1 0 0] CT
-9 4.5 moveto 
1 -1 scale
(8) t 
GR
GR
GS
[0.75 0 0 0.75 50.75 66] CT
0.149 GC
/Helvetica 13 F
GS
[1 0 0 1 0 0] CT
-17 4.5 moveto 
1 -1 scale
(10) t 
GR
GR
GS
[0.75 0 0 0.75 50.75 23.5] CT
0.149 GC
/Helvetica 13 F
GS
[1 0 0 1 0 0] CT
-17 4.5 moveto 
1 -1 scale
(12) t 
GR
GR
GS
[0.75 0 0 0.75 0 0.25] CT
0 0.447 0.741 RC
2 LJ
N
73 371 M
73 371 L
73.001 371 L
73.001 371 L
73.001 371 L
73.003 371 L
73.005 371 L
73.007 371 L
73.009 371 L
73.018 371 L
73.026 371 L
73.035 371 L
73.044 371 L
73.089 371 L
73.134 371 L
73.178 371 L
73.223 371 L
73.44 371 L
73.657 371 L
73.874 371 L
74.091 371 L
74.308 371 L
74.525 371 L
74.742 371 L
74.959 371 L
75.176 371 L
75.393 371 L
75.61 371 L
75.827 371 L
76.044 371 L
76.261 371 L
76.478 371 L
76.695 371 L
76.912 371 L
77.129 371 L
77.346 371 L
77.563 371 L
77.78 371 L
77.997 371 L
78.214 371 L
78.431 371 L
78.648 371 L
78.865 371 L
79.082 371 L
79.299 371 L
79.516 371 L
79.733 371 L
79.95 371 L
80.167 371 L
80.384 371 L
S
GR
GS
[0.75 0 0 0.75 0 0.25] CT
0 0.447 0.741 RC
2 LJ
N
80.384 371 M
80.601 371 L
80.818 371 L
81.035 371 L
81.196 371 L
81.358 371 L
81.519 371 L
81.68 371 L
81.68 371 L
81.897 371 L
82.114 371 L
82.331 371 L
82.548 371 L
82.765 371 L
82.982 371 L
83.199 371 L
83.416 371 L
83.633 371 L
83.85 371 L
84.067 371 L
84.284 371 L
84.501 371 L
84.718 371 L
84.935 371 L
85.152 371 L
85.369 371 L
85.586 371 L
85.803 371 L
86.02 371 L
86.237 371 L
86.454 371 L
86.671 371 L
86.888 371 L
87.105 371 L
87.322 371 L
87.539 371 L
87.756 371 L
87.973 371 L
88.19 371 L
88.407 371 L
88.624 371 L
88.841 371 L
89.058 371 L
89.275 371 L
89.492 371 L
89.709 371 L
89.926 371 L
90.143 371 L
90.36 371 L
90.36 371 L
S
GR
GS
[0.75 0 0 0.75 0 0.25] CT
0 0.447 0.741 RC
2 LJ
N
90.36 371 M
90.577 371 L
90.794 371 L
91.011 371 L
91.228 371 L
91.445 371 L
91.662 371 L
91.879 371 L
92.096 371 L
92.313 371 L
92.53 371 L
92.747 371 L
92.964 371 L
93.181 371 L
93.398 371 L
93.615 371 L
93.832 371 L
94.049 371 L
94.266 371 L
94.483 371 L
94.7 371 L
94.917 371 L
95.134 371 L
95.351 371 L
95.568 371 L
95.785 371 L
96.002 371 L
96.219 371 L
96.436 371 L
96.653 371 L
96.87 371 L
97.087 371 L
97.304 371 L
97.521 371 L
97.738 371 L
97.955 371 L
98.172 371 L
98.389 371 L
98.606 371 L
98.823 371 L
99.04 371 L
99.04 371 L
99.257 371 L
99.474 371 L
99.691 371 L
99.908 371 L
100.125 371 L
100.342 371 L
100.559 371 L
100.776 371 L
S
GR
GS
[0.75 0 0 0.75 0 0.25] CT
0 0.447 0.741 RC
2 LJ
N
100.776 371 M
100.993 371 L
101.21 371 L
101.427 371 L
101.644 371 L
101.861 371 L
102.078 371 L
102.295 371 L
102.512 371 L
102.729 371 L
102.946 371 L
103.163 371 L
103.38 371 L
103.597 371 L
103.814 371 L
104.031 371 L
104.248 371 L
104.465 371 L
104.682 371 L
104.899 371 L
105.116 371 L
105.333 371 L
105.55 371 L
105.767 371 L
105.984 371 L
106.201 371 L
106.418 371 L
106.635 371 L
106.852 371 L
107.069 371 L
107.286 371 L
107.503 371 L
107.72 371 L
107.72 371 L
107.937 371 L
108.154 371 L
108.371 371 L
108.588 371 L
108.805 371 L
109.022 371 L
109.239 371 L
109.456 371 L
109.673 371 L
109.89 371 L
110.107 371 L
110.324 371 L
110.541 371 L
110.758 371 L
110.975 371 L
111.192 371 L
S
GR
GS
[0.75 0 0 0.75 0 0.25] CT
0 0.447 0.741 RC
2 LJ
N
111.192 371 M
111.409 371 L
111.626 371 L
111.843 371 L
112.06 371 L
112.277 371 L
112.494 371 L
112.711 371 L
112.928 371 L
113.145 371 L
113.362 371 L
113.579 371 L
113.796 371 L
114.013 371 L
114.23 371 L
114.447 371 L
114.664 371 L
114.881 371 L
115.098 371 L
115.315 371 L
115.532 371 L
115.749 371 L
115.966 371 L
116.183 371 L
116.4 371 L
116.4 371 L
116.617 371 L
116.834 371 L
117.051 371 L
117.268 371 L
117.485 371 L
117.702 371 L
117.919 371 L
118.136 371 L
118.353 371 L
118.57 371 L
118.787 371 L
119.004 371 L
119.221 371 L
119.438 371 L
119.655 371 L
119.872 371 L
120.089 371 L
120.306 371 L
120.523 371 L
120.74 371 L
120.957 371 L
121.174 371 L
121.391 371 L
121.608 371 L
S
GR
GS
[0.75 0 0 0.75 0 0.25] CT
0 0.447 0.741 RC
2 LJ
N
121.608 371 M
121.825 371 L
122.042 371 L
122.259 371 L
122.476 371 L
122.693 371 L
122.91 371 L
123.127 371 L
123.344 371 L
123.561 371 L
123.778 371 L
123.995 371 L
124.212 371 L
124.429 371 L
124.646 371 L
124.863 371 L
125.08 371 L
125.08 371 L
125.297 371 L
125.514 371 L
125.731 371 L
125.948 371 L
126.165 371 L
126.382 371 L
126.599 371 L
126.816 371 L
127.033 371 L
127.25 371 L
127.467 371 L
127.684 371 L
127.901 371 L
128.118 371 L
128.335 371 L
128.552 371 L
128.769 371 L
128.986 371 L
129.203 371 L
129.42 371 L
129.637 371 L
129.854 371 L
130.071 371 L
130.288 371 L
130.505 371 L
130.722 371 L
130.939 371 L
131.156 371 L
131.373 371 L
131.59 371 L
131.807 371 L
132.024 371 L
S
GR
GS
[0.75 0 0 0.75 0 0.25] CT
0 0.447 0.741 RC
2 LJ
N
132.024 371 M
132.241 371 L
132.458 371 L
132.675 371 L
132.892 371 L
133.109 371 L
133.326 371 L
133.543 371 L
133.76 371 L
133.76 371 L
133.977 371 L
134.194 371 L
134.411 371 L
134.628 371 L
134.845 371 L
135.062 371 L
135.279 371 L
135.496 371 L
135.713 371 L
135.93 371 L
136.147 371 L
136.364 371 L
136.581 371 L
136.798 371 L
137.015 371 L
137.232 371 L
137.449 371 L
137.666 371 L
137.883 371 L
138.1 371 L
138.317 371 L
138.534 371 L
138.751 371 L
138.968 371 L
139.185 371 L
139.402 371 L
139.619 371 L
139.836 371 L
140.053 371 L
140.27 371 L
140.487 371 L
140.704 371 L
140.921 371 L
141.138 371 L
141.355 371 L
141.572 371 L
141.789 371 L
142.006 371 L
142.223 371 L
142.44 371 L
S
GR
GS
[0.75 0 0 0.75 0 0.25] CT
0 0.447 0.741 RC
2 LJ
N
142.44 371 M
142.44 371 L
142.657 371 L
142.874 371 L
143.091 371 L
143.308 371 L
143.525 371 L
143.742 371 L
143.959 371 L
144.176 371 L
144.393 371 L
144.61 371 L
144.827 371 L
145.044 371 L
145.261 371 L
145.478 371 L
145.695 371 L
145.912 371 L
146.129 371 L
146.346 371 L
146.563 371 L
146.78 371 L
146.997 371 L
147.214 371 L
147.431 371 L
147.648 371 L
147.865 371 L
148.082 371 L
148.299 371 L
148.516 371 L
148.733 371 L
148.95 371 L
149.167 371 L
149.384 371 L
149.601 371 L
149.818 371 L
150.035 371 L
150.252 371 L
150.469 371 L
150.686 371 L
150.903 371 L
151.12 371 L
151.12 371 L
151.337 371 L
151.554 371 L
151.771 371 L
151.988 371 L
152.205 371 L
152.422 371 L
152.639 371 L
S
GR
GS
[0.75 0 0 0.75 0 0.25] CT
0 0.447 0.741 RC
2 LJ
N
152.639 371 M
152.856 371 L
153.073 371 L
153.29 371 L
153.507 371 L
153.724 371 L
153.941 371 L
154.158 371 L
154.375 371 L
154.592 371 L
154.809 371 L
155.026 371 L
155.243 371 L
155.46 371 L
155.677 371 L
155.894 371 L
156.111 371 L
156.328 371 L
156.545 371 L
156.762 371 L
156.979 371 L
157.196 371 L
157.413 371 L
157.63 371 L
157.847 371 L
158.064 371 L
158.281 371 L
158.498 371 L
158.715 371 L
158.932 371 L
159.149 371 L
159.366 371 L
159.583 371 L
159.8 371 L
159.8 371 L
160.017 371 L
160.234 371 L
160.451 371 L
160.668 371 L
160.885 371 L
161.102 371 L
161.319 371 L
161.536 371 L
161.753 371 L
161.97 371 L
162.187 371 L
162.404 371 L
162.621 371 L
162.838 371 L
163.055 371 L
S
GR
GS
[0.75 0 0 0.75 0 0.25] CT
0 0.447 0.741 RC
2 LJ
N
163.055 371 M
163.272 371 L
163.489 371 L
163.706 371 L
163.923 371 L
164.14 371 L
164.357 371 L
164.574 371 L
164.791 371 L
165.008 371 L
165.225 371 L
165.442 371 L
165.659 371 L
165.876 371 L
166.093 371 L
166.31 371 L
166.527 371 L
166.744 371 L
166.961 371 L
167.178 371 L
167.395 371 L
167.612 371 L
167.829 371 L
168.046 371 L
168.263 371 L
168.48 371 L
168.48 298.076 L
168.535 298.076 L
168.59 298.076 L
168.645 298.076 L
168.7 298.076 L
168.917 298.076 L
169.134 298.076 L
169.351 298.076 L
169.568 298.076 L
169.785 298.076 L
170.002 298.076 L
170.219 298.076 L
170.436 298.076 L
170.653 298.076 L
170.87 298.076 L
171.087 298.076 L
171.304 298.076 L
171.521 298.076 L
171.738 298.076 L
171.955 298.076 L
172.172 298.076 L
172.389 298.076 L
172.606 298.076 L
172.823 298.076 L
S
GR
GS
[0.75 0 0 0.75 0 0.25] CT
0 0.447 0.741 RC
2 LJ
N
172.823 298.076 M
173.04 298.076 L
173.257 298.076 L
173.474 298.076 L
173.691 298.076 L
173.908 298.076 L
174.125 298.076 L
174.342 298.076 L
174.559 298.076 L
174.776 298.076 L
174.993 298.076 L
175.21 298.076 L
175.427 298.076 L
175.644 298.076 L
175.861 298.076 L
176.078 298.076 L
176.295 298.076 L
176.512 298.076 L
176.674 298.076 L
176.836 298.076 L
176.998 298.076 L
177.16 298.076 L
177.16 371 L
177.377 371 L
177.594 371 L
177.811 371 L
178.028 371 L
178.245 371 L
178.462 371 L
178.679 371 L
178.896 371 L
179.113 371 L
179.33 371 L
179.547 371 L
179.764 371 L
179.981 371 L
180.198 371 L
180.415 371 L
180.632 371 L
180.849 371 L
181.066 371 L
181.283 371 L
181.5 371 L
181.717 371 L
181.934 371 L
182.151 371 L
182.368 371 L
182.585 371 L
182.802 371 L
183.019 371 L
S
GR
GS
[0.75 0 0 0.75 0 0.25] CT
0 0.447 0.741 RC
2 LJ
N
183.019 371 M
183.236 371 L
183.453 371 L
183.67 371 L
183.887 371 L
184.104 371 L
184.321 371 L
184.538 371 L
184.755 371 L
184.972 371 L
185.189 371 L
185.406 371 L
185.623 371 L
185.84 371 L
185.84 371 L
186.057 371 L
186.274 371 L
186.491 371 L
186.708 371 L
186.925 371 L
187.142 371 L
187.359 371 L
187.576 371 L
187.793 371 L
188.01 371 L
188.227 371 L
188.444 371 L
188.661 371 L
188.878 371 L
189.095 371 L
189.312 371 L
189.529 371 L
189.746 371 L
189.963 371 L
190.18 371 L
190.397 371 L
190.614 371 L
190.831 371 L
191.048 371 L
191.265 371 L
191.482 371 L
191.699 371 L
191.916 371 L
192.133 371 L
192.35 371 L
192.567 371 L
192.784 371 L
193.001 371 L
193.218 371 L
193.435 371 L
S
GR
GS
[0.75 0 0 0.75 0 0.25] CT
0 0.447 0.741 RC
2 LJ
N
193.435 371 M
193.652 371 L
193.764 371 L
193.877 371 L
193.989 371 L
194.102 371 L
194.206 371 L
194.311 371 L
194.415 371 L
194.52 371 L
194.52 337.302 L
194.524 337.302 L
194.529 337.302 L
194.533 337.302 L
194.537 337.302 L
194.559 337.302 L
194.58 337.302 L
194.602 337.302 L
194.624 337.302 L
194.696 337.302 L
194.769 337.302 L
194.842 337.302 L
194.914 337.302 L
195.061 337.302 L
195.209 337.302 L
195.356 337.302 L
195.503 337.302 L
195.72 337.302 L
195.937 337.302 L
196.154 337.302 L
196.371 337.302 L
196.588 337.302 L
196.805 337.302 L
197.022 337.302 L
197.239 337.302 L
197.456 337.302 L
197.673 337.302 L
197.89 337.302 L
198.107 337.302 L
198.324 337.302 L
198.541 337.302 L
198.758 337.302 L
198.975 337.302 L
199.192 337.302 L
199.409 337.302 L
199.626 337.302 L
199.843 337.302 L
200.06 337.302 L
200.277 337.302 L
200.494 337.302 L
S
GR
GS
[0.75 0 0 0.75 0 0.25] CT
0 0.447 0.741 RC
2 LJ
N
200.494 337.302 M
200.711 337.302 L
200.928 337.302 L
201.145 337.302 L
201.362 337.302 L
201.579 337.302 L
201.796 337.302 L
202.013 337.302 L
202.23 337.302 L
202.447 337.302 L
202.636 337.302 L
202.824 337.302 L
203.012 337.302 L
203.2 337.302 L
203.2 293.135 L
203.275 293.135 L
203.351 293.135 L
203.426 293.135 L
203.502 293.135 L
203.719 293.135 L
203.936 293.135 L
204.153 293.135 L
204.37 293.135 L
204.587 293.135 L
204.804 293.135 L
205.021 293.135 L
205.238 293.135 L
205.455 293.135 L
205.672 293.135 L
205.889 293.135 L
206.106 293.135 L
206.323 293.135 L
206.54 293.135 L
206.757 293.135 L
206.974 293.135 L
207.191 293.135 L
207.408 293.135 L
207.625 293.135 L
207.842 293.135 L
208.059 293.135 L
208.276 293.135 L
208.493 293.135 L
208.71 293.135 L
208.927 293.135 L
209.144 293.135 L
209.361 293.135 L
209.578 293.135 L
209.795 293.135 L
210.012 293.135 L
210.229 293.135 L
S
GR
GS
[0.75 0 0 0.75 0 0.25] CT
0 0.447 0.741 RC
2 LJ
N
210.229 293.135 M
210.446 293.135 L
210.663 293.135 L
210.88 293.135 L
211.097 293.135 L
211.314 293.135 L
211.455 293.135 L
211.597 293.135 L
211.738 293.135 L
211.88 293.135 L
211.88 244.339 L
212.097 244.339 L
212.314 244.339 L
212.531 244.339 L
212.748 244.339 L
212.965 244.339 L
213.182 244.339 L
213.399 244.339 L
213.616 244.339 L
213.833 244.339 L
214.05 244.339 L
214.267 244.339 L
214.484 244.339 L
214.701 244.339 L
214.918 244.339 L
215.135 244.339 L
215.352 244.339 L
215.569 244.339 L
215.786 244.339 L
216.003 244.339 L
216.22 244.339 L
216.437 244.339 L
216.654 244.339 L
216.871 244.339 L
217.088 244.339 L
217.305 244.339 L
217.522 244.339 L
217.739 244.339 L
217.956 244.339 L
218.173 244.339 L
218.39 244.339 L
218.607 244.339 L
218.824 244.339 L
219.041 244.339 L
219.258 244.339 L
219.475 244.339 L
219.692 244.339 L
219.909 244.339 L
220.126 244.339 L
220.343 244.339 L
S
GR
GS
[0.75 0 0 0.75 0 0.25] CT
0 0.447 0.741 RC
2 LJ
N
220.343 244.339 M
220.56 244.339 L
220.56 192.396 L
220.777 192.396 L
220.994 192.396 L
221.211 192.396 L
221.428 192.396 L
221.645 192.396 L
221.862 192.396 L
222.079 192.396 L
222.296 192.396 L
222.513 192.396 L
222.73 192.396 L
222.947 192.396 L
223.164 192.396 L
223.381 192.396 L
223.598 192.396 L
223.815 192.396 L
224.032 192.396 L
224.249 192.396 L
224.466 192.396 L
224.683 192.396 L
224.9 192.396 L
225.117 192.396 L
225.334 192.396 L
225.551 192.396 L
225.768 192.396 L
225.985 192.396 L
226.202 192.396 L
226.419 192.396 L
226.636 192.396 L
226.853 192.396 L
227.07 192.396 L
227.287 192.396 L
227.504 192.396 L
227.721 192.396 L
227.938 192.396 L
228.155 192.396 L
228.372 192.396 L
228.589 192.396 L
228.806 192.396 L
229.023 192.396 L
229.24 192.396 L
229.24 138.622 L
229.457 138.622 L
229.674 138.622 L
229.891 138.622 L
230.108 138.622 L
230.325 138.622 L
230.542 138.622 L
S
GR
GS
[0.75 0 0 0.75 0 0.25] CT
0 0.447 0.741 RC
2 LJ
N
230.542 138.622 M
230.759 138.622 L
230.976 138.622 L
231.193 138.622 L
231.41 138.622 L
231.627 138.622 L
231.844 138.622 L
232.061 138.622 L
232.278 138.622 L
232.495 138.622 L
232.712 138.622 L
232.929 138.622 L
233.146 138.622 L
233.363 138.622 L
233.58 138.622 L
233.797 138.622 L
234.014 138.622 L
234.231 138.622 L
234.448 138.622 L
234.665 138.622 L
234.882 138.622 L
235.099 138.622 L
235.316 138.622 L
235.533 138.622 L
235.75 138.622 L
235.967 138.622 L
236.184 138.622 L
236.401 138.622 L
236.618 138.622 L
236.835 138.622 L
237.052 138.622 L
237.269 138.622 L
237.486 138.622 L
237.703 138.622 L
237.92 138.622 L
237.92 44.446 L
238.137 44.446 L
238.354 44.446 L
238.571 44.446 L
238.788 44.446 L
239.005 44.446 L
239.222 44.446 L
239.439 44.446 L
239.656 44.446 L
239.873 44.446 L
240.09 44.446 L
240.307 44.446 L
240.524 44.446 L
240.741 44.446 L
240.958 44.446 L
S
GR
GS
[0.75 0 0 0.75 0 0.25] CT
0 0.447 0.741 RC
2 LJ
N
240.958 44.446 M
241.175 44.446 L
241.392 44.446 L
241.609 44.446 L
241.826 44.446 L
242.043 44.446 L
242.26 44.446 L
242.477 44.446 L
242.694 44.446 L
242.911 44.446 L
243.128 44.446 L
243.345 44.446 L
243.562 44.446 L
243.779 44.446 L
243.996 44.446 L
244.213 44.446 L
244.43 44.446 L
244.647 44.446 L
244.864 44.446 L
245.081 44.446 L
245.298 44.446 L
245.515 44.446 L
245.732 44.446 L
245.949 44.446 L
246.166 44.446 L
246.383 44.446 L
246.6 44.446 L
246.6 31 L
246.817 31 L
247.034 31 L
247.251 31 L
247.468 31 L
247.685 31 L
247.902 31 L
248.119 31 L
248.336 31 L
248.553 31 L
248.77 31 L
248.987 31 L
249.204 31 L
249.421 31 L
249.638 31 L
249.855 31 L
250.072 31 L
250.289 31 L
250.506 31 L
250.723 31 L
250.94 31 L
251.157 31 L
251.374 31 L
S
GR
GS
[0.75 0 0 0.75 0 0.25] CT
0 0.447 0.741 RC
2 LJ
N
251.374 31 M
251.591 31 L
251.808 31 L
252.025 31 L
252.242 31 L
252.459 31 L
252.676 31 L
252.893 31 L
253.11 31 L
253.327 31 L
253.544 31 L
253.761 31 L
253.978 31 L
254.195 31 L
254.412 31 L
254.629 31 L
254.846 31 L
255.063 31 L
255.28 31 L
255.28 31 L
255.497 31 L
255.714 31 L
255.931 31 L
256.148 31 L
256.365 31 L
256.582 31 L
256.799 31 L
257.016 31 L
257.233 31 L
257.45 31 L
257.667 31 L
257.884 31 L
258.101 31 L
258.318 31 L
258.535 31 L
258.752 31 L
258.969 31 L
259.186 31 L
259.403 31 L
259.62 31 L
259.837 31 L
260.054 31 L
260.271 31 L
260.488 31 L
260.705 31 L
260.922 31 L
261.139 31 L
261.356 31 L
261.573 31 L
261.79 31 L
S
GR
GS
[0.75 0 0 0.75 0 0.25] CT
0 0.447 0.741 RC
2 LJ
N
261.79 31 M
262.007 31 L
262.224 31 L
262.441 31 L
262.658 31 L
262.875 31 L
263.092 31 L
263.309 31 L
263.526 31 L
263.743 31 L
263.96 31 L
263.96 144.147 L
264.177 144.147 L
264.394 144.147 L
264.611 144.147 L
264.828 144.147 L
265.045 144.147 L
265.262 144.147 L
265.479 144.147 L
265.696 144.147 L
265.913 144.147 L
266.13 144.147 L
266.347 144.147 L
266.564 144.147 L
266.781 144.147 L
266.998 144.147 L
267.215 144.147 L
267.432 144.147 L
267.649 144.147 L
267.866 144.147 L
268.083 144.147 L
268.3 144.147 L
268.517 144.147 L
268.734 144.147 L
268.951 144.147 L
269.168 144.147 L
269.385 144.147 L
269.602 144.147 L
269.819 144.147 L
270.036 144.147 L
270.253 144.147 L
270.47 144.147 L
270.687 144.147 L
270.904 144.147 L
271.121 144.147 L
271.338 144.147 L
271.555 144.147 L
271.772 144.147 L
271.989 144.147 L
272.206 144.147 L
S
GR
GS
[0.75 0 0 0.75 0 0.25] CT
0 0.447 0.741 RC
2 LJ
N
272.206 144.147 M
272.423 144.147 L
272.64 144.147 L
272.64 166.754 L
272.857 166.754 L
273.074 166.754 L
273.291 166.754 L
273.508 166.754 L
273.725 166.754 L
273.942 166.754 L
274.159 166.754 L
274.376 166.754 L
274.593 166.754 L
274.81 166.754 L
275.027 166.754 L
275.244 166.754 L
275.461 166.754 L
275.678 166.754 L
275.895 166.754 L
276.112 166.754 L
276.329 166.754 L
276.546 166.754 L
276.763 166.754 L
276.98 166.754 L
277.197 166.754 L
277.414 166.754 L
277.631 166.754 L
277.848 166.754 L
278.065 166.754 L
278.282 166.754 L
278.499 166.754 L
278.716 166.754 L
278.933 166.754 L
279.15 166.754 L
279.367 166.754 L
279.584 166.754 L
279.801 166.754 L
280.018 166.754 L
280.235 166.754 L
280.452 166.754 L
280.669 166.754 L
280.886 166.754 L
281.103 166.754 L
281.32 166.754 L
281.32 143.798 L
281.537 143.798 L
281.754 143.798 L
281.971 143.798 L
282.188 143.798 L
282.405 143.798 L
S
GR
GS
[0.75 0 0 0.75 0 0.25] CT
0 0.447 0.741 RC
2 LJ
N
282.405 143.798 M
282.622 143.798 L
282.839 143.798 L
283.056 143.798 L
283.273 143.798 L
283.49 143.798 L
283.707 143.798 L
283.924 143.798 L
284.141 143.798 L
284.358 143.798 L
284.575 143.798 L
284.792 143.798 L
285.009 143.798 L
285.226 143.798 L
285.443 143.798 L
285.66 143.798 L
285.877 143.798 L
286.094 143.798 L
286.311 143.798 L
286.528 143.798 L
286.745 143.798 L
286.962 143.798 L
287.179 143.798 L
287.396 143.798 L
287.613 143.798 L
287.83 143.798 L
288.047 143.798 L
288.264 143.798 L
288.481 143.798 L
288.698 143.798 L
288.915 143.798 L
289.132 143.798 L
289.349 143.798 L
289.566 143.798 L
289.783 143.798 L
290 143.798 L
290 120.198 L
290.217 120.198 L
290.434 120.198 L
290.651 120.198 L
290.868 120.198 L
291.085 120.198 L
291.302 120.198 L
291.519 120.198 L
291.736 120.198 L
291.953 120.198 L
292.17 120.198 L
292.387 120.198 L
292.604 120.198 L
292.821 120.198 L
S
GR
GS
[0.75 0 0 0.75 0 0.25] CT
0 0.447 0.741 RC
2 LJ
N
292.821 120.198 M
293.038 120.198 L
293.255 120.198 L
293.472 120.198 L
293.689 120.198 L
293.906 120.198 L
294.123 120.198 L
294.34 120.198 L
294.557 120.198 L
294.774 120.198 L
294.991 120.198 L
295.208 120.198 L
295.425 120.198 L
295.642 120.198 L
295.859 120.198 L
296.076 120.198 L
296.293 120.198 L
296.51 120.198 L
296.727 120.198 L
296.944 120.198 L
297.161 120.198 L
297.378 120.198 L
297.595 120.198 L
297.812 120.198 L
298.029 120.198 L
298.246 120.198 L
298.463 120.198 L
298.68 120.198 L
298.68 95.875 L
298.897 95.875 L
299.114 95.875 L
299.331 95.875 L
299.548 95.875 L
299.765 95.875 L
299.982 95.875 L
300.199 95.875 L
300.416 95.875 L
300.633 95.875 L
300.85 95.875 L
301.067 95.875 L
301.284 95.875 L
301.501 95.875 L
301.718 95.875 L
301.935 95.875 L
302.152 95.875 L
302.369 95.875 L
302.586 95.875 L
302.803 95.875 L
303.02 95.875 L
303.237 95.875 L
S
GR
GS
[0.75 0 0 0.75 0 0.25] CT
0 0.447 0.741 RC
2 LJ
N
303.237 95.875 M
303.454 95.875 L
303.671 95.875 L
303.888 95.875 L
304.105 95.875 L
304.322 95.875 L
304.539 95.875 L
304.756 95.875 L
304.973 95.875 L
305.19 95.875 L
305.407 95.875 L
305.624 95.875 L
305.841 95.875 L
306.058 95.875 L
306.275 95.875 L
306.492 95.875 L
306.709 95.875 L
306.926 95.875 L
307.143 95.875 L
307.36 95.875 L
307.36 71.465 L
307.577 71.465 L
307.794 71.465 L
308.011 71.465 L
308.228 71.465 L
308.445 71.465 L
308.662 71.465 L
308.879 71.465 L
309.096 71.465 L
309.313 71.465 L
309.53 71.465 L
309.747 71.465 L
309.964 71.465 L
310.181 71.465 L
310.398 71.465 L
310.615 71.465 L
310.832 71.465 L
311.049 71.465 L
311.266 71.465 L
311.483 71.465 L
311.7 71.465 L
311.917 71.465 L
312.134 71.465 L
312.351 71.465 L
312.568 71.465 L
312.785 71.465 L
313.002 71.465 L
313.219 71.465 L
313.436 71.465 L
313.653 71.465 L
S
GR
GS
[0.75 0 0 0.75 0 0.25] CT
0 0.447 0.741 RC
2 LJ
N
313.653 71.465 M
313.87 71.465 L
314.087 71.465 L
314.304 71.465 L
314.521 71.465 L
314.738 71.465 L
314.955 71.465 L
315.172 71.465 L
315.389 71.465 L
315.606 71.465 L
315.823 71.465 L
316.04 71.465 L
316.04 48.1 L
316.257 48.1 L
316.474 48.1 L
316.691 48.1 L
316.908 48.1 L
317.125 48.1 L
317.342 48.1 L
317.559 48.1 L
317.776 48.1 L
317.993 48.1 L
318.21 48.1 L
318.427 48.1 L
318.644 48.1 L
318.861 48.1 L
319.078 48.1 L
319.295 48.1 L
319.512 48.1 L
319.729 48.1 L
319.946 48.1 L
320.163 48.1 L
320.38 48.1 L
320.597 48.1 L
320.814 48.1 L
321.031 48.1 L
321.248 48.1 L
321.465 48.1 L
321.682 48.1 L
321.899 48.1 L
322.116 48.1 L
322.333 48.1 L
322.55 48.1 L
322.767 48.1 L
322.984 48.1 L
323.201 48.1 L
323.418 48.1 L
323.635 48.1 L
323.852 48.1 L
324.069 48.1 L
S
GR
GS
[0.75 0 0 0.75 0 0.25] CT
0 0.447 0.741 RC
2 LJ
N
324.069 48.1 M
324.286 48.1 L
324.503 48.1 L
324.72 48.1 L
324.72 31 L
324.937 31 L
325.154 31 L
325.371 31 L
325.588 31 L
325.805 31 L
326.022 31 L
326.239 31 L
326.456 31 L
326.673 31 L
326.89 31 L
327.107 31 L
327.324 31 L
327.541 31 L
327.758 31 L
327.975 31 L
328.192 31 L
328.409 31 L
328.626 31 L
328.843 31 L
329.06 31 L
329.277 31 L
329.494 31 L
329.711 31 L
329.928 31 L
330.145 31 L
330.362 31 L
330.579 31 L
330.796 31 L
331.013 31 L
331.23 31 L
331.447 31 L
331.664 31 L
331.881 31 L
332.098 31 L
332.315 31 L
332.532 31 L
332.749 31 L
332.966 31 L
333.183 31 L
333.4 31 L
333.4 31 L
333.617 31 L
333.834 31 L
334.051 31 L
334.268 31 L
S
GR
GS
[0.75 0 0 0.75 0 0.25] CT
0 0.447 0.741 RC
2 LJ
N
334.268 31 M
334.485 31 L
334.702 31 L
334.919 31 L
335.136 31 L
335.353 31 L
335.57 31 L
335.787 31 L
336.004 31 L
336.221 31 L
336.438 31 L
336.655 31 L
336.872 31 L
337.089 31 L
337.306 31 L
337.523 31 L
337.74 31 L
337.957 31 L
338.174 31 L
338.391 31 L
338.608 31 L
338.825 31 L
339.042 31 L
339.259 31 L
339.476 31 L
339.693 31 L
339.91 31 L
340.127 31 L
340.344 31 L
340.561 31 L
340.778 31 L
340.995 31 L
341.212 31 L
341.429 31 L
341.646 31 L
341.863 31 L
342.08 31 L
342.08 249.25 L
342.297 249.25 L
342.514 249.25 L
342.731 249.25 L
342.948 249.25 L
343.165 249.25 L
343.382 249.25 L
343.599 249.25 L
343.816 249.25 L
344.033 249.25 L
344.25 249.25 L
344.467 249.25 L
344.684 249.25 L
S
GR
GS
[0.75 0 0 0.75 0 0.25] CT
0 0.447 0.741 RC
2 LJ
N
344.684 249.25 M
344.901 249.25 L
345.118 249.25 L
345.335 249.25 L
345.552 249.25 L
345.769 249.25 L
345.986 249.25 L
346.203 249.25 L
346.42 249.25 L
346.637 249.25 L
346.854 249.25 L
347.071 249.25 L
347.288 249.25 L
347.505 249.25 L
347.722 249.25 L
347.939 249.25 L
348.156 249.25 L
348.373 249.25 L
348.59 249.25 L
348.807 249.25 L
349.024 249.25 L
349.241 249.25 L
349.458 249.25 L
349.675 249.25 L
349.892 249.25 L
350.109 249.25 L
350.326 249.25 L
350.543 249.25 L
350.76 249.25 L
350.76 330.464 L
350.977 330.464 L
351.194 330.464 L
351.411 330.464 L
351.628 330.464 L
351.845 330.464 L
352.062 330.464 L
352.279 330.464 L
352.496 330.464 L
352.713 330.464 L
352.93 330.464 L
353.147 330.464 L
353.364 330.464 L
353.581 330.464 L
353.798 330.464 L
354.015 330.464 L
354.232 330.464 L
354.449 330.464 L
354.666 330.464 L
354.883 330.464 L
355.1 330.464 L
S
GR
GS
[0.75 0 0 0.75 0 0.25] CT
0 0.447 0.741 RC
2 LJ
N
355.1 330.464 M
355.317 330.464 L
355.534 330.464 L
355.751 330.464 L
355.968 330.464 L
356.185 330.464 L
356.402 330.464 L
356.619 330.464 L
356.836 330.464 L
357.053 330.464 L
357.27 330.464 L
357.487 330.464 L
357.704 330.464 L
357.921 330.464 L
358.138 330.464 L
358.355 330.464 L
358.572 330.464 L
358.789 330.464 L
359.006 330.464 L
359.223 330.464 L
359.44 330.464 L
359.44 348.999 L
359.657 348.999 L
359.874 348.999 L
360.091 348.999 L
360.308 348.999 L
360.525 348.999 L
360.742 348.999 L
360.959 348.999 L
361.176 348.999 L
361.393 348.999 L
361.61 348.999 L
361.827 348.999 L
362.044 348.999 L
362.261 348.999 L
362.478 348.999 L
362.695 348.999 L
362.912 348.999 L
363.129 348.999 L
363.346 348.999 L
363.563 348.999 L
363.78 348.999 L
363.997 348.999 L
364.214 348.999 L
364.431 348.999 L
364.648 348.999 L
364.865 348.999 L
365.082 348.999 L
365.299 348.999 L
365.516 348.999 L
S
GR
GS
[0.75 0 0 0.75 0 0.25] CT
0 0.447 0.741 RC
2 LJ
N
365.516 348.999 M
365.733 348.999 L
365.95 348.999 L
366.167 348.999 L
366.384 348.999 L
366.601 348.999 L
366.818 348.999 L
367.035 348.999 L
367.252 348.999 L
367.469 348.999 L
367.686 348.999 L
367.903 348.999 L
368.12 348.999 L
368.12 371 L
368.337 371 L
368.554 371 L
368.771 371 L
368.988 371 L
369.205 371 L
369.422 371 L
369.639 371 L
369.856 371 L
370.073 371 L
370.29 371 L
370.507 371 L
370.724 371 L
370.941 371 L
371.158 371 L
371.375 371 L
371.592 371 L
371.809 371 L
372.026 371 L
372.243 371 L
372.46 371 L
372.677 371 L
372.894 371 L
373.111 371 L
373.328 371 L
373.545 371 L
373.762 371 L
373.979 371 L
374.196 371 L
374.413 371 L
374.63 371 L
374.847 371 L
375.064 371 L
375.281 371 L
375.498 371 L
375.715 371 L
375.932 371 L
S
GR
GS
[0.75 0 0 0.75 0 0.25] CT
0 0.447 0.741 RC
2 LJ
N
375.932 371 M
376.149 371 L
376.366 371 L
376.583 371 L
376.8 371 L
376.8 371 L
377.017 371 L
377.234 371 L
377.451 371 L
377.668 371 L
377.885 371 L
378.102 371 L
378.319 371 L
378.536 371 L
378.753 371 L
378.97 371 L
379.187 371 L
379.404 371 L
379.621 371 L
379.838 371 L
380.055 371 L
380.272 371 L
380.489 371 L
380.706 371 L
380.923 371 L
381.14 371 L
381.357 371 L
381.574 371 L
381.791 371 L
382.008 371 L
382.225 371 L
382.442 371 L
382.659 371 L
382.876 371 L
383.093 371 L
383.31 371 L
383.527 371 L
383.744 371 L
383.961 371 L
384.178 371 L
384.395 371 L
384.612 371 L
384.829 371 L
385.046 371 L
385.263 371 L
385.48 371 L
385.48 371 L
385.646 371 L
385.813 371 L
385.979 371 L
S
GR
GS
[0.75 0 0 0.75 0 0.25] CT
0 0.447 0.741 RC
2 LJ
N
385.979 371 M
386.145 371 L
386.362 371 L
386.579 371 L
386.796 371 L
387.013 371 L
387.23 371 L
387.447 371 L
387.664 371 L
387.881 371 L
388.098 371 L
388.315 371 L
388.532 371 L
388.749 371 L
388.812 371 L
388.875 371 L
388.938 371 L
389.001 371 L
389.064 371 L
389.127 371 L
389.19 371 L
389.253 371 L
389.293 371 L
389.332 371 L
389.372 371 L
389.412 371 L
389.452 371 L
389.492 371 L
389.532 371 L
389.571 371 L
389.61 371 L
389.649 371 L
389.687 371 L
389.726 371 L
389.761 371 L
389.796 371 L
389.831 371 L
389.866 371 L
389.9 371 L
389.934 371 L
389.968 371 L
390.002 371 L
390.035 371 L
390.069 371 L
390.102 371 L
390.135 371 L
390.169 371 L
390.202 371 L
390.235 371 L
390.268 371 L
S
GR
GS
[0.75 0 0 0.75 0 0.25] CT
0 0.447 0.741 RC
2 LJ
N
390.268 371 M
390.306 371 L
390.344 371 L
390.382 371 L
390.421 371 L
390.465 371 L
390.509 371 L
390.553 371 L
390.598 371 L
390.65 371 L
390.703 371 L
390.755 371 L
390.808 371 L
390.871 371 L
390.935 371 L
390.999 371 L
391.063 371 L
391.144 371 L
391.224 371 L
391.305 371 L
391.385 371 L
391.491 371 L
391.597 371 L
391.703 371 L
391.809 371 L
391.954 371 L
392.099 371 L
392.243 371 L
392.388 371 L
392.57 371 L
392.751 371 L
392.933 371 L
393.115 371 L
393.234 371 L
393.354 371 L
393.474 371 L
393.593 371 L
393.713 371 L
393.832 371 L
393.952 371 L
394.072 371 L
394.094 371 L
394.116 371 L
394.138 371 L
394.16 371 L
394.16 371 L
394.377 371 L
394.594 371 L
394.811 371 L
395.028 371 L
S
GR
GS
[0.75 0 0 0.75 0 0.25] CT
0 0.447 0.741 RC
2 LJ
N
395.028 371 M
395.132 371 L
395.236 371 L
395.34 371 L
395.444 371 L
395.549 371 L
395.653 371 L
395.757 371 L
395.861 371 L
396.013 371 L
396.164 371 L
396.316 371 L
396.468 371 L
396.659 371 L
396.849 371 L
397.04 371 L
397.23 371 L
397.343 371 L
397.455 371 L
397.568 371 L
397.68 371 L
397.793 371 L
397.905 371 L
398.018 371 L
398.13 371 L
398.28 371 L
398.431 371 L
398.581 371 L
398.731 371 L
398.912 371 L
399.092 371 L
399.272 371 L
399.452 371 L
399.568 371 L
399.684 371 L
399.8 371 L
399.917 371 L
400.033 371 L
400.149 371 L
400.265 371 L
400.381 371 L
400.53 371 L
400.679 371 L
400.828 371 L
400.977 371 L
401.151 371 L
401.326 371 L
401.5 371 L
401.674 371 L
401.793 371 L
S
GR
GS
[0.75 0 0 0.75 0 0.25] CT
0 0.447 0.741 RC
2 LJ
N
401.793 371 M
401.912 371 L
402.03 371 L
402.149 371 L
402.268 371 L
402.386 371 L
402.505 371 L
402.624 371 L
402.678 371 L
402.732 371 L
402.786 371 L
402.84 371 L
402.84 371 L
403.057 371 L
403.274 371 L
403.491 371 L
403.708 371 L
403.825 371 L
403.942 371 L
404.059 371 L
404.176 371 L
404.293 371 L
404.411 371 L
404.528 371 L
404.645 371 L
404.801 371 L
404.958 371 L
405.114 371 L
405.271 371 L
405.451 371 L
405.632 371 L
405.812 371 L
405.992 371 L
406.104 371 L
406.216 371 L
406.328 371 L
406.44 371 L
406.552 371 L
406.664 371 L
406.776 371 L
406.888 371 L
407.036 371 L
407.185 371 L
407.333 371 L
407.481 371 L
407.66 371 L
407.839 371 L
408.017 371 L
408.196 371 L
408.314 371 L
S
GR
GS
[0.75 0 0 0.75 0 0.25] CT
0 0.447 0.741 RC
2 LJ
N
408.314 371 M
408.432 371 L
408.55 371 L
408.668 371 L
408.786 371 L
408.904 371 L
409.022 371 L
409.14 371 L
409.288 371 L
409.437 371 L
409.586 371 L
409.735 371 L
409.907 371 L
410.079 371 L
410.251 371 L
410.423 371 L
410.542 371 L
410.662 371 L
410.781 371 L
410.901 371 L
411.02 371 L
411.14 371 L
411.259 371 L
411.379 371 L
411.414 371 L
411.449 371 L
411.485 371 L
411.52 371 L
411.52 371 L
411.737 371 L
411.954 371 L
412.171 371 L
412.388 371 L
412.496 371 L
412.605 371 L
412.713 371 L
412.822 371 L
412.93 371 L
413.039 371 L
413.147 371 L
413.255 371 L
413.41 371 L
413.564 371 L
413.718 371 L
413.872 371 L
414.06 371 L
414.249 371 L
414.437 371 L
414.626 371 L
414.737 371 L
S
GR
GS
[0.75 0 0 0.75 0 0.25] CT
0 0.447 0.741 RC
2 LJ
N
414.737 371 M
414.849 371 L
414.96 371 L
415.072 371 L
415.183 371 L
415.295 371 L
415.406 371 L
415.518 371 L
415.667 371 L
415.817 371 L
415.967 371 L
416.116 371 L
416.297 371 L
416.478 371 L
416.659 371 L
416.839 371 L
416.956 371 L
417.072 371 L
417.188 371 L
417.305 371 L
417.421 371 L
417.538 371 L
417.654 371 L
417.77 371 L
417.92 371 L
418.069 371 L
418.218 371 L
418.367 371 L
418.541 371 L
418.715 371 L
418.889 371 L
419.063 371 L
419.182 371 L
419.301 371 L
419.419 371 L
419.538 371 L
419.657 371 L
419.775 371 L
419.894 371 L
420.013 371 L
420.059 371 L
420.106 371 L
420.153 371 L
420.2 371 L
420.2 371 L
420.417 371 L
420.634 371 L
420.851 371 L
421.068 371 L
421.182 371 L
S
GR
GS
[0.75 0 0 0.75 0 0.25] CT
0 0.447 0.741 RC
2 LJ
N
421.182 371 M
421.296 371 L
421.41 371 L
421.524 371 L
421.638 371 L
421.752 371 L
421.866 371 L
421.98 371 L
422.136 371 L
422.292 371 L
422.448 371 L
422.604 371 L
422.788 371 L
422.971 371 L
423.155 371 L
423.339 371 L
423.45 371 L
423.562 371 L
423.673 371 L
423.785 371 L
423.896 371 L
424.008 371 L
424.119 371 L
424.231 371 L
424.38 371 L
424.528 371 L
424.677 371 L
424.826 371 L
425.006 371 L
425.185 371 L
425.365 371 L
425.545 371 L
425.662 371 L
425.779 371 L
425.897 371 L
426.014 371 L
426.131 371 L
426.249 371 L
426.366 371 L
426.483 371 L
426.632 371 L
426.781 371 L
426.93 371 L
427.079 371 L
427.252 371 L
427.425 371 L
427.598 371 L
427.771 371 L
427.89 371 L
428.009 371 L
S
GR
GS
[0.75 0 0 0.75 0 0.25] CT
0 0.447 0.741 RC
2 LJ
N
428.009 371 M
428.128 371 L
428.247 371 L
428.366 371 L
428.485 371 L
428.604 371 L
428.724 371 L
428.763 371 L
428.802 371 L
428.841 371 L
428.88 371 L
428.88 371 L
429.097 371 L
429.314 371 L
429.531 371 L
429.748 371 L
429.858 371 L
429.969 371 L
430.079 371 L
430.189 371 L
430.3 371 L
430.41 371 L
430.52 371 L
430.631 371 L
430.786 371 L
430.941 371 L
431.095 371 L
431.25 371 L
431.437 371 L
431.624 371 L
431.812 371 L
431.999 371 L
432.11 371 L
432.221 371 L
432.333 371 L
432.444 371 L
432.555 371 L
432.667 371 L
432.778 371 L
432.889 371 L
433.039 371 L
433.188 371 L
433.337 371 L
433.487 371 L
433.667 371 L
433.848 371 L
434.028 371 L
434.209 371 L
434.326 371 L
434.442 371 L
S
GR
GS
[0.75 0 0 0.75 0 0.25] CT
0 0.447 0.741 RC
2 LJ
N
434.442 371 M
434.559 371 L
434.676 371 L
434.792 371 L
434.909 371 L
435.026 371 L
435.142 371 L
435.291 371 L
435.44 371 L
435.59 371 L
435.739 371 L
435.913 371 L
436.086 371 L
436.26 371 L
436.434 371 L
436.553 371 L
436.671 371 L
436.79 371 L
436.909 371 L
437.028 371 L
437.146 371 L
437.265 371 L
437.384 371 L
437.428 371 L
437.472 371 L
437.516 371 L
437.56 371 L
437.56 371 L
437.777 371 L
437.994 371 L
438.211 371 L
438.428 371 L
438.541 371 L
438.653 371 L
438.766 371 L
438.879 371 L
438.992 371 L
439.104 371 L
439.217 371 L
439.33 371 L
439.485 371 L
439.641 371 L
439.797 371 L
439.952 371 L
440.137 371 L
440.322 371 L
440.507 371 L
440.692 371 L
440.804 371 L
440.915 371 L
S
GR
GS
[0.75 0 0 0.75 0 0.25] CT
0 0.447 0.741 RC
2 LJ
N
440.915 371 M
441.026 371 L
441.138 371 L
441.249 371 L
441.361 371 L
441.472 371 L
441.583 371 L
441.732 371 L
441.881 371 L
442.03 371 L
442.179 371 L
442.359 371 L
442.539 371 L
442.72 371 L
442.9 371 L
443.017 371 L
443.134 371 L
443.251 371 L
443.368 371 L
443.485 371 L
443.602 371 L
443.719 371 L
443.836 371 L
443.985 371 L
444.134 371 L
444.283 371 L
444.432 371 L
444.606 371 L
444.779 371 L
444.952 371 L
445.125 371 L
445.244 371 L
445.363 371 L
445.482 371 L
445.601 371 L
445.72 371 L
445.839 371 L
445.958 371 L
446.077 371 L
446.118 371 L
446.158 371 L
446.199 371 L
446.24 371 L
446.24 371 L
446.457 371 L
446.674 371 L
446.891 371 L
447.108 371 L
447.219 371 L
447.33 371 L
S
GR
GS
[0.75 0 0 0.75 0 0.25] CT
0 0.447 0.741 RC
2 LJ
N
447.33 371 M
447.442 371 L
447.553 371 L
447.664 371 L
447.775 371 L
447.886 371 L
447.997 371 L
448.153 371 L
448.308 371 L
448.463 371 L
448.618 371 L
448.804 371 L
448.991 371 L
449.177 371 L
449.364 371 L
449.475 371 L
449.586 371 L
449.698 371 L
449.809 371 L
449.92 371 L
450.032 371 L
450.143 371 L
450.254 371 L
450.403 371 L
450.553 371 L
450.702 371 L
450.851 371 L
451.032 371 L
451.212 371 L
451.392 371 L
451.573 371 L
451.69 371 L
451.806 371 L
451.923 371 L
452.04 371 L
452.157 371 L
452.274 371 L
452.39 371 L
452.507 371 L
452.656 371 L
452.805 371 L
452.954 371 L
453.104 371 L
453.277 371 L
453.451 371 L
453.624 371 L
453.798 371 L
453.917 371 L
454.036 371 L
454.154 371 L
S
GR
GS
[0.75 0 0 0.75 0 0.25] CT
0 0.447 0.741 RC
2 LJ
N
454.154 371 M
454.273 371 L
454.392 371 L
454.511 371 L
454.63 371 L
454.749 371 L
454.791 371 L
454.834 371 L
454.877 371 L
454.92 371 L
454.92 371 L
455.137 371 L
455.354 371 L
455.571 371 L
455.788 371 L
455.9 371 L
456.012 371 L
456.125 371 L
456.237 371 L
456.349 371 L
456.461 371 L
456.573 371 L
456.685 371 L
456.841 371 L
456.996 371 L
457.152 371 L
457.307 371 L
457.493 371 L
457.678 371 L
457.864 371 L
458.049 371 L
458.161 371 L
458.272 371 L
458.383 371 L
458.495 371 L
458.606 371 L
458.717 371 L
458.829 371 L
458.94 371 L
459.089 371 L
459.238 371 L
459.387 371 L
459.536 371 L
459.717 371 L
459.897 371 L
460.077 371 L
460.257 371 L
460.374 371 L
460.491 371 L
460.608 371 L
S
GR
GS
[0.75 0 0 0.75 0 0.25] CT
0 0.447 0.741 RC
2 LJ
N
460.608 371 M
460.725 371 L
460.842 371 L
460.959 371 L
461.076 371 L
461.193 371 L
461.342 371 L
461.491 371 L
461.64 371 L
461.789 371 L
461.963 371 L
462.136 371 L
462.309 371 L
462.483 371 L
462.602 371 L
462.721 371 L
462.84 371 L
462.958 371 L
463.077 371 L
463.196 371 L
463.315 371 L
463.434 371 L
463.476 371 L
463.517 371 L
463.559 371 L
463.6 371 L
463.6 371 L
463.817 371 L
464.034 371 L
464.251 371 L
464.468 371 L
464.58 371 L
464.691 371 L
464.803 371 L
464.914 371 L
465.026 371 L
465.137 371 L
465.249 371 L
465.36 371 L
465.516 371 L
465.671 371 L
465.826 371 L
465.981 371 L
466.167 371 L
466.353 371 L
466.54 371 L
466.726 371 L
466.837 371 L
466.948 371 L
467.06 371 L
S
GR
GS
[0.75 0 0 0.75 0 0.25] CT
0 0.447 0.741 RC
2 LJ
N
467.06 371 M
467.171 371 L
467.282 371 L
467.394 371 L
467.505 371 L
467.616 371 L
467.765 371 L
467.915 371 L
468.064 371 L
468.213 371 L
468.393 371 L
468.574 371 L
468.754 371 L
468.934 371 L
469.051 371 L
469.168 371 L
469.285 371 L
469.402 371 L
469.519 371 L
469.636 371 L
469.752 371 L
469.869 371 L
470.018 371 L
470.167 371 L
470.316 371 L
470.466 371 L
470.639 371 L
470.813 371 L
470.986 371 L
471.16 371 L
471.279 371 L
471.397 371 L
471.516 371 L
471.635 371 L
471.754 371 L
471.873 371 L
471.992 371 L
472.111 371 L
472.153 371 L
472.195 371 L
472.238 371 L
472.28 371 L
472.28 371 L
472.497 371 L
472.714 371 L
472.931 371 L
473.148 371 L
473.26 371 L
473.372 371 L
473.484 371 L
S
GR
GS
[0.75 0 0 0.75 0 0.25] CT
0 0.447 0.741 RC
2 LJ
N
473.484 371 M
473.596 371 L
473.708 371 L
473.82 371 L
473.932 371 L
474.044 371 L
474.199 371 L
474.354 371 L
474.51 371 L
474.665 371 L
474.851 371 L
475.037 371 L
475.222 371 L
475.408 371 L
475.519 371 L
475.631 371 L
475.742 371 L
475.853 371 L
475.965 371 L
476.076 371 L
476.187 371 L
476.299 371 L
476.448 371 L
476.597 371 L
476.746 371 L
476.895 371 L
477.076 371 L
477.256 371 L
477.436 371 L
477.616 371 L
477.733 371 L
477.85 371 L
477.967 371 L
478.084 371 L
478.201 371 L
478.318 371 L
478.435 371 L
478.552 371 L
478.701 371 L
478.85 371 L
478.999 371 L
479.148 371 L
479.321 371 L
479.495 371 L
479.668 371 L
479.842 371 L
479.961 371 L
480.079 371 L
480.198 371 L
480.317 371 L
S
GR
GS
[0.75 0 0 0.75 0 0.25] CT
0 0.447 0.741 RC
2 LJ
N
480.317 371 M
480.436 371 L
480.555 371 L
480.674 371 L
480.793 371 L
480.835 371 L
480.876 371 L
480.918 371 L
480.96 371 L
480.96 371 L
481.177 371 L
481.394 371 L
481.611 371 L
481.828 371 L
481.94 371 L
482.051 371 L
482.163 371 L
482.275 371 L
482.386 371 L
482.498 371 L
482.61 371 L
482.721 371 L
482.877 371 L
483.032 371 L
483.187 371 L
483.343 371 L
483.529 371 L
483.715 371 L
483.901 371 L
484.087 371 L
484.198 371 L
484.309 371 L
484.421 371 L
484.532 371 L
484.643 371 L
484.754 371 L
484.866 371 L
484.977 371 L
485.126 371 L
485.276 371 L
485.425 371 L
485.574 371 L
485.754 371 L
485.934 371 L
486.115 371 L
486.295 371 L
486.412 371 L
486.529 371 L
486.646 371 L
486.763 371 L
S
GR
GS
[0.75 0 0 0.75 0 0.25] CT
0 0.447 0.741 RC
2 LJ
N
486.763 371 M
486.879 371 L
486.996 371 L
487.113 371 L
487.23 371 L
487.379 371 L
487.528 371 L
487.677 371 L
487.826 371 L
488 371 L
488.173 371 L
488.347 371 L
488.52 371 L
488.639 371 L
488.758 371 L
488.877 371 L
488.996 371 L
489.115 371 L
489.234 371 L
489.352 371 L
489.471 371 L
489.513 371 L
489.556 371 L
489.598 371 L
489.64 371 L
489.64 371 L
489.857 371 L
490.074 371 L
490.291 371 L
490.508 371 L
490.62 371 L
490.732 371 L
490.844 371 L
490.955 371 L
491.067 371 L
491.179 371 L
491.291 371 L
491.403 371 L
491.558 371 L
491.714 371 L
491.869 371 L
492.024 371 L
492.21 371 L
492.396 371 L
492.582 371 L
492.768 371 L
492.879 371 L
492.99 371 L
493.102 371 L
493.213 371 L
S
GR
GS
[0.75 0 0 0.75 0 0.25] CT
0 0.447 0.741 RC
2 LJ
N
493.213 371 M
493.324 371 L
493.436 371 L
493.547 371 L
493.658 371 L
493.807 371 L
493.957 371 L
494.106 371 L
494.255 371 L
494.435 371 L
494.615 371 L
494.796 371 L
494.976 371 L
495.093 371 L
495.21 371 L
495.327 371 L
495.443 371 L
495.56 371 L
495.677 371 L
495.794 371 L
495.911 371 L
496.06 371 L
496.209 371 L
496.358 371 L
496.507 371 L
496.681 371 L
496.854 371 L
497.028 371 L
497.201 371 L
497.32 371 L
497.439 371 L
497.558 371 L
497.677 371 L
497.796 371 L
497.915 371 L
498.033 371 L
498.152 371 L
498.194 371 L
498.236 371 L
498.278 371 L
498.32 371 L
498.32 371 L
498.537 371 L
498.754 371 L
498.971 371 L
499.188 371 L
499.3 371 L
499.411 371 L
499.523 371 L
499.635 371 L
S
GR
GS
[0.75 0 0 0.75 0 0.25] CT
0 0.447 0.741 RC
2 LJ
N
499.635 371 M
499.747 371 L
499.858 371 L
499.97 371 L
500.082 371 L
500.237 371 L
500.393 371 L
500.548 371 L
500.703 371 L
500.889 371 L
501.075 371 L
501.261 371 L
501.447 371 L
501.558 371 L
501.67 371 L
501.781 371 L
501.892 371 L
502.004 371 L
502.115 371 L
502.226 371 L
502.338 371 L
502.487 371 L
502.636 371 L
502.785 371 L
502.934 371 L
503.114 371 L
503.295 371 L
503.475 371 L
503.655 371 L
503.772 371 L
503.889 371 L
504.006 371 L
504.123 371 L
504.24 371 L
504.357 371 L
504.474 371 L
504.59 371 L
504.74 371 L
504.889 371 L
505.038 371 L
505.187 371 L
505.36 371 L
505.534 371 L
505.707 371 L
505.881 371 L
506 371 L
506.118 371 L
506.237 371 L
506.356 371 L
506.475 371 L
S
GR
GS
[0.75 0 0 0.75 0 0.25] CT
0 0.447 0.741 RC
2 LJ
N
506.475 371 M
506.594 371 L
506.713 371 L
506.832 371 L
506.874 371 L
506.916 371 L
506.958 371 L
507 371 L
S
GR
GS
[0.75 0 0 0.75 217.50021 21.43749] CT
/Helvetica-Bold 15 F
GS
[1 0 0 1 0 0] CT
-59 -4 moveto 
1 -1 scale
(tF = 61.17 \(h\)) t 
GR
GR
%%Trailer
%%Pages: 1
%%EOF
