%!PS-Adobe-3.0 EPSF-3.0
%%Creator: (MATLAB, The Mathworks, Inc. Version 8.5.0.197613 \(R2015a\). Operating System: Linux)
%%Title: (/home/lukas/Dropbox/Universidad/Master/Control Theory/lab6/raport/chapter3/figures/5.eps)
%%CreationDate: 2016-04-24T12:03:14
%%Pages: (atend)
%%BoundingBox: 0 0 420 315
%%LanguageLevel: 2
%%EndComments
%%BeginProlog
%%BeginResource: procset (Apache XML Graphics Std ProcSet) 1.2 0
%%Version: 1.2 0
%%Copyright: (Copyright 2001-2003,2010 The Apache Software Foundation. License terms: http://www.apache.org/licenses/LICENSE-2.0)
/bd{bind def}bind def
/ld{load def}bd
/GR/grestore ld
/M/moveto ld
/LJ/setlinejoin ld
/C/curveto ld
/f/fill ld
/LW/setlinewidth ld
/GC/setgray ld
/t/show ld
/N/newpath ld
/CT/concat ld
/cp/closepath ld
/S/stroke ld
/L/lineto ld
/CC/setcmykcolor ld
/A/ashow ld
/GS/gsave ld
/RC/setrgbcolor ld
/RM/rmoveto ld
/ML/setmiterlimit ld
/re {4 2 roll M
1 index 0 rlineto
0 exch rlineto
neg 0 rlineto
cp } bd
/_ctm matrix def
/_tm matrix def
/BT { _ctm currentmatrix pop matrix _tm copy pop 0 0 moveto } bd
/ET { _ctm setmatrix } bd
/iTm { _ctm setmatrix _tm concat } bd
/Tm { _tm astore pop iTm 0 0 moveto } bd
/ux 0.0 def
/uy 0.0 def
/F {
  /Tp exch def
  /Tf exch def
  Tf findfont Tp scalefont setfont
  /cf Tf def  /cs Tp def
} bd
/ULS {currentpoint /uy exch def /ux exch def} bd
/ULE {
  /Tcx currentpoint pop def
  gsave
  newpath
  cf findfont cs scalefont dup
  /FontMatrix get 0 get /Ts exch def /FontInfo get dup
  /UnderlinePosition get Ts mul /To exch def
  /UnderlineThickness get Ts mul /Tt exch def
  ux uy To add moveto  Tcx uy To add lineto
  Tt setlinewidth stroke
  grestore
} bd
/OLE {
  /Tcx currentpoint pop def
  gsave
  newpath
  cf findfont cs scalefont dup
  /FontMatrix get 0 get /Ts exch def /FontInfo get dup
  /UnderlinePosition get Ts mul /To exch def
  /UnderlineThickness get Ts mul /Tt exch def
  ux uy To add cs add moveto Tcx uy To add cs add lineto
  Tt setlinewidth stroke
  grestore
} bd
/SOE {
  /Tcx currentpoint pop def
  gsave
  newpath
  cf findfont cs scalefont dup
  /FontMatrix get 0 get /Ts exch def /FontInfo get dup
  /UnderlinePosition get Ts mul /To exch def
  /UnderlineThickness get Ts mul /Tt exch def
  ux uy To add cs 10 mul 26 idiv add moveto Tcx uy To add cs 10 mul 26 idiv add lineto
  Tt setlinewidth stroke
  grestore
} bd
/QT {
/Y22 exch store
/X22 exch store
/Y21 exch store
/X21 exch store
currentpoint
/Y21 load 2 mul add 3 div exch
/X21 load 2 mul add 3 div exch
/X21 load 2 mul /X22 load add 3 div
/Y21 load 2 mul /Y22 load add 3 div
/X22 load /Y22 load curveto
} bd
/SSPD {
dup length /d exch dict def
{
/v exch def
/k exch def
currentpagedevice k known {
/cpdv currentpagedevice k get def
v cpdv ne {
/upd false def
/nullv v type /nulltype eq def
/nullcpdv cpdv type /nulltype eq def
nullv nullcpdv or
{
/upd true def
} {
/sametype v type cpdv type eq def
sametype {
v type /arraytype eq {
/vlen v length def
/cpdvlen cpdv length def
vlen cpdvlen eq {
0 1 vlen 1 sub {
/i exch def
/obj v i get def
/cpdobj cpdv i get def
obj cpdobj ne {
/upd true def
exit
} if
} for
} {
/upd true def
} ifelse
} {
v type /dicttype eq {
v {
/dv exch def
/dk exch def
/cpddv cpdv dk get def
dv cpddv ne {
/upd true def
exit
} if
} forall
} {
/upd true def
} ifelse
} ifelse
} if
} ifelse
upd true eq {
d k v put
} if
} if
} if
} forall
d length 0 gt {
d setpagedevice
} if
} bd
%%EndResource
%%BeginResource: procset (Apache XML Graphics EPS ProcSet) 1.0 0
%%Version: 1.0 0
%%Copyright: (Copyright 2002-2003 The Apache Software Foundation. License terms: http://www.apache.org/licenses/LICENSE-2.0)
/BeginEPSF { %def
/b4_Inc_state save def         % Save state for cleanup
/dict_count countdictstack def % Count objects on dict stack
/op_count count 1 sub def      % Count objects on operand stack
userdict begin                 % Push userdict on dict stack
/showpage { } def              % Redefine showpage, { } = null proc
0 setgray 0 setlinecap         % Prepare graphics state
1 setlinewidth 0 setlinejoin
10 setmiterlimit [ ] 0 setdash newpath
/languagelevel where           % If level not equal to 1 then
{pop languagelevel             % set strokeadjust and
1 ne                           % overprint to their defaults.
{false setstrokeadjust false setoverprint
} if
} if
} bd
/EndEPSF { %def
count op_count sub {pop} repeat            % Clean up stacks
countdictstack dict_count sub {end} repeat
b4_Inc_state restore
} bd
%%EndResource
%FOPBeginFontDict
%%IncludeResource: font Courier-Bold
%%IncludeResource: font Helvetica
%%IncludeResource: font Courier-BoldOblique
%%IncludeResource: font Courier-Oblique
%%IncludeResource: font Times-Roman
%%IncludeResource: font Helvetica-BoldOblique
%%IncludeResource: font Helvetica-Bold
%%IncludeResource: font Helvetica-Oblique
%%IncludeResource: font Times-BoldItalic
%%IncludeResource: font Courier
%%IncludeResource: font Times-Italic
%%IncludeResource: font Times-Bold
%%IncludeResource: font Symbol
%%IncludeResource: font ZapfDingbats
%FOPEndFontDict
%%BeginResource: encoding WinAnsiEncoding
/WinAnsiEncoding [
/.notdef /.notdef /.notdef /.notdef /.notdef
/.notdef /.notdef /.notdef /.notdef /.notdef
/.notdef /.notdef /.notdef /.notdef /.notdef
/.notdef /.notdef /.notdef /.notdef /.notdef
/.notdef /.notdef /.notdef /.notdef /.notdef
/.notdef /.notdef /.notdef /.notdef /.notdef
/.notdef /.notdef /space /exclam /quotedbl
/numbersign /dollar /percent /ampersand /quotesingle
/parenleft /parenright /asterisk /plus /comma
/hyphen /period /slash /zero /one
/two /three /four /five /six
/seven /eight /nine /colon /semicolon
/less /equal /greater /question /at
/A /B /C /D /E
/F /G /H /I /J
/K /L /M /N /O
/P /Q /R /S /T
/U /V /W /X /Y
/Z /bracketleft /backslash /bracketright /asciicircum
/underscore /quoteleft /a /b /c
/d /e /f /g /h
/i /j /k /l /m
/n /o /p /q /r
/s /t /u /v /w
/x /y /z /braceleft /bar
/braceright /asciitilde /bullet /Euro /bullet
/quotesinglbase /florin /quotedblbase /ellipsis /dagger
/daggerdbl /circumflex /perthousand /Scaron /guilsinglleft
/OE /bullet /Zcaron /bullet /bullet
/quoteleft /quoteright /quotedblleft /quotedblright /bullet
/endash /emdash /asciitilde /trademark /scaron
/guilsinglright /oe /bullet /zcaron /Ydieresis
/space /exclamdown /cent /sterling /currency
/yen /brokenbar /section /dieresis /copyright
/ordfeminine /guillemotleft /logicalnot /sfthyphen /registered
/macron /degree /plusminus /twosuperior /threesuperior
/acute /mu /paragraph /middot /cedilla
/onesuperior /ordmasculine /guillemotright /onequarter /onehalf
/threequarters /questiondown /Agrave /Aacute /Acircumflex
/Atilde /Adieresis /Aring /AE /Ccedilla
/Egrave /Eacute /Ecircumflex /Edieresis /Igrave
/Iacute /Icircumflex /Idieresis /Eth /Ntilde
/Ograve /Oacute /Ocircumflex /Otilde /Odieresis
/multiply /Oslash /Ugrave /Uacute /Ucircumflex
/Udieresis /Yacute /Thorn /germandbls /agrave
/aacute /acircumflex /atilde /adieresis /aring
/ae /ccedilla /egrave /eacute /ecircumflex
/edieresis /igrave /iacute /icircumflex /idieresis
/eth /ntilde /ograve /oacute /ocircumflex
/otilde /odieresis /divide /oslash /ugrave
/uacute /ucircumflex /udieresis /yacute /thorn
/ydieresis
] def
%%EndResource
%FOPBeginFontReencode
/Courier-Bold findfont
dup length dict begin
  {1 index /FID ne {def} {pop pop} ifelse} forall
  /Encoding WinAnsiEncoding def
  currentdict
end
/Courier-Bold exch definefont pop
/Helvetica findfont
dup length dict begin
  {1 index /FID ne {def} {pop pop} ifelse} forall
  /Encoding WinAnsiEncoding def
  currentdict
end
/Helvetica exch definefont pop
/Courier-BoldOblique findfont
dup length dict begin
  {1 index /FID ne {def} {pop pop} ifelse} forall
  /Encoding WinAnsiEncoding def
  currentdict
end
/Courier-BoldOblique exch definefont pop
/Courier-Oblique findfont
dup length dict begin
  {1 index /FID ne {def} {pop pop} ifelse} forall
  /Encoding WinAnsiEncoding def
  currentdict
end
/Courier-Oblique exch definefont pop
/Times-Roman findfont
dup length dict begin
  {1 index /FID ne {def} {pop pop} ifelse} forall
  /Encoding WinAnsiEncoding def
  currentdict
end
/Times-Roman exch definefont pop
/Helvetica-BoldOblique findfont
dup length dict begin
  {1 index /FID ne {def} {pop pop} ifelse} forall
  /Encoding WinAnsiEncoding def
  currentdict
end
/Helvetica-BoldOblique exch definefont pop
/Helvetica-Bold findfont
dup length dict begin
  {1 index /FID ne {def} {pop pop} ifelse} forall
  /Encoding WinAnsiEncoding def
  currentdict
end
/Helvetica-Bold exch definefont pop
/Helvetica-Oblique findfont
dup length dict begin
  {1 index /FID ne {def} {pop pop} ifelse} forall
  /Encoding WinAnsiEncoding def
  currentdict
end
/Helvetica-Oblique exch definefont pop
/Times-BoldItalic findfont
dup length dict begin
  {1 index /FID ne {def} {pop pop} ifelse} forall
  /Encoding WinAnsiEncoding def
  currentdict
end
/Times-BoldItalic exch definefont pop
/Courier findfont
dup length dict begin
  {1 index /FID ne {def} {pop pop} ifelse} forall
  /Encoding WinAnsiEncoding def
  currentdict
end
/Courier exch definefont pop
/Times-Italic findfont
dup length dict begin
  {1 index /FID ne {def} {pop pop} ifelse} forall
  /Encoding WinAnsiEncoding def
  currentdict
end
/Times-Italic exch definefont pop
/Times-Bold findfont
dup length dict begin
  {1 index /FID ne {def} {pop pop} ifelse} forall
  /Encoding WinAnsiEncoding def
  currentdict
end
/Times-Bold exch definefont pop
%FOPEndFontReencode
%%EndProlog
%%Page: 1 1
%%PageBoundingBox: 0 0 420 315
%%BeginPageSetup
[1 0 0 -1 0 315] CT
%%EndPageSetup
GS
[0.75 0 0 0.75 0 0] CT
1 GC
N
0 0 560 420 re
f
GR
GS
[0.75 0 0 0.75 0 0] CT
1 GC
N
0 0 560 420 re
f
GR
GS
[0.75 0 0 0.75 0 0] CT
1 GC
N
73 374 M
507 374 L
507 31 L
73 31 L
cp
f
GR
GS
[0.75 0 0 0.75 217.50014 298.24999] CT
0.149 GC
/Helvetica 15 F
GS
[1 0 0 1 0 0] CT
-30 14 moveto 
1 -1 scale
(time \(h\)) t 
GR
GR
GS
[0.75 0 0 0.75 0 0] CT
0.149 GC
2 setlinecap
10.0 ML
N
73 374 M
507 374 L
S
GR
GS
[0.75 0 0 0.75 0 0] CT
0.149 GC
2 setlinecap
10.0 ML
N
73 31 M
507 31 L
S
GR
GS
[0.75 0 0 0.75 0 0] CT
0.149 GC
2 setlinecap
10.0 ML
N
73 374 M
73 369.66 L
S
GR
GS
[0.75 0 0 0.75 0 0] CT
0.149 GC
2 setlinecap
10.0 ML
N
143.95 374 M
143.95 369.66 L
S
GR
GS
[0.75 0 0 0.75 0 0] CT
0.149 GC
2 setlinecap
10.0 ML
N
214.9 374 M
214.9 369.66 L
S
GR
GS
[0.75 0 0 0.75 0 0] CT
0.149 GC
2 setlinecap
10.0 ML
N
285.849 374 M
285.849 369.66 L
S
GR
GS
[0.75 0 0 0.75 0 0] CT
0.149 GC
2 setlinecap
10.0 ML
N
356.799 374 M
356.799 369.66 L
S
GR
GS
[0.75 0 0 0.75 0 0] CT
0.149 GC
2 setlinecap
10.0 ML
N
427.749 374 M
427.749 369.66 L
S
GR
GS
[0.75 0 0 0.75 0 0] CT
0.149 GC
2 setlinecap
10.0 ML
N
498.699 374 M
498.699 369.66 L
S
GR
GS
[0.75 0 0 0.75 0 0] CT
0.149 GC
2 setlinecap
10.0 ML
N
73 31 M
73 35.34 L
S
GR
GS
[0.75 0 0 0.75 0 0] CT
0.149 GC
2 setlinecap
10.0 ML
N
143.95 31 M
143.95 35.34 L
S
GR
GS
[0.75 0 0 0.75 0 0] CT
0.149 GC
2 setlinecap
10.0 ML
N
214.9 31 M
214.9 35.34 L
S
GR
GS
[0.75 0 0 0.75 0 0] CT
0.149 GC
2 setlinecap
10.0 ML
N
285.849 31 M
285.849 35.34 L
S
GR
GS
[0.75 0 0 0.75 0 0] CT
0.149 GC
2 setlinecap
10.0 ML
N
356.799 31 M
356.799 35.34 L
S
GR
GS
[0.75 0 0 0.75 0 0] CT
0.149 GC
2 setlinecap
10.0 ML
N
427.749 31 M
427.749 35.34 L
S
GR
GS
[0.75 0 0 0.75 0 0] CT
0.149 GC
2 setlinecap
10.0 ML
N
498.699 31 M
498.699 35.34 L
S
GR
GS
[0.75 0 0 0.75 54.75 284.50001] CT
0.149 GC
/Helvetica 13 F
GS
[1 0 0 1 0 0] CT
-4.5 13 moveto 
1 -1 scale
(0) t 
GR
GR
GS
[0.75 0 0 0.75 107.96236 284.50001] CT
0.149 GC
/Helvetica 13 F
GS
[1 0 0 1 0 0] CT
-8.5 13 moveto 
1 -1 scale
(10) t 
GR
GR
GS
[0.75 0 0 0.75 161.17472 284.50001] CT
0.149 GC
/Helvetica 13 F
GS
[1 0 0 1 0 0] CT
-8.5 13 moveto 
1 -1 scale
(20) t 
GR
GR
GS
[0.75 0 0 0.75 214.38707 284.50001] CT
0.149 GC
/Helvetica 13 F
GS
[1 0 0 1 0 0] CT
-8.5 13 moveto 
1 -1 scale
(30) t 
GR
GR
GS
[0.75 0 0 0.75 267.59944 284.50001] CT
0.149 GC
/Helvetica 13 F
GS
[1 0 0 1 0 0] CT
-8.5 13 moveto 
1 -1 scale
(40) t 
GR
GR
GS
[0.75 0 0 0.75 320.81179 284.50001] CT
0.149 GC
/Helvetica 13 F
GS
[1 0 0 1 0 0] CT
-8.5 13 moveto 
1 -1 scale
(50) t 
GR
GR
GS
[0.75 0 0 0.75 374.02416 284.50001] CT
0.149 GC
/Helvetica 13 F
GS
[1 0 0 1 0 0] CT
-8.5 13 moveto 
1 -1 scale
(60) t 
GR
GR
GS
[0 -0.75 0.75 0 35 151.87487] CT
0.149 GC
/Helvetica 15 F
GS
[1 0 0 1 0 0] CT
-5 -4 moveto 
1 -1 scale
(u) t 
GR
GR
GS
[0.75 0 0 0.75 0 0] CT
0.149 GC
2 setlinecap
10.0 ML
N
73 374 M
73 31 L
S
GR
GS
[0.75 0 0 0.75 0 0] CT
0.149 GC
2 setlinecap
10.0 ML
N
507 374 M
507 31 L
S
GR
GS
[0.75 0 0 0.75 0 0] CT
0.149 GC
2 setlinecap
10.0 ML
N
73 374 M
77.34 374 L
S
GR
GS
[0.75 0 0 0.75 0 0] CT
0.149 GC
2 setlinecap
10.0 ML
N
73 316.833 M
77.34 316.833 L
S
GR
GS
[0.75 0 0 0.75 0 0] CT
0.149 GC
2 setlinecap
10.0 ML
N
73 259.667 M
77.34 259.667 L
S
GR
GS
[0.75 0 0 0.75 0 0] CT
0.149 GC
2 setlinecap
10.0 ML
N
73 202.5 M
77.34 202.5 L
S
GR
GS
[0.75 0 0 0.75 0 0] CT
0.149 GC
2 setlinecap
10.0 ML
N
73 145.333 M
77.34 145.333 L
S
GR
GS
[0.75 0 0 0.75 0 0] CT
0.149 GC
2 setlinecap
10.0 ML
N
73 88.167 M
77.34 88.167 L
S
GR
GS
[0.75 0 0 0.75 0 0] CT
0.149 GC
2 setlinecap
10.0 ML
N
73 31 M
77.34 31 L
S
GR
GS
[0.75 0 0 0.75 0 0] CT
0.149 GC
2 setlinecap
10.0 ML
N
507 374 M
502.66 374 L
S
GR
GS
[0.75 0 0 0.75 0 0] CT
0.149 GC
2 setlinecap
10.0 ML
N
507 316.833 M
502.66 316.833 L
S
GR
GS
[0.75 0 0 0.75 0 0] CT
0.149 GC
2 setlinecap
10.0 ML
N
507 259.667 M
502.66 259.667 L
S
GR
GS
[0.75 0 0 0.75 0 0] CT
0.149 GC
2 setlinecap
10.0 ML
N
507 202.5 M
502.66 202.5 L
S
GR
GS
[0.75 0 0 0.75 0 0] CT
0.149 GC
2 setlinecap
10.0 ML
N
507 145.333 M
502.66 145.333 L
S
GR
GS
[0.75 0 0 0.75 0 0] CT
0.149 GC
2 setlinecap
10.0 ML
N
507 88.167 M
502.66 88.167 L
S
GR
GS
[0.75 0 0 0.75 0 0] CT
0.149 GC
2 setlinecap
10.0 ML
N
507 31 M
502.66 31 L
S
GR
GS
[0.75 0 0 0.75 50.75 280.5] CT
0.149 GC
/Helvetica 13 F
GS
[1 0 0 1 0 0] CT
-9 4.5 moveto 
1 -1 scale
(0) t 
GR
GR
GS
[0.75 0 0 0.75 50.75 237.62501] CT
0.149 GC
/Helvetica 13 F
GS
[1 0 0 1 0 0] CT
-9 4.5 moveto 
1 -1 scale
(2) t 
GR
GR
GS
[0.75 0 0 0.75 50.75 194.74999] CT
0.149 GC
/Helvetica 13 F
GS
[1 0 0 1 0 0] CT
-9 4.5 moveto 
1 -1 scale
(4) t 
GR
GR
GS
[0.75 0 0 0.75 50.75 151.875] CT
0.149 GC
/Helvetica 13 F
GS
[1 0 0 1 0 0] CT
-9 4.5 moveto 
1 -1 scale
(6) t 
GR
GR
GS
[0.75 0 0 0.75 50.75 109] CT
0.149 GC
/Helvetica 13 F
GS
[1 0 0 1 0 0] CT
-9 4.5 moveto 
1 -1 scale
(8) t 
GR
GR
GS
[0.75 0 0 0.75 50.75 66.125] CT
0.149 GC
/Helvetica 13 F
GS
[1 0 0 1 0 0] CT
-17 4.5 moveto 
1 -1 scale
(10) t 
GR
GR
GS
[0.75 0 0 0.75 50.75 23.25] CT
0.149 GC
/Helvetica 13 F
GS
[1 0 0 1 0 0] CT
-17 4.5 moveto 
1 -1 scale
(12) t 
GR
GR
GS
[0.75 0 0 0.75 0 0] CT
0 0.447 0.741 RC
2 LJ
N
73 240.392 M
73 240.392 L
73.001 240.392 L
73.001 240.392 L
73.001 240.392 L
73.003 240.392 L
73.005 240.392 L
73.007 240.392 L
73.009 240.392 L
73.018 240.392 L
73.026 240.392 L
73.035 240.392 L
73.044 240.392 L
73.089 240.392 L
73.134 240.392 L
73.178 240.392 L
73.223 240.392 L
73.332 240.392 L
73.44 240.392 L
73.549 240.392 L
73.657 240.392 L
73.766 240.392 L
73.874 240.392 L
73.983 240.392 L
74.091 240.392 L
74.2 240.392 L
74.308 240.392 L
74.417 240.392 L
74.525 240.392 L
74.634 240.392 L
74.742 240.392 L
74.851 240.392 L
74.959 240.392 L
75.068 240.392 L
75.176 240.392 L
75.285 240.392 L
75.393 240.392 L
75.502 240.392 L
75.61 240.392 L
75.719 240.392 L
75.827 240.392 L
75.936 240.392 L
76.044 240.392 L
76.153 240.392 L
76.261 240.392 L
76.37 240.392 L
76.478 240.392 L
76.587 240.392 L
76.695 240.392 L
76.804 240.392 L
S
GR
GS
[0.75 0 0 0.75 0 0] CT
0 0.447 0.741 RC
2 LJ
N
76.804 240.392 M
76.912 240.392 L
77.021 240.392 L
77.129 240.392 L
77.182 240.392 L
77.235 240.392 L
77.287 240.392 L
77.34 240.392 L
77.34 240.375 L
77.449 240.375 L
77.557 240.375 L
77.665 240.375 L
77.774 240.375 L
77.882 240.375 L
77.991 240.375 L
78.1 240.375 L
78.208 240.375 L
78.316 240.375 L
78.425 240.375 L
78.534 240.375 L
78.642 240.375 L
78.751 240.375 L
78.859 240.375 L
78.967 240.375 L
79.076 240.375 L
79.185 240.375 L
79.293 240.375 L
79.401 240.375 L
79.51 240.375 L
79.618 240.375 L
79.727 240.375 L
79.836 240.375 L
79.944 240.375 L
80.052 240.375 L
80.161 240.375 L
80.27 240.375 L
80.378 240.375 L
80.486 240.375 L
80.595 240.375 L
80.703 240.375 L
80.812 240.375 L
80.921 240.375 L
81.029 240.375 L
81.137 240.375 L
81.246 240.375 L
81.354 240.375 L
81.463 240.375 L
81.572 240.375 L
81.68 240.375 L
81.68 240.287 L
S
GR
GS
[0.75 0 0 0.75 0 0] CT
0 0.447 0.741 RC
2 LJ
N
81.68 240.287 M
81.788 240.287 L
81.897 240.287 L
82.006 240.287 L
82.114 240.287 L
82.223 240.287 L
82.331 240.287 L
82.439 240.287 L
82.548 240.287 L
82.657 240.287 L
82.765 240.287 L
82.873 240.287 L
82.982 240.287 L
83.09 240.287 L
83.199 240.287 L
83.308 240.287 L
83.416 240.287 L
83.524 240.287 L
83.633 240.287 L
83.742 240.287 L
83.85 240.287 L
83.959 240.287 L
84.067 240.287 L
84.175 240.287 L
84.284 240.287 L
84.393 240.287 L
84.501 240.287 L
84.609 240.287 L
84.718 240.287 L
84.826 240.287 L
84.935 240.287 L
85.044 240.287 L
85.152 240.287 L
85.26 240.287 L
85.369 240.287 L
85.478 240.287 L
85.586 240.287 L
85.694 240.287 L
85.803 240.287 L
85.911 240.287 L
86.02 240.287 L
86.02 240.07 L
86.129 240.07 L
86.237 240.07 L
86.345 240.07 L
86.454 240.07 L
86.563 240.07 L
86.671 240.07 L
86.78 240.07 L
86.888 240.07 L
S
GR
GS
[0.75 0 0 0.75 0 0] CT
0 0.447 0.741 RC
2 LJ
N
86.888 240.07 M
86.996 240.07 L
87.105 240.07 L
87.214 240.07 L
87.322 240.07 L
87.43 240.07 L
87.539 240.07 L
87.647 240.07 L
87.756 240.07 L
87.865 240.07 L
87.973 240.07 L
88.081 240.07 L
88.19 240.07 L
88.299 240.07 L
88.407 240.07 L
88.516 240.07 L
88.624 240.07 L
88.732 240.07 L
88.841 240.07 L
88.95 240.07 L
89.058 240.07 L
89.167 240.07 L
89.275 240.07 L
89.383 240.07 L
89.492 240.07 L
89.601 240.07 L
89.709 240.07 L
89.817 240.07 L
89.926 240.07 L
90.035 240.07 L
90.143 240.07 L
90.252 240.07 L
90.36 240.07 L
90.36 239.663 L
90.468 239.663 L
90.577 239.663 L
90.686 239.663 L
90.794 239.663 L
90.902 239.663 L
91.011 239.663 L
91.119 239.663 L
91.228 239.663 L
91.337 239.663 L
91.445 239.663 L
91.553 239.663 L
91.662 239.663 L
91.771 239.663 L
91.879 239.663 L
91.988 239.663 L
92.096 239.663 L
S
GR
GS
[0.75 0 0 0.75 0 0] CT
0 0.447 0.741 RC
2 LJ
N
92.096 239.663 M
92.204 239.663 L
92.313 239.663 L
92.422 239.663 L
92.53 239.663 L
92.638 239.663 L
92.747 239.663 L
92.855 239.663 L
92.964 239.663 L
93.073 239.663 L
93.181 239.663 L
93.289 239.663 L
93.398 239.663 L
93.507 239.663 L
93.615 239.663 L
93.724 239.663 L
93.832 239.663 L
93.94 239.663 L
94.049 239.663 L
94.158 239.663 L
94.266 239.663 L
94.375 239.663 L
94.483 239.663 L
94.591 239.663 L
94.7 239.663 L
94.7 238.923 L
94.809 238.923 L
94.917 238.923 L
95.025 238.923 L
95.134 238.923 L
95.243 238.923 L
95.351 238.923 L
95.46 238.923 L
95.568 238.923 L
95.676 238.923 L
95.785 238.923 L
95.894 238.923 L
96.002 238.923 L
96.11 238.923 L
96.219 238.923 L
96.327 238.923 L
96.436 238.923 L
96.545 238.923 L
96.653 238.923 L
96.761 238.923 L
96.87 238.923 L
96.979 238.923 L
97.087 238.923 L
97.196 238.923 L
97.304 238.923 L
S
GR
GS
[0.75 0 0 0.75 0 0] CT
0 0.447 0.741 RC
2 LJ
N
97.304 238.923 M
97.412 238.923 L
97.521 238.923 L
97.63 238.923 L
97.738 238.923 L
97.846 238.923 L
97.955 238.923 L
98.063 238.923 L
98.172 238.923 L
98.281 238.923 L
98.389 238.923 L
98.497 238.923 L
98.606 238.923 L
98.715 238.923 L
98.823 238.923 L
98.932 238.923 L
99.04 238.923 L
99.04 237.93 L
99.148 237.93 L
99.257 237.93 L
99.366 237.93 L
99.474 237.93 L
99.583 237.93 L
99.691 237.93 L
99.799 237.93 L
99.908 237.93 L
100.017 237.93 L
100.125 237.93 L
100.233 237.93 L
100.342 237.93 L
100.451 237.93 L
100.559 237.93 L
100.667 237.93 L
100.776 237.93 L
100.884 237.93 L
100.993 237.93 L
101.102 237.93 L
101.21 237.93 L
101.318 237.93 L
101.427 237.93 L
101.535 237.93 L
101.644 237.93 L
101.753 237.93 L
101.861 237.93 L
101.969 237.93 L
102.078 237.93 L
102.187 237.93 L
102.295 237.93 L
102.404 237.93 L
102.512 237.93 L
S
GR
GS
[0.75 0 0 0.75 0 0] CT
0 0.447 0.741 RC
2 LJ
N
102.512 237.93 M
102.62 237.93 L
102.729 237.93 L
102.838 237.93 L
102.946 237.93 L
103.054 237.93 L
103.163 237.93 L
103.271 237.93 L
103.38 237.93 L
103.38 245.927 L
103.489 245.927 L
103.597 245.927 L
103.705 245.927 L
103.814 245.927 L
103.923 245.927 L
104.031 245.927 L
104.14 245.927 L
104.248 245.927 L
104.356 245.927 L
104.465 245.927 L
104.574 245.927 L
104.682 245.927 L
104.79 245.927 L
104.899 245.927 L
105.007 245.927 L
105.116 245.927 L
105.225 245.927 L
105.333 245.927 L
105.441 245.927 L
105.55 245.927 L
105.659 245.927 L
105.767 245.927 L
105.875 245.927 L
105.984 245.927 L
106.092 245.927 L
106.201 245.927 L
106.31 245.927 L
106.418 245.927 L
106.526 245.927 L
106.635 245.927 L
106.743 245.927 L
106.852 245.927 L
106.961 245.927 L
107.069 245.927 L
107.177 245.927 L
107.286 245.927 L
107.395 245.927 L
107.503 245.927 L
107.611 245.927 L
107.72 245.927 L
S
GR
GS
[0.75 0 0 0.75 0 0] CT
0 0.447 0.741 RC
2 LJ
N
107.72 245.927 M
107.72 334.486 L
107.828 334.486 L
107.937 334.486 L
108.046 334.486 L
108.154 334.486 L
108.263 334.486 L
108.371 334.486 L
108.479 334.486 L
108.588 334.486 L
108.697 334.486 L
108.805 334.486 L
108.913 334.486 L
109.022 334.486 L
109.131 334.486 L
109.239 334.486 L
109.347 334.486 L
109.456 334.486 L
109.564 334.486 L
109.673 334.486 L
109.782 334.486 L
109.89 334.486 L
109.999 334.486 L
110.107 334.486 L
110.215 334.486 L
110.324 334.486 L
110.432 334.486 L
110.541 334.486 L
110.649 334.486 L
110.758 334.486 L
110.867 334.486 L
110.975 334.486 L
111.084 334.486 L
111.192 334.486 L
111.3 334.486 L
111.409 334.486 L
111.518 334.486 L
111.626 334.486 L
111.734 334.486 L
111.843 334.486 L
111.951 334.486 L
112.06 334.486 L
112.06 362.269 L
112.169 362.269 L
112.277 362.269 L
112.385 362.269 L
112.494 362.269 L
112.603 362.269 L
112.711 362.269 L
112.82 362.269 L
S
GR
GS
[0.75 0 0 0.75 0 0] CT
0 0.447 0.741 RC
2 LJ
N
112.82 362.269 M
112.928 362.269 L
113.036 362.269 L
113.145 362.269 L
113.254 362.269 L
113.362 362.269 L
113.47 362.269 L
113.579 362.269 L
113.688 362.269 L
113.796 362.269 L
113.905 362.269 L
114.013 362.269 L
114.121 362.269 L
114.23 362.269 L
114.339 362.269 L
114.447 362.269 L
114.556 362.269 L
114.664 362.269 L
114.772 362.269 L
114.881 362.269 L
114.99 362.269 L
115.098 362.269 L
115.206 362.269 L
115.315 362.269 L
115.424 362.269 L
115.532 362.269 L
115.641 362.269 L
115.749 362.269 L
115.857 362.269 L
115.966 362.269 L
116.075 362.269 L
116.183 362.269 L
116.291 362.269 L
116.4 362.269 L
116.4 370.014 L
116.508 370.014 L
116.617 370.014 L
116.726 370.014 L
116.834 370.014 L
116.942 370.014 L
117.051 370.014 L
117.16 370.014 L
117.268 370.014 L
117.377 370.014 L
117.485 370.014 L
117.593 370.014 L
117.702 370.014 L
117.811 370.014 L
117.919 370.014 L
118.027 370.014 L
S
GR
GS
[0.75 0 0 0.75 0 0] CT
0 0.447 0.741 RC
2 LJ
N
118.027 370.014 M
118.136 370.014 L
118.244 370.014 L
118.353 370.014 L
118.462 370.014 L
118.57 370.014 L
118.678 370.014 L
118.787 370.014 L
118.896 370.014 L
119.004 370.014 L
119.113 370.014 L
119.221 370.014 L
119.329 370.014 L
119.438 370.014 L
119.547 370.014 L
119.655 370.014 L
119.763 370.014 L
119.872 370.014 L
119.98 370.014 L
120.089 370.014 L
120.198 370.014 L
120.306 370.014 L
120.415 370.014 L
120.523 370.014 L
120.632 370.014 L
120.74 370.014 L
120.74 374 L
120.848 374 L
120.957 374 L
121.065 374 L
121.174 374 L
121.283 374 L
121.391 374 L
121.5 374 L
121.608 374 L
121.716 374 L
121.825 374 L
121.934 374 L
122.042 374 L
122.15 374 L
122.259 374 L
122.368 374 L
122.476 374 L
122.585 374 L
122.693 374 L
122.801 374 L
122.91 374 L
123.019 374 L
123.127 374 L
123.236 374 L
S
GR
GS
[0.75 0 0 0.75 0 0] CT
0 0.447 0.741 RC
2 LJ
N
123.236 374 M
123.344 374 L
123.452 374 L
123.561 374 L
123.669 374 L
123.778 374 L
123.886 374 L
123.995 374 L
124.104 374 L
124.212 374 L
124.321 374 L
124.429 374 L
124.537 374 L
124.646 374 L
124.755 374 L
124.863 374 L
124.972 374 L
125.08 374 L
125.08 374 L
125.188 374 L
125.297 374 L
125.406 374 L
125.514 374 L
125.622 374 L
125.731 374 L
125.84 374 L
125.948 374 L
126.057 374 L
126.165 374 L
126.273 374 L
126.382 374 L
126.491 374 L
126.599 374 L
126.707 374 L
126.816 374 L
126.924 374 L
127.033 374 L
127.142 374 L
127.25 374 L
127.358 374 L
127.467 374 L
127.576 374 L
127.684 374 L
127.793 374 L
127.901 374 L
128.01 374 L
128.118 374 L
128.227 374 L
128.335 374 L
128.443 374 L
S
GR
GS
[0.75 0 0 0.75 0 0] CT
0 0.447 0.741 RC
2 LJ
N
128.443 374 M
128.552 374 L
128.661 374 L
128.769 374 L
128.878 374 L
128.986 374 L
129.094 374 L
129.203 374 L
129.312 374 L
129.42 374 L
129.42 374 L
129.529 374 L
129.637 374 L
129.745 374 L
129.854 374 L
129.962 374 L
130.071 374 L
130.18 374 L
130.288 374 L
130.396 374 L
130.505 374 L
130.613 374 L
130.722 374 L
130.831 374 L
130.939 374 L
131.048 374 L
131.156 374 L
131.264 374 L
131.373 374 L
131.482 374 L
131.59 374 L
131.699 374 L
131.807 374 L
131.915 374 L
132.024 374 L
132.133 374 L
132.241 374 L
132.35 374 L
132.458 374 L
132.566 374 L
132.675 374 L
132.783 374 L
132.892 374 L
133.001 374 L
133.109 374 L
133.217 374 L
133.326 374 L
133.434 374 L
133.543 374 L
133.652 374 L
S
GR
GS
[0.75 0 0 0.75 0 0] CT
0 0.447 0.741 RC
2 LJ
N
133.652 374 M
133.76 374 L
133.76 374 L
133.868 374 L
133.977 374 L
134.085 374 L
134.194 374 L
134.303 374 L
134.411 374 L
134.52 374 L
134.628 374 L
134.736 374 L
134.845 374 L
134.954 374 L
135.062 374 L
135.171 374 L
135.279 374 L
135.387 374 L
135.496 374 L
135.604 374 L
135.713 374 L
135.822 374 L
135.93 374 L
136.038 374 L
136.147 374 L
136.255 374 L
136.364 374 L
136.473 374 L
136.581 374 L
136.689 374 L
136.798 374 L
136.906 374 L
137.015 374 L
137.124 374 L
137.232 374 L
137.34 374 L
137.449 374 L
137.557 374 L
137.666 374 L
137.775 374 L
137.883 374 L
137.992 374 L
138.1 374 L
138.1 374 L
138.208 374 L
138.317 374 L
138.426 374 L
138.534 374 L
138.643 374 L
138.751 374 L
S
GR
GS
[0.75 0 0 0.75 0 0] CT
0 0.447 0.741 RC
2 LJ
N
138.751 374 M
138.859 374 L
138.968 374 L
139.076 374 L
139.185 374 L
139.294 374 L
139.402 374 L
139.51 374 L
139.619 374 L
139.727 374 L
139.836 374 L
139.945 374 L
140.053 374 L
140.161 374 L
140.27 374 L
140.378 374 L
140.487 374 L
140.596 374 L
140.704 374 L
140.813 374 L
140.921 374 L
141.029 374 L
141.138 374 L
141.247 374 L
141.355 374 L
141.464 374 L
141.572 374 L
141.68 374 L
141.789 374 L
141.897 374 L
142.006 374 L
142.115 374 L
142.223 374 L
142.331 374 L
142.44 374 L
142.44 374 L
142.548 374 L
142.657 374 L
142.766 374 L
142.874 374 L
142.982 374 L
143.091 374 L
143.199 374 L
143.308 374 L
143.417 374 L
143.525 374 L
143.633 374 L
143.742 374 L
143.851 374 L
143.959 374 L
S
GR
GS
[0.75 0 0 0.75 0 0] CT
0 0.447 0.741 RC
2 LJ
N
143.959 374 M
144.068 374 L
144.176 374 L
144.285 374 L
144.393 374 L
144.501 374 L
144.61 374 L
144.718 374 L
144.827 374 L
144.936 374 L
145.044 374 L
145.152 374 L
145.261 374 L
145.369 374 L
145.478 374 L
145.587 374 L
145.695 374 L
145.803 374 L
145.912 374 L
146.021 374 L
146.129 374 L
146.238 374 L
146.346 374 L
146.454 374 L
146.563 374 L
146.672 374 L
146.78 374 L
146.78 374 L
146.889 374 L
146.997 374 L
147.105 374 L
147.214 374 L
147.322 374 L
147.431 374 L
147.539 374 L
147.648 374 L
147.757 374 L
147.865 374 L
147.973 374 L
148.082 374 L
148.19 374 L
148.299 374 L
148.408 374 L
148.516 374 L
148.624 374 L
148.733 374 L
148.842 374 L
148.95 374 L
149.059 374 L
149.167 374 L
S
GR
GS
[0.75 0 0 0.75 0 0] CT
0 0.447 0.741 RC
2 LJ
N
149.167 374 M
149.275 374 L
149.384 374 L
149.493 374 L
149.601 374 L
149.71 374 L
149.818 374 L
149.926 374 L
150.035 374 L
150.144 374 L
150.252 374 L
150.361 374 L
150.469 374 L
150.577 374 L
150.686 374 L
150.794 374 L
150.903 374 L
151.012 374 L
151.12 374 L
151.12 374 L
151.229 374 L
151.337 374 L
151.445 374 L
151.554 374 L
151.663 374 L
151.771 374 L
151.88 374 L
151.988 374 L
152.096 374 L
152.205 374 L
152.314 374 L
152.422 374 L
152.531 374 L
152.639 374 L
152.747 374 L
152.856 374 L
152.965 374 L
153.073 374 L
153.182 374 L
153.29 374 L
153.398 374 L
153.507 374 L
153.615 374 L
153.724 374 L
153.833 374 L
153.941 374 L
154.049 374 L
154.158 374 L
154.266 374 L
154.375 374 L
S
GR
GS
[0.75 0 0 0.75 0 0] CT
0 0.447 0.741 RC
2 LJ
N
154.375 374 M
154.484 374 L
154.592 374 L
154.701 374 L
154.809 374 L
154.917 374 L
155.026 374 L
155.135 374 L
155.243 374 L
155.352 374 L
155.46 374 L
155.46 374 L
155.568 374 L
155.677 374 L
155.786 374 L
155.894 374 L
156.003 374 L
156.111 374 L
156.219 374 L
156.328 374 L
156.436 374 L
156.545 374 L
156.654 374 L
156.762 374 L
156.87 374 L
156.979 374 L
157.087 374 L
157.196 374 L
157.305 374 L
157.413 374 L
157.521 374 L
157.63 374 L
157.738 374 L
157.847 374 L
157.956 374 L
158.064 374 L
158.173 374 L
158.281 374 L
158.389 374 L
158.498 374 L
158.607 374 L
158.715 374 L
158.824 374 L
158.932 374 L
159.04 374 L
159.149 374 L
159.258 374 L
159.366 374 L
159.475 374 L
159.583 374 L
S
GR
GS
[0.75 0 0 0.75 0 0] CT
0 0.447 0.741 RC
2 LJ
N
159.583 374 M
159.691 374 L
159.8 374 L
159.8 374 L
159.908 374 L
160.017 374 L
160.126 374 L
160.234 374 L
160.342 374 L
160.451 374 L
160.559 374 L
160.668 374 L
160.777 374 L
160.885 374 L
160.993 374 L
161.102 374 L
161.21 374 L
161.319 374 L
161.428 374 L
161.536 374 L
161.645 374 L
161.753 374 L
161.861 374 L
161.97 374 L
162.079 374 L
162.187 374 L
162.296 374 L
162.404 374 L
162.512 374 L
162.621 374 L
162.729 374 L
162.838 374 L
162.947 374 L
163.055 374 L
163.163 374 L
163.272 374 L
163.38 374 L
163.489 374 L
163.598 374 L
163.706 374 L
163.814 374 L
163.923 374 L
164.031 374 L
164.14 374 L
164.14 374 L
164.249 374 L
164.357 374 L
164.465 374 L
164.574 374 L
164.682 374 L
S
GR
GS
[0.75 0 0 0.75 0 0] CT
0 0.447 0.741 RC
2 LJ
N
164.682 374 M
164.791 374 L
164.9 374 L
165.008 374 L
165.117 374 L
165.225 374 L
165.333 374 L
165.442 374 L
165.55 374 L
165.659 374 L
165.768 374 L
165.876 374 L
165.984 374 L
166.093 374 L
166.201 374 L
166.31 374 L
166.419 374 L
166.527 374 L
166.635 374 L
166.744 374 L
166.852 374 L
166.961 374 L
167.07 374 L
167.178 374 L
167.286 374 L
167.395 374 L
167.504 374 L
167.612 374 L
167.721 374 L
167.829 374 L
167.938 374 L
168.046 374 L
168.154 374 L
168.263 374 L
168.371 374 L
168.48 374 L
168.48 374 L
168.589 374 L
168.697 374 L
168.805 374 L
168.914 374 L
169.022 374 L
169.131 374 L
169.24 374 L
169.348 374 L
169.456 374 L
169.565 374 L
169.673 374 L
169.782 374 L
169.891 374 L
S
GR
GS
[0.75 0 0 0.75 0 0] CT
0 0.447 0.741 RC
2 LJ
N
169.891 374 M
169.999 374 L
170.107 374 L
170.216 374 L
170.325 374 L
170.433 374 L
170.542 374 L
170.65 374 L
170.758 374 L
170.867 374 L
170.976 374 L
171.084 374 L
171.193 374 L
171.301 374 L
171.41 374 L
171.518 374 L
171.626 374 L
171.735 374 L
171.843 374 L
171.952 374 L
172.061 374 L
172.169 374 L
172.277 374 L
172.386 374 L
172.495 374 L
172.603 374 L
172.712 374 L
172.82 374 L
172.82 374 L
172.928 374 L
173.037 374 L
173.146 374 L
173.254 374 L
173.363 374 L
173.471 374 L
173.579 374 L
173.688 374 L
173.797 374 L
173.905 374 L
174.014 374 L
174.122 374 L
174.23 374 L
174.339 374 L
174.447 374 L
174.556 374 L
174.665 374 L
174.773 374 L
174.882 374 L
174.99 374 L
175.098 374 L
S
GR
GS
[0.75 0 0 0.75 0 0] CT
0 0.447 0.741 RC
2 LJ
N
175.098 374 M
175.207 374 L
175.316 374 L
175.424 374 L
175.533 374 L
175.641 374 L
175.749 374 L
175.858 374 L
175.967 374 L
176.075 374 L
176.184 374 L
176.292 374 L
176.4 374 L
176.509 374 L
176.618 374 L
176.726 374 L
176.835 374 L
176.943 374 L
177.051 374 L
177.16 374 L
177.16 374 L
177.268 374 L
177.377 374 L
177.486 374 L
177.594 374 L
177.702 374 L
177.811 374 L
177.919 374 L
178.028 374 L
178.137 374 L
178.245 374 L
178.354 374 L
178.462 374 L
178.57 374 L
178.679 374 L
178.788 374 L
178.896 374 L
179.005 374 L
179.113 374 L
179.221 374 L
179.33 374 L
179.439 374 L
179.547 374 L
179.656 374 L
179.764 374 L
179.872 374 L
179.981 374 L
180.089 374 L
180.198 374 L
180.307 374 L
S
GR
GS
[0.75 0 0 0.75 0 0] CT
0 0.447 0.741 RC
2 LJ
N
180.307 374 M
180.415 374 L
180.523 374 L
180.632 374 L
180.74 374 L
180.849 374 L
180.958 374 L
181.066 374 L
181.174 374 L
181.283 374 L
181.391 374 L
181.5 374 L
181.5 336.007 L
181.609 336.007 L
181.717 336.007 L
181.826 336.007 L
181.934 336.007 L
182.042 336.007 L
182.151 336.007 L
182.26 336.007 L
182.368 336.007 L
182.477 336.007 L
182.585 336.007 L
182.693 336.007 L
182.802 336.007 L
182.911 336.007 L
183.019 336.007 L
183.128 336.007 L
183.236 336.007 L
183.344 336.007 L
183.453 336.007 L
183.561 336.007 L
183.67 336.007 L
183.779 336.007 L
183.887 336.007 L
183.995 336.007 L
184.104 336.007 L
184.212 336.007 L
184.321 336.007 L
184.43 336.007 L
184.538 336.007 L
184.646 336.007 L
184.755 336.007 L
184.863 336.007 L
184.972 336.007 L
185.081 336.007 L
185.189 336.007 L
185.298 336.007 L
185.406 336.007 L
185.514 336.007 L
S
GR
GS
[0.75 0 0 0.75 0 0] CT
0 0.447 0.741 RC
2 LJ
N
185.514 336.007 M
185.623 336.007 L
185.732 336.007 L
185.84 336.007 L
185.84 319.958 L
185.949 319.958 L
186.057 319.958 L
186.165 319.958 L
186.274 319.958 L
186.382 319.958 L
186.491 319.958 L
186.6 319.958 L
186.708 319.958 L
186.816 319.958 L
186.925 319.958 L
187.034 319.958 L
187.142 319.958 L
187.251 319.958 L
187.359 319.958 L
187.467 319.958 L
187.576 319.958 L
187.685 319.958 L
187.793 319.958 L
187.902 319.958 L
188.01 319.958 L
188.118 319.958 L
188.227 319.958 L
188.336 319.958 L
188.444 319.958 L
188.553 319.958 L
188.661 319.958 L
188.77 319.958 L
188.878 319.958 L
188.986 319.958 L
189.095 319.958 L
189.203 319.958 L
189.312 319.958 L
189.42 319.958 L
189.529 319.958 L
189.637 319.958 L
189.746 319.958 L
189.854 319.958 L
189.963 319.958 L
190.072 319.958 L
190.18 319.958 L
190.18 307.768 L
190.288 307.768 L
190.397 307.768 L
190.505 307.768 L
190.614 307.768 L
S
GR
GS
[0.75 0 0 0.75 0 0] CT
0 0.447 0.741 RC
2 LJ
N
190.614 307.768 M
190.723 307.768 L
190.831 307.768 L
190.939 307.768 L
191.048 307.768 L
191.156 307.768 L
191.265 307.768 L
191.374 307.768 L
191.482 307.768 L
191.59 307.768 L
191.699 307.768 L
191.807 307.768 L
191.916 307.768 L
192.025 307.768 L
192.133 307.768 L
192.242 307.768 L
192.35 307.768 L
192.458 307.768 L
192.567 307.768 L
192.676 307.768 L
192.784 307.768 L
192.893 307.768 L
193.001 307.768 L
193.109 307.768 L
193.218 307.768 L
193.327 307.768 L
193.435 307.768 L
193.544 307.768 L
193.652 307.768 L
193.76 307.768 L
193.869 307.768 L
193.978 307.768 L
194.086 307.768 L
194.195 307.768 L
194.303 307.768 L
194.411 307.768 L
194.52 307.768 L
194.52 297.642 L
194.629 297.642 L
194.737 297.642 L
194.846 297.642 L
194.954 297.642 L
195.063 297.642 L
195.171 297.642 L
195.279 297.642 L
195.388 297.642 L
195.496 297.642 L
195.605 297.642 L
195.714 297.642 L
195.822 297.642 L
S
GR
GS
[0.75 0 0 0.75 0 0] CT
0 0.447 0.741 RC
2 LJ
N
195.822 297.642 M
195.93 297.642 L
196.039 297.642 L
196.147 297.642 L
196.256 297.642 L
196.365 297.642 L
196.473 297.642 L
196.581 297.642 L
196.69 297.642 L
196.798 297.642 L
196.907 297.642 L
197.016 297.642 L
197.124 297.642 L
197.232 297.642 L
197.341 297.642 L
197.449 297.642 L
197.558 297.642 L
197.667 297.642 L
197.775 297.642 L
197.883 297.642 L
197.992 297.642 L
198.1 297.642 L
198.209 297.642 L
198.318 297.642 L
198.426 297.642 L
198.535 297.642 L
198.643 297.642 L
198.751 297.642 L
198.86 297.642 L
198.86 294.72 L
198.969 294.72 L
199.077 294.72 L
199.186 294.72 L
199.294 294.72 L
199.402 294.72 L
199.511 294.72 L
199.62 294.72 L
199.728 294.72 L
199.837 294.72 L
199.945 294.72 L
200.054 294.72 L
200.162 294.72 L
200.271 294.72 L
200.379 294.72 L
200.488 294.72 L
200.596 294.72 L
200.704 294.72 L
200.813 294.72 L
200.921 294.72 L
201.03 294.72 L
S
GR
GS
[0.75 0 0 0.75 0 0] CT
0 0.447 0.741 RC
2 LJ
N
201.03 294.72 M
201.138 294.72 L
201.247 294.72 L
201.355 294.72 L
201.464 294.72 L
201.572 294.72 L
201.681 294.72 L
201.789 294.72 L
201.898 294.72 L
202.007 294.72 L
202.115 294.72 L
202.223 294.72 L
202.332 294.72 L
202.44 294.72 L
202.549 294.72 L
202.658 294.72 L
202.766 294.72 L
202.874 294.72 L
202.983 294.72 L
203.091 294.72 L
203.2 294.72 L
203.2 300.184 L
203.309 300.184 L
203.417 300.184 L
203.525 300.184 L
203.634 300.184 L
203.742 300.184 L
203.851 300.184 L
203.96 300.184 L
204.068 300.184 L
204.176 300.184 L
204.285 300.184 L
204.394 300.184 L
204.502 300.184 L
204.611 300.184 L
204.719 300.184 L
204.827 300.184 L
204.936 300.184 L
205.045 300.184 L
205.153 300.184 L
205.262 300.184 L
205.37 300.184 L
205.479 300.184 L
205.587 300.184 L
205.696 300.184 L
205.804 300.184 L
205.913 300.184 L
206.021 300.184 L
206.13 300.184 L
206.238 300.184 L
S
GR
GS
[0.75 0 0 0.75 0 0] CT
0 0.447 0.741 RC
2 LJ
N
206.238 300.184 M
206.347 300.184 L
206.455 300.184 L
206.564 300.184 L
206.672 300.184 L
206.781 300.184 L
206.889 300.184 L
206.997 300.184 L
207.106 300.184 L
207.214 300.184 L
207.323 300.184 L
207.431 300.184 L
207.54 300.184 L
207.54 301.973 L
207.648 301.973 L
207.757 301.973 L
207.865 301.973 L
207.974 301.973 L
208.082 301.973 L
208.191 301.973 L
208.299 301.973 L
208.408 301.973 L
208.516 301.973 L
208.625 301.973 L
208.733 301.973 L
208.842 301.973 L
208.951 301.973 L
209.059 301.973 L
209.167 301.973 L
209.276 301.973 L
209.385 301.973 L
209.493 301.973 L
209.602 301.973 L
209.71 301.973 L
209.818 301.973 L
209.927 301.973 L
210.036 301.973 L
210.144 301.973 L
210.253 301.973 L
210.361 301.973 L
210.469 301.973 L
210.578 301.973 L
210.687 301.973 L
210.795 301.973 L
210.904 301.973 L
211.012 301.973 L
211.12 301.973 L
211.229 301.973 L
211.338 301.973 L
211.446 301.973 L
S
GR
GS
[0.75 0 0 0.75 0 0] CT
0 0.447 0.741 RC
2 LJ
N
211.446 301.973 M
211.555 301.973 L
211.663 301.973 L
211.771 301.973 L
211.88 301.973 L
211.88 295.143 L
211.989 295.143 L
212.097 295.143 L
212.206 295.143 L
212.314 295.143 L
212.423 295.143 L
212.531 295.143 L
212.639 295.143 L
212.748 295.143 L
212.856 295.143 L
212.965 295.143 L
213.074 295.143 L
213.182 295.143 L
213.29 295.143 L
213.399 295.143 L
213.507 295.143 L
213.616 295.143 L
213.724 295.143 L
213.833 295.143 L
213.941 295.143 L
214.05 295.143 L
214.158 295.143 L
214.267 295.143 L
214.376 295.143 L
214.484 295.143 L
214.592 295.143 L
214.701 295.143 L
214.809 295.143 L
214.918 295.143 L
215.027 295.143 L
215.135 295.143 L
215.243 295.143 L
215.352 295.143 L
215.46 295.143 L
215.569 295.143 L
215.678 295.143 L
215.786 295.143 L
215.895 295.143 L
216.003 295.143 L
216.111 295.143 L
216.22 295.143 L
216.22 283.447 L
216.329 283.447 L
216.437 283.447 L
216.546 283.447 L
S
GR
GS
[0.75 0 0 0.75 0 0] CT
0 0.447 0.741 RC
2 LJ
N
216.546 283.447 M
216.654 283.447 L
216.762 283.447 L
216.871 283.447 L
216.98 283.447 L
217.088 283.447 L
217.197 283.447 L
217.305 283.447 L
217.413 283.447 L
217.522 283.447 L
217.631 283.447 L
217.739 283.447 L
217.848 283.447 L
217.956 283.447 L
218.064 283.447 L
218.173 283.447 L
218.282 283.447 L
218.39 283.447 L
218.499 283.447 L
218.607 283.447 L
218.715 283.447 L
218.824 283.447 L
218.932 283.447 L
219.041 283.447 L
219.149 283.447 L
219.258 283.447 L
219.367 283.447 L
219.475 283.447 L
219.583 283.447 L
219.692 283.447 L
219.8 283.447 L
219.909 283.447 L
220.018 283.447 L
220.126 283.447 L
220.234 283.447 L
220.343 283.447 L
220.451 283.447 L
220.56 283.447 L
220.56 269.558 L
220.669 269.558 L
220.777 269.558 L
220.885 269.558 L
220.994 269.558 L
221.102 269.558 L
221.211 269.558 L
221.32 269.558 L
221.428 269.558 L
221.536 269.558 L
221.645 269.558 L
221.753 269.558 L
S
GR
GS
[0.75 0 0 0.75 0 0] CT
0 0.447 0.741 RC
2 LJ
N
221.753 269.558 M
221.862 269.558 L
221.971 269.558 L
222.079 269.558 L
222.188 269.558 L
222.296 269.558 L
222.404 269.558 L
222.513 269.558 L
222.622 269.558 L
222.73 269.558 L
222.839 269.558 L
222.947 269.558 L
223.055 269.558 L
223.164 269.558 L
223.273 269.558 L
223.381 269.558 L
223.49 269.558 L
223.598 269.558 L
223.707 269.558 L
223.815 269.558 L
223.924 269.558 L
224.032 269.558 L
224.141 269.558 L
224.249 269.558 L
224.358 269.558 L
224.466 269.558 L
224.575 269.558 L
224.683 269.558 L
224.792 269.558 L
224.9 269.558 L
224.9 254.539 L
225.008 254.539 L
225.117 254.539 L
225.225 254.539 L
225.334 254.539 L
225.442 254.539 L
225.551 254.539 L
225.66 254.539 L
225.768 254.539 L
225.876 254.539 L
225.985 254.539 L
226.093 254.539 L
226.202 254.539 L
226.311 254.539 L
226.419 254.539 L
226.527 254.539 L
226.636 254.539 L
226.744 254.539 L
226.853 254.539 L
226.962 254.539 L
S
GR
GS
[0.75 0 0 0.75 0 0] CT
0 0.447 0.741 RC
2 LJ
N
226.962 254.539 M
227.07 254.539 L
227.178 254.539 L
227.287 254.539 L
227.395 254.539 L
227.504 254.539 L
227.613 254.539 L
227.721 254.539 L
227.829 254.539 L
227.938 254.539 L
228.046 254.539 L
228.155 254.539 L
228.264 254.539 L
228.372 254.539 L
228.48 254.539 L
228.589 254.539 L
228.698 254.539 L
228.806 254.539 L
228.915 254.539 L
229.023 254.539 L
229.132 254.539 L
229.24 254.539 L
229.24 238.823 L
229.349 238.823 L
229.457 238.823 L
229.566 238.823 L
229.674 238.823 L
229.783 238.823 L
229.891 238.823 L
230 238.823 L
230.108 238.823 L
230.217 238.823 L
230.325 238.823 L
230.434 238.823 L
230.542 238.823 L
230.65 238.823 L
230.759 238.823 L
230.867 238.823 L
230.976 238.823 L
231.084 238.823 L
231.193 238.823 L
231.301 238.823 L
231.41 238.823 L
231.518 238.823 L
231.627 238.823 L
231.735 238.823 L
231.844 238.823 L
231.952 238.823 L
232.061 238.823 L
232.169 238.823 L
S
GR
GS
[0.75 0 0 0.75 0 0] CT
0 0.447 0.741 RC
2 LJ
N
232.169 238.823 M
232.278 238.823 L
232.386 238.823 L
232.495 238.823 L
232.604 238.823 L
232.712 238.823 L
232.82 238.823 L
232.929 238.823 L
233.038 238.823 L
233.146 238.823 L
233.255 238.823 L
233.363 238.823 L
233.471 238.823 L
233.58 238.823 L
233.58 222.605 L
233.689 222.605 L
233.797 222.605 L
233.906 222.605 L
234.014 222.605 L
234.122 222.605 L
234.231 222.605 L
234.34 222.605 L
234.448 222.605 L
234.557 222.605 L
234.665 222.605 L
234.773 222.605 L
234.882 222.605 L
234.991 222.605 L
235.099 222.605 L
235.208 222.605 L
235.316 222.605 L
235.424 222.605 L
235.533 222.605 L
235.642 222.605 L
235.75 222.605 L
235.859 222.605 L
235.967 222.605 L
236.076 222.605 L
236.184 222.605 L
236.293 222.605 L
236.401 222.605 L
236.51 222.605 L
236.618 222.605 L
236.727 222.605 L
236.835 222.605 L
236.943 222.605 L
237.052 222.605 L
237.16 222.605 L
237.269 222.605 L
237.377 222.605 L
S
GR
GS
[0.75 0 0 0.75 0 0] CT
0 0.447 0.741 RC
2 LJ
N
237.377 222.605 M
237.486 222.605 L
237.594 222.605 L
237.703 222.605 L
237.811 222.605 L
237.92 222.605 L
237.92 206.061 L
238.029 206.061 L
238.137 206.061 L
238.245 206.061 L
238.354 206.061 L
238.462 206.061 L
238.571 206.061 L
238.68 206.061 L
238.788 206.061 L
238.896 206.061 L
239.005 206.061 L
239.113 206.061 L
239.222 206.061 L
239.331 206.061 L
239.439 206.061 L
239.548 206.061 L
239.656 206.061 L
239.764 206.061 L
239.873 206.061 L
239.982 206.061 L
240.09 206.061 L
240.199 206.061 L
240.307 206.061 L
240.415 206.061 L
240.524 206.061 L
240.633 206.061 L
240.741 206.061 L
240.85 206.061 L
240.958 206.061 L
241.066 206.061 L
241.175 206.061 L
241.284 206.061 L
241.392 206.061 L
241.501 206.061 L
241.609 206.061 L
241.717 206.061 L
241.826 206.061 L
241.935 206.061 L
242.043 206.061 L
242.152 206.061 L
242.26 206.061 L
242.26 189.379 L
242.368 189.379 L
242.477 189.379 L
S
GR
GS
[0.75 0 0 0.75 0 0] CT
0 0.447 0.741 RC
2 LJ
N
242.477 189.379 M
242.585 189.379 L
242.694 189.379 L
242.802 189.379 L
242.911 189.379 L
243.02 189.379 L
243.128 189.379 L
243.236 189.379 L
243.345 189.379 L
243.453 189.379 L
243.562 189.379 L
243.671 189.379 L
243.779 189.379 L
243.887 189.379 L
243.996 189.379 L
244.104 189.379 L
244.213 189.379 L
244.322 189.379 L
244.43 189.379 L
244.538 189.379 L
244.647 189.379 L
244.755 189.379 L
244.864 189.379 L
244.973 189.379 L
245.081 189.379 L
245.189 189.379 L
245.298 189.379 L
245.406 189.379 L
245.515 189.379 L
245.624 189.379 L
245.732 189.379 L
245.84 189.379 L
245.949 189.379 L
246.057 189.379 L
246.166 189.379 L
246.275 189.379 L
246.383 189.379 L
246.492 189.379 L
246.6 189.379 L
246.6 172.802 L
246.708 172.802 L
246.817 172.802 L
246.926 172.802 L
247.034 172.802 L
247.143 172.802 L
247.251 172.802 L
247.36 172.802 L
247.468 172.802 L
247.577 172.802 L
247.685 172.802 L
S
GR
GS
[0.75 0 0 0.75 0 0] CT
0 0.447 0.741 RC
2 LJ
N
247.685 172.802 M
247.794 172.802 L
247.902 172.802 L
248.011 172.802 L
248.119 172.802 L
248.228 172.802 L
248.336 172.802 L
248.445 172.802 L
248.553 172.802 L
248.661 172.802 L
248.77 172.802 L
248.878 172.802 L
248.987 172.802 L
249.095 172.802 L
249.204 172.802 L
249.313 172.802 L
249.421 172.802 L
249.529 172.802 L
249.638 172.802 L
249.746 172.802 L
249.855 172.802 L
249.964 172.802 L
250.072 172.802 L
250.18 172.802 L
250.289 172.802 L
250.397 172.802 L
250.506 172.802 L
250.615 172.802 L
250.723 172.802 L
250.831 172.802 L
250.94 172.802 L
250.94 156.82 L
251.048 156.82 L
251.157 156.82 L
251.266 156.82 L
251.374 156.82 L
251.482 156.82 L
251.591 156.82 L
251.699 156.82 L
251.808 156.82 L
251.917 156.82 L
252.025 156.82 L
252.133 156.82 L
252.242 156.82 L
252.351 156.82 L
252.459 156.82 L
252.568 156.82 L
252.676 156.82 L
252.785 156.82 L
252.893 156.82 L
S
GR
GS
[0.75 0 0 0.75 0 0] CT
0 0.447 0.741 RC
2 LJ
N
252.893 156.82 M
253.002 156.82 L
253.11 156.82 L
253.219 156.82 L
253.327 156.82 L
253.436 156.82 L
253.544 156.82 L
253.653 156.82 L
253.761 156.82 L
253.87 156.82 L
253.978 156.82 L
254.087 156.82 L
254.195 156.82 L
254.303 156.82 L
254.412 156.82 L
254.52 156.82 L
254.629 156.82 L
254.737 156.82 L
254.846 156.82 L
254.954 156.82 L
255.063 156.82 L
255.171 156.82 L
255.28 156.82 L
255.28 142.702 L
255.388 142.702 L
255.497 142.702 L
255.605 142.702 L
255.714 142.702 L
255.822 142.702 L
255.931 142.702 L
256.039 142.702 L
256.148 142.702 L
256.257 142.702 L
256.365 142.702 L
256.474 142.702 L
256.582 142.702 L
256.69 142.702 L
256.799 142.702 L
256.908 142.702 L
257.016 142.702 L
257.125 142.702 L
257.233 142.702 L
257.341 142.702 L
257.45 142.702 L
257.559 142.702 L
257.667 142.702 L
257.775 142.702 L
257.884 142.702 L
257.992 142.702 L
258.101 142.702 L
S
GR
GS
[0.75 0 0 0.75 0 0] CT
0 0.447 0.741 RC
2 LJ
N
258.101 142.702 M
258.21 142.702 L
258.318 142.702 L
258.426 142.702 L
258.535 142.702 L
258.643 142.702 L
258.752 142.702 L
258.861 142.702 L
258.969 142.702 L
259.077 142.702 L
259.186 142.702 L
259.294 142.702 L
259.403 142.702 L
259.512 142.702 L
259.62 142.702 L
259.62 135.972 L
259.728 135.972 L
259.837 135.972 L
259.945 135.972 L
260.054 135.972 L
260.163 135.972 L
260.271 135.972 L
260.379 135.972 L
260.488 135.972 L
260.596 135.972 L
260.705 135.972 L
260.814 135.972 L
260.922 135.972 L
261.03 135.972 L
261.139 135.972 L
261.247 135.972 L
261.356 135.972 L
261.465 135.972 L
261.573 135.972 L
261.682 135.972 L
261.79 135.972 L
261.898 135.972 L
262.007 135.972 L
262.116 135.972 L
262.224 135.972 L
262.333 135.972 L
262.441 135.972 L
262.549 135.972 L
262.658 135.972 L
262.767 135.972 L
262.875 135.972 L
262.984 135.972 L
263.092 135.972 L
263.201 135.972 L
263.309 135.972 L
S
GR
GS
[0.75 0 0 0.75 0 0] CT
0 0.447 0.741 RC
2 LJ
N
263.309 135.972 M
263.418 135.972 L
263.526 135.972 L
263.634 135.972 L
263.743 135.972 L
263.852 135.972 L
263.96 135.972 L
263.96 167.752 L
264.068 167.752 L
264.177 167.752 L
264.285 167.752 L
264.394 167.752 L
264.503 167.752 L
264.611 167.752 L
264.719 167.752 L
264.828 167.752 L
264.936 167.752 L
265.045 167.752 L
265.154 167.752 L
265.262 167.752 L
265.37 167.752 L
265.479 167.752 L
265.587 167.752 L
265.696 167.752 L
265.805 167.752 L
265.913 167.752 L
266.021 167.752 L
266.13 167.752 L
266.238 167.752 L
266.347 167.752 L
266.456 167.752 L
266.564 167.752 L
266.673 167.752 L
266.781 167.752 L
266.889 167.752 L
266.998 167.752 L
267.107 167.752 L
267.215 167.752 L
267.324 167.752 L
267.432 167.752 L
267.54 167.752 L
267.649 167.752 L
267.758 167.752 L
267.866 167.752 L
267.975 167.752 L
268.083 167.752 L
268.191 167.752 L
268.3 167.752 L
268.3 188.391 L
268.409 188.391 L
S
GR
GS
[0.75 0 0 0.75 0 0] CT
0 0.447 0.741 RC
2 LJ
N
268.409 188.391 M
268.517 188.391 L
268.626 188.391 L
268.734 188.391 L
268.842 188.391 L
268.951 188.391 L
269.06 188.391 L
269.168 188.391 L
269.276 188.391 L
269.385 188.391 L
269.493 188.391 L
269.602 188.391 L
269.71 188.391 L
269.819 188.391 L
269.927 188.391 L
270.036 188.391 L
270.145 188.391 L
270.253 188.391 L
270.361 188.391 L
270.47 188.391 L
270.578 188.391 L
270.687 188.391 L
270.796 188.391 L
270.904 188.391 L
271.012 188.391 L
271.121 188.391 L
271.229 188.391 L
271.338 188.391 L
271.447 188.391 L
271.555 188.391 L
271.664 188.391 L
271.772 188.391 L
271.88 188.391 L
271.989 188.391 L
272.098 188.391 L
272.206 188.391 L
272.315 188.391 L
272.423 188.391 L
272.531 188.391 L
272.64 188.391 L
272.64 177.431 L
272.749 177.431 L
272.857 177.431 L
272.966 177.431 L
273.074 177.431 L
273.182 177.431 L
273.291 177.431 L
273.4 177.431 L
273.508 177.431 L
273.617 177.431 L
S
GR
GS
[0.75 0 0 0.75 0 0] CT
0 0.447 0.741 RC
2 LJ
N
273.617 177.431 M
273.725 177.431 L
273.833 177.431 L
273.942 177.431 L
274.051 177.431 L
274.159 177.431 L
274.268 177.431 L
274.376 177.431 L
274.484 177.431 L
274.593 177.431 L
274.702 177.431 L
274.81 177.431 L
274.919 177.431 L
275.027 177.431 L
275.135 177.431 L
275.244 177.431 L
275.353 177.431 L
275.461 177.431 L
275.569 177.431 L
275.678 177.431 L
275.786 177.431 L
275.895 177.431 L
276.004 177.431 L
276.112 177.431 L
276.22 177.431 L
276.329 177.431 L
276.438 177.431 L
276.546 177.431 L
276.655 177.431 L
276.763 177.431 L
276.871 177.431 L
276.98 177.431 L
276.98 165.937 L
277.089 165.937 L
277.197 165.937 L
277.306 165.937 L
277.414 165.937 L
277.522 165.937 L
277.631 165.937 L
277.74 165.937 L
277.848 165.937 L
277.957 165.937 L
278.065 165.937 L
278.173 165.937 L
278.282 165.937 L
278.391 165.937 L
278.499 165.937 L
278.608 165.937 L
278.716 165.937 L
278.824 165.937 L
S
GR
GS
[0.75 0 0 0.75 0 0] CT
0 0.447 0.741 RC
2 LJ
N
278.824 165.937 M
278.933 165.937 L
279.042 165.937 L
279.15 165.937 L
279.259 165.937 L
279.367 165.937 L
279.475 165.937 L
279.584 165.937 L
279.693 165.937 L
279.801 165.937 L
279.91 165.937 L
280.018 165.937 L
280.126 165.937 L
280.235 165.937 L
280.344 165.937 L
280.452 165.937 L
280.561 165.937 L
280.669 165.937 L
280.777 165.937 L
280.886 165.937 L
280.995 165.937 L
281.103 165.937 L
281.211 165.937 L
281.32 165.937 L
281.32 154.242 L
281.428 154.242 L
281.537 154.242 L
281.646 154.242 L
281.754 154.242 L
281.862 154.242 L
281.971 154.242 L
282.079 154.242 L
282.188 154.242 L
282.297 154.242 L
282.405 154.242 L
282.513 154.242 L
282.622 154.242 L
282.73 154.242 L
282.839 154.242 L
282.948 154.242 L
283.056 154.242 L
283.164 154.242 L
283.273 154.242 L
283.382 154.242 L
283.49 154.242 L
283.599 154.242 L
283.707 154.242 L
283.815 154.242 L
283.924 154.242 L
284.033 154.242 L
S
GR
GS
[0.75 0 0 0.75 0 0] CT
0 0.447 0.741 RC
2 LJ
N
284.033 154.242 M
284.141 154.242 L
284.25 154.242 L
284.358 154.242 L
284.466 154.242 L
284.575 154.242 L
284.684 154.242 L
284.792 154.242 L
284.901 154.242 L
285.009 154.242 L
285.117 154.242 L
285.226 154.242 L
285.335 154.242 L
285.443 154.242 L
285.552 154.242 L
285.66 154.242 L
285.66 142.458 L
285.768 142.458 L
285.877 142.458 L
285.986 142.458 L
286.094 142.458 L
286.203 142.458 L
286.311 142.458 L
286.419 142.458 L
286.528 142.458 L
286.637 142.458 L
286.745 142.458 L
286.854 142.458 L
286.962 142.458 L
287.07 142.458 L
287.179 142.458 L
287.288 142.458 L
287.396 142.458 L
287.504 142.458 L
287.613 142.458 L
287.721 142.458 L
287.83 142.458 L
287.939 142.458 L
288.047 142.458 L
288.155 142.458 L
288.264 142.458 L
288.372 142.458 L
288.481 142.458 L
288.59 142.458 L
288.698 142.458 L
288.806 142.458 L
288.915 142.458 L
289.023 142.458 L
289.132 142.458 L
289.241 142.458 L
S
GR
GS
[0.75 0 0 0.75 0 0] CT
0 0.447 0.741 RC
2 LJ
N
289.241 142.458 M
289.349 142.458 L
289.457 142.458 L
289.566 142.458 L
289.674 142.458 L
289.783 142.458 L
289.892 142.458 L
290 142.458 L
290 130.652 L
290.108 130.652 L
290.217 130.652 L
290.326 130.652 L
290.434 130.652 L
290.543 130.652 L
290.651 130.652 L
290.759 130.652 L
290.868 130.652 L
290.977 130.652 L
291.085 130.652 L
291.194 130.652 L
291.302 130.652 L
291.41 130.652 L
291.519 130.652 L
291.628 130.652 L
291.736 130.652 L
291.845 130.652 L
291.953 130.652 L
292.061 130.652 L
292.17 130.652 L
292.279 130.652 L
292.387 130.652 L
292.496 130.652 L
292.604 130.652 L
292.712 130.652 L
292.821 130.652 L
292.93 130.652 L
293.038 130.652 L
293.146 130.652 L
293.255 130.652 L
293.363 130.652 L
293.472 130.652 L
293.581 130.652 L
293.689 130.652 L
293.797 130.652 L
293.906 130.652 L
294.014 130.652 L
294.123 130.652 L
294.232 130.652 L
294.34 130.652 L
294.34 118.812 L
S
GR
GS
[0.75 0 0 0.75 0 0] CT
0 0.447 0.741 RC
2 LJ
N
294.34 118.812 M
294.448 118.812 L
294.557 118.812 L
294.665 118.812 L
294.774 118.812 L
294.883 118.812 L
294.991 118.812 L
295.099 118.812 L
295.208 118.812 L
295.316 118.812 L
295.425 118.812 L
295.534 118.812 L
295.642 118.812 L
295.75 118.812 L
295.859 118.812 L
295.967 118.812 L
296.076 118.812 L
296.185 118.812 L
296.293 118.812 L
296.401 118.812 L
296.51 118.812 L
296.618 118.812 L
296.727 118.812 L
296.836 118.812 L
296.944 118.812 L
297.052 118.812 L
297.161 118.812 L
297.27 118.812 L
297.378 118.812 L
297.487 118.812 L
297.595 118.812 L
297.703 118.812 L
297.812 118.812 L
297.921 118.812 L
298.029 118.812 L
298.138 118.812 L
298.246 118.812 L
298.354 118.812 L
298.463 118.812 L
298.572 118.812 L
298.68 118.812 L
298.68 106.994 L
298.789 106.994 L
298.897 106.994 L
299.005 106.994 L
299.114 106.994 L
299.223 106.994 L
299.331 106.994 L
299.439 106.994 L
299.548 106.994 L
S
GR
GS
[0.75 0 0 0.75 0 0] CT
0 0.447 0.741 RC
2 LJ
N
299.548 106.994 M
299.656 106.994 L
299.765 106.994 L
299.874 106.994 L
299.982 106.994 L
300.09 106.994 L
300.199 106.994 L
300.307 106.994 L
300.416 106.994 L
300.524 106.994 L
300.633 106.994 L
300.741 106.994 L
300.85 106.994 L
300.958 106.994 L
301.067 106.994 L
301.175 106.994 L
301.284 106.994 L
301.392 106.994 L
301.501 106.994 L
301.609 106.994 L
301.718 106.994 L
301.826 106.994 L
301.935 106.994 L
302.043 106.994 L
302.152 106.994 L
302.26 106.994 L
302.369 106.994 L
302.478 106.994 L
302.586 106.994 L
302.694 106.994 L
302.803 106.994 L
302.911 106.994 L
303.02 106.994 L
303.02 95.266 L
303.129 95.266 L
303.237 95.266 L
303.345 95.266 L
303.454 95.266 L
303.563 95.266 L
303.671 95.266 L
303.78 95.266 L
303.888 95.266 L
303.996 95.266 L
304.105 95.266 L
304.214 95.266 L
304.322 95.266 L
304.431 95.266 L
304.539 95.266 L
304.647 95.266 L
304.756 95.266 L
S
GR
GS
[0.75 0 0 0.75 0 0] CT
0 0.447 0.741 RC
2 LJ
N
304.756 95.266 M
304.865 95.266 L
304.973 95.266 L
305.082 95.266 L
305.19 95.266 L
305.298 95.266 L
305.407 95.266 L
305.516 95.266 L
305.624 95.266 L
305.733 95.266 L
305.841 95.266 L
305.949 95.266 L
306.058 95.266 L
306.167 95.266 L
306.275 95.266 L
306.384 95.266 L
306.492 95.266 L
306.6 95.266 L
306.709 95.266 L
306.818 95.266 L
306.926 95.266 L
307.035 95.266 L
307.143 95.266 L
307.251 95.266 L
307.36 95.266 L
307.36 83.661 L
307.469 83.661 L
307.577 83.661 L
307.686 83.661 L
307.794 83.661 L
307.902 83.661 L
308.011 83.661 L
308.12 83.661 L
308.228 83.661 L
308.337 83.661 L
308.445 83.661 L
308.553 83.661 L
308.662 83.661 L
308.771 83.661 L
308.879 83.661 L
308.988 83.661 L
309.096 83.661 L
309.204 83.661 L
309.313 83.661 L
309.422 83.661 L
309.53 83.661 L
309.639 83.661 L
309.747 83.661 L
309.855 83.661 L
309.964 83.661 L
S
GR
GS
[0.75 0 0 0.75 0 0] CT
0 0.447 0.741 RC
2 LJ
N
309.964 83.661 M
310.073 83.661 L
310.181 83.661 L
310.29 83.661 L
310.398 83.661 L
310.507 83.661 L
310.615 83.661 L
310.724 83.661 L
310.832 83.661 L
310.94 83.661 L
311.049 83.661 L
311.158 83.661 L
311.266 83.661 L
311.374 83.661 L
311.483 83.661 L
311.591 83.661 L
311.7 83.661 L
311.7 72.263 L
311.809 72.263 L
311.917 72.263 L
312.025 72.263 L
312.134 72.263 L
312.242 72.263 L
312.351 72.263 L
312.46 72.263 L
312.568 72.263 L
312.676 72.263 L
312.785 72.263 L
312.893 72.263 L
313.002 72.263 L
313.111 72.263 L
313.219 72.263 L
313.327 72.263 L
313.436 72.263 L
313.544 72.263 L
313.653 72.263 L
313.762 72.263 L
313.87 72.263 L
313.978 72.263 L
314.087 72.263 L
314.195 72.263 L
314.304 72.263 L
314.413 72.263 L
314.521 72.263 L
314.629 72.263 L
314.738 72.263 L
314.846 72.263 L
314.955 72.263 L
315.064 72.263 L
315.172 72.263 L
S
GR
GS
[0.75 0 0 0.75 0 0] CT
0 0.447 0.741 RC
2 LJ
N
315.172 72.263 M
315.28 72.263 L
315.389 72.263 L
315.497 72.263 L
315.606 72.263 L
315.715 72.263 L
315.823 72.263 L
315.931 72.263 L
316.04 72.263 L
316.04 61.179 L
316.148 61.179 L
316.257 61.179 L
316.366 61.179 L
316.474 61.179 L
316.582 61.179 L
316.691 61.179 L
316.799 61.179 L
316.908 61.179 L
317.017 61.179 L
317.125 61.179 L
317.233 61.179 L
317.342 61.179 L
317.451 61.179 L
317.559 61.179 L
317.668 61.179 L
317.776 61.179 L
317.884 61.179 L
317.993 61.179 L
318.102 61.179 L
318.21 61.179 L
318.319 61.179 L
318.427 61.179 L
318.535 61.179 L
318.644 61.179 L
318.753 61.179 L
318.861 61.179 L
318.97 61.179 L
319.078 61.179 L
319.186 61.179 L
319.295 61.179 L
319.404 61.179 L
319.512 61.179 L
319.621 61.179 L
319.729 61.179 L
319.837 61.179 L
319.946 61.179 L
320.055 61.179 L
320.163 61.179 L
320.272 61.179 L
320.38 61.179 L
S
GR
GS
[0.75 0 0 0.75 0 0] CT
0 0.447 0.741 RC
2 LJ
N
320.38 61.179 M
320.38 50.692 L
320.488 50.692 L
320.597 50.692 L
320.706 50.692 L
320.814 50.692 L
320.923 50.692 L
321.031 50.692 L
321.139 50.692 L
321.248 50.692 L
321.357 50.692 L
321.465 50.692 L
321.574 50.692 L
321.682 50.692 L
321.791 50.692 L
321.899 50.692 L
322.008 50.692 L
322.116 50.692 L
322.225 50.692 L
322.333 50.692 L
322.441 50.692 L
322.55 50.692 L
322.659 50.692 L
322.767 50.692 L
322.875 50.692 L
322.984 50.692 L
323.092 50.692 L
323.201 50.692 L
323.309 50.692 L
323.418 50.692 L
323.526 50.692 L
323.635 50.692 L
323.743 50.692 L
323.852 50.692 L
323.96 50.692 L
324.069 50.692 L
324.177 50.692 L
324.286 50.692 L
324.395 50.692 L
324.503 50.692 L
324.611 50.692 L
324.72 50.692 L
324.72 41.188 L
324.828 41.188 L
324.937 41.188 L
325.046 41.188 L
325.154 41.188 L
325.262 41.188 L
325.371 41.188 L
325.479 41.188 L
S
GR
GS
[0.75 0 0 0.75 0 0] CT
0 0.447 0.741 RC
2 LJ
N
325.479 41.188 M
325.588 41.188 L
325.697 41.188 L
325.805 41.188 L
325.913 41.188 L
326.022 41.188 L
326.13 41.188 L
326.239 41.188 L
326.348 41.188 L
326.456 41.188 L
326.564 41.188 L
326.673 41.188 L
326.781 41.188 L
326.89 41.188 L
326.999 41.188 L
327.107 41.188 L
327.215 41.188 L
327.324 41.188 L
327.432 41.188 L
327.541 41.188 L
327.65 41.188 L
327.758 41.188 L
327.866 41.188 L
327.975 41.188 L
328.083 41.188 L
328.192 41.188 L
328.301 41.188 L
328.409 41.188 L
328.517 41.188 L
328.626 41.188 L
328.734 41.188 L
328.843 41.188 L
328.952 41.188 L
329.06 41.188 L
329.06 33.647 L
329.168 33.647 L
329.277 33.647 L
329.385 33.647 L
329.494 33.647 L
329.603 33.647 L
329.711 33.647 L
329.819 33.647 L
329.928 33.647 L
330.036 33.647 L
330.145 33.647 L
330.254 33.647 L
330.362 33.647 L
330.47 33.647 L
330.579 33.647 L
330.688 33.647 L
S
GR
GS
[0.75 0 0 0.75 0 0] CT
0 0.447 0.741 RC
2 LJ
N
330.688 33.647 M
330.796 33.647 L
330.905 33.647 L
331.013 33.647 L
331.122 33.647 L
331.23 33.647 L
331.339 33.647 L
331.447 33.647 L
331.556 33.647 L
331.664 33.647 L
331.773 33.647 L
331.881 33.647 L
331.99 33.647 L
332.098 33.647 L
332.207 33.647 L
332.315 33.647 L
332.424 33.647 L
332.532 33.647 L
332.641 33.647 L
332.749 33.647 L
332.858 33.647 L
332.966 33.647 L
333.075 33.647 L
333.183 33.647 L
333.292 33.647 L
333.4 33.647 L
333.4 31.362 L
333.509 31.362 L
333.617 31.362 L
333.726 31.362 L
333.834 31.362 L
333.943 31.362 L
334.051 31.362 L
334.16 31.362 L
334.268 31.362 L
334.376 31.362 L
334.485 31.362 L
334.594 31.362 L
334.702 31.362 L
334.81 31.362 L
334.919 31.362 L
335.027 31.362 L
335.136 31.362 L
335.244 31.362 L
335.353 31.362 L
335.461 31.362 L
335.57 31.362 L
335.678 31.362 L
335.787 31.362 L
335.895 31.362 L
S
GR
GS
[0.75 0 0 0.75 0 0] CT
0 0.447 0.741 RC
2 LJ
N
335.895 31.362 M
336.004 31.362 L
336.112 31.362 L
336.221 31.362 L
336.329 31.362 L
336.438 31.362 L
336.546 31.362 L
336.655 31.362 L
336.763 31.362 L
336.872 31.362 L
336.98 31.362 L
337.089 31.362 L
337.197 31.362 L
337.306 31.362 L
337.414 31.362 L
337.523 31.362 L
337.632 31.362 L
337.74 31.362 L
337.74 50.288 L
337.848 50.288 L
337.957 50.288 L
338.065 50.288 L
338.174 50.288 L
338.283 50.288 L
338.391 50.288 L
338.499 50.288 L
338.608 50.288 L
338.716 50.288 L
338.825 50.288 L
338.934 50.288 L
339.042 50.288 L
339.15 50.288 L
339.259 50.288 L
339.367 50.288 L
339.476 50.288 L
339.585 50.288 L
339.693 50.288 L
339.801 50.288 L
339.91 50.288 L
340.018 50.288 L
340.127 50.288 L
340.236 50.288 L
340.344 50.288 L
340.453 50.288 L
340.561 50.288 L
340.669 50.288 L
340.778 50.288 L
340.887 50.288 L
340.995 50.288 L
341.104 50.288 L
S
GR
GS
[0.75 0 0 0.75 0 0] CT
0 0.447 0.741 RC
2 LJ
N
341.104 50.288 M
341.212 50.288 L
341.32 50.288 L
341.429 50.288 L
341.538 50.288 L
341.646 50.288 L
341.755 50.288 L
341.863 50.288 L
341.971 50.288 L
342.08 50.288 L
342.08 214.836 L
342.189 214.836 L
342.297 214.836 L
342.406 214.836 L
342.514 214.836 L
342.622 214.836 L
342.731 214.836 L
342.84 214.836 L
342.948 214.836 L
343.057 214.836 L
343.165 214.836 L
343.273 214.836 L
343.382 214.836 L
343.491 214.836 L
343.599 214.836 L
343.708 214.836 L
343.816 214.836 L
343.924 214.836 L
344.033 214.836 L
344.142 214.836 L
344.25 214.836 L
344.359 214.836 L
344.467 214.836 L
344.576 214.836 L
344.684 214.836 L
344.793 214.836 L
344.901 214.836 L
345.01 214.836 L
345.118 214.836 L
345.227 214.836 L
345.335 214.836 L
345.444 214.836 L
345.552 214.836 L
345.661 214.836 L
345.769 214.836 L
345.878 214.836 L
345.986 214.836 L
346.095 214.836 L
346.203 214.836 L
346.311 214.836 L
S
GR
GS
[0.75 0 0 0.75 0 0] CT
0 0.447 0.741 RC
2 LJ
N
346.311 214.836 M
346.42 214.836 L
346.42 301.578 L
346.529 301.578 L
346.637 301.578 L
346.745 301.578 L
346.854 301.578 L
346.962 301.578 L
347.071 301.578 L
347.179 301.578 L
347.288 301.578 L
347.396 301.578 L
347.505 301.578 L
347.613 301.578 L
347.722 301.578 L
347.83 301.578 L
347.939 301.578 L
348.047 301.578 L
348.156 301.578 L
348.264 301.578 L
348.373 301.578 L
348.481 301.578 L
348.59 301.578 L
348.698 301.578 L
348.807 301.578 L
348.915 301.578 L
349.024 301.578 L
349.132 301.578 L
349.241 301.578 L
349.349 301.578 L
349.458 301.578 L
349.566 301.578 L
349.675 301.578 L
349.783 301.578 L
349.892 301.578 L
350 301.578 L
350.109 301.578 L
350.217 301.578 L
350.326 301.578 L
350.435 301.578 L
350.543 301.578 L
350.651 301.578 L
350.76 301.578 L
350.76 307.442 L
350.868 307.442 L
350.977 307.442 L
351.086 307.442 L
351.194 307.442 L
351.302 307.442 L
351.411 307.442 L
S
GR
GS
[0.75 0 0 0.75 0 0] CT
0 0.447 0.741 RC
2 LJ
N
351.411 307.442 M
351.52 307.442 L
351.628 307.442 L
351.737 307.442 L
351.845 307.442 L
351.953 307.442 L
352.062 307.442 L
352.171 307.442 L
352.279 307.442 L
352.388 307.442 L
352.496 307.442 L
352.604 307.442 L
352.713 307.442 L
352.822 307.442 L
352.93 307.442 L
353.039 307.442 L
353.147 307.442 L
353.255 307.442 L
353.364 307.442 L
353.473 307.442 L
353.581 307.442 L
353.69 307.442 L
353.798 307.442 L
353.906 307.442 L
354.015 307.442 L
354.124 307.442 L
354.232 307.442 L
354.341 307.442 L
354.449 307.442 L
354.557 307.442 L
354.666 307.442 L
354.775 307.442 L
354.883 307.442 L
354.992 307.442 L
355.1 307.442 L
355.1 311.887 L
355.208 311.887 L
355.317 311.887 L
355.426 311.887 L
355.534 311.887 L
355.643 311.887 L
355.751 311.887 L
355.859 311.887 L
355.968 311.887 L
356.077 311.887 L
356.185 311.887 L
356.294 311.887 L
356.402 311.887 L
356.51 311.887 L
356.619 311.887 L
S
GR
GS
[0.75 0 0 0.75 0 0] CT
0 0.447 0.741 RC
2 LJ
N
356.619 311.887 M
356.728 311.887 L
356.836 311.887 L
356.945 311.887 L
357.053 311.887 L
357.161 311.887 L
357.27 311.887 L
357.379 311.887 L
357.487 311.887 L
357.596 311.887 L
357.704 311.887 L
357.813 311.887 L
357.921 311.887 L
358.03 311.887 L
358.138 311.887 L
358.246 311.887 L
358.355 311.887 L
358.464 311.887 L
358.572 311.887 L
358.681 311.887 L
358.789 311.887 L
358.897 311.887 L
359.006 311.887 L
359.115 311.887 L
359.223 311.887 L
359.331 311.887 L
359.44 311.887 L
359.44 316.536 L
359.548 316.536 L
359.657 316.536 L
359.766 316.536 L
359.874 316.536 L
359.982 316.536 L
360.091 316.536 L
360.199 316.536 L
360.308 316.536 L
360.417 316.536 L
360.525 316.536 L
360.633 316.536 L
360.742 316.536 L
360.85 316.536 L
360.959 316.536 L
361.068 316.536 L
361.176 316.536 L
361.284 316.536 L
361.393 316.536 L
361.501 316.536 L
361.61 316.536 L
361.719 316.536 L
361.827 316.536 L
S
GR
GS
[0.75 0 0 0.75 0 0] CT
0 0.447 0.741 RC
2 LJ
N
361.827 316.536 M
361.935 316.536 L
362.044 316.536 L
362.152 316.536 L
362.261 316.536 L
362.37 316.536 L
362.478 316.536 L
362.586 316.536 L
362.695 316.536 L
362.803 316.536 L
362.912 316.536 L
363.021 316.536 L
363.129 316.536 L
363.237 316.536 L
363.346 316.536 L
363.454 316.536 L
363.563 316.536 L
363.672 316.536 L
363.78 316.536 L
363.78 322.607 L
363.888 322.607 L
363.997 322.607 L
364.105 322.607 L
364.214 322.607 L
364.323 322.607 L
364.431 322.607 L
364.539 322.607 L
364.648 322.607 L
364.757 322.607 L
364.865 322.607 L
364.974 322.607 L
365.082 322.607 L
365.19 322.607 L
365.299 322.607 L
365.408 322.607 L
365.516 322.607 L
365.625 322.607 L
365.733 322.607 L
365.841 322.607 L
365.95 322.607 L
366.059 322.607 L
366.167 322.607 L
366.276 322.607 L
366.384 322.607 L
366.492 322.607 L
366.601 322.607 L
366.71 322.607 L
366.818 322.607 L
366.927 322.607 L
367.035 322.607 L
S
GR
GS
[0.75 0 0 0.75 0 0] CT
0 0.447 0.741 RC
2 LJ
N
367.035 322.607 M
367.143 322.607 L
367.252 322.607 L
367.361 322.607 L
367.469 322.607 L
367.578 322.607 L
367.686 322.607 L
367.794 322.607 L
367.903 322.607 L
368.012 322.607 L
368.12 322.607 L
368.12 337.457 L
368.219 337.457 L
368.317 337.457 L
368.416 337.457 L
368.515 337.457 L
368.623 337.457 L
368.732 337.457 L
368.84 337.457 L
368.949 337.457 L
369.057 337.457 L
369.166 337.457 L
369.274 337.457 L
369.383 337.457 L
369.491 337.457 L
369.6 337.457 L
369.708 337.457 L
369.817 337.457 L
369.925 337.457 L
370.034 337.457 L
370.142 337.457 L
370.251 337.457 L
370.322 337.457 L
370.393 337.457 L
370.464 337.457 L
370.536 337.457 L
370.607 337.457 L
370.678 337.457 L
370.749 337.457 L
370.821 337.457 L
370.88 337.457 L
370.939 337.457 L
370.999 337.457 L
371.058 337.457 L
371.114 337.457 L
371.17 337.457 L
371.226 337.457 L
371.282 337.457 L
371.342 337.457 L
371.403 337.457 L
S
GR
GS
[0.75 0 0 0.75 0 0] CT
0 0.447 0.741 RC
2 LJ
N
371.403 337.457 M
371.463 337.457 L
371.524 337.457 L
371.594 337.457 L
371.663 337.457 L
371.733 337.457 L
371.802 337.457 L
371.886 337.457 L
371.97 337.457 L
372.053 337.457 L
372.137 337.457 L
372.217 337.457 L
372.298 337.457 L
372.379 337.457 L
372.46 337.457 L
372.46 360.888 L
372.476 360.888 L
372.491 360.888 L
372.507 360.888 L
372.522 360.888 L
372.569 360.888 L
372.617 360.888 L
372.664 360.888 L
372.711 360.888 L
372.755 360.888 L
372.799 360.888 L
372.844 360.888 L
372.888 360.888 L
372.935 360.888 L
372.981 360.888 L
373.028 360.888 L
373.075 360.888 L
373.128 360.888 L
373.18 360.888 L
373.233 360.888 L
373.285 360.888 L
373.347 360.888 L
373.408 360.888 L
373.469 360.888 L
373.53 360.888 L
373.605 360.888 L
373.679 360.888 L
373.753 360.888 L
373.827 360.888 L
373.921 360.888 L
374.014 360.888 L
374.108 360.888 L
374.202 360.888 L
374.31 360.888 L
374.419 360.888 L
S
GR
GS
[0.75 0 0 0.75 0 0] CT
0 0.447 0.741 RC
2 LJ
N
374.419 360.888 M
374.527 360.888 L
374.636 360.888 L
374.744 360.888 L
374.853 360.888 L
374.961 360.888 L
375.07 360.888 L
375.178 360.888 L
375.287 360.888 L
375.395 360.888 L
375.504 360.888 L
375.612 360.888 L
375.721 360.888 L
375.829 360.888 L
375.938 360.888 L
376.046 360.888 L
376.155 360.888 L
376.263 360.888 L
376.372 360.888 L
376.479 360.888 L
376.586 360.888 L
376.693 360.888 L
376.8 360.888 L
376.8 374 L
376.809 374 L
376.818 374 L
376.828 374 L
376.837 374 L
376.876 374 L
376.914 374 L
376.953 374 L
376.991 374 L
377.027 374 L
377.063 374 L
377.099 374 L
377.135 374 L
377.171 374 L
377.206 374 L
377.241 374 L
377.277 374 L
377.312 374 L
377.347 374 L
377.382 374 L
377.417 374 L
377.455 374 L
377.493 374 L
377.532 374 L
377.57 374 L
377.615 374 L
377.659 374 L
S
GR
GS
[0.75 0 0 0.75 0 0] CT
0 0.447 0.741 RC
2 LJ
N
377.659 374 M
377.704 374 L
377.748 374 L
377.801 374 L
377.853 374 L
377.905 374 L
377.958 374 L
378.021 374 L
378.084 374 L
378.147 374 L
378.211 374 L
378.289 374 L
378.368 374 L
378.447 374 L
378.526 374 L
378.628 374 L
378.73 374 L
378.832 374 L
378.934 374 L
379.043 374 L
379.151 374 L
379.26 374 L
379.368 374 L
379.477 374 L
379.585 374 L
379.694 374 L
379.802 374 L
379.911 374 L
380.019 374 L
380.128 374 L
380.236 374 L
380.345 374 L
380.453 374 L
380.562 374 L
380.67 374 L
380.788 374 L
380.905 374 L
381.023 374 L
381.14 374 L
381.14 374 L
381.249 374 L
381.357 374 L
381.466 374 L
381.574 374 L
381.683 374 L
381.791 374 L
381.9 374 L
382.008 374 L
382.117 374 L
382.225 374 L
S
GR
GS
[0.75 0 0 0.75 0 0] CT
0 0.447 0.741 RC
2 LJ
N
382.225 374 M
382.333 374 L
382.442 374 L
382.551 374 L
382.659 374 L
382.767 374 L
382.876 374 L
382.984 374 L
383.093 374 L
383.201 374 L
383.31 374 L
383.418 374 L
383.527 374 L
383.635 374 L
383.744 374 L
383.852 374 L
383.961 374 L
384.069 374 L
384.178 374 L
384.286 374 L
384.395 374 L
384.503 374 L
384.612 374 L
384.72 374 L
384.829 374 L
384.938 374 L
385.046 374 L
385.154 374 L
385.263 374 L
385.371 374 L
385.48 374 L
385.48 374 L
385.589 374 L
385.697 374 L
385.805 374 L
385.914 374 L
386.022 374 L
386.131 374 L
386.24 374 L
386.348 374 L
386.456 374 L
386.565 374 L
386.673 374 L
386.782 374 L
386.891 374 L
386.999 374 L
387.107 374 L
387.216 374 L
387.324 374 L
387.433 374 L
S
GR
GS
[0.75 0 0 0.75 0 0] CT
0 0.447 0.741 RC
2 LJ
N
387.433 374 M
387.542 374 L
387.65 374 L
387.758 374 L
387.867 374 L
387.975 374 L
388.084 374 L
388.193 374 L
388.301 374 L
388.41 374 L
388.518 374 L
388.626 374 L
388.735 374 L
388.844 374 L
388.952 374 L
389.061 374 L
389.169 374 L
389.277 374 L
389.386 374 L
389.495 374 L
389.603 374 L
389.712 374 L
389.82 374 L
389.82 374 L
389.928 374 L
390.037 374 L
390.146 374 L
390.254 374 L
390.363 374 L
390.471 374 L
390.579 374 L
390.688 374 L
390.797 374 L
390.905 374 L
391.014 374 L
391.122 374 L
391.23 374 L
391.339 374 L
391.448 374 L
391.556 374 L
391.665 374 L
391.773 374 L
391.882 374 L
391.99 374 L
392.099 374 L
392.207 374 L
392.316 374 L
392.424 374 L
392.533 374 L
392.641 374 L
S
GR
GS
[0.75 0 0 0.75 0 0] CT
0 0.447 0.741 RC
2 LJ
N
392.641 374 M
392.75 374 L
392.858 374 L
392.967 374 L
393.075 374 L
393.184 374 L
393.292 374 L
393.401 374 L
393.509 374 L
393.618 374 L
393.726 374 L
393.835 374 L
393.943 374 L
394.052 374 L
394.16 374 L
394.16 374 L
394.268 374 L
394.377 374 L
394.486 374 L
394.594 374 L
394.702 374 L
394.811 374 L
394.919 374 L
395.028 374 L
395.136 374 L
395.245 374 L
395.353 374 L
395.462 374 L
395.57 374 L
395.679 374 L
395.787 374 L
395.896 374 L
396.004 374 L
396.113 374 L
396.221 374 L
396.33 374 L
396.438 374 L
396.547 374 L
396.655 374 L
396.764 374 L
396.872 374 L
396.981 374 L
397.089 374 L
397.198 374 L
397.306 374 L
397.415 374 L
397.523 374 L
397.632 374 L
397.741 374 L
397.849 374 L
S
GR
GS
[0.75 0 0 0.75 0 0] CT
0 0.447 0.741 RC
2 LJ
N
397.849 374 M
397.957 374 L
398.066 374 L
398.174 374 L
398.283 374 L
398.392 374 L
398.5 374 L
398.5 374 L
398.608 374 L
398.717 374 L
398.826 374 L
398.934 374 L
399.043 374 L
399.151 374 L
399.259 374 L
399.368 374 L
399.477 374 L
399.585 374 L
399.694 374 L
399.802 374 L
399.91 374 L
400.019 374 L
400.128 374 L
400.236 374 L
400.345 374 L
400.453 374 L
400.561 374 L
400.67 374 L
400.779 374 L
400.887 374 L
400.996 374 L
401.104 374 L
401.212 374 L
401.321 374 L
401.43 374 L
401.538 374 L
401.647 374 L
401.755 374 L
401.863 374 L
401.972 374 L
402.081 374 L
402.189 374 L
402.298 374 L
402.406 374 L
402.514 374 L
402.623 374 L
402.732 374 L
402.84 374 L
402.84 374 L
402.949 374 L
S
GR
GS
[0.75 0 0 0.75 0 0] CT
0 0.447 0.741 RC
2 LJ
N
402.949 374 M
403.057 374 L
403.165 374 L
403.274 374 L
403.383 374 L
403.491 374 L
403.6 374 L
403.708 374 L
403.816 374 L
403.925 374 L
404.034 374 L
404.142 374 L
404.251 374 L
404.359 374 L
404.467 374 L
404.576 374 L
404.685 374 L
404.793 374 L
404.902 374 L
405.01 374 L
405.118 374 L
405.227 374 L
405.336 374 L
405.444 374 L
405.553 374 L
405.661 374 L
405.77 374 L
405.878 374 L
405.987 374 L
406.095 374 L
406.203 374 L
406.312 374 L
406.421 374 L
406.529 374 L
406.637 374 L
406.746 374 L
406.854 374 L
406.963 374 L
407.071 374 L
407.18 374 L
407.18 374 L
407.288 374 L
407.397 374 L
407.505 374 L
407.614 374 L
407.723 374 L
407.831 374 L
407.939 374 L
408.048 374 L
408.156 374 L
S
GR
GS
[0.75 0 0 0.75 0 0] CT
0 0.447 0.741 RC
2 LJ
N
408.156 374 M
408.265 374 L
408.374 374 L
408.482 374 L
408.59 374 L
408.699 374 L
408.807 374 L
408.916 374 L
409.025 374 L
409.133 374 L
409.241 374 L
409.35 374 L
409.458 374 L
409.567 374 L
409.676 374 L
409.784 374 L
409.892 374 L
410.001 374 L
410.109 374 L
410.218 374 L
410.327 374 L
410.435 374 L
410.543 374 L
410.652 374 L
410.76 374 L
410.869 374 L
410.978 374 L
411.086 374 L
411.194 374 L
411.303 374 L
411.411 374 L
411.52 374 L
411.52 374 L
411.629 374 L
411.737 374 L
411.845 374 L
411.954 374 L
412.063 374 L
412.171 374 L
412.28 374 L
412.388 374 L
412.496 374 L
412.605 374 L
412.714 374 L
412.822 374 L
412.931 374 L
413.039 374 L
413.147 374 L
413.256 374 L
413.365 374 L
S
GR
GS
[0.75 0 0 0.75 0 0] CT
0 0.447 0.741 RC
2 LJ
N
413.365 374 M
413.473 374 L
413.582 374 L
413.69 374 L
413.798 374 L
413.907 374 L
414.016 374 L
414.124 374 L
414.233 374 L
414.341 374 L
414.449 374 L
414.558 374 L
414.667 374 L
414.775 374 L
414.884 374 L
414.992 374 L
415.1 374 L
415.209 374 L
415.318 374 L
415.426 374 L
415.535 374 L
415.643 374 L
415.751 374 L
415.86 374 L
415.86 374 L
415.969 374 L
416.077 374 L
416.186 374 L
416.294 374 L
416.402 374 L
416.511 374 L
416.62 374 L
416.728 374 L
416.837 374 L
416.945 374 L
417.054 374 L
417.162 374 L
417.271 374 L
417.379 374 L
417.488 374 L
417.596 374 L
417.704 374 L
417.813 374 L
417.922 374 L
418.03 374 L
418.138 374 L
418.247 374 L
418.355 374 L
418.464 374 L
418.572 374 L
S
GR
GS
[0.75 0 0 0.75 0 0] CT
0 0.447 0.741 RC
2 LJ
N
418.572 374 M
418.681 374 L
418.789 374 L
418.898 374 L
419.007 374 L
419.115 374 L
419.223 374 L
419.332 374 L
419.44 374 L
419.549 374 L
419.658 374 L
419.766 374 L
419.874 374 L
419.983 374 L
420.091 374 L
420.2 374 L
420.2 374 L
420.309 374 L
420.417 374 L
420.525 374 L
420.634 374 L
420.742 374 L
420.851 374 L
420.96 374 L
421.068 374 L
421.176 374 L
421.285 374 L
421.393 374 L
421.502 374 L
421.611 374 L
421.719 374 L
421.827 374 L
421.936 374 L
422.044 374 L
422.153 374 L
422.262 374 L
422.37 374 L
422.478 374 L
422.587 374 L
422.695 374 L
422.804 374 L
422.913 374 L
423.021 374 L
423.129 374 L
423.238 374 L
423.346 374 L
423.455 374 L
423.564 374 L
423.672 374 L
423.78 374 L
S
GR
GS
[0.75 0 0 0.75 0 0] CT
0 0.447 0.741 RC
2 LJ
N
423.78 374 M
423.889 374 L
423.997 374 L
424.106 374 L
424.215 374 L
424.323 374 L
424.431 374 L
424.54 374 L
424.54 374 L
424.648 374 L
424.757 374 L
424.866 374 L
424.974 374 L
425.082 374 L
425.191 374 L
425.299 374 L
425.408 374 L
425.517 374 L
425.625 374 L
425.733 374 L
425.842 374 L
425.951 374 L
426.059 374 L
426.168 374 L
426.276 374 L
426.384 374 L
426.493 374 L
426.602 374 L
426.71 374 L
426.819 374 L
426.927 374 L
427.036 374 L
427.144 374 L
427.253 374 L
427.361 374 L
427.47 374 L
427.578 374 L
427.687 374 L
427.795 374 L
427.904 374 L
428.012 374 L
428.121 374 L
428.229 374 L
428.338 374 L
428.446 374 L
428.555 374 L
428.663 374 L
428.772 374 L
428.88 374 L
428.88 374 L
S
GR
GS
[0.75 0 0 0.75 0 0] CT
0 0.447 0.741 RC
2 LJ
N
428.88 374 M
428.989 374 L
429.097 374 L
429.206 374 L
429.314 374 L
429.423 374 L
429.531 374 L
429.639 374 L
429.748 374 L
429.857 374 L
429.965 374 L
430.073 374 L
430.182 374 L
430.29 374 L
430.399 374 L
430.507 374 L
430.616 374 L
430.724 374 L
430.833 374 L
430.941 374 L
431.05 374 L
431.158 374 L
431.267 374 L
431.375 374 L
431.484 374 L
431.592 374 L
431.701 374 L
431.809 374 L
431.918 374 L
432.026 374 L
432.135 374 L
432.243 374 L
432.352 374 L
432.46 374 L
432.569 374 L
432.677 374 L
432.786 374 L
432.895 374 L
433.003 374 L
433.111 374 L
433.22 374 L
433.22 374 L
433.328 374 L
433.437 374 L
433.546 374 L
433.654 374 L
433.762 374 L
433.871 374 L
433.979 374 L
434.088 374 L
S
GR
GS
[0.75 0 0 0.75 0 0] CT
0 0.447 0.741 RC
2 LJ
N
434.088 374 M
434.197 374 L
434.305 374 L
434.413 374 L
434.522 374 L
434.63 374 L
434.739 374 L
434.848 374 L
434.956 374 L
435.064 374 L
435.173 374 L
435.281 374 L
435.39 374 L
435.499 374 L
435.607 374 L
435.715 374 L
435.824 374 L
435.932 374 L
436.041 374 L
436.15 374 L
436.258 374 L
436.367 374 L
436.475 374 L
436.583 374 L
436.692 374 L
436.801 374 L
436.909 374 L
437.018 374 L
437.126 374 L
437.234 374 L
437.343 374 L
437.452 374 L
437.56 374 L
437.56 374 L
437.669 374 L
437.777 374 L
437.885 374 L
437.994 374 L
438.103 374 L
438.211 374 L
438.32 374 L
438.428 374 L
438.536 374 L
438.645 374 L
438.754 374 L
438.862 374 L
438.971 374 L
439.079 374 L
439.188 374 L
439.296 374 L
S
GR
GS
[0.75 0 0 0.75 0 0] CT
0 0.447 0.741 RC
2 LJ
N
439.296 374 M
439.405 374 L
439.513 374 L
439.622 374 L
439.73 374 L
439.839 374 L
439.947 374 L
440.056 374 L
440.164 374 L
440.273 374 L
440.381 374 L
440.49 374 L
440.598 374 L
440.707 374 L
440.815 374 L
440.924 374 L
441.032 374 L
441.141 374 L
441.249 374 L
441.358 374 L
441.466 374 L
441.574 374 L
441.683 374 L
441.792 374 L
441.9 374 L
441.9 374 L
442.008 374 L
442.117 374 L
442.225 374 L
442.334 374 L
442.442 374 L
442.551 374 L
442.659 374 L
442.768 374 L
442.876 374 L
442.985 374 L
443.093 374 L
443.202 374 L
443.31 374 L
443.419 374 L
443.527 374 L
443.636 374 L
443.744 374 L
443.853 374 L
443.961 374 L
444.07 374 L
444.178 374 L
444.287 374 L
444.395 374 L
444.504 374 L
S
GR
GS
[0.75 0 0 0.75 0 0] CT
0 0.447 0.741 RC
2 LJ
N
444.504 374 M
444.612 374 L
444.721 374 L
444.829 374 L
444.938 374 L
445.046 374 L
445.155 374 L
445.263 374 L
445.372 374 L
445.48 374 L
445.589 374 L
445.698 374 L
445.806 374 L
445.914 374 L
446.023 374 L
446.132 374 L
446.24 374 L
446.24 374 L
446.349 374 L
446.457 374 L
446.565 374 L
446.674 374 L
446.783 374 L
446.891 374 L
447 374 L
447.108 374 L
447.216 374 L
447.325 374 L
447.434 374 L
447.542 374 L
447.651 374 L
447.759 374 L
447.867 374 L
447.976 374 L
448.085 374 L
448.193 374 L
448.302 374 L
448.41 374 L
448.518 374 L
448.627 374 L
448.736 374 L
448.844 374 L
448.953 374 L
449.061 374 L
449.169 374 L
449.278 374 L
449.387 374 L
449.495 374 L
449.604 374 L
449.712 374 L
S
GR
GS
[0.75 0 0 0.75 0 0] CT
0 0.447 0.741 RC
2 LJ
N
449.712 374 M
449.82 374 L
449.929 374 L
450.038 374 L
450.146 374 L
450.255 374 L
450.363 374 L
450.471 374 L
450.58 374 L
450.58 374 L
450.689 374 L
450.797 374 L
450.906 374 L
451.014 374 L
451.122 374 L
451.231 374 L
451.34 374 L
451.448 374 L
451.557 374 L
451.665 374 L
451.773 374 L
451.882 374 L
451.991 374 L
452.099 374 L
452.208 374 L
452.316 374 L
452.424 374 L
452.533 374 L
452.642 374 L
452.75 374 L
452.859 374 L
452.967 374 L
453.076 374 L
453.184 374 L
453.293 374 L
453.401 374 L
453.509 374 L
453.618 374 L
453.727 374 L
453.835 374 L
453.943 374 L
454.052 374 L
454.16 374 L
454.269 374 L
454.377 374 L
454.486 374 L
454.594 374 L
454.703 374 L
454.811 374 L
454.92 374 L
S
GR
GS
[0.75 0 0 0.75 0 0] CT
0 0.447 0.741 RC
2 LJ
N
454.92 374 M
454.92 374 L
455.028 374 L
455.137 374 L
455.245 374 L
455.354 374 L
455.462 374 L
455.571 374 L
455.68 374 L
455.788 374 L
455.896 374 L
456.005 374 L
456.113 374 L
456.222 374 L
456.331 374 L
456.439 374 L
456.547 374 L
456.656 374 L
456.764 374 L
456.873 374 L
456.982 374 L
457.09 374 L
457.198 374 L
457.307 374 L
457.415 374 L
457.524 374 L
457.633 374 L
457.741 374 L
457.849 374 L
457.958 374 L
458.066 374 L
458.175 374 L
458.284 374 L
458.392 374 L
458.5 374 L
458.609 374 L
458.717 374 L
458.826 374 L
458.935 374 L
459.043 374 L
459.151 374 L
459.26 374 L
459.26 374 L
459.368 374 L
459.477 374 L
459.586 374 L
459.694 374 L
459.802 374 L
459.911 374 L
460.02 374 L
S
GR
GS
[0.75 0 0 0.75 0 0] CT
0 0.447 0.741 RC
2 LJ
N
460.02 374 M
460.128 374 L
460.237 374 L
460.345 374 L
460.453 374 L
460.562 374 L
460.671 374 L
460.779 374 L
460.888 374 L
460.996 374 L
461.104 374 L
461.213 374 L
461.322 374 L
461.43 374 L
461.539 374 L
461.647 374 L
461.755 374 L
461.864 374 L
461.973 374 L
462.081 374 L
462.19 374 L
462.298 374 L
462.406 374 L
462.515 374 L
462.624 374 L
462.732 374 L
462.841 374 L
462.949 374 L
463.057 374 L
463.166 374 L
463.275 374 L
463.383 374 L
463.492 374 L
463.6 374 L
463.6 374 L
463.708 374 L
463.817 374 L
463.926 374 L
464.034 374 L
464.143 374 L
464.251 374 L
464.359 374 L
464.468 374 L
464.577 374 L
464.685 374 L
464.794 374 L
464.902 374 L
465.01 374 L
465.119 374 L
465.228 374 L
S
GR
GS
[0.75 0 0 0.75 0 0] CT
0 0.447 0.741 RC
2 LJ
N
465.228 374 M
465.336 374 L
465.444 374 L
465.553 374 L
465.661 374 L
465.77 374 L
465.879 374 L
465.987 374 L
466.095 374 L
466.204 374 L
466.313 374 L
466.421 374 L
466.529 374 L
466.638 374 L
466.746 374 L
466.855 374 L
466.964 374 L
467.072 374 L
467.18 374 L
467.289 374 L
467.397 374 L
467.506 374 L
467.615 374 L
467.723 374 L
467.831 374 L
467.94 374 L
467.94 374 L
468.048 374 L
468.157 374 L
468.266 374 L
468.374 374 L
468.482 374 L
468.591 374 L
468.699 374 L
468.808 374 L
468.917 374 L
469.025 374 L
469.133 374 L
469.242 374 L
469.35 374 L
469.459 374 L
469.568 374 L
469.676 374 L
469.784 374 L
469.893 374 L
470.001 374 L
470.11 374 L
470.219 374 L
470.327 374 L
470.435 374 L
S
GR
GS
[0.75 0 0 0.75 0 0] CT
0 0.447 0.741 RC
2 LJ
N
470.435 374 M
470.544 374 L
470.652 374 L
470.761 374 L
470.87 374 L
470.978 374 L
471.086 374 L
471.195 374 L
471.303 374 L
471.412 374 L
471.521 374 L
471.629 374 L
471.737 374 L
471.846 374 L
471.954 374 L
472.063 374 L
472.172 374 L
472.28 374 L
472.28 374 L
472.388 374 L
472.497 374 L
472.605 374 L
472.714 374 L
472.823 374 L
472.931 374 L
473.039 374 L
473.148 374 L
473.257 374 L
473.365 374 L
473.474 374 L
473.582 374 L
473.69 374 L
473.799 374 L
473.908 374 L
474.016 374 L
474.125 374 L
474.233 374 L
474.342 374 L
474.45 374 L
474.559 374 L
474.667 374 L
474.776 374 L
474.884 374 L
474.993 374 L
475.101 374 L
475.21 374 L
475.318 374 L
475.427 374 L
475.535 374 L
475.644 374 L
S
GR
GS
[0.75 0 0 0.75 0 0] CT
0 0.447 0.741 RC
2 LJ
N
475.644 374 M
475.752 374 L
475.861 374 L
475.969 374 L
476.078 374 L
476.186 374 L
476.295 374 L
476.403 374 L
476.512 374 L
476.62 374 L
476.62 374 L
476.729 374 L
476.837 374 L
476.946 374 L
477.054 374 L
477.163 374 L
477.271 374 L
477.38 374 L
477.488 374 L
477.596 374 L
477.705 374 L
477.814 374 L
477.922 374 L
478.03 374 L
478.139 374 L
478.247 374 L
478.356 374 L
478.464 374 L
478.573 374 L
478.681 374 L
478.79 374 L
478.898 374 L
479.007 374 L
479.115 374 L
479.224 374 L
479.332 374 L
479.441 374 L
479.549 374 L
479.658 374 L
479.766 374 L
479.875 374 L
479.983 374 L
480.092 374 L
480.201 374 L
480.309 374 L
480.417 374 L
480.526 374 L
480.634 374 L
480.743 374 L
480.852 374 L
S
GR
GS
[0.75 0 0 0.75 0 0] CT
0 0.447 0.741 RC
2 LJ
N
480.852 374 M
480.96 374 L
480.96 374 L
481.068 374 L
481.177 374 L
481.285 374 L
481.394 374 L
481.503 374 L
481.611 374 L
481.719 374 L
481.828 374 L
481.936 374 L
482.045 374 L
482.154 374 L
482.262 374 L
482.37 374 L
482.479 374 L
482.587 374 L
482.696 374 L
482.805 374 L
482.913 374 L
483.021 374 L
483.13 374 L
483.238 374 L
483.347 374 L
483.456 374 L
483.564 374 L
483.672 374 L
483.781 374 L
483.889 374 L
483.998 374 L
484.107 374 L
484.215 374 L
484.324 374 L
484.432 374 L
484.54 374 L
484.649 374 L
484.758 374 L
484.866 374 L
484.975 374 L
485.083 374 L
485.191 374 L
485.3 374 L
485.3 374 L
485.409 374 L
485.517 374 L
485.626 374 L
485.734 374 L
485.842 374 L
485.951 374 L
S
GR
GS
[0.75 0 0 0.75 0 0] CT
0 0.447 0.741 RC
2 LJ
N
485.951 374 M
486.06 374 L
486.168 374 L
486.277 374 L
486.385 374 L
486.493 374 L
486.602 374 L
486.711 374 L
486.819 374 L
486.928 374 L
487.036 374 L
487.145 374 L
487.253 374 L
487.362 374 L
487.47 374 L
487.579 374 L
487.687 374 L
487.796 374 L
487.904 374 L
488.013 374 L
488.121 374 L
488.23 374 L
488.338 374 L
488.447 374 L
488.555 374 L
488.664 374 L
488.772 374 L
488.881 374 L
488.989 374 L
489.098 374 L
489.206 374 L
489.315 374 L
489.423 374 L
489.531 374 L
489.64 374 L
489.64 374 L
489.749 374 L
489.857 374 L
489.965 374 L
490.074 374 L
490.182 374 L
490.291 374 L
490.399 374 L
490.508 374 L
490.616 374 L
490.725 374 L
490.833 374 L
490.942 374 L
491.05 374 L
491.159 374 L
S
GR
GS
[0.75 0 0 0.75 0 0] CT
0 0.447 0.741 RC
2 LJ
N
491.159 374 M
491.267 374 L
491.376 374 L
491.484 374 L
491.593 374 L
491.701 374 L
491.81 374 L
491.918 374 L
492.027 374 L
492.135 374 L
492.244 374 L
492.352 374 L
492.461 374 L
492.569 374 L
492.678 374 L
492.786 374 L
492.895 374 L
493.003 374 L
493.112 374 L
493.22 374 L
493.329 374 L
493.438 374 L
493.546 374 L
493.655 374 L
493.763 374 L
493.871 374 L
493.98 374 L
493.98 374 L
494.089 374 L
494.197 374 L
494.306 374 L
494.414 374 L
494.522 374 L
494.631 374 L
494.74 374 L
494.848 374 L
494.957 374 L
495.065 374 L
495.173 374 L
495.282 374 L
495.391 374 L
495.499 374 L
495.608 374 L
495.716 374 L
495.824 374 L
495.933 374 L
496.042 374 L
496.15 374 L
496.259 374 L
496.367 374 L
S
GR
GS
[0.75 0 0 0.75 0 0] CT
0 0.447 0.741 RC
2 LJ
N
496.367 374 M
496.475 374 L
496.584 374 L
496.693 374 L
496.801 374 L
496.91 374 L
497.018 374 L
497.126 374 L
497.235 374 L
497.344 374 L
497.452 374 L
497.561 374 L
497.669 374 L
497.777 374 L
497.886 374 L
497.995 374 L
498.103 374 L
498.212 374 L
498.32 374 L
498.32 374 L
498.428 374 L
498.537 374 L
498.646 374 L
498.754 374 L
498.863 374 L
498.971 374 L
499.079 374 L
499.188 374 L
499.297 374 L
499.405 374 L
499.514 374 L
499.622 374 L
499.73 374 L
499.839 374 L
499.948 374 L
500.056 374 L
500.165 374 L
500.273 374 L
500.382 374 L
500.49 374 L
500.599 374 L
500.707 374 L
500.816 374 L
500.924 374 L
501.033 374 L
501.141 374 L
501.25 374 L
501.358 374 L
501.466 374 L
501.575 374 L
S
GR
GS
[0.75 0 0 0.75 0 0] CT
0 0.447 0.741 RC
2 LJ
N
501.575 374 M
501.684 374 L
501.792 374 L
501.9 374 L
502.009 374 L
502.117 374 L
502.226 374 L
502.334 374 L
502.443 374 L
502.551 374 L
502.66 374 L
502.66 374 L
502.768 374 L
502.877 374 L
502.986 374 L
503.094 374 L
503.202 374 L
503.311 374 L
503.419 374 L
503.528 374 L
503.637 374 L
503.745 374 L
503.853 374 L
503.962 374 L
504.07 374 L
504.179 374 L
504.288 374 L
504.396 374 L
504.504 374 L
504.613 374 L
504.721 374 L
504.83 374 L
504.939 374 L
505.047 374 L
505.155 374 L
505.264 374 L
505.372 374 L
505.481 374 L
505.59 374 L
505.698 374 L
505.806 374 L
505.915 374 L
506.023 374 L
506.132 374 L
506.241 374 L
506.349 374 L
506.457 374 L
506.566 374 L
506.674 374 L
506.783 374 L
S
GR
GS
[0.75 0 0 0.75 0 0] CT
0 0.447 0.741 RC
2 LJ
N
506.783 374 M
506.892 374 L
507 374 L
S
GR
GS
[0.75 0 0 0.75 217.50021 21.18751] CT
/Helvetica-Bold 15 F
GS
[1 0 0 1 0 0] CT
-59 -4 moveto 
1 -1 scale
(tF = 61.17 \(h\)) t 
GR
GR
%%Trailer
%%Pages: 1
%%EOF
