\contentsline {chapter}{\numberline {1}Introduction}{5}{chapter.1}
\contentsline {section}{\numberline {1.1}Catalysts mixing problem}{5}{section.1.1}
\contentsline {section}{\numberline {1.2}Performance index}{5}{section.1.2}
\contentsline {chapter}{\numberline {2}Results}{6}{chapter.2}
\contentsline {chapter}{Bibliography}{9}{chapter*.6}
