\relax 
\providecommand\hyper@newdestlabel[2]{}
\providecommand\HyperFirstAtBeginDocument{\AtBeginDocument}
\HyperFirstAtBeginDocument{\ifx\hyper@anchor\@undefined
\global\let\oldcontentsline\contentsline
\gdef\contentsline#1#2#3#4{\oldcontentsline{#1}{#2}{#3}}
\global\let\oldnewlabel\newlabel
\gdef\newlabel#1#2{\newlabelxx{#1}#2}
\gdef\newlabelxx#1#2#3#4#5#6{\oldnewlabel{#1}{{#2}{#3}}}
\AtEndDocument{\ifx\hyper@anchor\@undefined
\let\contentsline\oldcontentsline
\let\newlabel\oldnewlabel
\fi}
\fi}
\global\let\hyper@last\relax 
\gdef\HyperFirstAtBeginDocument#1{#1}
\providecommand\HyField@AuxAddToFields[1]{}
\providecommand\HyField@AuxAddToCoFields[2]{}
\citation{Huang02}
\@writefile{toc}{\contentsline {section}{\numberline {1}Introduction}{3}{section.1}}
\@writefile{lof}{\contentsline {figure}{\numberline {1}{\ignorespaces Illustration of multi shooting method\relax }}{3}{figure.caption.1}}
\providecommand*\caption@xref[2]{\@setref\relax\@undefined{#1}}
\newlabel{fig:msm}{{1}{3}{Illustration of multi shooting method\relax }{figure.caption.1}{}}
\@writefile{toc}{\contentsline {section}{\numberline {2}Results}{4}{section.2}}
\@writefile{lof}{\contentsline {figure}{\numberline {2}{\ignorespaces Stage trajectories and control function profile\relax }}{4}{figure.caption.2}}
\@writefile{lof}{\contentsline {figure}{\numberline {3}{\ignorespaces Stage trajectories and control function profile\relax }}{4}{figure.caption.3}}
\citation{*}
\bibstyle{plain}
\bibdata{bibliography/biblio}
\@writefile{lof}{\contentsline {figure}{\numberline {4}{\ignorespaces Stage trajectories and control function profile\relax }}{5}{figure.caption.4}}
\@writefile{lof}{\contentsline {figure}{\numberline {5}{\ignorespaces Stage trajectories and control function profile\relax }}{5}{figure.caption.5}}
\@writefile{toc}{\contentsline {section}{\numberline {3}Conclusion}{5}{section.3}}
\bibcite{Huang02}{1}
\@writefile{toc}{\contentsline {chapter}{Bibliography}{6}{section*.6}}
