\relax 
\providecommand\hyper@newdestlabel[2]{}
\providecommand\HyperFirstAtBeginDocument{\AtBeginDocument}
\HyperFirstAtBeginDocument{\ifx\hyper@anchor\@undefined
\global\let\oldcontentsline\contentsline
\gdef\contentsline#1#2#3#4{\oldcontentsline{#1}{#2}{#3}}
\global\let\oldnewlabel\newlabel
\gdef\newlabel#1#2{\newlabelxx{#1}#2}
\gdef\newlabelxx#1#2#3#4#5#6{\oldnewlabel{#1}{{#2}{#3}}}
\AtEndDocument{\ifx\hyper@anchor\@undefined
\let\contentsline\oldcontentsline
\let\newlabel\oldnewlabel
\fi}
\fi}
\global\let\hyper@last\relax 
\gdef\HyperFirstAtBeginDocument#1{#1}
\providecommand\HyField@AuxAddToFields[1]{}
\providecommand\HyField@AuxAddToCoFields[2]{}
\@writefile{toc}{\contentsline {chapter}{\numberline {1}Introduction}{5}{chapter.1}}
\@writefile{lof}{\addvspace {10\p@ }}
\@writefile{lot}{\addvspace {10\p@ }}
\@writefile{toc}{\contentsline {chapter}{\numberline {2}Implementation in MATLAB}{7}{chapter.2}}
\@writefile{lof}{\addvspace {10\p@ }}
\@writefile{lot}{\addvspace {10\p@ }}
\@writefile{toc}{\contentsline {chapter}{\numberline {3}Results}{10}{chapter.3}}
\@writefile{lof}{\addvspace {10\p@ }}
\@writefile{lot}{\addvspace {10\p@ }}
\@writefile{lof}{\contentsline {figure}{\numberline {3.1}{\ignorespaces Changing of performance index depends on time $t_1$\relax }}{10}{figure.caption.2}}
\providecommand*\caption@xref[2]{\@setref\relax\@undefined{#1}}
\newlabel{Ct1}{{3.1}{10}{Changing of performance index depends on time $t_1$\relax }{figure.caption.2}{}}
\citation{Vassiliadis94}
\citation{*}
\bibstyle{plain}
\bibdata{bibliography/kkr-utf8}
\@writefile{lof}{\contentsline {figure}{\numberline {3.2}{\ignorespaces Changing of performance index depends on temperature $T$\relax }}{11}{figure.caption.3}}
\newlabel{CT}{{3.2}{11}{Changing of performance index depends on temperature $T$\relax }{figure.caption.3}{}}
\@writefile{lof}{\contentsline {figure}{\numberline {3.3}{\ignorespaces Changing of performance index depends on $S$\relax }}{12}{figure.caption.4}}
\newlabel{CS}{{3.3}{12}{Changing of performance index depends on $S$\relax }{figure.caption.4}{}}
\@writefile{lof}{\contentsline {figure}{\numberline {3.4}{\ignorespaces Changing of performance index depends on time $t_1$ and temperature $T$\relax }}{12}{figure.caption.5}}
\newlabel{Ct1T}{{3.4}{12}{Changing of performance index depends on time $t_1$ and temperature $T$\relax }{figure.caption.5}{}}
\@writefile{lof}{\contentsline {figure}{\numberline {3.5}{\ignorespaces Changing of concentration $C_A$, $C_B$, $C_C$ depends on time $t$\relax }}{13}{figure.caption.6}}
\newlabel{C1t}{{3.5}{13}{Changing of concentration $C_A$, $C_B$, $C_C$ depends on time $t$\relax }{figure.caption.6}{}}
\@writefile{lof}{\contentsline {figure}{\numberline {3.6}{\ignorespaces Changing of concentration $C_D$, $C_E$, $C_F$ depends on time $t$\relax }}{13}{figure.caption.7}}
\newlabel{C2t}{{3.6}{13}{Changing of concentration $C_D$, $C_E$, $C_F$ depends on time $t$\relax }{figure.caption.7}{}}
\@writefile{lof}{\contentsline {figure}{\numberline {3.7}{\ignorespaces Changing of performance index depends on time $t_1$ and temperature $T$\relax }}{14}{figure.caption.8}}
\newlabel{Ct1T1}{{3.7}{14}{Changing of performance index depends on time $t_1$ and temperature $T$\relax }{figure.caption.8}{}}
\@writefile{lof}{\contentsline {figure}{\numberline {3.8}{\ignorespaces Changing of concentration $C_A$, $C_B$, $C_C$ depends on time $t$\relax }}{14}{figure.caption.9}}
\newlabel{C1t1}{{3.8}{14}{Changing of concentration $C_A$, $C_B$, $C_C$ depends on time $t$\relax }{figure.caption.9}{}}
\@writefile{lof}{\contentsline {figure}{\numberline {3.9}{\ignorespaces Changing of concentration $C_D$, $C_E$, $C_F$ depends on time $t$\relax }}{15}{figure.caption.10}}
\newlabel{C2t2}{{3.9}{15}{Changing of concentration $C_D$, $C_E$, $C_F$ depends on time $t$\relax }{figure.caption.10}{}}
\bibcite{Andersson2013b}{1}
\bibcite{Chojnacki2015}{2}
\bibcite{Hunter:2007}{3}
\bibcite{LiftedNewton}{4}
\bibcite{MotionPlanning}{5}
\bibcite{ControlSystem}{6}
\bibcite{SciPy}{7}
\bibcite{OROCOS}{8}
\bibcite{PSF}{9}
\bibcite{multiprocessing}{10}
\bibcite{ROS}{11}
\bibcite{Rossum:1995:PRM:869369}{12}
\bibcite{Xenomai}{13}
\bibcite{Zielinski2004}{14}
\bibcite{Chojnacki2016}{15}
\@writefile{toc}{\contentsline {chapter}{Bibliography}{16}{chapter*.11}}
