\contentsline {chapter}{\numberline {1}Introduction}{5}{chapter.1}
\contentsline {chapter}{\numberline {2}Implementation in MATLAB}{7}{chapter.2}
\contentsline {chapter}{\numberline {3}Results}{10}{chapter.3}
\contentsline {chapter}{Bibliography}{16}{chapter*.11}
