%!PS-Adobe-3.0 EPSF-3.0
%%Creator: (MATLAB, The Mathworks, Inc. Version 8.5.0.197613 \(R2015a\). Operating System: Linux)
%%Title: raport/chapter3/figures/10.eps
%%CreationDate: 2016-04-25T00:19:01
%%Pages: (atend)
%%BoundingBox: (atend)
%%LanguageLevel: 3
%%EndComments
%%BeginProlog
%%BeginResource: procset (Apache XML Graphics Std ProcSet) 1.2 0
%%Version: 1.2 0
%%Copyright: (Copyright 2001-2003,2010 The Apache Software Foundation. License terms: http://www.apache.org/licenses/LICENSE-2.0)
/bd{bind def}bind def
/ld{load def}bd
/GR/grestore ld
/M/moveto ld
/LJ/setlinejoin ld
/C/curveto ld
/f/fill ld
/LW/setlinewidth ld
/GC/setgray ld
/t/show ld
/N/newpath ld
/CT/concat ld
/cp/closepath ld
/S/stroke ld
/L/lineto ld
/CC/setcmykcolor ld
/A/ashow ld
/GS/gsave ld
/RC/setrgbcolor ld
/RM/rmoveto ld
/ML/setmiterlimit ld
/re {4 2 roll M
1 index 0 rlineto
0 exch rlineto
neg 0 rlineto
cp } bd
/_ctm matrix def
/_tm matrix def
/BT { _ctm currentmatrix pop matrix _tm copy pop 0 0 moveto } bd
/ET { _ctm setmatrix } bd
/iTm { _ctm setmatrix _tm concat } bd
/Tm { _tm astore pop iTm 0 0 moveto } bd
/ux 0.0 def
/uy 0.0 def
/F {
  /Tp exch def
  /Tf exch def
  Tf findfont Tp scalefont setfont
  /cf Tf def  /cs Tp def
} bd
/ULS {currentpoint /uy exch def /ux exch def} bd
/ULE {
  /Tcx currentpoint pop def
  gsave
  newpath
  cf findfont cs scalefont dup
  /FontMatrix get 0 get /Ts exch def /FontInfo get dup
  /UnderlinePosition get Ts mul /To exch def
  /UnderlineThickness get Ts mul /Tt exch def
  ux uy To add moveto  Tcx uy To add lineto
  Tt setlinewidth stroke
  grestore
} bd
/OLE {
  /Tcx currentpoint pop def
  gsave
  newpath
  cf findfont cs scalefont dup
  /FontMatrix get 0 get /Ts exch def /FontInfo get dup
  /UnderlinePosition get Ts mul /To exch def
  /UnderlineThickness get Ts mul /Tt exch def
  ux uy To add cs add moveto Tcx uy To add cs add lineto
  Tt setlinewidth stroke
  grestore
} bd
/SOE {
  /Tcx currentpoint pop def
  gsave
  newpath
  cf findfont cs scalefont dup
  /FontMatrix get 0 get /Ts exch def /FontInfo get dup
  /UnderlinePosition get Ts mul /To exch def
  /UnderlineThickness get Ts mul /Tt exch def
  ux uy To add cs 10 mul 26 idiv add moveto Tcx uy To add cs 10 mul 26 idiv add lineto
  Tt setlinewidth stroke
  grestore
} bd
/QT {
/Y22 exch store
/X22 exch store
/Y21 exch store
/X21 exch store
currentpoint
/Y21 load 2 mul add 3 div exch
/X21 load 2 mul add 3 div exch
/X21 load 2 mul /X22 load add 3 div
/Y21 load 2 mul /Y22 load add 3 div
/X22 load /Y22 load curveto
} bd
/SSPD {
dup length /d exch dict def
{
/v exch def
/k exch def
currentpagedevice k known {
/cpdv currentpagedevice k get def
v cpdv ne {
/upd false def
/nullv v type /nulltype eq def
/nullcpdv cpdv type /nulltype eq def
nullv nullcpdv or
{
/upd true def
} {
/sametype v type cpdv type eq def
sametype {
v type /arraytype eq {
/vlen v length def
/cpdvlen cpdv length def
vlen cpdvlen eq {
0 1 vlen 1 sub {
/i exch def
/obj v i get def
/cpdobj cpdv i get def
obj cpdobj ne {
/upd true def
exit
} if
} for
} {
/upd true def
} ifelse
} {
v type /dicttype eq {
v {
/dv exch def
/dk exch def
/cpddv cpdv dk get def
dv cpddv ne {
/upd true def
exit
} if
} forall
} {
/upd true def
} ifelse
} ifelse
} if
} ifelse
upd true eq {
d k v put
} if
} if
} if
} forall
d length 0 gt {
d setpagedevice
} if
} bd
%%EndResource
%%BeginResource: procset (Apache XML Graphics EPS ProcSet) 1.0 0
%%Version: 1.0 0
%%Copyright: (Copyright 2002-2003 The Apache Software Foundation. License terms: http://www.apache.org/licenses/LICENSE-2.0)
/BeginEPSF { %def
/b4_Inc_state save def         % Save state for cleanup
/dict_count countdictstack def % Count objects on dict stack
/op_count count 1 sub def      % Count objects on operand stack
userdict begin                 % Push userdict on dict stack
/showpage { } def              % Redefine showpage, { } = null proc
0 setgray 0 setlinecap         % Prepare graphics state
1 setlinewidth 0 setlinejoin
10 setmiterlimit [ ] 0 setdash newpath
/languagelevel where           % If level not equal to 1 then
{pop languagelevel             % set strokeadjust and
1 ne                           % overprint to their defaults.
{false setstrokeadjust false setoverprint
} if
} if
} bd
/EndEPSF { %def
count op_count sub {pop} repeat            % Clean up stacks
countdictstack dict_count sub {end} repeat
b4_Inc_state restore
} bd
%%EndResource
%FOPBeginFontDict
%%IncludeResource: font Courier-Bold
%%IncludeResource: font Helvetica
%%IncludeResource: font Courier-BoldOblique
%%IncludeResource: font Courier-Oblique
%%IncludeResource: font Times-Roman
%%IncludeResource: font Helvetica-BoldOblique
%%IncludeResource: font Helvetica-Bold
%%IncludeResource: font Helvetica-Oblique
%%IncludeResource: font Times-BoldItalic
%%IncludeResource: font Courier
%%IncludeResource: font Times-Italic
%%IncludeResource: font Times-Bold
%%IncludeResource: font Symbol
%%IncludeResource: font ZapfDingbats
%FOPEndFontDict
%%BeginResource: encoding WinAnsiEncoding
/WinAnsiEncoding [
/.notdef /.notdef /.notdef /.notdef /.notdef
/.notdef /.notdef /.notdef /.notdef /.notdef
/.notdef /.notdef /.notdef /.notdef /.notdef
/.notdef /.notdef /.notdef /.notdef /.notdef
/.notdef /.notdef /.notdef /.notdef /.notdef
/.notdef /.notdef /.notdef /.notdef /.notdef
/.notdef /.notdef /space /exclam /quotedbl
/numbersign /dollar /percent /ampersand /quotesingle
/parenleft /parenright /asterisk /plus /comma
/hyphen /period /slash /zero /one
/two /three /four /five /six
/seven /eight /nine /colon /semicolon
/less /equal /greater /question /at
/A /B /C /D /E
/F /G /H /I /J
/K /L /M /N /O
/P /Q /R /S /T
/U /V /W /X /Y
/Z /bracketleft /backslash /bracketright /asciicircum
/underscore /quoteleft /a /b /c
/d /e /f /g /h
/i /j /k /l /m
/n /o /p /q /r
/s /t /u /v /w
/x /y /z /braceleft /bar
/braceright /asciitilde /bullet /Euro /bullet
/quotesinglbase /florin /quotedblbase /ellipsis /dagger
/daggerdbl /circumflex /perthousand /Scaron /guilsinglleft
/OE /bullet /Zcaron /bullet /bullet
/quoteleft /quoteright /quotedblleft /quotedblright /bullet
/endash /emdash /asciitilde /trademark /scaron
/guilsinglright /oe /bullet /zcaron /Ydieresis
/space /exclamdown /cent /sterling /currency
/yen /brokenbar /section /dieresis /copyright
/ordfeminine /guillemotleft /logicalnot /sfthyphen /registered
/macron /degree /plusminus /twosuperior /threesuperior
/acute /mu /paragraph /middot /cedilla
/onesuperior /ordmasculine /guillemotright /onequarter /onehalf
/threequarters /questiondown /Agrave /Aacute /Acircumflex
/Atilde /Adieresis /Aring /AE /Ccedilla
/Egrave /Eacute /Ecircumflex /Edieresis /Igrave
/Iacute /Icircumflex /Idieresis /Eth /Ntilde
/Ograve /Oacute /Ocircumflex /Otilde /Odieresis
/multiply /Oslash /Ugrave /Uacute /Ucircumflex
/Udieresis /Yacute /Thorn /germandbls /agrave
/aacute /acircumflex /atilde /adieresis /aring
/ae /ccedilla /egrave /eacute /ecircumflex
/edieresis /igrave /iacute /icircumflex /idieresis
/eth /ntilde /ograve /oacute /ocircumflex
/otilde /odieresis /divide /oslash /ugrave
/uacute /ucircumflex /udieresis /yacute /thorn
/ydieresis
] def
%%EndResource
%FOPBeginFontReencode
/Courier-Bold findfont
dup length dict begin
  {1 index /FID ne {def} {pop pop} ifelse} forall
  /Encoding WinAnsiEncoding def
  currentdict
end
/Courier-Bold exch definefont pop
/Helvetica findfont
dup length dict begin
  {1 index /FID ne {def} {pop pop} ifelse} forall
  /Encoding WinAnsiEncoding def
  currentdict
end
/Helvetica exch definefont pop
/Courier-BoldOblique findfont
dup length dict begin
  {1 index /FID ne {def} {pop pop} ifelse} forall
  /Encoding WinAnsiEncoding def
  currentdict
end
/Courier-BoldOblique exch definefont pop
/Courier-Oblique findfont
dup length dict begin
  {1 index /FID ne {def} {pop pop} ifelse} forall
  /Encoding WinAnsiEncoding def
  currentdict
end
/Courier-Oblique exch definefont pop
/Times-Roman findfont
dup length dict begin
  {1 index /FID ne {def} {pop pop} ifelse} forall
  /Encoding WinAnsiEncoding def
  currentdict
end
/Times-Roman exch definefont pop
/Helvetica-BoldOblique findfont
dup length dict begin
  {1 index /FID ne {def} {pop pop} ifelse} forall
  /Encoding WinAnsiEncoding def
  currentdict
end
/Helvetica-BoldOblique exch definefont pop
/Helvetica-Bold findfont
dup length dict begin
  {1 index /FID ne {def} {pop pop} ifelse} forall
  /Encoding WinAnsiEncoding def
  currentdict
end
/Helvetica-Bold exch definefont pop
/Helvetica-Oblique findfont
dup length dict begin
  {1 index /FID ne {def} {pop pop} ifelse} forall
  /Encoding WinAnsiEncoding def
  currentdict
end
/Helvetica-Oblique exch definefont pop
/Times-BoldItalic findfont
dup length dict begin
  {1 index /FID ne {def} {pop pop} ifelse} forall
  /Encoding WinAnsiEncoding def
  currentdict
end
/Times-BoldItalic exch definefont pop
/Courier findfont
dup length dict begin
  {1 index /FID ne {def} {pop pop} ifelse} forall
  /Encoding WinAnsiEncoding def
  currentdict
end
/Courier exch definefont pop
/Times-Italic findfont
dup length dict begin
  {1 index /FID ne {def} {pop pop} ifelse} forall
  /Encoding WinAnsiEncoding def
  currentdict
end
/Times-Italic exch definefont pop
/Times-Bold findfont
dup length dict begin
  {1 index /FID ne {def} {pop pop} ifelse} forall
  /Encoding WinAnsiEncoding def
  currentdict
end
/Times-Bold exch definefont pop
%FOPEndFontReencode
%%EndProlog
%%Page: 1 1
%%PageBoundingBox: 0 0 744 299
%%BeginPageSetup
[1 0 0 -1 0 299] CT
%%EndPageSetup
GS
[0.75 0 0 0.75 0 -0.25] CT
N
0 0 M
992 0 L
992 399 L
0 399 L
0 0 L
cp
clip
1 GC
N
0 0 992 399 re
f
GR
GS
[0.75 0 0 0.75 0 -0.25] CT
1 GC
N
0 0 992 399 re
f
GR
GS
[0.75 0 0 0.75 0 -0.25] CT
1 GC
N
129 355 M
461 355 L
461 30 L
129 30 L
cp
f
GR
GS
[0.75 0 0 0.75 0 -0.25] CT
0.873 GC
2 setlinecap
10.0 ML
N
129 355 M
129 30 L
S
GR
GS
[0.75 0 0 0.75 0 -0.25] CT
0.873 GC
2 setlinecap
10.0 ML
N
195.4 355 M
195.4 30 L
S
GR
GS
[0.75 0 0 0.75 0 -0.25] CT
0.873 GC
2 setlinecap
10.0 ML
N
261.8 355 M
261.8 30 L
S
GR
GS
[0.75 0 0 0.75 0 -0.25] CT
0.873 GC
2 setlinecap
10.0 ML
N
328.2 355 M
328.2 30 L
S
GR
GS
[0.75 0 0 0.75 0 -0.25] CT
0.873 GC
2 setlinecap
10.0 ML
N
394.6 355 M
394.6 30 L
S
GR
GS
[0.75 0 0 0.75 0 -0.25] CT
0.873 GC
2 setlinecap
10.0 ML
N
461 355 M
461 30 L
S
GR
GS
[0.75 0 0 0.75 0 -0.25] CT
0.873 GC
2 setlinecap
10.0 ML
N
461 355 M
129 355 L
S
GR
GS
[0.75 0 0 0.75 0 -0.25] CT
0.873 GC
2 setlinecap
10.0 ML
N
461 322.5 M
129 322.5 L
S
GR
GS
[0.75 0 0 0.75 0 -0.25] CT
0.873 GC
2 setlinecap
10.0 ML
N
461 290 M
129 290 L
S
GR
GS
[0.75 0 0 0.75 0 -0.25] CT
0.873 GC
2 setlinecap
10.0 ML
N
461 257.5 M
129 257.5 L
S
GR
GS
[0.75 0 0 0.75 0 -0.25] CT
0.873 GC
2 setlinecap
10.0 ML
N
461 225 M
129 225 L
S
GR
GS
[0.75 0 0 0.75 0 -0.25] CT
0.873 GC
2 setlinecap
10.0 ML
N
461 192.5 M
129 192.5 L
S
GR
GS
[0.75 0 0 0.75 0 -0.25] CT
0.873 GC
2 setlinecap
10.0 ML
N
461 160 M
129 160 L
S
GR
GS
[0.75 0 0 0.75 0 -0.25] CT
0.873 GC
2 setlinecap
10.0 ML
N
461 127.5 M
129 127.5 L
S
GR
GS
[0.75 0 0 0.75 0 -0.25] CT
0.873 GC
2 setlinecap
10.0 ML
N
461 95 M
129 95 L
S
GR
GS
[0.75 0 0 0.75 0 -0.25] CT
0.873 GC
2 setlinecap
10.0 ML
N
461 62.5 M
129 62.5 L
S
GR
GS
[0.75 0 0 0.75 0 -0.25] CT
0.873 GC
2 setlinecap
10.0 ML
N
461 30 M
129 30 L
S
GR
GS
[0.75 0 0 0.75 221.25011 283.74999] CT
0.149 GC
/Helvetica 15 F
GS
[1 0 0 1 0 0] CT
-29.5 14 moveto 
1 -1 scale
(time \(s\)) t 
GR
GR
GS
[0.75 0 0 0.75 0 -0.25] CT
0.149 GC
2 setlinecap
10.0 ML
N
129 355 M
461 355 L
S
GR
GS
[0.75 0 0 0.75 0 -0.25] CT
0.149 GC
2 setlinecap
10.0 ML
N
129 30 M
461 30 L
S
GR
GS
[0.75 0 0 0.75 0 -0.25] CT
0.149 GC
2 setlinecap
10.0 ML
N
129 355 M
129 351.68 L
S
GR
GS
[0.75 0 0 0.75 0 -0.25] CT
0.149 GC
2 setlinecap
10.0 ML
N
195.4 355 M
195.4 351.68 L
S
GR
GS
[0.75 0 0 0.75 0 -0.25] CT
0.149 GC
2 setlinecap
10.0 ML
N
261.8 355 M
261.8 351.68 L
S
GR
GS
[0.75 0 0 0.75 0 -0.25] CT
0.149 GC
2 setlinecap
10.0 ML
N
328.2 355 M
328.2 351.68 L
S
GR
GS
[0.75 0 0 0.75 0 -0.25] CT
0.149 GC
2 setlinecap
10.0 ML
N
394.6 355 M
394.6 351.68 L
S
GR
GS
[0.75 0 0 0.75 0 -0.25] CT
0.149 GC
2 setlinecap
10.0 ML
N
461 355 M
461 351.68 L
S
GR
GS
[0.75 0 0 0.75 0 -0.25] CT
0.149 GC
2 setlinecap
10.0 ML
N
129 30 M
129 33.32 L
S
GR
GS
[0.75 0 0 0.75 0 -0.25] CT
0.149 GC
2 setlinecap
10.0 ML
N
195.4 30 M
195.4 33.32 L
S
GR
GS
[0.75 0 0 0.75 0 -0.25] CT
0.149 GC
2 setlinecap
10.0 ML
N
261.8 30 M
261.8 33.32 L
S
GR
GS
[0.75 0 0 0.75 0 -0.25] CT
0.149 GC
2 setlinecap
10.0 ML
N
328.2 30 M
328.2 33.32 L
S
GR
GS
[0.75 0 0 0.75 0 -0.25] CT
0.149 GC
2 setlinecap
10.0 ML
N
394.6 30 M
394.6 33.32 L
S
GR
GS
[0.75 0 0 0.75 0 -0.25] CT
0.149 GC
2 setlinecap
10.0 ML
N
461 30 M
461 33.32 L
S
GR
GS
[0.75 0 0 0.75 96.75 270.00001] CT
0.149 GC
/Helvetica 13 F
GS
[1 0 0 1 0 0] CT
-4.5 13 moveto 
1 -1 scale
(0) t 
GR
GR
GS
[0.75 0 0 0.75 146.55 270.00001] CT
0.149 GC
/Helvetica 13 F
GS
[1 0 0 1 0 0] CT
-10.5 13 moveto 
1 -1 scale
(0.2) t 
GR
GR
GS
[0.75 0 0 0.75 196.34999 270.00001] CT
0.149 GC
/Helvetica 13 F
GS
[1 0 0 1 0 0] CT
-10.5 13 moveto 
1 -1 scale
(0.4) t 
GR
GR
GS
[0.75 0 0 0.75 246.15001 270.00001] CT
0.149 GC
/Helvetica 13 F
GS
[1 0 0 1 0 0] CT
-10.5 13 moveto 
1 -1 scale
(0.6) t 
GR
GR
GS
[0.75 0 0 0.75 295.95 270.00001] CT
0.149 GC
/Helvetica 13 F
GS
[1 0 0 1 0 0] CT
-10.5 13 moveto 
1 -1 scale
(0.8) t 
GR
GR
GS
[0.75 0 0 0.75 345.75 270.00001] CT
0.149 GC
/Helvetica 13 F
GS
[1 0 0 1 0 0] CT
-4.5 13 moveto 
1 -1 scale
(1) t 
GR
GR
GS
[0 -0.75 0.75 0 74 144.12489] CT
0.149 GC
/Helvetica 15 F
GS
[1 0 0 1 0 0] CT
-4.5 -4 moveto 
1 -1 scale
(x) t 
GR
GR
GS
[0.75 0 0 0.75 0 -0.25] CT
0.149 GC
2 setlinecap
10.0 ML
N
129 355 M
129 30 L
S
GR
GS
[0.75 0 0 0.75 0 -0.25] CT
0.149 GC
2 setlinecap
10.0 ML
N
461 355 M
461 30 L
S
GR
GS
[0.75 0 0 0.75 0 -0.25] CT
0.149 GC
2 setlinecap
10.0 ML
N
129 355 M
132.32 355 L
S
GR
GS
[0.75 0 0 0.75 0 -0.25] CT
0.149 GC
2 setlinecap
10.0 ML
N
129 322.5 M
132.32 322.5 L
S
GR
GS
[0.75 0 0 0.75 0 -0.25] CT
0.149 GC
2 setlinecap
10.0 ML
N
129 290 M
132.32 290 L
S
GR
GS
[0.75 0 0 0.75 0 -0.25] CT
0.149 GC
2 setlinecap
10.0 ML
N
129 257.5 M
132.32 257.5 L
S
GR
GS
[0.75 0 0 0.75 0 -0.25] CT
0.149 GC
2 setlinecap
10.0 ML
N
129 225 M
132.32 225 L
S
GR
GS
[0.75 0 0 0.75 0 -0.25] CT
0.149 GC
2 setlinecap
10.0 ML
N
129 192.5 M
132.32 192.5 L
S
GR
GS
[0.75 0 0 0.75 0 -0.25] CT
0.149 GC
2 setlinecap
10.0 ML
N
129 160 M
132.32 160 L
S
GR
GS
[0.75 0 0 0.75 0 -0.25] CT
0.149 GC
2 setlinecap
10.0 ML
N
129 127.5 M
132.32 127.5 L
S
GR
GS
[0.75 0 0 0.75 0 -0.25] CT
0.149 GC
2 setlinecap
10.0 ML
N
129 95 M
132.32 95 L
S
GR
GS
[0.75 0 0 0.75 0 -0.25] CT
0.149 GC
2 setlinecap
10.0 ML
N
129 62.5 M
132.32 62.5 L
S
GR
GS
[0.75 0 0 0.75 0 -0.25] CT
0.149 GC
2 setlinecap
10.0 ML
N
129 30 M
132.32 30 L
S
GR
GS
[0.75 0 0 0.75 0 -0.25] CT
0.149 GC
2 setlinecap
10.0 ML
N
461 355 M
457.68 355 L
S
GR
GS
[0.75 0 0 0.75 0 -0.25] CT
0.149 GC
2 setlinecap
10.0 ML
N
461 322.5 M
457.68 322.5 L
S
GR
GS
[0.75 0 0 0.75 0 -0.25] CT
0.149 GC
2 setlinecap
10.0 ML
N
461 290 M
457.68 290 L
S
GR
GS
[0.75 0 0 0.75 0 -0.25] CT
0.149 GC
2 setlinecap
10.0 ML
N
461 257.5 M
457.68 257.5 L
S
GR
GS
[0.75 0 0 0.75 0 -0.25] CT
0.149 GC
2 setlinecap
10.0 ML
N
461 225 M
457.68 225 L
S
GR
GS
[0.75 0 0 0.75 0 -0.25] CT
0.149 GC
2 setlinecap
10.0 ML
N
461 192.5 M
457.68 192.5 L
S
GR
GS
[0.75 0 0 0.75 0 -0.25] CT
0.149 GC
2 setlinecap
10.0 ML
N
461 160 M
457.68 160 L
S
GR
GS
[0.75 0 0 0.75 0 -0.25] CT
0.149 GC
2 setlinecap
10.0 ML
N
461 127.5 M
457.68 127.5 L
S
GR
GS
[0.75 0 0 0.75 0 -0.25] CT
0.149 GC
2 setlinecap
10.0 ML
N
461 95 M
457.68 95 L
S
GR
GS
[0.75 0 0 0.75 0 -0.25] CT
0.149 GC
2 setlinecap
10.0 ML
N
461 62.5 M
457.68 62.5 L
S
GR
GS
[0.75 0 0 0.75 0 -0.25] CT
0.149 GC
2 setlinecap
10.0 ML
N
461 30 M
457.68 30 L
S
GR
GS
[0.75 0 0 0.75 92.75 266] CT
0.149 GC
/Helvetica 13 F
GS
[1 0 0 1 0 0] CT
-9 4.5 moveto 
1 -1 scale
(0) t 
GR
GR
GS
[0.75 0 0 0.75 92.75 241.625] CT
0.149 GC
/Helvetica 13 F
GS
[1 0 0 1 0 0] CT
-21 4.5 moveto 
1 -1 scale
(0.1) t 
GR
GR
GS
[0.75 0 0 0.75 92.75 217.25] CT
0.149 GC
/Helvetica 13 F
GS
[1 0 0 1 0 0] CT
-21 4.5 moveto 
1 -1 scale
(0.2) t 
GR
GR
GS
[0.75 0 0 0.75 92.75 192.875] CT
0.149 GC
/Helvetica 13 F
GS
[1 0 0 1 0 0] CT
-21 4.5 moveto 
1 -1 scale
(0.3) t 
GR
GR
GS
[0.75 0 0 0.75 92.75 168.5] CT
0.149 GC
/Helvetica 13 F
GS
[1 0 0 1 0 0] CT
-21 4.5 moveto 
1 -1 scale
(0.4) t 
GR
GR
GS
[0.75 0 0 0.75 92.75 144.125] CT
0.149 GC
/Helvetica 13 F
GS
[1 0 0 1 0 0] CT
-21 4.5 moveto 
1 -1 scale
(0.5) t 
GR
GR
GS
[0.75 0 0 0.75 92.75 119.74999] CT
0.149 GC
/Helvetica 13 F
GS
[1 0 0 1 0 0] CT
-21 4.5 moveto 
1 -1 scale
(0.6) t 
GR
GR
GS
[0.75 0 0 0.75 92.75 95.37501] CT
0.149 GC
/Helvetica 13 F
GS
[1 0 0 1 0 0] CT
-21 4.5 moveto 
1 -1 scale
(0.7) t 
GR
GR
GS
[0.75 0 0 0.75 92.75 70.99999] CT
0.149 GC
/Helvetica 13 F
GS
[1 0 0 1 0 0] CT
-21 4.5 moveto 
1 -1 scale
(0.8) t 
GR
GR
GS
[0.75 0 0 0.75 92.75 46.62501] CT
0.149 GC
/Helvetica 13 F
GS
[1 0 0 1 0 0] CT
-21 4.5 moveto 
1 -1 scale
(0.9) t 
GR
GR
GS
[0.75 0 0 0.75 92.75 22.25] CT
0.149 GC
/Helvetica 13 F
GS
[1 0 0 1 0 0] CT
-9 4.5 moveto 
1 -1 scale
(1) t 
GR
GR
GS
[0.75 0 0 0.75 0 -0.25] CT
0 0.447 0.741 RC
2 LJ
N
129 30 M
129.83 30.514 L
130.66 31.019 L
131.49 31.515 L
132.32 32.002 L
133.15 32.481 L
133.98 32.952 L
134.81 33.415 L
135.64 33.87 L
136.47 34.316 L
137.3 34.755 L
138.13 35.187 L
138.96 35.611 L
139.79 36.028 L
140.62 36.437 L
141.45 36.84 L
142.28 37.236 L
143.11 37.625 L
143.94 38.007 L
144.77 38.382 L
145.6 38.752 L
146.43 39.115 L
147.26 39.472 L
148.09 39.822 L
148.92 40.167 L
149.75 40.506 L
150.58 40.839 L
151.41 41.167 L
152.24 41.489 L
153.07 41.805 L
153.9 42.117 L
154.73 42.423 L
155.56 42.723 L
156.39 43.019 L
157.22 43.31 L
158.05 43.596 L
158.88 43.877 L
159.71 44.154 L
160.54 44.426 L
161.37 44.693 L
162.2 44.956 L
162.2 45.119 L
163.03 45.296 L
163.86 45.472 L
164.69 45.646 L
165.52 45.818 L
166.35 45.988 L
167.18 46.157 L
168.01 46.323 L
168.84 46.488 L
S
GR
GS
[0.75 0 0 0.75 0 -0.25] CT
0 0.447 0.741 RC
2 LJ
N
168.84 46.488 M
169.67 46.652 L
170.5 46.813 L
171.33 46.973 L
172.16 47.131 L
172.99 47.288 L
173.82 47.443 L
174.65 47.596 L
175.48 47.748 L
176.31 47.898 L
177.14 48.047 L
177.97 48.194 L
178.8 48.34 L
179.63 48.485 L
180.46 48.627 L
181.29 48.769 L
182.12 48.909 L
182.95 49.048 L
183.78 49.185 L
184.61 49.321 L
185.44 49.455 L
186.27 49.589 L
187.1 49.721 L
187.93 49.851 L
188.76 49.981 L
189.59 50.109 L
190.42 50.236 L
191.25 50.362 L
192.08 50.486 L
192.91 50.61 L
193.74 50.732 L
194.57 50.853 L
195.4 50.973 L
195.4 51.129 L
196.23 51.225 L
197.06 51.32 L
197.89 51.414 L
198.72 51.508 L
199.55 51.601 L
200.38 51.693 L
201.21 51.785 L
202.04 51.877 L
202.87 51.967 L
203.7 52.058 L
204.53 52.147 L
205.36 52.236 L
206.19 52.325 L
207.02 52.413 L
207.85 52.5 L
208.68 52.587 L
S
GR
GS
[0.75 0 0 0.75 0 -0.25] CT
0 0.447 0.741 RC
2 LJ
N
208.68 52.587 M
209.51 52.673 L
210.34 52.759 L
211.17 52.844 L
212 52.929 L
212.83 53.013 L
213.66 53.097 L
214.49 53.18 L
215.32 53.263 L
216.15 53.345 L
216.98 53.427 L
217.81 53.508 L
218.64 53.589 L
219.47 53.669 L
220.3 53.749 L
221.13 53.828 L
221.96 53.907 L
222.79 53.985 L
223.62 54.063 L
224.45 54.141 L
225.28 54.218 L
226.11 54.295 L
226.94 54.371 L
227.77 54.447 L
228.6 54.522 L
228.6 54.679 L
229.43 54.748 L
230.26 54.817 L
231.09 54.885 L
231.92 54.953 L
232.75 55.021 L
233.58 55.088 L
234.41 55.156 L
235.24 55.223 L
236.07 55.289 L
236.9 55.356 L
237.73 55.422 L
238.56 55.488 L
239.39 55.553 L
240.22 55.619 L
241.05 55.684 L
241.88 55.748 L
242.71 55.813 L
243.54 55.877 L
244.37 55.941 L
245.2 56.005 L
246.03 56.068 L
246.86 56.131 L
247.69 56.194 L
248.52 56.257 L
S
GR
GS
[0.75 0 0 0.75 0 -0.25] CT
0 0.447 0.741 RC
2 LJ
N
248.52 56.257 M
249.35 56.319 L
250.18 56.382 L
251.01 56.444 L
251.84 56.505 L
252.67 56.567 L
253.5 56.628 L
254.33 56.689 L
255.16 56.75 L
255.99 56.81 L
256.82 56.871 L
257.65 56.931 L
258.48 56.991 L
259.31 57.051 L
260.14 57.11 L
260.97 57.169 L
261.8 57.228 L
261.8 57.391 L
262.63 57.446 L
263.46 57.502 L
264.29 57.557 L
265.12 57.612 L
265.95 57.667 L
266.78 57.722 L
267.61 57.777 L
268.44 57.831 L
269.27 57.885 L
270.1 57.94 L
270.93 57.994 L
271.76 58.048 L
272.59 58.101 L
273.42 58.155 L
274.25 58.209 L
275.08 58.262 L
275.91 58.315 L
276.74 58.368 L
277.57 58.421 L
278.4 58.474 L
279.23 58.527 L
280.06 58.579 L
280.89 58.632 L
281.72 58.684 L
282.55 58.736 L
283.38 58.788 L
284.21 58.84 L
285.04 58.892 L
285.87 58.943 L
286.7 58.995 L
287.53 59.046 L
288.36 59.098 L
S
GR
GS
[0.75 0 0 0.75 0 -0.25] CT
0 0.447 0.741 RC
2 LJ
N
288.36 59.098 M
289.19 59.149 L
290.02 59.2 L
290.85 59.251 L
291.68 59.301 L
292.51 59.352 L
293.34 59.403 L
294.17 59.453 L
295 59.504 L
295 59.667 L
295.83 59.717 L
296.66 59.768 L
297.49 59.818 L
298.32 59.868 L
299.15 59.918 L
299.98 59.968 L
300.81 60.018 L
301.64 60.068 L
302.47 60.117 L
303.3 60.167 L
304.13 60.216 L
304.96 60.266 L
305.79 60.315 L
306.62 60.364 L
307.45 60.413 L
308.28 60.462 L
309.11 60.511 L
309.94 60.56 L
310.77 60.608 L
311.6 60.657 L
312.43 60.705 L
313.26 60.754 L
314.09 60.802 L
314.92 60.85 L
315.75 60.898 L
316.58 60.946 L
317.41 60.994 L
318.24 61.042 L
319.07 61.09 L
319.9 61.138 L
320.73 61.185 L
321.56 61.233 L
322.39 61.28 L
323.22 61.327 L
324.05 61.375 L
324.88 61.422 L
325.71 61.469 L
326.54 61.516 L
327.37 61.563 L
328.2 61.61 L
S
GR
GS
[0.75 0 0 0.75 0 -0.25] CT
0 0.447 0.741 RC
2 LJ
N
328.2 61.61 M
328.2 61.769 L
329.03 61.819 L
329.86 61.868 L
330.69 61.918 L
331.52 61.967 L
332.35 62.016 L
333.18 62.065 L
334.01 62.114 L
334.84 62.163 L
335.67 62.212 L
336.5 62.26 L
337.33 62.309 L
338.16 62.357 L
338.99 62.405 L
339.82 62.454 L
340.65 62.502 L
341.48 62.55 L
342.31 62.598 L
343.14 62.646 L
343.97 62.693 L
344.8 62.741 L
345.63 62.789 L
346.46 62.836 L
347.29 62.883 L
348.12 62.931 L
348.95 62.978 L
349.78 63.025 L
350.61 63.072 L
351.44 63.119 L
352.27 63.166 L
353.1 63.213 L
353.93 63.259 L
354.76 63.306 L
355.59 63.352 L
356.42 63.399 L
357.25 63.445 L
358.08 63.492 L
358.91 63.538 L
359.74 63.584 L
360.57 63.63 L
361.4 63.676 L
361.4 63.842 L
362.23 63.892 L
363.06 63.941 L
363.89 63.99 L
364.72 64.039 L
365.55 64.088 L
366.38 64.136 L
367.21 64.185 L
S
GR
GS
[0.75 0 0 0.75 0 -0.25] CT
0 0.447 0.741 RC
2 LJ
N
367.21 64.185 M
368.04 64.233 L
368.87 64.282 L
369.7 64.33 L
370.53 64.378 L
371.36 64.426 L
372.19 64.474 L
373.02 64.522 L
373.85 64.57 L
374.68 64.617 L
375.51 64.665 L
376.34 64.712 L
377.17 64.76 L
378 64.807 L
378.83 64.854 L
379.66 64.901 L
380.49 64.948 L
381.32 64.995 L
382.15 65.042 L
382.98 65.088 L
383.81 65.135 L
384.64 65.181 L
385.47 65.228 L
386.3 65.274 L
387.13 65.32 L
387.96 65.366 L
388.79 65.412 L
389.62 65.458 L
390.45 65.504 L
391.28 65.55 L
392.11 65.596 L
392.94 65.641 L
393.77 65.687 L
394.6 65.732 L
394.6 65.903 L
395.43 65.956 L
396.26 66.009 L
397.09 66.062 L
397.92 66.114 L
398.75 66.166 L
399.58 66.219 L
400.41 66.27 L
401.24 66.322 L
402.07 66.374 L
402.9 66.425 L
403.73 66.476 L
404.56 66.527 L
405.39 66.578 L
406.22 66.628 L
407.05 66.679 L
S
GR
GS
[0.75 0 0 0.75 0 -0.25] CT
0 0.447 0.741 RC
2 LJ
N
407.05 66.679 M
407.88 66.729 L
408.71 66.779 L
409.54 66.829 L
410.37 66.879 L
411.2 66.929 L
412.03 66.978 L
412.86 67.028 L
413.69 67.077 L
414.52 67.126 L
415.35 67.175 L
416.18 67.224 L
417.01 67.272 L
417.84 67.321 L
418.67 67.369 L
419.5 67.417 L
420.33 67.465 L
421.16 67.513 L
421.99 67.561 L
422.82 67.609 L
423.65 67.656 L
424.48 67.704 L
425.31 67.751 L
426.14 67.798 L
426.97 67.845 L
427.8 67.892 L
427.8 68.058 L
428.63 68.125 L
429.46 68.191 L
430.29 68.256 L
431.12 68.321 L
431.95 68.385 L
432.78 68.449 L
433.61 68.512 L
434.44 68.575 L
435.27 68.638 L
436.1 68.699 L
436.93 68.761 L
437.76 68.822 L
438.59 68.882 L
439.42 68.942 L
440.25 69.002 L
441.08 69.061 L
441.91 69.119 L
442.74 69.178 L
443.57 69.235 L
444.4 69.293 L
445.23 69.35 L
446.06 69.406 L
446.89 69.462 L
S
GR
GS
[0.75 0 0 0.75 0 -0.25] CT
0 0.447 0.741 RC
2 LJ
N
446.89 69.462 M
447.72 69.518 L
448.55 69.574 L
449.38 69.629 L
450.21 69.683 L
451.04 69.737 L
451.87 69.791 L
452.7 69.845 L
453.53 69.898 L
454.36 69.951 L
455.19 70.003 L
456.02 70.055 L
456.85 70.107 L
457.68 70.159 L
458.51 70.21 L
459.34 70.261 L
460.17 70.311 L
461 70.361 L
S
GR
GS
[0.75 0 0 0.75 0 -0.25] CT
0.851 0.325 0.098 RC
2 LJ
N
129 355 M
129.83 354.486 L
130.66 353.982 L
131.49 353.487 L
132.32 353.001 L
133.15 352.524 L
133.98 352.056 L
134.81 351.596 L
135.64 351.145 L
136.47 350.702 L
137.3 350.267 L
138.13 349.84 L
138.96 349.42 L
139.79 349.009 L
140.62 348.605 L
141.45 348.208 L
142.28 347.819 L
143.11 347.437 L
143.94 347.061 L
144.77 346.693 L
145.6 346.331 L
146.43 345.976 L
147.26 345.628 L
148.09 345.286 L
148.92 344.95 L
149.75 344.62 L
150.58 344.297 L
151.41 343.979 L
152.24 343.667 L
153.07 343.361 L
153.9 343.06 L
154.73 342.765 L
155.56 342.476 L
156.39 342.191 L
157.22 341.912 L
158.05 341.638 L
158.88 341.369 L
159.71 341.105 L
160.54 340.846 L
161.37 340.592 L
162.2 340.342 L
162.2 340.486 L
163.03 340.329 L
163.86 340.174 L
164.69 340.021 L
165.52 339.87 L
166.35 339.722 L
167.18 339.575 L
168.01 339.43 L
168.84 339.287 L
S
GR
GS
[0.75 0 0 0.75 0 -0.25] CT
0.851 0.325 0.098 RC
2 LJ
N
168.84 339.287 M
169.67 339.146 L
170.5 339.007 L
171.33 338.87 L
172.16 338.735 L
172.99 338.602 L
173.82 338.47 L
174.65 338.34 L
175.48 338.212 L
176.31 338.085 L
177.14 337.961 L
177.97 337.837 L
178.8 337.716 L
179.63 337.596 L
180.46 337.478 L
181.29 337.362 L
182.12 337.247 L
182.95 337.133 L
183.78 337.021 L
184.61 336.911 L
185.44 336.802 L
186.27 336.695 L
187.1 336.589 L
187.93 336.484 L
188.76 336.381 L
189.59 336.279 L
190.42 336.179 L
191.25 336.08 L
192.08 335.982 L
192.91 335.886 L
193.74 335.791 L
194.57 335.697 L
195.4 335.604 L
195.4 335.739 L
196.23 335.675 L
197.06 335.612 L
197.89 335.549 L
198.72 335.487 L
199.55 335.426 L
200.38 335.366 L
201.21 335.306 L
202.04 335.247 L
202.87 335.189 L
203.7 335.131 L
204.53 335.074 L
205.36 335.018 L
206.19 334.962 L
207.02 334.907 L
207.85 334.853 L
208.68 334.799 L
S
GR
GS
[0.75 0 0 0.75 0 -0.25] CT
0.851 0.325 0.098 RC
2 LJ
N
208.68 334.799 M
209.51 334.746 L
210.34 334.693 L
211.17 334.641 L
212 334.59 L
212.83 334.539 L
213.66 334.489 L
214.49 334.44 L
215.32 334.391 L
216.15 334.342 L
216.98 334.294 L
217.81 334.247 L
218.64 334.2 L
219.47 334.154 L
220.3 334.108 L
221.13 334.063 L
221.96 334.019 L
222.79 333.975 L
223.62 333.931 L
224.45 333.888 L
225.28 333.846 L
226.11 333.804 L
226.94 333.762 L
227.77 333.721 L
228.6 333.68 L
228.6 333.812 L
229.43 333.78 L
230.26 333.747 L
231.09 333.716 L
231.92 333.684 L
232.75 333.653 L
233.58 333.622 L
234.41 333.591 L
235.24 333.561 L
236.07 333.531 L
236.9 333.502 L
237.73 333.473 L
238.56 333.444 L
239.39 333.415 L
240.22 333.387 L
241.05 333.359 L
241.88 333.332 L
242.71 333.305 L
243.54 333.278 L
244.37 333.251 L
245.2 333.225 L
246.03 333.199 L
246.86 333.173 L
247.69 333.148 L
248.52 333.122 L
S
GR
GS
[0.75 0 0 0.75 0 -0.25] CT
0.851 0.325 0.098 RC
2 LJ
N
248.52 333.122 M
249.35 333.098 L
250.18 333.073 L
251.01 333.049 L
251.84 333.025 L
252.67 333.001 L
253.5 332.978 L
254.33 332.954 L
255.16 332.931 L
255.99 332.909 L
256.82 332.886 L
257.65 332.864 L
258.48 332.842 L
259.31 332.821 L
260.14 332.799 L
260.97 332.778 L
261.8 332.757 L
261.8 332.89 L
262.63 332.874 L
263.46 332.858 L
264.29 332.842 L
265.12 332.826 L
265.95 332.81 L
266.78 332.795 L
267.61 332.779 L
268.44 332.764 L
269.27 332.749 L
270.1 332.735 L
270.93 332.72 L
271.76 332.706 L
272.59 332.691 L
273.42 332.677 L
274.25 332.663 L
275.08 332.65 L
275.91 332.636 L
276.74 332.623 L
277.57 332.609 L
278.4 332.596 L
279.23 332.583 L
280.06 332.571 L
280.89 332.558 L
281.72 332.545 L
282.55 332.533 L
283.38 332.521 L
284.21 332.509 L
285.04 332.497 L
285.87 332.485 L
286.7 332.474 L
287.53 332.462 L
288.36 332.451 L
S
GR
GS
[0.75 0 0 0.75 0 -0.25] CT
0.851 0.325 0.098 RC
2 LJ
N
288.36 332.451 M
289.19 332.44 L
290.02 332.429 L
290.85 332.418 L
291.68 332.407 L
292.51 332.396 L
293.34 332.386 L
294.17 332.375 L
295 332.365 L
295 332.502 L
295.83 332.491 L
296.66 332.481 L
297.49 332.471 L
298.32 332.461 L
299.15 332.451 L
299.98 332.441 L
300.81 332.432 L
301.64 332.422 L
302.47 332.413 L
303.3 332.403 L
304.13 332.394 L
304.96 332.385 L
305.79 332.376 L
306.62 332.367 L
307.45 332.359 L
308.28 332.35 L
309.11 332.341 L
309.94 332.333 L
310.77 332.325 L
311.6 332.317 L
312.43 332.309 L
313.26 332.301 L
314.09 332.293 L
314.92 332.285 L
315.75 332.277 L
316.58 332.27 L
317.41 332.263 L
318.24 332.255 L
319.07 332.248 L
319.9 332.241 L
320.73 332.234 L
321.56 332.227 L
322.39 332.22 L
323.22 332.213 L
324.05 332.207 L
324.88 332.2 L
325.71 332.194 L
326.54 332.187 L
327.37 332.181 L
328.2 332.175 L
S
GR
GS
[0.75 0 0 0.75 0 -0.25] CT
0.851 0.325 0.098 RC
2 LJ
N
328.2 332.175 M
328.2 332.314 L
329.03 332.304 L
329.86 332.295 L
330.69 332.285 L
331.52 332.276 L
332.35 332.266 L
333.18 332.257 L
334.01 332.248 L
334.84 332.239 L
335.67 332.23 L
336.5 332.222 L
337.33 332.213 L
338.16 332.204 L
338.99 332.196 L
339.82 332.188 L
340.65 332.18 L
341.48 332.172 L
342.31 332.164 L
343.14 332.156 L
343.97 332.148 L
344.8 332.141 L
345.63 332.133 L
346.46 332.126 L
347.29 332.118 L
348.12 332.111 L
348.95 332.104 L
349.78 332.097 L
350.61 332.09 L
351.44 332.083 L
352.27 332.077 L
353.1 332.07 L
353.93 332.064 L
354.76 332.057 L
355.59 332.051 L
356.42 332.045 L
357.25 332.038 L
358.08 332.032 L
358.91 332.026 L
359.74 332.021 L
360.57 332.015 L
361.4 332.009 L
361.4 332.154 L
362.23 332.144 L
363.06 332.134 L
363.89 332.124 L
364.72 332.114 L
365.55 332.104 L
366.38 332.095 L
367.21 332.086 L
S
GR
GS
[0.75 0 0 0.75 0 -0.25] CT
0.851 0.325 0.098 RC
2 LJ
N
367.21 332.086 M
368.04 332.076 L
368.87 332.067 L
369.7 332.058 L
370.53 332.049 L
371.36 332.041 L
372.19 332.032 L
373.02 332.023 L
373.85 332.015 L
374.68 332.007 L
375.51 331.999 L
376.34 331.991 L
377.17 331.983 L
378 331.975 L
378.83 331.967 L
379.66 331.96 L
380.49 331.952 L
381.32 331.945 L
382.15 331.938 L
382.98 331.93 L
383.81 331.923 L
384.64 331.917 L
385.47 331.91 L
386.3 331.903 L
387.13 331.896 L
387.96 331.89 L
388.79 331.883 L
389.62 331.877 L
390.45 331.871 L
391.28 331.865 L
392.11 331.859 L
392.94 331.853 L
393.77 331.847 L
394.6 331.841 L
394.6 331.99 L
395.43 331.974 L
396.26 331.958 L
397.09 331.942 L
397.92 331.927 L
398.75 331.911 L
399.58 331.896 L
400.41 331.881 L
401.24 331.867 L
402.07 331.852 L
402.9 331.838 L
403.73 331.824 L
404.56 331.81 L
405.39 331.796 L
406.22 331.783 L
407.05 331.769 L
S
GR
GS
[0.75 0 0 0.75 0 -0.25] CT
0.851 0.325 0.098 RC
2 LJ
N
407.05 331.769 M
407.88 331.756 L
408.71 331.743 L
409.54 331.731 L
410.37 331.718 L
411.2 331.706 L
412.03 331.693 L
412.86 331.681 L
413.69 331.669 L
414.52 331.658 L
415.35 331.646 L
416.18 331.635 L
417.01 331.624 L
417.84 331.612 L
418.67 331.602 L
419.5 331.591 L
420.33 331.58 L
421.16 331.57 L
421.99 331.56 L
422.82 331.549 L
423.65 331.539 L
424.48 331.53 L
425.31 331.52 L
426.14 331.51 L
426.97 331.501 L
427.8 331.492 L
427.8 331.647 L
428.63 331.609 L
429.46 331.573 L
430.29 331.537 L
431.12 331.501 L
431.95 331.466 L
432.78 331.432 L
433.61 331.398 L
434.44 331.365 L
435.27 331.332 L
436.1 331.3 L
436.93 331.268 L
437.76 331.237 L
438.59 331.206 L
439.42 331.176 L
440.25 331.146 L
441.08 331.117 L
441.91 331.088 L
442.74 331.06 L
443.57 331.032 L
444.4 331.005 L
445.23 330.978 L
446.06 330.952 L
446.89 330.925 L
S
GR
GS
[0.75 0 0 0.75 0 -0.25] CT
0.851 0.325 0.098 RC
2 LJ
N
446.89 330.925 M
447.72 330.9 L
448.55 330.875 L
449.38 330.85 L
450.21 330.825 L
451.04 330.801 L
451.87 330.778 L
452.7 330.754 L
453.53 330.732 L
454.36 330.709 L
455.19 330.687 L
456.02 330.665 L
456.85 330.644 L
457.68 330.623 L
458.51 330.602 L
459.34 330.582 L
460.17 330.562 L
461 330.542 L
S
GR
GS
[0.75 0 0 0.75 0 -0.25] CT
0.929 0.694 0.125 RC
2 LJ
N
129 355 M
129.83 355 L
130.66 354.999 L
131.49 354.998 L
132.32 354.996 L
133.15 354.994 L
133.98 354.992 L
134.81 354.989 L
135.64 354.986 L
136.47 354.982 L
137.3 354.978 L
138.13 354.973 L
138.96 354.969 L
139.79 354.963 L
140.62 354.958 L
141.45 354.952 L
142.28 354.945 L
143.11 354.939 L
143.94 354.932 L
144.77 354.924 L
145.6 354.917 L
146.43 354.909 L
147.26 354.9 L
148.09 354.892 L
148.92 354.883 L
149.75 354.874 L
150.58 354.864 L
151.41 354.854 L
152.24 354.844 L
153.07 354.834 L
153.9 354.823 L
154.73 354.812 L
155.56 354.801 L
156.39 354.789 L
157.22 354.778 L
158.05 354.766 L
158.88 354.753 L
159.71 354.741 L
160.54 354.728 L
161.37 354.715 L
162.2 354.702 L
162.2 354.396 L
163.03 354.375 L
163.86 354.354 L
164.69 354.333 L
165.52 354.312 L
166.35 354.29 L
167.18 354.268 L
168.01 354.247 L
168.84 354.224 L
S
GR
GS
[0.75 0 0 0.75 0 -0.25] CT
0.929 0.694 0.125 RC
2 LJ
N
168.84 354.224 M
169.67 354.202 L
170.5 354.179 L
171.33 354.157 L
172.16 354.134 L
172.99 354.111 L
173.82 354.087 L
174.65 354.064 L
175.48 354.04 L
176.31 354.016 L
177.14 353.992 L
177.97 353.968 L
178.8 353.944 L
179.63 353.919 L
180.46 353.894 L
181.29 353.869 L
182.12 353.844 L
182.95 353.819 L
183.78 353.794 L
184.61 353.768 L
185.44 353.743 L
186.27 353.717 L
187.1 353.691 L
187.93 353.665 L
188.76 353.638 L
189.59 353.612 L
190.42 353.585 L
191.25 353.559 L
192.08 353.532 L
192.91 353.505 L
193.74 353.478 L
194.57 353.45 L
195.4 353.423 L
195.4 353.132 L
196.23 353.1 L
197.06 353.068 L
197.89 353.037 L
198.72 353.005 L
199.55 352.973 L
200.38 352.941 L
201.21 352.908 L
202.04 352.876 L
202.87 352.844 L
203.7 352.811 L
204.53 352.779 L
205.36 352.746 L
206.19 352.713 L
207.02 352.68 L
207.85 352.647 L
208.68 352.614 L
S
GR
GS
[0.75 0 0 0.75 0 -0.25] CT
0.929 0.694 0.125 RC
2 LJ
N
208.68 352.614 M
209.51 352.581 L
210.34 352.548 L
211.17 352.515 L
212 352.481 L
212.83 352.448 L
213.66 352.414 L
214.49 352.381 L
215.32 352.347 L
216.15 352.313 L
216.98 352.279 L
217.81 352.245 L
218.64 352.211 L
219.47 352.177 L
220.3 352.143 L
221.13 352.109 L
221.96 352.074 L
222.79 352.04 L
223.62 352.005 L
224.45 351.971 L
225.28 351.936 L
226.11 351.902 L
226.94 351.867 L
227.77 351.832 L
228.6 351.797 L
228.6 351.509 L
229.43 351.472 L
230.26 351.436 L
231.09 351.399 L
231.92 351.363 L
232.75 351.326 L
233.58 351.29 L
234.41 351.253 L
235.24 351.216 L
236.07 351.179 L
236.9 351.142 L
237.73 351.105 L
238.56 351.068 L
239.39 351.031 L
240.22 350.994 L
241.05 350.957 L
241.88 350.92 L
242.71 350.883 L
243.54 350.845 L
244.37 350.808 L
245.2 350.771 L
246.03 350.733 L
246.86 350.696 L
247.69 350.658 L
248.52 350.621 L
S
GR
GS
[0.75 0 0 0.75 0 -0.25] CT
0.929 0.694 0.125 RC
2 LJ
N
248.52 350.621 M
249.35 350.583 L
250.18 350.545 L
251.01 350.508 L
251.84 350.47 L
252.67 350.432 L
253.5 350.394 L
254.33 350.357 L
255.16 350.319 L
255.99 350.281 L
256.82 350.243 L
257.65 350.205 L
258.48 350.167 L
259.31 350.129 L
260.14 350.091 L
260.97 350.052 L
261.8 350.014 L
261.8 349.719 L
262.63 349.68 L
263.46 349.641 L
264.29 349.601 L
265.12 349.562 L
265.95 349.523 L
266.78 349.483 L
267.61 349.444 L
268.44 349.405 L
269.27 349.365 L
270.1 349.326 L
270.93 349.286 L
271.76 349.247 L
272.59 349.207 L
273.42 349.168 L
274.25 349.128 L
275.08 349.088 L
275.91 349.049 L
276.74 349.009 L
277.57 348.969 L
278.4 348.93 L
279.23 348.89 L
280.06 348.85 L
280.89 348.811 L
281.72 348.771 L
282.55 348.731 L
283.38 348.691 L
284.21 348.651 L
285.04 348.611 L
285.87 348.572 L
286.7 348.532 L
287.53 348.492 L
288.36 348.452 L
S
GR
GS
[0.75 0 0 0.75 0 -0.25] CT
0.929 0.694 0.125 RC
2 LJ
N
288.36 348.452 M
289.19 348.412 L
290.02 348.372 L
290.85 348.332 L
291.68 348.292 L
292.51 348.252 L
293.34 348.212 L
294.17 348.171 L
295 348.131 L
295 347.831 L
295.83 347.791 L
296.66 347.751 L
297.49 347.711 L
298.32 347.671 L
299.15 347.631 L
299.98 347.591 L
300.81 347.55 L
301.64 347.51 L
302.47 347.47 L
303.3 347.43 L
304.13 347.389 L
304.96 347.349 L
305.79 347.309 L
306.62 347.269 L
307.45 347.228 L
308.28 347.188 L
309.11 347.148 L
309.94 347.107 L
310.77 347.067 L
311.6 347.026 L
312.43 346.986 L
313.26 346.946 L
314.09 346.905 L
314.92 346.865 L
315.75 346.824 L
316.58 346.784 L
317.41 346.743 L
318.24 346.703 L
319.07 346.662 L
319.9 346.622 L
320.73 346.581 L
321.56 346.541 L
322.39 346.5 L
323.22 346.459 L
324.05 346.419 L
324.88 346.378 L
325.71 346.338 L
326.54 346.297 L
327.37 346.256 L
328.2 346.216 L
S
GR
GS
[0.75 0 0 0.75 0 -0.25] CT
0.929 0.694 0.125 RC
2 LJ
N
328.2 346.216 M
328.2 345.917 L
329.03 345.877 L
329.86 345.837 L
330.69 345.797 L
331.52 345.758 L
332.35 345.718 L
333.18 345.678 L
334.01 345.638 L
334.84 345.598 L
335.67 345.558 L
336.5 345.518 L
337.33 345.478 L
338.16 345.438 L
338.99 345.398 L
339.82 345.359 L
340.65 345.319 L
341.48 345.279 L
342.31 345.239 L
343.14 345.199 L
343.97 345.159 L
344.8 345.118 L
345.63 345.078 L
346.46 345.038 L
347.29 344.998 L
348.12 344.958 L
348.95 344.918 L
349.78 344.878 L
350.61 344.838 L
351.44 344.798 L
352.27 344.757 L
353.1 344.717 L
353.93 344.677 L
354.76 344.637 L
355.59 344.597 L
356.42 344.556 L
357.25 344.516 L
358.08 344.476 L
358.91 344.436 L
359.74 344.396 L
360.57 344.355 L
361.4 344.315 L
361.4 344.004 L
362.23 343.965 L
363.06 343.926 L
363.89 343.886 L
364.72 343.847 L
365.55 343.808 L
366.38 343.769 L
367.21 343.729 L
S
GR
GS
[0.75 0 0 0.75 0 -0.25] CT
0.929 0.694 0.125 RC
2 LJ
N
367.21 343.729 M
368.04 343.69 L
368.87 343.651 L
369.7 343.612 L
370.53 343.572 L
371.36 343.533 L
372.19 343.494 L
373.02 343.454 L
373.85 343.415 L
374.68 343.376 L
375.51 343.336 L
376.34 343.297 L
377.17 343.257 L
378 343.218 L
378.83 343.179 L
379.66 343.139 L
380.49 343.1 L
381.32 343.06 L
382.15 343.021 L
382.98 342.981 L
383.81 342.942 L
384.64 342.902 L
385.47 342.863 L
386.3 342.823 L
387.13 342.783 L
387.96 342.744 L
388.79 342.704 L
389.62 342.665 L
390.45 342.625 L
391.28 342.585 L
392.11 342.546 L
392.94 342.506 L
393.77 342.466 L
394.6 342.427 L
394.6 342.107 L
395.43 342.07 L
396.26 342.033 L
397.09 341.996 L
397.92 341.959 L
398.75 341.922 L
399.58 341.885 L
400.41 341.848 L
401.24 341.811 L
402.07 341.774 L
402.9 341.737 L
403.73 341.7 L
404.56 341.663 L
405.39 341.626 L
406.22 341.589 L
407.05 341.552 L
S
GR
GS
[0.75 0 0 0.75 0 -0.25] CT
0.929 0.694 0.125 RC
2 LJ
N
407.05 341.552 M
407.88 341.514 L
408.71 341.477 L
409.54 341.44 L
410.37 341.403 L
411.2 341.366 L
412.03 341.328 L
412.86 341.291 L
413.69 341.254 L
414.52 341.216 L
415.35 341.179 L
416.18 341.141 L
417.01 341.104 L
417.84 341.067 L
418.67 341.029 L
419.5 340.992 L
420.33 340.954 L
421.16 340.917 L
421.99 340.879 L
422.82 340.842 L
423.65 340.804 L
424.48 340.767 L
425.31 340.729 L
426.14 340.692 L
426.97 340.654 L
427.8 340.616 L
427.8 340.295 L
428.63 340.266 L
429.46 340.236 L
430.29 340.207 L
431.12 340.178 L
431.95 340.148 L
432.78 340.119 L
433.61 340.089 L
434.44 340.06 L
435.27 340.03 L
436.1 340.001 L
436.93 339.971 L
437.76 339.941 L
438.59 339.912 L
439.42 339.882 L
440.25 339.852 L
441.08 339.822 L
441.91 339.792 L
442.74 339.762 L
443.57 339.732 L
444.4 339.702 L
445.23 339.672 L
446.06 339.642 L
446.89 339.612 L
S
GR
GS
[0.75 0 0 0.75 0 -0.25] CT
0.929 0.694 0.125 RC
2 LJ
N
446.89 339.612 M
447.72 339.582 L
448.55 339.552 L
449.38 339.522 L
450.21 339.491 L
451.04 339.461 L
451.87 339.431 L
452.7 339.401 L
453.53 339.37 L
454.36 339.34 L
455.19 339.31 L
456.02 339.279 L
456.85 339.249 L
457.68 339.218 L
458.51 339.188 L
459.34 339.157 L
460.17 339.127 L
461 339.096 L
S
GR
GS
[0.75 0 0 0.75 221.25021 20.18749] CT
/Helvetica-Bold 15 F
GS
[1 0 0 1 0 0] CT
-120.5 -4 moveto 
1 -1 scale
(Performance index = 0.0489) t 
GR
GR
GS
[0.75 0 0 0.75 0 -0.25] CT
1 GC
N
378 113 M
378 43 L
448 43 L
448 113 L
cp
f
GR
GS
[0.75 0 0 0.75 322.5 43.25] CT
/Helvetica 12 F
GS
[1 0 0 1 0 0] CT
0 0 moveto 
1 -1 scale
(x) t 
GR
GR
GS
[0.75 0 0 0.75 328.5 47.75] CT
/Helvetica 9 F
GS
[1 0 0 1 0 0] CT
0 0 moveto 
1 -1 scale
(1) t 
GR
GR
GS
[0.75 0 0 0.75 0 -0.25] CT
0 0.447 0.741 RC
2 LJ
N
386 56.23 M
426 56.23 L
S
GR
GS
[0.75 0 0 0.75 322.5 59.75] CT
/Helvetica 12 F
GS
[1 0 0 1 0 0] CT
0 0 moveto 
1 -1 scale
(x) t 
GR
GR
GS
[0.75 0 0 0.75 328.5 64.25] CT
/Helvetica 9 F
GS
[1 0 0 1 0 0] CT
0 0 moveto 
1 -1 scale
(2) t 
GR
GR
GS
[0.75 0 0 0.75 0 -0.25] CT
0.851 0.325 0.098 RC
2 LJ
N
386 78 M
426 78 L
S
GR
GS
[0.75 0 0 0.75 322.5 76.25] CT
/Helvetica 12 F
GS
[1 0 0 1 0 0] CT
0 0 moveto 
1 -1 scale
(x) t 
GR
GR
GS
[0.75 0 0 0.75 328.5 80.75] CT
/Helvetica 9 F
GS
[1 0 0 1 0 0] CT
0 0 moveto 
1 -1 scale
(3) t 
GR
GR
GS
[0.75 0 0 0.75 0 -0.25] CT
0.929 0.694 0.125 RC
2 LJ
N
386 99.77 M
426 99.77 L
S
GR
GS
[0.75 0 0 0.75 0 -0.25] CT
0.149 GC
2 LJ
N
378 113 M
378 43 L
448 43 L
448 113 L
378 113 L
S
GR
GS
[0.75 0 0 0.75 0 -0.25] CT
1 GC
N
566 355 M
898 355 L
898 30 L
566 30 L
cp
f
GR
GS
[0.75 0 0 0.75 0 -0.25] CT
0.873 GC
2 LJ
N
566 355 M
566 30 L
S
GR
GS
[0.75 0 0 0.75 0 -0.25] CT
0.873 GC
2 LJ
N
632.4 355 M
632.4 30 L
S
GR
GS
[0.75 0 0 0.75 0 -0.25] CT
0.873 GC
2 LJ
N
698.8 355 M
698.8 30 L
S
GR
GS
[0.75 0 0 0.75 0 -0.25] CT
0.873 GC
2 LJ
N
765.2 355 M
765.2 30 L
S
GR
GS
[0.75 0 0 0.75 0 -0.25] CT
0.873 GC
2 LJ
N
831.6 355 M
831.6 30 L
S
GR
GS
[0.75 0 0 0.75 0 -0.25] CT
0.873 GC
2 LJ
N
898 355 M
898 30 L
S
GR
GS
[0.75 0 0 0.75 0 -0.25] CT
0.873 GC
2 LJ
N
898 355 M
566 355 L
S
GR
GS
[0.75 0 0 0.75 0 -0.25] CT
0.873 GC
2 LJ
N
898 322.5 M
566 322.5 L
S
GR
GS
[0.75 0 0 0.75 0 -0.25] CT
0.873 GC
2 LJ
N
898 290 M
566 290 L
S
GR
GS
[0.75 0 0 0.75 0 -0.25] CT
0.873 GC
2 LJ
N
898 257.5 M
566 257.5 L
S
GR
GS
[0.75 0 0 0.75 0 -0.25] CT
0.873 GC
2 LJ
N
898 225 M
566 225 L
S
GR
GS
[0.75 0 0 0.75 0 -0.25] CT
0.873 GC
2 LJ
N
898 192.5 M
566 192.5 L
S
GR
GS
[0.75 0 0 0.75 0 -0.25] CT
0.873 GC
2 LJ
N
898 160 M
566 160 L
S
GR
GS
[0.75 0 0 0.75 0 -0.25] CT
0.873 GC
2 LJ
N
898 127.5 M
566 127.5 L
S
GR
GS
[0.75 0 0 0.75 0 -0.25] CT
0.873 GC
2 LJ
N
898 95 M
566 95 L
S
GR
GS
[0.75 0 0 0.75 0 -0.25] CT
0.873 GC
2 LJ
N
898 62.5 M
566 62.5 L
S
GR
GS
[0.75 0 0 0.75 0 -0.25] CT
0.873 GC
2 LJ
N
898 30 M
566 30 L
S
GR
GS
[0.75 0 0 0.75 549.00014 283.74999] CT
0.149 GC
/Helvetica 15 F
GS
[1 0 0 1 0 0] CT
-29.5 14 moveto 
1 -1 scale
(time \(s\)) t 
GR
GR
GS
[0.75 0 0 0.75 0 -0.25] CT
0.149 GC
2 LJ
N
566 355 M
898 355 L
S
GR
GS
[0.75 0 0 0.75 0 -0.25] CT
0.149 GC
2 LJ
N
566 30 M
898 30 L
S
GR
GS
[0.75 0 0 0.75 0 -0.25] CT
0.149 GC
2 LJ
N
566 355 M
566 351.68 L
S
GR
GS
[0.75 0 0 0.75 0 -0.25] CT
0.149 GC
2 LJ
N
632.4 355 M
632.4 351.68 L
S
GR
GS
[0.75 0 0 0.75 0 -0.25] CT
0.149 GC
2 LJ
N
698.8 355 M
698.8 351.68 L
S
GR
GS
[0.75 0 0 0.75 0 -0.25] CT
0.149 GC
2 LJ
N
765.2 355 M
765.2 351.68 L
S
GR
GS
[0.75 0 0 0.75 0 -0.25] CT
0.149 GC
2 LJ
N
831.6 355 M
831.6 351.68 L
S
GR
GS
[0.75 0 0 0.75 0 -0.25] CT
0.149 GC
2 LJ
N
898 355 M
898 351.68 L
S
GR
GS
[0.75 0 0 0.75 0 -0.25] CT
0.149 GC
2 LJ
N
566 30 M
566 33.32 L
S
GR
GS
[0.75 0 0 0.75 0 -0.25] CT
0.149 GC
2 LJ
N
632.4 30 M
632.4 33.32 L
S
GR
GS
[0.75 0 0 0.75 0 -0.25] CT
0.149 GC
2 LJ
N
698.8 30 M
698.8 33.32 L
S
GR
GS
[0.75 0 0 0.75 0 -0.25] CT
0.149 GC
2 LJ
N
765.2 30 M
765.2 33.32 L
S
GR
GS
[0.75 0 0 0.75 0 -0.25] CT
0.149 GC
2 LJ
N
831.6 30 M
831.6 33.32 L
S
GR
GS
[0.75 0 0 0.75 0 -0.25] CT
0.149 GC
2 LJ
N
898 30 M
898 33.32 L
S
GR
GS
[0.75 0 0 0.75 424.5 270.00001] CT
0.149 GC
/Helvetica 13 F
GS
[1 0 0 1 0 0] CT
-4.5 13 moveto 
1 -1 scale
(0) t 
GR
GR
GS
[0.75 0 0 0.75 474.30002 270.00001] CT
0.149 GC
/Helvetica 13 F
GS
[1 0 0 1 0 0] CT
-10.5 13 moveto 
1 -1 scale
(0.2) t 
GR
GR
GS
[0.75 0 0 0.75 524.09999 270.00001] CT
0.149 GC
/Helvetica 13 F
GS
[1 0 0 1 0 0] CT
-10.5 13 moveto 
1 -1 scale
(0.4) t 
GR
GR
GS
[0.75 0 0 0.75 573.90001 270.00001] CT
0.149 GC
/Helvetica 13 F
GS
[1 0 0 1 0 0] CT
-10.5 13 moveto 
1 -1 scale
(0.6) t 
GR
GR
GS
[0.75 0 0 0.75 623.69998 270.00001] CT
0.149 GC
/Helvetica 13 F
GS
[1 0 0 1 0 0] CT
-10.5 13 moveto 
1 -1 scale
(0.8) t 
GR
GR
GS
[0.75 0 0 0.75 673.5 270.00001] CT
0.149 GC
/Helvetica 13 F
GS
[1 0 0 1 0 0] CT
-4.5 13 moveto 
1 -1 scale
(1) t 
GR
GR
GS
[0 -0.75 0.75 0 401.75002 144.12489] CT
0.149 GC
/Helvetica 15 F
GS
[1 0 0 1 0 0] CT
-5 -4 moveto 
1 -1 scale
(u) t 
GR
GR
GS
[0.75 0 0 0.75 0 -0.25] CT
0.149 GC
2 setlinecap
10.0 ML
N
566 355 M
566 30 L
S
GR
GS
[0.75 0 0 0.75 0 -0.25] CT
0.149 GC
2 setlinecap
10.0 ML
N
898 355 M
898 30 L
S
GR
GS
[0.75 0 0 0.75 0 -0.25] CT
0.149 GC
2 setlinecap
10.0 ML
N
566 355 M
569.32 355 L
S
GR
GS
[0.75 0 0 0.75 0 -0.25] CT
0.149 GC
2 setlinecap
10.0 ML
N
566 322.5 M
569.32 322.5 L
S
GR
GS
[0.75 0 0 0.75 0 -0.25] CT
0.149 GC
2 setlinecap
10.0 ML
N
566 290 M
569.32 290 L
S
GR
GS
[0.75 0 0 0.75 0 -0.25] CT
0.149 GC
2 setlinecap
10.0 ML
N
566 257.5 M
569.32 257.5 L
S
GR
GS
[0.75 0 0 0.75 0 -0.25] CT
0.149 GC
2 setlinecap
10.0 ML
N
566 225 M
569.32 225 L
S
GR
GS
[0.75 0 0 0.75 0 -0.25] CT
0.149 GC
2 setlinecap
10.0 ML
N
566 192.5 M
569.32 192.5 L
S
GR
GS
[0.75 0 0 0.75 0 -0.25] CT
0.149 GC
2 setlinecap
10.0 ML
N
566 160 M
569.32 160 L
S
GR
GS
[0.75 0 0 0.75 0 -0.25] CT
0.149 GC
2 setlinecap
10.0 ML
N
566 127.5 M
569.32 127.5 L
S
GR
GS
[0.75 0 0 0.75 0 -0.25] CT
0.149 GC
2 setlinecap
10.0 ML
N
566 95 M
569.32 95 L
S
GR
GS
[0.75 0 0 0.75 0 -0.25] CT
0.149 GC
2 setlinecap
10.0 ML
N
566 62.5 M
569.32 62.5 L
S
GR
GS
[0.75 0 0 0.75 0 -0.25] CT
0.149 GC
2 setlinecap
10.0 ML
N
566 30 M
569.32 30 L
S
GR
GS
[0.75 0 0 0.75 0 -0.25] CT
0.149 GC
2 setlinecap
10.0 ML
N
898 355 M
894.68 355 L
S
GR
GS
[0.75 0 0 0.75 0 -0.25] CT
0.149 GC
2 setlinecap
10.0 ML
N
898 322.5 M
894.68 322.5 L
S
GR
GS
[0.75 0 0 0.75 0 -0.25] CT
0.149 GC
2 setlinecap
10.0 ML
N
898 290 M
894.68 290 L
S
GR
GS
[0.75 0 0 0.75 0 -0.25] CT
0.149 GC
2 setlinecap
10.0 ML
N
898 257.5 M
894.68 257.5 L
S
GR
GS
[0.75 0 0 0.75 0 -0.25] CT
0.149 GC
2 setlinecap
10.0 ML
N
898 225 M
894.68 225 L
S
GR
GS
[0.75 0 0 0.75 0 -0.25] CT
0.149 GC
2 setlinecap
10.0 ML
N
898 192.5 M
894.68 192.5 L
S
GR
GS
[0.75 0 0 0.75 0 -0.25] CT
0.149 GC
2 setlinecap
10.0 ML
N
898 160 M
894.68 160 L
S
GR
GS
[0.75 0 0 0.75 0 -0.25] CT
0.149 GC
2 setlinecap
10.0 ML
N
898 127.5 M
894.68 127.5 L
S
GR
GS
[0.75 0 0 0.75 0 -0.25] CT
0.149 GC
2 setlinecap
10.0 ML
N
898 95 M
894.68 95 L
S
GR
GS
[0.75 0 0 0.75 0 -0.25] CT
0.149 GC
2 setlinecap
10.0 ML
N
898 62.5 M
894.68 62.5 L
S
GR
GS
[0.75 0 0 0.75 0 -0.25] CT
0.149 GC
2 setlinecap
10.0 ML
N
898 30 M
894.68 30 L
S
GR
GS
[0.75 0 0 0.75 420.50002 266] CT
0.149 GC
/Helvetica 13 F
GS
[1 0 0 1 0 0] CT
-9 4.5 moveto 
1 -1 scale
(0) t 
GR
GR
GS
[0.75 0 0 0.75 420.50002 241.625] CT
0.149 GC
/Helvetica 13 F
GS
[1 0 0 1 0 0] CT
-21 4.5 moveto 
1 -1 scale
(0.1) t 
GR
GR
GS
[0.75 0 0 0.75 420.50002 217.25] CT
0.149 GC
/Helvetica 13 F
GS
[1 0 0 1 0 0] CT
-21 4.5 moveto 
1 -1 scale
(0.2) t 
GR
GR
GS
[0.75 0 0 0.75 420.50002 192.875] CT
0.149 GC
/Helvetica 13 F
GS
[1 0 0 1 0 0] CT
-21 4.5 moveto 
1 -1 scale
(0.3) t 
GR
GR
GS
[0.75 0 0 0.75 420.50002 168.5] CT
0.149 GC
/Helvetica 13 F
GS
[1 0 0 1 0 0] CT
-21 4.5 moveto 
1 -1 scale
(0.4) t 
GR
GR
GS
[0.75 0 0 0.75 420.50002 144.125] CT
0.149 GC
/Helvetica 13 F
GS
[1 0 0 1 0 0] CT
-21 4.5 moveto 
1 -1 scale
(0.5) t 
GR
GR
GS
[0.75 0 0 0.75 420.50002 119.74999] CT
0.149 GC
/Helvetica 13 F
GS
[1 0 0 1 0 0] CT
-21 4.5 moveto 
1 -1 scale
(0.6) t 
GR
GR
GS
[0.75 0 0 0.75 420.50002 95.37501] CT
0.149 GC
/Helvetica 13 F
GS
[1 0 0 1 0 0] CT
-21 4.5 moveto 
1 -1 scale
(0.7) t 
GR
GR
GS
[0.75 0 0 0.75 420.50002 70.99999] CT
0.149 GC
/Helvetica 13 F
GS
[1 0 0 1 0 0] CT
-21 4.5 moveto 
1 -1 scale
(0.8) t 
GR
GR
GS
[0.75 0 0 0.75 420.50002 46.62501] CT
0.149 GC
/Helvetica 13 F
GS
[1 0 0 1 0 0] CT
-21 4.5 moveto 
1 -1 scale
(0.9) t 
GR
GR
GS
[0.75 0 0 0.75 420.50002 22.25] CT
0.149 GC
/Helvetica 13 F
GS
[1 0 0 1 0 0] CT
-9 4.5 moveto 
1 -1 scale
(1) t 
GR
GR
GS
[0.75 0 0 0.75 0 -0.25] CT
0 0.447 0.741 RC
2 LJ
N
566 147.662 M
566.83 147.662 L
567.66 147.662 L
568.49 147.662 L
569.32 147.662 L
570.15 147.662 L
570.98 147.662 L
571.81 147.662 L
572.64 147.662 L
573.47 147.662 L
574.3 147.662 L
575.13 147.662 L
575.96 147.662 L
576.79 147.662 L
577.62 147.662 L
578.45 147.662 L
579.28 147.662 L
580.11 147.662 L
580.94 147.662 L
581.77 147.662 L
582.6 147.662 L
583.43 147.662 L
584.26 147.662 L
585.09 147.662 L
585.92 147.662 L
586.75 147.662 L
587.58 147.662 L
588.41 147.662 L
589.24 147.662 L
590.07 147.662 L
590.9 147.662 L
591.73 147.662 L
592.56 147.662 L
593.39 147.662 L
594.22 147.662 L
595.05 147.662 L
595.88 147.662 L
596.71 147.662 L
597.54 147.662 L
598.37 147.662 L
599.2 147.662 L
599.2 214.085 L
600.03 214.085 L
600.86 214.085 L
601.69 214.085 L
602.52 214.085 L
603.35 214.085 L
604.18 214.085 L
605.01 214.085 L
605.84 214.085 L
S
GR
GS
[0.75 0 0 0.75 0 -0.25] CT
0 0.447 0.741 RC
2 LJ
N
605.84 214.085 M
606.67 214.085 L
607.5 214.085 L
608.33 214.085 L
609.16 214.085 L
609.99 214.085 L
610.82 214.085 L
611.65 214.085 L
612.48 214.085 L
613.31 214.085 L
614.14 214.085 L
614.97 214.085 L
615.8 214.085 L
616.63 214.085 L
617.46 214.085 L
618.29 214.085 L
619.12 214.085 L
619.95 214.085 L
620.78 214.085 L
621.61 214.085 L
622.44 214.085 L
623.27 214.085 L
624.1 214.085 L
624.93 214.085 L
625.76 214.085 L
626.59 214.085 L
627.42 214.085 L
628.25 214.085 L
629.08 214.085 L
629.91 214.085 L
630.74 214.085 L
631.57 214.085 L
632.4 214.085 L
632.4 242.928 L
633.23 242.928 L
634.06 242.928 L
634.89 242.928 L
635.72 242.928 L
636.55 242.928 L
637.38 242.928 L
638.21 242.928 L
639.04 242.928 L
639.87 242.928 L
640.7 242.928 L
641.53 242.928 L
642.36 242.928 L
643.19 242.928 L
644.02 242.928 L
644.85 242.928 L
645.68 242.928 L
S
GR
GS
[0.75 0 0 0.75 0 -0.25] CT
0 0.447 0.741 RC
2 LJ
N
645.68 242.928 M
646.51 242.928 L
647.34 242.928 L
648.17 242.928 L
649 242.928 L
649.83 242.928 L
650.66 242.928 L
651.49 242.928 L
652.32 242.928 L
653.15 242.928 L
653.98 242.928 L
654.81 242.928 L
655.64 242.928 L
656.47 242.928 L
657.3 242.928 L
658.13 242.928 L
658.96 242.928 L
659.79 242.928 L
660.62 242.928 L
661.45 242.928 L
662.28 242.928 L
663.11 242.928 L
663.94 242.928 L
664.77 242.928 L
665.6 242.928 L
665.6 253.278 L
666.43 253.278 L
667.26 253.278 L
668.09 253.278 L
668.92 253.278 L
669.75 253.278 L
670.58 253.278 L
671.41 253.278 L
672.24 253.278 L
673.07 253.278 L
673.9 253.278 L
674.73 253.278 L
675.56 253.278 L
676.39 253.278 L
677.22 253.278 L
678.05 253.278 L
678.88 253.278 L
679.71 253.278 L
680.54 253.278 L
681.37 253.278 L
682.2 253.278 L
683.03 253.278 L
683.86 253.278 L
684.69 253.278 L
685.52 253.278 L
S
GR
GS
[0.75 0 0 0.75 0 -0.25] CT
0 0.447 0.741 RC
2 LJ
N
685.52 253.278 M
686.35 253.278 L
687.18 253.278 L
688.01 253.278 L
688.84 253.278 L
689.67 253.278 L
690.5 253.278 L
691.33 253.278 L
692.16 253.278 L
692.99 253.278 L
693.82 253.278 L
694.65 253.278 L
695.48 253.278 L
696.31 253.278 L
697.14 253.278 L
697.97 253.278 L
698.8 253.278 L
698.8 260.421 L
699.63 260.421 L
700.46 260.421 L
701.29 260.421 L
702.12 260.421 L
702.95 260.421 L
703.78 260.421 L
704.61 260.421 L
705.44 260.421 L
706.27 260.421 L
707.1 260.421 L
707.93 260.421 L
708.76 260.421 L
709.59 260.421 L
710.42 260.421 L
711.25 260.421 L
712.08 260.421 L
712.91 260.421 L
713.74 260.421 L
714.57 260.421 L
715.4 260.421 L
716.23 260.421 L
717.06 260.421 L
717.89 260.421 L
718.72 260.421 L
719.55 260.421 L
720.38 260.421 L
721.21 260.421 L
722.04 260.421 L
722.87 260.421 L
723.7 260.421 L
724.53 260.421 L
725.36 260.421 L
S
GR
GS
[0.75 0 0 0.75 0 -0.25] CT
0 0.447 0.741 RC
2 LJ
N
725.36 260.421 M
726.19 260.421 L
727.02 260.421 L
727.85 260.421 L
728.68 260.421 L
729.51 260.421 L
730.34 260.421 L
731.17 260.421 L
732 260.421 L
732 261.574 L
732.83 261.574 L
733.66 261.574 L
734.49 261.574 L
735.32 261.574 L
736.15 261.574 L
736.98 261.574 L
737.81 261.574 L
738.64 261.574 L
739.47 261.574 L
740.3 261.574 L
741.13 261.574 L
741.96 261.574 L
742.79 261.574 L
743.62 261.574 L
744.45 261.574 L
745.28 261.574 L
746.11 261.574 L
746.94 261.574 L
747.77 261.574 L
748.6 261.574 L
749.43 261.574 L
750.26 261.574 L
751.09 261.574 L
751.92 261.574 L
752.75 261.574 L
753.58 261.574 L
754.41 261.574 L
755.24 261.574 L
756.07 261.574 L
756.9 261.574 L
757.73 261.574 L
758.56 261.574 L
759.39 261.574 L
760.22 261.574 L
761.05 261.574 L
761.88 261.574 L
762.71 261.574 L
763.54 261.574 L
764.37 261.574 L
765.2 261.574 L
S
GR
GS
[0.75 0 0 0.75 0 -0.25] CT
0 0.447 0.741 RC
2 LJ
N
765.2 261.574 M
765.2 257.78 L
766.03 257.78 L
766.86 257.78 L
767.69 257.78 L
768.52 257.78 L
769.35 257.78 L
770.18 257.78 L
771.01 257.78 L
771.84 257.78 L
772.67 257.78 L
773.5 257.78 L
774.33 257.78 L
775.16 257.78 L
775.99 257.78 L
776.82 257.78 L
777.65 257.78 L
778.48 257.78 L
779.31 257.78 L
780.14 257.78 L
780.97 257.78 L
781.8 257.78 L
782.63 257.78 L
783.46 257.78 L
784.29 257.78 L
785.12 257.78 L
785.95 257.78 L
786.78 257.78 L
787.61 257.78 L
788.44 257.78 L
789.27 257.78 L
790.1 257.78 L
790.93 257.78 L
791.76 257.78 L
792.59 257.78 L
793.42 257.78 L
794.25 257.78 L
795.08 257.78 L
795.91 257.78 L
796.74 257.78 L
797.57 257.78 L
798.4 257.78 L
798.4 252.674 L
799.23 252.674 L
800.06 252.674 L
800.89 252.674 L
801.72 252.674 L
802.55 252.674 L
803.38 252.674 L
804.21 252.674 L
S
GR
GS
[0.75 0 0 0.75 0 -0.25] CT
0 0.447 0.741 RC
2 LJ
N
804.21 252.674 M
805.04 252.674 L
805.87 252.674 L
806.7 252.674 L
807.53 252.674 L
808.36 252.674 L
809.19 252.674 L
810.02 252.674 L
810.85 252.674 L
811.68 252.674 L
812.51 252.674 L
813.34 252.674 L
814.17 252.674 L
815 252.674 L
815.83 252.674 L
816.66 252.674 L
817.49 252.674 L
818.32 252.674 L
819.15 252.674 L
819.98 252.674 L
820.81 252.674 L
821.64 252.674 L
822.47 252.674 L
823.3 252.674 L
824.13 252.674 L
824.96 252.674 L
825.79 252.674 L
826.62 252.674 L
827.45 252.674 L
828.28 252.674 L
829.11 252.674 L
829.94 252.674 L
830.77 252.674 L
831.6 252.674 L
831.6 238.043 L
832.43 238.043 L
833.26 238.043 L
834.09 238.043 L
834.92 238.043 L
835.75 238.043 L
836.58 238.043 L
837.41 238.043 L
838.24 238.043 L
839.07 238.043 L
839.9 238.043 L
840.73 238.043 L
841.56 238.043 L
842.39 238.043 L
843.22 238.043 L
844.05 238.043 L
S
GR
GS
[0.75 0 0 0.75 0 -0.25] CT
0 0.447 0.741 RC
2 LJ
N
844.05 238.043 M
844.88 238.043 L
845.71 238.043 L
846.54 238.043 L
847.37 238.043 L
848.2 238.043 L
849.03 238.043 L
849.86 238.043 L
850.69 238.043 L
851.52 238.043 L
852.35 238.043 L
853.18 238.043 L
854.01 238.043 L
854.84 238.043 L
855.67 238.043 L
856.5 238.043 L
857.33 238.043 L
858.16 238.043 L
858.99 238.043 L
859.82 238.043 L
860.65 238.043 L
861.48 238.043 L
862.31 238.043 L
863.14 238.043 L
863.97 238.043 L
864.8 238.043 L
864.8 192.571 L
865.63 192.571 L
866.46 192.571 L
867.29 192.571 L
868.12 192.571 L
868.95 192.571 L
869.78 192.571 L
870.61 192.571 L
871.44 192.571 L
872.27 192.571 L
873.1 192.571 L
873.93 192.571 L
874.76 192.571 L
875.59 192.571 L
876.42 192.571 L
877.25 192.571 L
878.08 192.571 L
878.91 192.571 L
879.74 192.571 L
880.57 192.571 L
881.4 192.571 L
882.23 192.571 L
883.06 192.571 L
883.89 192.571 L
S
GR
GS
[0.75 0 0 0.75 0 -0.25] CT
0 0.447 0.741 RC
2 LJ
N
883.89 192.571 M
884.72 192.571 L
885.55 192.571 L
886.38 192.571 L
887.21 192.571 L
888.04 192.571 L
888.87 192.571 L
889.7 192.571 L
890.53 192.571 L
891.36 192.571 L
892.19 192.571 L
893.02 192.571 L
893.85 192.571 L
894.68 192.571 L
895.51 192.571 L
896.34 192.571 L
897.17 192.571 L
898 192.571 L
S
GR
%%Trailer
%%BoundingBox: 60 2 676 292
%%Pages: 1
%%EOF
