%!PS-Adobe-3.0 EPSF-3.0
%%Creator: (MATLAB, The Mathworks, Inc. Version 8.5.0.197613 \(R2015a\). Operating System: Linux)
%%Title: raport/chapter3/figures/20.eps
%%CreationDate: 2016-04-25T00:29:15
%%Pages: (atend)
%%BoundingBox: (atend)
%%LanguageLevel: 3
%%EndComments
%%BeginProlog
%%BeginResource: procset (Apache XML Graphics Std ProcSet) 1.2 0
%%Version: 1.2 0
%%Copyright: (Copyright 2001-2003,2010 The Apache Software Foundation. License terms: http://www.apache.org/licenses/LICENSE-2.0)
/bd{bind def}bind def
/ld{load def}bd
/GR/grestore ld
/M/moveto ld
/LJ/setlinejoin ld
/C/curveto ld
/f/fill ld
/LW/setlinewidth ld
/GC/setgray ld
/t/show ld
/N/newpath ld
/CT/concat ld
/cp/closepath ld
/S/stroke ld
/L/lineto ld
/CC/setcmykcolor ld
/A/ashow ld
/GS/gsave ld
/RC/setrgbcolor ld
/RM/rmoveto ld
/ML/setmiterlimit ld
/re {4 2 roll M
1 index 0 rlineto
0 exch rlineto
neg 0 rlineto
cp } bd
/_ctm matrix def
/_tm matrix def
/BT { _ctm currentmatrix pop matrix _tm copy pop 0 0 moveto } bd
/ET { _ctm setmatrix } bd
/iTm { _ctm setmatrix _tm concat } bd
/Tm { _tm astore pop iTm 0 0 moveto } bd
/ux 0.0 def
/uy 0.0 def
/F {
  /Tp exch def
  /Tf exch def
  Tf findfont Tp scalefont setfont
  /cf Tf def  /cs Tp def
} bd
/ULS {currentpoint /uy exch def /ux exch def} bd
/ULE {
  /Tcx currentpoint pop def
  gsave
  newpath
  cf findfont cs scalefont dup
  /FontMatrix get 0 get /Ts exch def /FontInfo get dup
  /UnderlinePosition get Ts mul /To exch def
  /UnderlineThickness get Ts mul /Tt exch def
  ux uy To add moveto  Tcx uy To add lineto
  Tt setlinewidth stroke
  grestore
} bd
/OLE {
  /Tcx currentpoint pop def
  gsave
  newpath
  cf findfont cs scalefont dup
  /FontMatrix get 0 get /Ts exch def /FontInfo get dup
  /UnderlinePosition get Ts mul /To exch def
  /UnderlineThickness get Ts mul /Tt exch def
  ux uy To add cs add moveto Tcx uy To add cs add lineto
  Tt setlinewidth stroke
  grestore
} bd
/SOE {
  /Tcx currentpoint pop def
  gsave
  newpath
  cf findfont cs scalefont dup
  /FontMatrix get 0 get /Ts exch def /FontInfo get dup
  /UnderlinePosition get Ts mul /To exch def
  /UnderlineThickness get Ts mul /Tt exch def
  ux uy To add cs 10 mul 26 idiv add moveto Tcx uy To add cs 10 mul 26 idiv add lineto
  Tt setlinewidth stroke
  grestore
} bd
/QT {
/Y22 exch store
/X22 exch store
/Y21 exch store
/X21 exch store
currentpoint
/Y21 load 2 mul add 3 div exch
/X21 load 2 mul add 3 div exch
/X21 load 2 mul /X22 load add 3 div
/Y21 load 2 mul /Y22 load add 3 div
/X22 load /Y22 load curveto
} bd
/SSPD {
dup length /d exch dict def
{
/v exch def
/k exch def
currentpagedevice k known {
/cpdv currentpagedevice k get def
v cpdv ne {
/upd false def
/nullv v type /nulltype eq def
/nullcpdv cpdv type /nulltype eq def
nullv nullcpdv or
{
/upd true def
} {
/sametype v type cpdv type eq def
sametype {
v type /arraytype eq {
/vlen v length def
/cpdvlen cpdv length def
vlen cpdvlen eq {
0 1 vlen 1 sub {
/i exch def
/obj v i get def
/cpdobj cpdv i get def
obj cpdobj ne {
/upd true def
exit
} if
} for
} {
/upd true def
} ifelse
} {
v type /dicttype eq {
v {
/dv exch def
/dk exch def
/cpddv cpdv dk get def
dv cpddv ne {
/upd true def
exit
} if
} forall
} {
/upd true def
} ifelse
} ifelse
} if
} ifelse
upd true eq {
d k v put
} if
} if
} if
} forall
d length 0 gt {
d setpagedevice
} if
} bd
%%EndResource
%%BeginResource: procset (Apache XML Graphics EPS ProcSet) 1.0 0
%%Version: 1.0 0
%%Copyright: (Copyright 2002-2003 The Apache Software Foundation. License terms: http://www.apache.org/licenses/LICENSE-2.0)
/BeginEPSF { %def
/b4_Inc_state save def         % Save state for cleanup
/dict_count countdictstack def % Count objects on dict stack
/op_count count 1 sub def      % Count objects on operand stack
userdict begin                 % Push userdict on dict stack
/showpage { } def              % Redefine showpage, { } = null proc
0 setgray 0 setlinecap         % Prepare graphics state
1 setlinewidth 0 setlinejoin
10 setmiterlimit [ ] 0 setdash newpath
/languagelevel where           % If level not equal to 1 then
{pop languagelevel             % set strokeadjust and
1 ne                           % overprint to their defaults.
{false setstrokeadjust false setoverprint
} if
} if
} bd
/EndEPSF { %def
count op_count sub {pop} repeat            % Clean up stacks
countdictstack dict_count sub {end} repeat
b4_Inc_state restore
} bd
%%EndResource
%FOPBeginFontDict
%%IncludeResource: font Courier-Bold
%%IncludeResource: font Helvetica
%%IncludeResource: font Courier-BoldOblique
%%IncludeResource: font Courier-Oblique
%%IncludeResource: font Times-Roman
%%IncludeResource: font Helvetica-BoldOblique
%%IncludeResource: font Helvetica-Bold
%%IncludeResource: font Helvetica-Oblique
%%IncludeResource: font Times-BoldItalic
%%IncludeResource: font Courier
%%IncludeResource: font Times-Italic
%%IncludeResource: font Times-Bold
%%IncludeResource: font Symbol
%%IncludeResource: font ZapfDingbats
%FOPEndFontDict
%%BeginResource: encoding WinAnsiEncoding
/WinAnsiEncoding [
/.notdef /.notdef /.notdef /.notdef /.notdef
/.notdef /.notdef /.notdef /.notdef /.notdef
/.notdef /.notdef /.notdef /.notdef /.notdef
/.notdef /.notdef /.notdef /.notdef /.notdef
/.notdef /.notdef /.notdef /.notdef /.notdef
/.notdef /.notdef /.notdef /.notdef /.notdef
/.notdef /.notdef /space /exclam /quotedbl
/numbersign /dollar /percent /ampersand /quotesingle
/parenleft /parenright /asterisk /plus /comma
/hyphen /period /slash /zero /one
/two /three /four /five /six
/seven /eight /nine /colon /semicolon
/less /equal /greater /question /at
/A /B /C /D /E
/F /G /H /I /J
/K /L /M /N /O
/P /Q /R /S /T
/U /V /W /X /Y
/Z /bracketleft /backslash /bracketright /asciicircum
/underscore /quoteleft /a /b /c
/d /e /f /g /h
/i /j /k /l /m
/n /o /p /q /r
/s /t /u /v /w
/x /y /z /braceleft /bar
/braceright /asciitilde /bullet /Euro /bullet
/quotesinglbase /florin /quotedblbase /ellipsis /dagger
/daggerdbl /circumflex /perthousand /Scaron /guilsinglleft
/OE /bullet /Zcaron /bullet /bullet
/quoteleft /quoteright /quotedblleft /quotedblright /bullet
/endash /emdash /asciitilde /trademark /scaron
/guilsinglright /oe /bullet /zcaron /Ydieresis
/space /exclamdown /cent /sterling /currency
/yen /brokenbar /section /dieresis /copyright
/ordfeminine /guillemotleft /logicalnot /sfthyphen /registered
/macron /degree /plusminus /twosuperior /threesuperior
/acute /mu /paragraph /middot /cedilla
/onesuperior /ordmasculine /guillemotright /onequarter /onehalf
/threequarters /questiondown /Agrave /Aacute /Acircumflex
/Atilde /Adieresis /Aring /AE /Ccedilla
/Egrave /Eacute /Ecircumflex /Edieresis /Igrave
/Iacute /Icircumflex /Idieresis /Eth /Ntilde
/Ograve /Oacute /Ocircumflex /Otilde /Odieresis
/multiply /Oslash /Ugrave /Uacute /Ucircumflex
/Udieresis /Yacute /Thorn /germandbls /agrave
/aacute /acircumflex /atilde /adieresis /aring
/ae /ccedilla /egrave /eacute /ecircumflex
/edieresis /igrave /iacute /icircumflex /idieresis
/eth /ntilde /ograve /oacute /ocircumflex
/otilde /odieresis /divide /oslash /ugrave
/uacute /ucircumflex /udieresis /yacute /thorn
/ydieresis
] def
%%EndResource
%FOPBeginFontReencode
/Courier-Bold findfont
dup length dict begin
  {1 index /FID ne {def} {pop pop} ifelse} forall
  /Encoding WinAnsiEncoding def
  currentdict
end
/Courier-Bold exch definefont pop
/Helvetica findfont
dup length dict begin
  {1 index /FID ne {def} {pop pop} ifelse} forall
  /Encoding WinAnsiEncoding def
  currentdict
end
/Helvetica exch definefont pop
/Courier-BoldOblique findfont
dup length dict begin
  {1 index /FID ne {def} {pop pop} ifelse} forall
  /Encoding WinAnsiEncoding def
  currentdict
end
/Courier-BoldOblique exch definefont pop
/Courier-Oblique findfont
dup length dict begin
  {1 index /FID ne {def} {pop pop} ifelse} forall
  /Encoding WinAnsiEncoding def
  currentdict
end
/Courier-Oblique exch definefont pop
/Times-Roman findfont
dup length dict begin
  {1 index /FID ne {def} {pop pop} ifelse} forall
  /Encoding WinAnsiEncoding def
  currentdict
end
/Times-Roman exch definefont pop
/Helvetica-BoldOblique findfont
dup length dict begin
  {1 index /FID ne {def} {pop pop} ifelse} forall
  /Encoding WinAnsiEncoding def
  currentdict
end
/Helvetica-BoldOblique exch definefont pop
/Helvetica-Bold findfont
dup length dict begin
  {1 index /FID ne {def} {pop pop} ifelse} forall
  /Encoding WinAnsiEncoding def
  currentdict
end
/Helvetica-Bold exch definefont pop
/Helvetica-Oblique findfont
dup length dict begin
  {1 index /FID ne {def} {pop pop} ifelse} forall
  /Encoding WinAnsiEncoding def
  currentdict
end
/Helvetica-Oblique exch definefont pop
/Times-BoldItalic findfont
dup length dict begin
  {1 index /FID ne {def} {pop pop} ifelse} forall
  /Encoding WinAnsiEncoding def
  currentdict
end
/Times-BoldItalic exch definefont pop
/Courier findfont
dup length dict begin
  {1 index /FID ne {def} {pop pop} ifelse} forall
  /Encoding WinAnsiEncoding def
  currentdict
end
/Courier exch definefont pop
/Times-Italic findfont
dup length dict begin
  {1 index /FID ne {def} {pop pop} ifelse} forall
  /Encoding WinAnsiEncoding def
  currentdict
end
/Times-Italic exch definefont pop
/Times-Bold findfont
dup length dict begin
  {1 index /FID ne {def} {pop pop} ifelse} forall
  /Encoding WinAnsiEncoding def
  currentdict
end
/Times-Bold exch definefont pop
%FOPEndFontReencode
%%EndProlog
%%Page: 1 1
%%PageBoundingBox: 0 0 744 299
%%BeginPageSetup
[1 0 0 -1 0 299] CT
%%EndPageSetup
GS
[0.75 0 0 0.75 0 -0.25] CT
N
0 0 M
992 0 L
992 399 L
0 399 L
0 0 L
cp
clip
1 GC
N
0 0 992 399 re
f
GR
GS
[0.75 0 0 0.75 0 -0.25] CT
1 GC
N
0 0 992 399 re
f
GR
GS
[0.75 0 0 0.75 0 -0.25] CT
1 GC
N
129 355 M
461 355 L
461 30 L
129 30 L
cp
f
GR
GS
[0.75 0 0 0.75 0 -0.25] CT
0.873 GC
2 setlinecap
10.0 ML
N
129 355 M
129 30 L
S
GR
GS
[0.75 0 0 0.75 0 -0.25] CT
0.873 GC
2 setlinecap
10.0 ML
N
195.4 355 M
195.4 30 L
S
GR
GS
[0.75 0 0 0.75 0 -0.25] CT
0.873 GC
2 setlinecap
10.0 ML
N
261.8 355 M
261.8 30 L
S
GR
GS
[0.75 0 0 0.75 0 -0.25] CT
0.873 GC
2 setlinecap
10.0 ML
N
328.2 355 M
328.2 30 L
S
GR
GS
[0.75 0 0 0.75 0 -0.25] CT
0.873 GC
2 setlinecap
10.0 ML
N
394.6 355 M
394.6 30 L
S
GR
GS
[0.75 0 0 0.75 0 -0.25] CT
0.873 GC
2 setlinecap
10.0 ML
N
461 355 M
461 30 L
S
GR
GS
[0.75 0 0 0.75 0 -0.25] CT
0.873 GC
2 setlinecap
10.0 ML
N
461 355 M
129 355 L
S
GR
GS
[0.75 0 0 0.75 0 -0.25] CT
0.873 GC
2 setlinecap
10.0 ML
N
461 322.5 M
129 322.5 L
S
GR
GS
[0.75 0 0 0.75 0 -0.25] CT
0.873 GC
2 setlinecap
10.0 ML
N
461 290 M
129 290 L
S
GR
GS
[0.75 0 0 0.75 0 -0.25] CT
0.873 GC
2 setlinecap
10.0 ML
N
461 257.5 M
129 257.5 L
S
GR
GS
[0.75 0 0 0.75 0 -0.25] CT
0.873 GC
2 setlinecap
10.0 ML
N
461 225 M
129 225 L
S
GR
GS
[0.75 0 0 0.75 0 -0.25] CT
0.873 GC
2 setlinecap
10.0 ML
N
461 192.5 M
129 192.5 L
S
GR
GS
[0.75 0 0 0.75 0 -0.25] CT
0.873 GC
2 setlinecap
10.0 ML
N
461 160 M
129 160 L
S
GR
GS
[0.75 0 0 0.75 0 -0.25] CT
0.873 GC
2 setlinecap
10.0 ML
N
461 127.5 M
129 127.5 L
S
GR
GS
[0.75 0 0 0.75 0 -0.25] CT
0.873 GC
2 setlinecap
10.0 ML
N
461 95 M
129 95 L
S
GR
GS
[0.75 0 0 0.75 0 -0.25] CT
0.873 GC
2 setlinecap
10.0 ML
N
461 62.5 M
129 62.5 L
S
GR
GS
[0.75 0 0 0.75 0 -0.25] CT
0.873 GC
2 setlinecap
10.0 ML
N
461 30 M
129 30 L
S
GR
GS
[0.75 0 0 0.75 221.25011 283.74999] CT
0.149 GC
/Helvetica 15 F
GS
[1 0 0 1 0 0] CT
-29.5 14 moveto 
1 -1 scale
(time \(s\)) t 
GR
GR
GS
[0.75 0 0 0.75 0 -0.25] CT
0.149 GC
2 setlinecap
10.0 ML
N
129 355 M
461 355 L
S
GR
GS
[0.75 0 0 0.75 0 -0.25] CT
0.149 GC
2 setlinecap
10.0 ML
N
129 30 M
461 30 L
S
GR
GS
[0.75 0 0 0.75 0 -0.25] CT
0.149 GC
2 setlinecap
10.0 ML
N
129 355 M
129 351.68 L
S
GR
GS
[0.75 0 0 0.75 0 -0.25] CT
0.149 GC
2 setlinecap
10.0 ML
N
195.4 355 M
195.4 351.68 L
S
GR
GS
[0.75 0 0 0.75 0 -0.25] CT
0.149 GC
2 setlinecap
10.0 ML
N
261.8 355 M
261.8 351.68 L
S
GR
GS
[0.75 0 0 0.75 0 -0.25] CT
0.149 GC
2 setlinecap
10.0 ML
N
328.2 355 M
328.2 351.68 L
S
GR
GS
[0.75 0 0 0.75 0 -0.25] CT
0.149 GC
2 setlinecap
10.0 ML
N
394.6 355 M
394.6 351.68 L
S
GR
GS
[0.75 0 0 0.75 0 -0.25] CT
0.149 GC
2 setlinecap
10.0 ML
N
461 355 M
461 351.68 L
S
GR
GS
[0.75 0 0 0.75 0 -0.25] CT
0.149 GC
2 setlinecap
10.0 ML
N
129 30 M
129 33.32 L
S
GR
GS
[0.75 0 0 0.75 0 -0.25] CT
0.149 GC
2 setlinecap
10.0 ML
N
195.4 30 M
195.4 33.32 L
S
GR
GS
[0.75 0 0 0.75 0 -0.25] CT
0.149 GC
2 setlinecap
10.0 ML
N
261.8 30 M
261.8 33.32 L
S
GR
GS
[0.75 0 0 0.75 0 -0.25] CT
0.149 GC
2 setlinecap
10.0 ML
N
328.2 30 M
328.2 33.32 L
S
GR
GS
[0.75 0 0 0.75 0 -0.25] CT
0.149 GC
2 setlinecap
10.0 ML
N
394.6 30 M
394.6 33.32 L
S
GR
GS
[0.75 0 0 0.75 0 -0.25] CT
0.149 GC
2 setlinecap
10.0 ML
N
461 30 M
461 33.32 L
S
GR
GS
[0.75 0 0 0.75 96.75 270.00001] CT
0.149 GC
/Helvetica 13 F
GS
[1 0 0 1 0 0] CT
-4.5 13 moveto 
1 -1 scale
(0) t 
GR
GR
GS
[0.75 0 0 0.75 146.55 270.00001] CT
0.149 GC
/Helvetica 13 F
GS
[1 0 0 1 0 0] CT
-10.5 13 moveto 
1 -1 scale
(0.2) t 
GR
GR
GS
[0.75 0 0 0.75 196.34999 270.00001] CT
0.149 GC
/Helvetica 13 F
GS
[1 0 0 1 0 0] CT
-10.5 13 moveto 
1 -1 scale
(0.4) t 
GR
GR
GS
[0.75 0 0 0.75 246.15001 270.00001] CT
0.149 GC
/Helvetica 13 F
GS
[1 0 0 1 0 0] CT
-10.5 13 moveto 
1 -1 scale
(0.6) t 
GR
GR
GS
[0.75 0 0 0.75 295.95 270.00001] CT
0.149 GC
/Helvetica 13 F
GS
[1 0 0 1 0 0] CT
-10.5 13 moveto 
1 -1 scale
(0.8) t 
GR
GR
GS
[0.75 0 0 0.75 345.75 270.00001] CT
0.149 GC
/Helvetica 13 F
GS
[1 0 0 1 0 0] CT
-4.5 13 moveto 
1 -1 scale
(1) t 
GR
GR
GS
[0 -0.75 0.75 0 74 144.12489] CT
0.149 GC
/Helvetica 15 F
GS
[1 0 0 1 0 0] CT
-4.5 -4 moveto 
1 -1 scale
(x) t 
GR
GR
GS
[0.75 0 0 0.75 0 -0.25] CT
0.149 GC
2 setlinecap
10.0 ML
N
129 355 M
129 30 L
S
GR
GS
[0.75 0 0 0.75 0 -0.25] CT
0.149 GC
2 setlinecap
10.0 ML
N
461 355 M
461 30 L
S
GR
GS
[0.75 0 0 0.75 0 -0.25] CT
0.149 GC
2 setlinecap
10.0 ML
N
129 355 M
132.32 355 L
S
GR
GS
[0.75 0 0 0.75 0 -0.25] CT
0.149 GC
2 setlinecap
10.0 ML
N
129 322.5 M
132.32 322.5 L
S
GR
GS
[0.75 0 0 0.75 0 -0.25] CT
0.149 GC
2 setlinecap
10.0 ML
N
129 290 M
132.32 290 L
S
GR
GS
[0.75 0 0 0.75 0 -0.25] CT
0.149 GC
2 setlinecap
10.0 ML
N
129 257.5 M
132.32 257.5 L
S
GR
GS
[0.75 0 0 0.75 0 -0.25] CT
0.149 GC
2 setlinecap
10.0 ML
N
129 225 M
132.32 225 L
S
GR
GS
[0.75 0 0 0.75 0 -0.25] CT
0.149 GC
2 setlinecap
10.0 ML
N
129 192.5 M
132.32 192.5 L
S
GR
GS
[0.75 0 0 0.75 0 -0.25] CT
0.149 GC
2 setlinecap
10.0 ML
N
129 160 M
132.32 160 L
S
GR
GS
[0.75 0 0 0.75 0 -0.25] CT
0.149 GC
2 setlinecap
10.0 ML
N
129 127.5 M
132.32 127.5 L
S
GR
GS
[0.75 0 0 0.75 0 -0.25] CT
0.149 GC
2 setlinecap
10.0 ML
N
129 95 M
132.32 95 L
S
GR
GS
[0.75 0 0 0.75 0 -0.25] CT
0.149 GC
2 setlinecap
10.0 ML
N
129 62.5 M
132.32 62.5 L
S
GR
GS
[0.75 0 0 0.75 0 -0.25] CT
0.149 GC
2 setlinecap
10.0 ML
N
129 30 M
132.32 30 L
S
GR
GS
[0.75 0 0 0.75 0 -0.25] CT
0.149 GC
2 setlinecap
10.0 ML
N
461 355 M
457.68 355 L
S
GR
GS
[0.75 0 0 0.75 0 -0.25] CT
0.149 GC
2 setlinecap
10.0 ML
N
461 322.5 M
457.68 322.5 L
S
GR
GS
[0.75 0 0 0.75 0 -0.25] CT
0.149 GC
2 setlinecap
10.0 ML
N
461 290 M
457.68 290 L
S
GR
GS
[0.75 0 0 0.75 0 -0.25] CT
0.149 GC
2 setlinecap
10.0 ML
N
461 257.5 M
457.68 257.5 L
S
GR
GS
[0.75 0 0 0.75 0 -0.25] CT
0.149 GC
2 setlinecap
10.0 ML
N
461 225 M
457.68 225 L
S
GR
GS
[0.75 0 0 0.75 0 -0.25] CT
0.149 GC
2 setlinecap
10.0 ML
N
461 192.5 M
457.68 192.5 L
S
GR
GS
[0.75 0 0 0.75 0 -0.25] CT
0.149 GC
2 setlinecap
10.0 ML
N
461 160 M
457.68 160 L
S
GR
GS
[0.75 0 0 0.75 0 -0.25] CT
0.149 GC
2 setlinecap
10.0 ML
N
461 127.5 M
457.68 127.5 L
S
GR
GS
[0.75 0 0 0.75 0 -0.25] CT
0.149 GC
2 setlinecap
10.0 ML
N
461 95 M
457.68 95 L
S
GR
GS
[0.75 0 0 0.75 0 -0.25] CT
0.149 GC
2 setlinecap
10.0 ML
N
461 62.5 M
457.68 62.5 L
S
GR
GS
[0.75 0 0 0.75 0 -0.25] CT
0.149 GC
2 setlinecap
10.0 ML
N
461 30 M
457.68 30 L
S
GR
GS
[0.75 0 0 0.75 92.75 266] CT
0.149 GC
/Helvetica 13 F
GS
[1 0 0 1 0 0] CT
-9 4.5 moveto 
1 -1 scale
(0) t 
GR
GR
GS
[0.75 0 0 0.75 92.75 241.625] CT
0.149 GC
/Helvetica 13 F
GS
[1 0 0 1 0 0] CT
-21 4.5 moveto 
1 -1 scale
(0.1) t 
GR
GR
GS
[0.75 0 0 0.75 92.75 217.25] CT
0.149 GC
/Helvetica 13 F
GS
[1 0 0 1 0 0] CT
-21 4.5 moveto 
1 -1 scale
(0.2) t 
GR
GR
GS
[0.75 0 0 0.75 92.75 192.875] CT
0.149 GC
/Helvetica 13 F
GS
[1 0 0 1 0 0] CT
-21 4.5 moveto 
1 -1 scale
(0.3) t 
GR
GR
GS
[0.75 0 0 0.75 92.75 168.5] CT
0.149 GC
/Helvetica 13 F
GS
[1 0 0 1 0 0] CT
-21 4.5 moveto 
1 -1 scale
(0.4) t 
GR
GR
GS
[0.75 0 0 0.75 92.75 144.125] CT
0.149 GC
/Helvetica 13 F
GS
[1 0 0 1 0 0] CT
-21 4.5 moveto 
1 -1 scale
(0.5) t 
GR
GR
GS
[0.75 0 0 0.75 92.75 119.74999] CT
0.149 GC
/Helvetica 13 F
GS
[1 0 0 1 0 0] CT
-21 4.5 moveto 
1 -1 scale
(0.6) t 
GR
GR
GS
[0.75 0 0 0.75 92.75 95.37501] CT
0.149 GC
/Helvetica 13 F
GS
[1 0 0 1 0 0] CT
-21 4.5 moveto 
1 -1 scale
(0.7) t 
GR
GR
GS
[0.75 0 0 0.75 92.75 70.99999] CT
0.149 GC
/Helvetica 13 F
GS
[1 0 0 1 0 0] CT
-21 4.5 moveto 
1 -1 scale
(0.8) t 
GR
GR
GS
[0.75 0 0 0.75 92.75 46.62501] CT
0.149 GC
/Helvetica 13 F
GS
[1 0 0 1 0 0] CT
-21 4.5 moveto 
1 -1 scale
(0.9) t 
GR
GR
GS
[0.75 0 0 0.75 92.75 22.25] CT
0.149 GC
/Helvetica 13 F
GS
[1 0 0 1 0 0] CT
-9 4.5 moveto 
1 -1 scale
(1) t 
GR
GR
GS
[0.75 0 0 0.75 0 -0.25] CT
0 0.447 0.741 RC
2 LJ
N
129 30 M
129.415 30.274 L
129.83 30.545 L
130.245 30.813 L
130.66 31.079 L
131.075 31.343 L
131.49 31.604 L
131.905 31.862 L
132.32 32.119 L
132.735 32.373 L
133.15 32.624 L
133.565 32.873 L
133.98 33.12 L
134.395 33.365 L
134.81 33.608 L
135.225 33.848 L
135.64 34.086 L
136.055 34.322 L
136.47 34.555 L
136.885 34.787 L
137.3 35.016 L
137.715 35.243 L
138.13 35.469 L
138.545 35.692 L
138.96 35.913 L
139.375 36.132 L
139.79 36.349 L
140.205 36.564 L
140.62 36.777 L
141.035 36.988 L
141.45 37.197 L
141.865 37.405 L
142.28 37.61 L
142.695 37.814 L
143.11 38.015 L
143.525 38.215 L
143.94 38.413 L
144.355 38.609 L
144.77 38.804 L
145.185 38.996 L
145.6 39.187 L
145.6 39.341 L
146.015 39.466 L
146.43 39.591 L
146.845 39.715 L
147.26 39.838 L
147.675 39.96 L
148.09 40.082 L
148.505 40.203 L
148.92 40.323 L
S
GR
GS
[0.75 0 0 0.75 0 -0.25] CT
0 0.447 0.741 RC
2 LJ
N
148.92 40.323 M
149.335 40.443 L
149.75 40.562 L
150.165 40.68 L
150.58 40.797 L
150.995 40.914 L
151.41 41.03 L
151.825 41.146 L
152.24 41.261 L
152.655 41.375 L
153.07 41.488 L
153.485 41.601 L
153.9 41.714 L
154.315 41.825 L
154.73 41.936 L
155.145 42.046 L
155.56 42.156 L
155.975 42.265 L
156.39 42.374 L
156.805 42.481 L
157.22 42.589 L
157.635 42.695 L
158.05 42.801 L
158.465 42.907 L
158.88 43.012 L
159.295 43.116 L
159.71 43.219 L
160.125 43.322 L
160.54 43.425 L
160.955 43.527 L
161.37 43.628 L
161.785 43.729 L
162.2 43.829 L
162.2 43.987 L
162.615 44.075 L
163.03 44.163 L
163.445 44.251 L
163.86 44.338 L
164.275 44.425 L
164.69 44.511 L
165.105 44.597 L
165.52 44.682 L
165.935 44.767 L
166.35 44.852 L
166.765 44.936 L
167.18 45.02 L
167.595 45.104 L
168.01 45.187 L
168.425 45.269 L
168.84 45.352 L
S
GR
GS
[0.75 0 0 0.75 0 -0.25] CT
0 0.447 0.741 RC
2 LJ
N
168.84 45.352 M
169.255 45.434 L
169.67 45.515 L
170.085 45.596 L
170.5 45.677 L
170.915 45.757 L
171.33 45.837 L
171.745 45.917 L
172.16 45.996 L
172.575 46.075 L
172.99 46.153 L
173.405 46.231 L
173.82 46.309 L
174.235 46.387 L
174.65 46.464 L
175.065 46.54 L
175.48 46.617 L
175.895 46.693 L
176.31 46.768 L
176.725 46.843 L
177.14 46.918 L
177.555 46.993 L
177.97 47.067 L
178.385 47.141 L
178.8 47.215 L
178.8 47.376 L
179.215 47.441 L
179.63 47.506 L
180.045 47.571 L
180.46 47.636 L
180.875 47.7 L
181.29 47.765 L
181.705 47.829 L
182.12 47.892 L
182.535 47.956 L
182.95 48.019 L
183.365 48.082 L
183.78 48.145 L
184.195 48.207 L
184.61 48.269 L
185.025 48.331 L
185.44 48.393 L
185.855 48.455 L
186.27 48.516 L
186.685 48.577 L
187.1 48.638 L
187.515 48.699 L
187.93 48.759 L
188.345 48.819 L
188.76 48.879 L
S
GR
GS
[0.75 0 0 0.75 0 -0.25] CT
0 0.447 0.741 RC
2 LJ
N
188.76 48.879 M
189.175 48.939 L
189.59 48.998 L
190.005 49.057 L
190.42 49.116 L
190.835 49.175 L
191.25 49.234 L
191.665 49.292 L
192.08 49.35 L
192.495 49.408 L
192.91 49.466 L
193.325 49.523 L
193.74 49.581 L
194.155 49.638 L
194.57 49.695 L
194.985 49.751 L
195.4 49.808 L
195.4 49.974 L
195.815 50.028 L
196.23 50.081 L
196.645 50.135 L
197.06 50.188 L
197.475 50.241 L
197.89 50.294 L
198.305 50.347 L
198.72 50.4 L
199.135 50.452 L
199.55 50.504 L
199.965 50.556 L
200.38 50.608 L
200.795 50.66 L
201.21 50.712 L
201.625 50.763 L
202.04 50.814 L
202.455 50.865 L
202.87 50.916 L
203.285 50.967 L
203.7 51.017 L
204.115 51.068 L
204.53 51.118 L
204.945 51.168 L
205.36 51.218 L
205.775 51.268 L
206.19 51.317 L
206.605 51.367 L
207.02 51.416 L
207.435 51.465 L
207.85 51.514 L
208.265 51.563 L
208.68 51.611 L
S
GR
GS
[0.75 0 0 0.75 0 -0.25] CT
0 0.447 0.741 RC
2 LJ
N
208.68 51.611 M
209.095 51.66 L
209.51 51.708 L
209.925 51.756 L
210.34 51.804 L
210.755 51.852 L
211.17 51.9 L
211.585 51.947 L
212 51.995 L
212 52.158 L
212.415 52.203 L
212.83 52.248 L
213.245 52.292 L
213.66 52.337 L
214.075 52.381 L
214.49 52.425 L
214.905 52.469 L
215.32 52.513 L
215.735 52.557 L
216.15 52.601 L
216.565 52.644 L
216.98 52.688 L
217.395 52.731 L
217.81 52.774 L
218.225 52.817 L
218.64 52.86 L
219.055 52.903 L
219.47 52.946 L
219.885 52.988 L
220.3 53.031 L
220.715 53.073 L
221.13 53.116 L
221.545 53.158 L
221.96 53.2 L
222.375 53.242 L
222.79 53.283 L
223.205 53.325 L
223.62 53.367 L
224.035 53.408 L
224.45 53.45 L
224.865 53.491 L
225.28 53.532 L
225.695 53.573 L
226.11 53.614 L
226.525 53.655 L
226.94 53.695 L
227.355 53.736 L
227.77 53.776 L
228.185 53.817 L
228.6 53.857 L
S
GR
GS
[0.75 0 0 0.75 0 -0.25] CT
0 0.447 0.741 RC
2 LJ
N
228.6 53.857 M
228.6 54.015 L
229.015 54.054 L
229.43 54.092 L
229.845 54.13 L
230.26 54.169 L
230.675 54.207 L
231.09 54.245 L
231.505 54.283 L
231.92 54.321 L
232.335 54.358 L
232.75 54.396 L
233.165 54.434 L
233.58 54.471 L
233.995 54.508 L
234.41 54.546 L
234.825 54.583 L
235.24 54.62 L
235.655 54.657 L
236.07 54.694 L
236.485 54.731 L
236.9 54.768 L
237.315 54.805 L
237.73 54.841 L
238.145 54.878 L
238.56 54.914 L
238.975 54.951 L
239.39 54.987 L
239.805 55.023 L
240.22 55.059 L
240.635 55.095 L
241.05 55.131 L
241.465 55.167 L
241.88 55.203 L
242.295 55.239 L
242.71 55.274 L
243.125 55.31 L
243.54 55.345 L
243.955 55.381 L
244.37 55.416 L
244.785 55.452 L
245.2 55.487 L
245.2 55.636 L
245.615 55.67 L
246.03 55.704 L
246.445 55.737 L
246.86 55.771 L
247.275 55.804 L
247.69 55.838 L
248.105 55.871 L
S
GR
GS
[0.75 0 0 0.75 0 -0.25] CT
0 0.447 0.741 RC
2 LJ
N
248.105 55.871 M
248.52 55.905 L
248.935 55.938 L
249.35 55.971 L
249.765 56.004 L
250.18 56.037 L
250.595 56.07 L
251.01 56.103 L
251.425 56.136 L
251.84 56.169 L
252.255 56.202 L
252.67 56.234 L
253.085 56.267 L
253.5 56.299 L
253.915 56.332 L
254.33 56.364 L
254.745 56.397 L
255.16 56.429 L
255.575 56.461 L
255.99 56.494 L
256.405 56.526 L
256.82 56.558 L
257.235 56.59 L
257.65 56.622 L
258.065 56.654 L
258.48 56.686 L
258.895 56.718 L
259.31 56.749 L
259.725 56.781 L
260.14 56.813 L
260.555 56.844 L
260.97 56.876 L
261.385 56.907 L
261.8 56.939 L
261.8 57.082 L
262.215 57.113 L
262.63 57.143 L
263.045 57.174 L
263.46 57.204 L
263.875 57.234 L
264.29 57.265 L
264.705 57.295 L
265.12 57.325 L
265.535 57.355 L
265.95 57.385 L
266.365 57.415 L
266.78 57.445 L
267.195 57.475 L
267.61 57.505 L
268.025 57.535 L
S
GR
GS
[0.75 0 0 0.75 0 -0.25] CT
0 0.447 0.741 RC
2 LJ
N
268.025 57.535 M
268.44 57.565 L
268.855 57.594 L
269.27 57.624 L
269.685 57.654 L
270.1 57.683 L
270.515 57.713 L
270.93 57.742 L
271.345 57.772 L
271.76 57.801 L
272.175 57.831 L
272.59 57.86 L
273.005 57.889 L
273.42 57.919 L
273.835 57.948 L
274.25 57.977 L
274.665 58.006 L
275.08 58.035 L
275.495 58.064 L
275.91 58.093 L
276.325 58.122 L
276.74 58.151 L
277.155 58.18 L
277.57 58.209 L
277.985 58.238 L
278.4 58.266 L
278.4 58.412 L
278.815 58.44 L
279.23 58.469 L
279.645 58.497 L
280.06 58.526 L
280.475 58.554 L
280.89 58.582 L
281.305 58.611 L
281.72 58.639 L
282.135 58.667 L
282.55 58.695 L
282.965 58.723 L
283.38 58.752 L
283.795 58.78 L
284.21 58.808 L
284.625 58.836 L
285.04 58.864 L
285.455 58.892 L
285.87 58.92 L
286.285 58.947 L
286.7 58.975 L
287.115 59.003 L
287.53 59.031 L
287.945 59.058 L
S
GR
GS
[0.75 0 0 0.75 0 -0.25] CT
0 0.447 0.741 RC
2 LJ
N
287.945 59.058 M
288.36 59.086 L
288.775 59.114 L
289.19 59.141 L
289.605 59.169 L
290.02 59.196 L
290.435 59.224 L
290.85 59.251 L
291.265 59.279 L
291.68 59.306 L
292.095 59.334 L
292.51 59.361 L
292.925 59.388 L
293.34 59.415 L
293.755 59.443 L
294.17 59.47 L
294.585 59.497 L
295 59.524 L
295 59.676 L
295.415 59.703 L
295.83 59.731 L
296.245 59.758 L
296.66 59.786 L
297.075 59.813 L
297.49 59.841 L
297.905 59.868 L
298.32 59.895 L
298.735 59.923 L
299.15 59.95 L
299.565 59.977 L
299.98 60.004 L
300.395 60.032 L
300.81 60.059 L
301.225 60.086 L
301.64 60.113 L
302.055 60.14 L
302.47 60.167 L
302.885 60.194 L
303.3 60.221 L
303.715 60.248 L
304.13 60.275 L
304.545 60.302 L
304.96 60.328 L
305.375 60.355 L
305.79 60.382 L
306.205 60.409 L
306.62 60.435 L
307.035 60.462 L
307.45 60.489 L
307.865 60.515 L
S
GR
GS
[0.75 0 0 0.75 0 -0.25] CT
0 0.447 0.741 RC
2 LJ
N
307.865 60.515 M
308.28 60.542 L
308.695 60.568 L
309.11 60.595 L
309.525 60.621 L
309.94 60.648 L
310.355 60.674 L
310.77 60.701 L
311.185 60.727 L
311.6 60.753 L
311.6 60.911 L
312.015 60.939 L
312.43 60.966 L
312.845 60.993 L
313.26 61.02 L
313.675 61.047 L
314.09 61.074 L
314.505 61.101 L
314.92 61.128 L
315.335 61.155 L
315.75 61.181 L
316.165 61.208 L
316.58 61.235 L
316.995 61.262 L
317.41 61.288 L
317.825 61.315 L
318.24 61.342 L
318.655 61.368 L
319.07 61.395 L
319.485 61.421 L
319.9 61.448 L
320.315 61.474 L
320.73 61.501 L
321.145 61.527 L
321.56 61.554 L
321.975 61.58 L
322.39 61.606 L
322.805 61.633 L
323.22 61.659 L
323.635 61.685 L
324.05 61.711 L
324.465 61.738 L
324.88 61.764 L
325.295 61.79 L
325.71 61.816 L
326.125 61.842 L
326.54 61.868 L
326.955 61.894 L
327.37 61.92 L
327.785 61.946 L
S
GR
GS
[0.75 0 0 0.75 0 -0.25] CT
0 0.447 0.741 RC
2 LJ
N
327.785 61.946 M
328.2 61.972 L
328.2 62.136 L
328.615 62.163 L
329.03 62.189 L
329.445 62.216 L
329.86 62.243 L
330.275 62.269 L
330.69 62.296 L
331.105 62.322 L
331.52 62.348 L
331.935 62.375 L
332.35 62.401 L
332.765 62.428 L
333.18 62.454 L
333.595 62.48 L
334.01 62.506 L
334.425 62.532 L
334.84 62.559 L
335.255 62.585 L
335.67 62.611 L
336.085 62.637 L
336.5 62.663 L
336.915 62.689 L
337.33 62.715 L
337.745 62.741 L
338.16 62.767 L
338.575 62.793 L
338.99 62.819 L
339.405 62.844 L
339.82 62.87 L
340.235 62.896 L
340.65 62.922 L
341.065 62.948 L
341.48 62.973 L
341.895 62.999 L
342.31 63.025 L
342.725 63.05 L
343.14 63.076 L
343.555 63.101 L
343.97 63.127 L
344.385 63.152 L
344.8 63.178 L
344.8 63.345 L
345.215 63.371 L
345.63 63.397 L
346.045 63.423 L
346.46 63.45 L
346.875 63.476 L
347.29 63.502 L
S
GR
GS
[0.75 0 0 0.75 0 -0.25] CT
0 0.447 0.741 RC
2 LJ
N
347.29 63.502 M
347.705 63.528 L
348.12 63.554 L
348.535 63.58 L
348.95 63.606 L
349.365 63.631 L
349.78 63.657 L
350.195 63.683 L
350.61 63.709 L
351.025 63.735 L
351.44 63.761 L
351.855 63.786 L
352.27 63.812 L
352.685 63.838 L
353.1 63.863 L
353.515 63.889 L
353.93 63.914 L
354.345 63.94 L
354.76 63.965 L
355.175 63.991 L
355.59 64.016 L
356.005 64.042 L
356.42 64.067 L
356.835 64.093 L
357.25 64.118 L
357.665 64.143 L
358.08 64.168 L
358.495 64.194 L
358.91 64.219 L
359.325 64.244 L
359.74 64.269 L
360.155 64.294 L
360.57 64.32 L
360.985 64.345 L
361.4 64.37 L
361.4 64.537 L
361.815 64.563 L
362.23 64.589 L
362.645 64.615 L
363.06 64.641 L
363.475 64.666 L
363.89 64.692 L
364.305 64.718 L
364.72 64.744 L
365.135 64.769 L
365.55 64.795 L
365.965 64.821 L
366.38 64.846 L
366.795 64.872 L
367.21 64.898 L
S
GR
GS
[0.75 0 0 0.75 0 -0.25] CT
0 0.447 0.741 RC
2 LJ
N
367.21 64.898 M
367.625 64.923 L
368.04 64.949 L
368.455 64.974 L
368.87 64.999 L
369.285 65.025 L
369.7 65.05 L
370.115 65.076 L
370.53 65.101 L
370.945 65.126 L
371.36 65.151 L
371.775 65.177 L
372.19 65.202 L
372.605 65.227 L
373.02 65.252 L
373.435 65.277 L
373.85 65.302 L
374.265 65.327 L
374.68 65.352 L
375.095 65.377 L
375.51 65.402 L
375.925 65.427 L
376.34 65.452 L
376.755 65.477 L
377.17 65.502 L
377.585 65.527 L
378 65.552 L
378 65.717 L
378.415 65.743 L
378.83 65.769 L
379.245 65.795 L
379.66 65.82 L
380.075 65.846 L
380.49 65.872 L
380.905 65.898 L
381.32 65.924 L
381.735 65.95 L
382.15 65.975 L
382.565 66.001 L
382.98 66.027 L
383.395 66.052 L
383.81 66.078 L
384.225 66.104 L
384.64 66.129 L
385.055 66.155 L
385.47 66.18 L
385.885 66.206 L
386.3 66.231 L
386.715 66.256 L
387.13 66.282 L
S
GR
GS
[0.75 0 0 0.75 0 -0.25] CT
0 0.447 0.741 RC
2 LJ
N
387.13 66.282 M
387.545 66.307 L
387.96 66.332 L
388.375 66.358 L
388.79 66.383 L
389.205 66.408 L
389.62 66.433 L
390.035 66.458 L
390.45 66.483 L
390.865 66.509 L
391.28 66.534 L
391.695 66.559 L
392.11 66.584 L
392.525 66.609 L
392.94 66.634 L
393.355 66.658 L
393.77 66.683 L
394.185 66.708 L
394.6 66.733 L
394.6 66.896 L
395.015 66.923 L
395.43 66.949 L
395.845 66.976 L
396.26 67.003 L
396.675 67.03 L
397.09 67.056 L
397.505 67.083 L
397.92 67.109 L
398.335 67.136 L
398.75 67.162 L
399.165 67.189 L
399.58 67.215 L
399.995 67.242 L
400.41 67.268 L
400.825 67.294 L
401.24 67.32 L
401.655 67.347 L
402.07 67.373 L
402.485 67.399 L
402.9 67.425 L
403.315 67.451 L
403.73 67.477 L
404.145 67.503 L
404.56 67.529 L
404.975 67.555 L
405.39 67.581 L
405.805 67.607 L
406.22 67.632 L
406.635 67.658 L
407.05 67.684 L
S
GR
GS
[0.75 0 0 0.75 0 -0.25] CT
0 0.447 0.741 RC
2 LJ
N
407.05 67.684 M
407.465 67.709 L
407.88 67.735 L
408.295 67.761 L
408.71 67.786 L
409.125 67.812 L
409.54 67.837 L
409.955 67.863 L
410.37 67.888 L
410.785 67.914 L
411.2 67.939 L
411.2 68.102 L
411.615 68.131 L
412.03 68.159 L
412.445 68.188 L
412.86 68.216 L
413.275 68.244 L
413.69 68.273 L
414.105 68.301 L
414.52 68.329 L
414.935 68.357 L
415.35 68.385 L
415.765 68.413 L
416.18 68.441 L
416.595 68.469 L
417.01 68.497 L
417.425 68.525 L
417.84 68.552 L
418.255 68.58 L
418.67 68.608 L
419.085 68.635 L
419.5 68.663 L
419.915 68.69 L
420.33 68.718 L
420.745 68.745 L
421.16 68.772 L
421.575 68.8 L
421.99 68.827 L
422.405 68.854 L
422.82 68.881 L
423.235 68.908 L
423.65 68.935 L
424.065 68.962 L
424.48 68.989 L
424.895 69.016 L
425.31 69.043 L
425.725 69.07 L
426.14 69.096 L
426.555 69.123 L
426.97 69.15 L
S
GR
GS
[0.75 0 0 0.75 0 -0.25] CT
0 0.447 0.741 RC
2 LJ
N
426.97 69.15 M
427.385 69.176 L
427.8 69.203 L
427.8 69.366 L
428.215 69.398 L
428.63 69.43 L
429.045 69.462 L
429.46 69.493 L
429.875 69.525 L
430.29 69.557 L
430.705 69.588 L
431.12 69.619 L
431.535 69.651 L
431.95 69.682 L
432.365 69.713 L
432.78 69.744 L
433.195 69.775 L
433.61 69.806 L
434.025 69.836 L
434.44 69.867 L
434.855 69.898 L
435.27 69.928 L
435.685 69.958 L
436.1 69.989 L
436.515 70.019 L
436.93 70.049 L
437.345 70.079 L
437.76 70.109 L
438.175 70.139 L
438.59 70.169 L
439.005 70.199 L
439.42 70.228 L
439.835 70.258 L
440.25 70.287 L
440.665 70.317 L
441.08 70.346 L
441.495 70.375 L
441.91 70.405 L
442.325 70.434 L
442.74 70.463 L
443.155 70.492 L
443.57 70.521 L
443.985 70.55 L
444.4 70.578 L
444.4 70.743 L
444.815 70.779 L
445.23 70.815 L
445.645 70.852 L
446.06 70.888 L
446.475 70.923 L
S
GR
GS
[0.75 0 0 0.75 0 -0.25] CT
0 0.447 0.741 RC
2 LJ
N
446.475 70.923 M
446.89 70.959 L
447.305 70.995 L
447.72 71.03 L
448.135 71.065 L
448.55 71.101 L
448.965 71.135 L
449.38 71.17 L
449.795 71.205 L
450.21 71.239 L
450.625 71.274 L
451.04 71.308 L
451.455 71.342 L
451.87 71.376 L
452.285 71.41 L
452.7 71.443 L
453.115 71.477 L
453.53 71.51 L
453.945 71.543 L
454.36 71.576 L
454.775 71.609 L
455.19 71.642 L
455.605 71.675 L
456.02 71.707 L
456.435 71.74 L
456.85 71.772 L
457.265 71.804 L
457.68 71.836 L
458.095 71.868 L
458.51 71.9 L
458.925 71.931 L
459.34 71.963 L
459.755 71.994 L
460.17 72.026 L
460.585 72.057 L
461 72.088 L
S
GR
GS
[0.75 0 0 0.75 0 -0.25] CT
0.851 0.325 0.098 RC
2 LJ
N
129 355 M
129.415 354.727 L
129.83 354.456 L
130.245 354.188 L
130.66 353.922 L
131.075 353.659 L
131.49 353.398 L
131.905 353.14 L
132.32 352.885 L
132.735 352.632 L
133.15 352.381 L
133.565 352.133 L
133.98 351.887 L
134.395 351.644 L
134.81 351.403 L
135.225 351.164 L
135.64 350.928 L
136.055 350.694 L
136.47 350.462 L
136.885 350.232 L
137.3 350.005 L
137.715 349.78 L
138.13 349.556 L
138.545 349.336 L
138.96 349.117 L
139.375 348.9 L
139.79 348.686 L
140.205 348.473 L
140.62 348.263 L
141.035 348.055 L
141.45 347.848 L
141.865 347.644 L
142.28 347.441 L
142.695 347.241 L
143.11 347.043 L
143.525 346.846 L
143.94 346.651 L
144.355 346.459 L
144.77 346.268 L
145.185 346.079 L
145.6 345.891 L
145.6 346.021 L
146.015 345.902 L
146.43 345.784 L
146.845 345.667 L
147.26 345.55 L
147.675 345.434 L
148.09 345.319 L
148.505 345.205 L
148.92 345.091 L
S
GR
GS
[0.75 0 0 0.75 0 -0.25] CT
0.851 0.325 0.098 RC
2 LJ
N
148.92 345.091 M
149.335 344.979 L
149.75 344.867 L
150.165 344.756 L
150.58 344.645 L
150.995 344.536 L
151.41 344.427 L
151.825 344.319 L
152.24 344.211 L
152.655 344.105 L
153.07 343.999 L
153.485 343.894 L
153.9 343.789 L
154.315 343.685 L
154.73 343.582 L
155.145 343.48 L
155.56 343.378 L
155.975 343.277 L
156.39 343.177 L
156.805 343.077 L
157.22 342.978 L
157.635 342.88 L
158.05 342.783 L
158.465 342.686 L
158.88 342.589 L
159.295 342.494 L
159.71 342.399 L
160.125 342.305 L
160.54 342.211 L
160.955 342.118 L
161.37 342.026 L
161.785 341.934 L
162.2 341.843 L
162.2 341.974 L
162.615 341.896 L
163.03 341.818 L
163.445 341.74 L
163.86 341.663 L
164.275 341.586 L
164.69 341.51 L
165.105 341.435 L
165.52 341.36 L
165.935 341.285 L
166.35 341.211 L
166.765 341.137 L
167.18 341.064 L
167.595 340.991 L
168.01 340.918 L
168.425 340.846 L
168.84 340.775 L
S
GR
GS
[0.75 0 0 0.75 0 -0.25] CT
0.851 0.325 0.098 RC
2 LJ
N
168.84 340.775 M
169.255 340.704 L
169.67 340.633 L
170.085 340.563 L
170.5 340.493 L
170.915 340.424 L
171.33 340.355 L
171.745 340.287 L
172.16 340.219 L
172.575 340.151 L
172.99 340.084 L
173.405 340.017 L
173.82 339.951 L
174.235 339.885 L
174.65 339.819 L
175.065 339.754 L
175.48 339.69 L
175.895 339.625 L
176.31 339.561 L
176.725 339.498 L
177.14 339.435 L
177.555 339.372 L
177.97 339.31 L
178.385 339.248 L
178.8 339.186 L
178.8 339.324 L
179.215 339.272 L
179.63 339.219 L
180.045 339.167 L
180.46 339.115 L
180.875 339.064 L
181.29 339.013 L
181.705 338.962 L
182.12 338.911 L
182.535 338.861 L
182.95 338.811 L
183.365 338.761 L
183.78 338.712 L
184.195 338.662 L
184.61 338.613 L
185.025 338.565 L
185.44 338.516 L
185.855 338.468 L
186.27 338.421 L
186.685 338.373 L
187.1 338.326 L
187.515 338.279 L
187.93 338.232 L
188.345 338.186 L
188.76 338.139 L
S
GR
GS
[0.75 0 0 0.75 0 -0.25] CT
0.851 0.325 0.098 RC
2 LJ
N
188.76 338.139 M
189.175 338.094 L
189.59 338.048 L
190.005 338.002 L
190.42 337.957 L
190.835 337.912 L
191.25 337.868 L
191.665 337.823 L
192.08 337.779 L
192.495 337.735 L
192.91 337.692 L
193.325 337.648 L
193.74 337.605 L
194.155 337.562 L
194.57 337.52 L
194.985 337.477 L
195.4 337.435 L
195.4 337.571 L
195.815 337.532 L
196.23 337.493 L
196.645 337.454 L
197.06 337.415 L
197.475 337.377 L
197.89 337.339 L
198.305 337.301 L
198.72 337.263 L
199.135 337.225 L
199.55 337.188 L
199.965 337.151 L
200.38 337.114 L
200.795 337.077 L
201.21 337.041 L
201.625 337.004 L
202.04 336.968 L
202.455 336.932 L
202.87 336.896 L
203.285 336.861 L
203.7 336.826 L
204.115 336.79 L
204.53 336.755 L
204.945 336.721 L
205.36 336.686 L
205.775 336.652 L
206.19 336.618 L
206.605 336.584 L
207.02 336.55 L
207.435 336.516 L
207.85 336.483 L
208.265 336.449 L
208.68 336.416 L
S
GR
GS
[0.75 0 0 0.75 0 -0.25] CT
0.851 0.325 0.098 RC
2 LJ
N
208.68 336.416 M
209.095 336.384 L
209.51 336.351 L
209.925 336.318 L
210.34 336.286 L
210.755 336.254 L
211.17 336.222 L
211.585 336.19 L
212 336.158 L
212 336.291 L
212.415 336.263 L
212.83 336.234 L
213.245 336.206 L
213.66 336.178 L
214.075 336.15 L
214.49 336.122 L
214.905 336.094 L
215.32 336.066 L
215.735 336.039 L
216.15 336.012 L
216.565 335.984 L
216.98 335.957 L
217.395 335.93 L
217.81 335.904 L
218.225 335.877 L
218.64 335.851 L
219.055 335.824 L
219.47 335.798 L
219.885 335.772 L
220.3 335.746 L
220.715 335.72 L
221.13 335.695 L
221.545 335.669 L
221.96 335.644 L
222.375 335.619 L
222.79 335.594 L
223.205 335.569 L
223.62 335.544 L
224.035 335.519 L
224.45 335.495 L
224.865 335.47 L
225.28 335.446 L
225.695 335.422 L
226.11 335.398 L
226.525 335.374 L
226.94 335.35 L
227.355 335.327 L
227.77 335.303 L
228.185 335.28 L
228.6 335.257 L
S
GR
GS
[0.75 0 0 0.75 0 -0.25] CT
0.851 0.325 0.098 RC
2 LJ
N
228.6 335.257 M
228.6 335.386 L
229.015 335.365 L
229.43 335.344 L
229.845 335.323 L
230.26 335.302 L
230.675 335.281 L
231.09 335.261 L
231.505 335.24 L
231.92 335.22 L
232.335 335.199 L
232.75 335.179 L
233.165 335.159 L
233.58 335.139 L
233.995 335.119 L
234.41 335.1 L
234.825 335.08 L
235.24 335.06 L
235.655 335.041 L
236.07 335.022 L
236.485 335.002 L
236.9 334.983 L
237.315 334.964 L
237.73 334.945 L
238.145 334.926 L
238.56 334.908 L
238.975 334.889 L
239.39 334.87 L
239.805 334.852 L
240.22 334.834 L
240.635 334.815 L
241.05 334.797 L
241.465 334.779 L
241.88 334.761 L
242.295 334.743 L
242.71 334.726 L
243.125 334.708 L
243.54 334.69 L
243.955 334.673 L
244.37 334.655 L
244.785 334.638 L
245.2 334.621 L
245.2 334.752 L
245.615 334.736 L
246.03 334.721 L
246.445 334.706 L
246.86 334.69 L
247.275 334.675 L
247.69 334.66 L
248.105 334.645 L
S
GR
GS
[0.75 0 0 0.75 0 -0.25] CT
0.851 0.325 0.098 RC
2 LJ
N
248.105 334.645 M
248.52 334.63 L
248.935 334.615 L
249.35 334.6 L
249.765 334.585 L
250.18 334.571 L
250.595 334.556 L
251.01 334.542 L
251.425 334.527 L
251.84 334.513 L
252.255 334.499 L
252.67 334.484 L
253.085 334.47 L
253.5 334.456 L
253.915 334.442 L
254.33 334.428 L
254.745 334.414 L
255.16 334.401 L
255.575 334.387 L
255.99 334.373 L
256.405 334.36 L
256.82 334.346 L
257.235 334.333 L
257.65 334.319 L
258.065 334.306 L
258.48 334.293 L
258.895 334.28 L
259.31 334.267 L
259.725 334.254 L
260.14 334.241 L
260.555 334.228 L
260.97 334.215 L
261.385 334.202 L
261.8 334.19 L
261.8 334.321 L
262.215 334.309 L
262.63 334.298 L
263.045 334.286 L
263.46 334.275 L
263.875 334.263 L
264.29 334.252 L
264.705 334.241 L
265.12 334.23 L
265.535 334.219 L
265.95 334.207 L
266.365 334.196 L
266.78 334.186 L
267.195 334.175 L
267.61 334.164 L
268.025 334.153 L
S
GR
GS
[0.75 0 0 0.75 0 -0.25] CT
0.851 0.325 0.098 RC
2 LJ
N
268.025 334.153 M
268.44 334.142 L
268.855 334.132 L
269.27 334.121 L
269.685 334.111 L
270.1 334.1 L
270.515 334.09 L
270.93 334.079 L
271.345 334.069 L
271.76 334.059 L
272.175 334.048 L
272.59 334.038 L
273.005 334.028 L
273.42 334.018 L
273.835 334.008 L
274.25 333.998 L
274.665 333.988 L
275.08 333.978 L
275.495 333.968 L
275.91 333.959 L
276.325 333.949 L
276.74 333.939 L
277.155 333.93 L
277.57 333.92 L
277.985 333.911 L
278.4 333.901 L
278.4 334.03 L
278.815 334.021 L
279.23 334.012 L
279.645 334.002 L
280.06 333.993 L
280.475 333.984 L
280.89 333.975 L
281.305 333.966 L
281.72 333.957 L
282.135 333.949 L
282.55 333.94 L
282.965 333.931 L
283.38 333.922 L
283.795 333.914 L
284.21 333.905 L
284.625 333.897 L
285.04 333.888 L
285.455 333.88 L
285.87 333.871 L
286.285 333.863 L
286.7 333.854 L
287.115 333.846 L
287.53 333.838 L
287.945 333.83 L
S
GR
GS
[0.75 0 0 0.75 0 -0.25] CT
0.851 0.325 0.098 RC
2 LJ
N
287.945 333.83 M
288.36 333.821 L
288.775 333.813 L
289.19 333.805 L
289.605 333.797 L
290.02 333.789 L
290.435 333.781 L
290.85 333.773 L
291.265 333.765 L
291.68 333.758 L
292.095 333.75 L
292.51 333.742 L
292.925 333.734 L
293.34 333.727 L
293.755 333.719 L
294.17 333.712 L
294.585 333.704 L
295 333.696 L
295 333.826 L
295.415 333.817 L
295.83 333.809 L
296.245 333.801 L
296.66 333.793 L
297.075 333.785 L
297.49 333.777 L
297.905 333.77 L
298.32 333.762 L
298.735 333.754 L
299.15 333.746 L
299.565 333.738 L
299.98 333.731 L
300.395 333.723 L
300.81 333.716 L
301.225 333.708 L
301.64 333.7 L
302.055 333.693 L
302.47 333.686 L
302.885 333.678 L
303.3 333.671 L
303.715 333.664 L
304.13 333.656 L
304.545 333.649 L
304.96 333.642 L
305.375 333.635 L
305.79 333.628 L
306.205 333.621 L
306.62 333.614 L
307.035 333.607 L
307.45 333.6 L
307.865 333.593 L
S
GR
GS
[0.75 0 0 0.75 0 -0.25] CT
0.851 0.325 0.098 RC
2 LJ
N
307.865 333.593 M
308.28 333.586 L
308.695 333.579 L
309.11 333.572 L
309.525 333.565 L
309.94 333.559 L
310.355 333.552 L
310.77 333.545 L
311.185 333.539 L
311.6 333.532 L
311.6 333.666 L
312.015 333.659 L
312.43 333.651 L
312.845 333.643 L
313.26 333.636 L
313.675 333.628 L
314.09 333.621 L
314.505 333.613 L
314.92 333.606 L
315.335 333.599 L
315.75 333.591 L
316.165 333.584 L
316.58 333.577 L
316.995 333.57 L
317.41 333.563 L
317.825 333.556 L
318.24 333.549 L
318.655 333.542 L
319.07 333.535 L
319.485 333.528 L
319.9 333.521 L
320.315 333.514 L
320.73 333.507 L
321.145 333.5 L
321.56 333.493 L
321.975 333.487 L
322.39 333.48 L
322.805 333.473 L
323.22 333.467 L
323.635 333.46 L
324.05 333.454 L
324.465 333.447 L
324.88 333.441 L
325.295 333.434 L
325.71 333.428 L
326.125 333.422 L
326.54 333.415 L
326.955 333.409 L
327.37 333.403 L
327.785 333.397 L
S
GR
GS
[0.75 0 0 0.75 0 -0.25] CT
0.851 0.325 0.098 RC
2 LJ
N
327.785 333.397 M
328.2 333.391 L
328.2 333.532 L
328.615 333.525 L
329.03 333.518 L
329.445 333.511 L
329.86 333.504 L
330.275 333.497 L
330.69 333.49 L
331.105 333.483 L
331.52 333.476 L
331.935 333.469 L
332.35 333.463 L
332.765 333.456 L
333.18 333.449 L
333.595 333.442 L
334.01 333.436 L
334.425 333.429 L
334.84 333.423 L
335.255 333.416 L
335.67 333.41 L
336.085 333.403 L
336.5 333.397 L
336.915 333.39 L
337.33 333.384 L
337.745 333.378 L
338.16 333.371 L
338.575 333.365 L
338.99 333.359 L
339.405 333.353 L
339.82 333.347 L
340.235 333.341 L
340.65 333.335 L
341.065 333.329 L
341.48 333.323 L
341.895 333.317 L
342.31 333.311 L
342.725 333.305 L
343.14 333.299 L
343.555 333.293 L
343.97 333.287 L
344.385 333.282 L
344.8 333.276 L
344.8 333.424 L
345.215 333.417 L
345.63 333.411 L
346.045 333.404 L
346.46 333.398 L
346.875 333.391 L
347.29 333.384 L
S
GR
GS
[0.75 0 0 0.75 0 -0.25] CT
0.851 0.325 0.098 RC
2 LJ
N
347.29 333.384 M
347.705 333.378 L
348.12 333.372 L
348.535 333.365 L
348.95 333.359 L
349.365 333.352 L
349.78 333.346 L
350.195 333.34 L
350.61 333.334 L
351.025 333.328 L
351.44 333.321 L
351.855 333.315 L
352.27 333.309 L
352.685 333.303 L
353.1 333.297 L
353.515 333.291 L
353.93 333.285 L
354.345 333.279 L
354.76 333.273 L
355.175 333.268 L
355.59 333.262 L
356.005 333.256 L
356.42 333.25 L
356.835 333.245 L
357.25 333.239 L
357.665 333.233 L
358.08 333.228 L
358.495 333.222 L
358.91 333.217 L
359.325 333.211 L
359.74 333.206 L
360.155 333.2 L
360.57 333.195 L
360.985 333.19 L
361.4 333.184 L
361.4 333.331 L
361.815 333.324 L
362.23 333.318 L
362.645 333.311 L
363.06 333.305 L
363.475 333.299 L
363.89 333.292 L
364.305 333.286 L
364.72 333.28 L
365.135 333.274 L
365.55 333.267 L
365.965 333.261 L
366.38 333.255 L
366.795 333.249 L
367.21 333.243 L
S
GR
GS
[0.75 0 0 0.75 0 -0.25] CT
0.851 0.325 0.098 RC
2 LJ
N
367.21 333.243 M
367.625 333.237 L
368.04 333.231 L
368.455 333.225 L
368.87 333.219 L
369.285 333.214 L
369.7 333.208 L
370.115 333.202 L
370.53 333.196 L
370.945 333.191 L
371.36 333.185 L
371.775 333.179 L
372.19 333.174 L
372.605 333.168 L
373.02 333.163 L
373.435 333.157 L
373.85 333.152 L
374.265 333.146 L
374.68 333.141 L
375.095 333.135 L
375.51 333.13 L
375.925 333.125 L
376.34 333.12 L
376.755 333.114 L
377.17 333.109 L
377.585 333.104 L
378 333.099 L
378 333.242 L
378.415 333.235 L
378.83 333.229 L
379.245 333.222 L
379.66 333.215 L
380.075 333.209 L
380.49 333.202 L
380.905 333.196 L
381.32 333.189 L
381.735 333.183 L
382.15 333.176 L
382.565 333.17 L
382.98 333.164 L
383.395 333.158 L
383.81 333.151 L
384.225 333.145 L
384.64 333.139 L
385.055 333.133 L
385.47 333.127 L
385.885 333.121 L
386.3 333.115 L
386.715 333.109 L
387.13 333.103 L
S
GR
GS
[0.75 0 0 0.75 0 -0.25] CT
0.851 0.325 0.098 RC
2 LJ
N
387.13 333.103 M
387.545 333.097 L
387.96 333.091 L
388.375 333.085 L
388.79 333.079 L
389.205 333.074 L
389.62 333.068 L
390.035 333.062 L
390.45 333.056 L
390.865 333.051 L
391.28 333.045 L
391.695 333.04 L
392.11 333.034 L
392.525 333.029 L
392.94 333.023 L
393.355 333.018 L
393.77 333.012 L
394.185 333.007 L
394.6 333.002 L
394.6 333.148 L
395.015 333.141 L
395.43 333.133 L
395.845 333.125 L
396.26 333.117 L
396.675 333.109 L
397.09 333.102 L
397.505 333.094 L
397.92 333.086 L
398.335 333.079 L
398.75 333.071 L
399.165 333.064 L
399.58 333.056 L
399.995 333.049 L
400.41 333.041 L
400.825 333.034 L
401.24 333.027 L
401.655 333.02 L
402.07 333.013 L
402.485 333.005 L
402.9 332.998 L
403.315 332.991 L
403.73 332.984 L
404.145 332.977 L
404.56 332.97 L
404.975 332.964 L
405.39 332.957 L
405.805 332.95 L
406.22 332.943 L
406.635 332.937 L
407.05 332.93 L
S
GR
GS
[0.75 0 0 0.75 0 -0.25] CT
0.851 0.325 0.098 RC
2 LJ
N
407.05 332.93 M
407.465 332.923 L
407.88 332.917 L
408.295 332.91 L
408.71 332.904 L
409.125 332.897 L
409.54 332.891 L
409.955 332.884 L
410.37 332.878 L
410.785 332.872 L
411.2 332.866 L
411.2 333.017 L
411.615 333.007 L
412.03 332.997 L
412.445 332.986 L
412.86 332.976 L
413.275 332.966 L
413.69 332.956 L
414.105 332.946 L
414.52 332.936 L
414.935 332.926 L
415.35 332.916 L
415.765 332.906 L
416.18 332.897 L
416.595 332.887 L
417.01 332.877 L
417.425 332.868 L
417.84 332.858 L
418.255 332.849 L
418.67 332.839 L
419.085 332.83 L
419.5 332.821 L
419.915 332.812 L
420.33 332.803 L
420.745 332.793 L
421.16 332.784 L
421.575 332.775 L
421.99 332.767 L
422.405 332.758 L
422.82 332.749 L
423.235 332.74 L
423.65 332.731 L
424.065 332.723 L
424.48 332.714 L
424.895 332.706 L
425.31 332.697 L
425.725 332.689 L
426.14 332.681 L
426.555 332.672 L
426.97 332.664 L
S
GR
GS
[0.75 0 0 0.75 0 -0.25] CT
0.851 0.325 0.098 RC
2 LJ
N
426.97 332.664 M
427.385 332.656 L
427.8 332.648 L
427.8 332.81 L
428.215 332.795 L
428.63 332.779 L
429.045 332.764 L
429.46 332.749 L
429.875 332.734 L
430.29 332.719 L
430.705 332.704 L
431.12 332.69 L
431.535 332.675 L
431.95 332.661 L
432.365 332.646 L
432.78 332.632 L
433.195 332.618 L
433.61 332.604 L
434.025 332.59 L
434.44 332.576 L
434.855 332.562 L
435.27 332.548 L
435.685 332.535 L
436.1 332.521 L
436.515 332.508 L
436.93 332.494 L
437.345 332.481 L
437.76 332.468 L
438.175 332.455 L
438.59 332.442 L
439.005 332.429 L
439.42 332.416 L
439.835 332.404 L
440.25 332.391 L
440.665 332.379 L
441.08 332.366 L
441.495 332.354 L
441.91 332.341 L
442.325 332.329 L
442.74 332.317 L
443.155 332.305 L
443.57 332.293 L
443.985 332.281 L
444.4 332.27 L
444.4 332.434 L
444.815 332.411 L
445.23 332.389 L
445.645 332.367 L
446.06 332.345 L
446.475 332.323 L
S
GR
GS
[0.75 0 0 0.75 0 -0.25] CT
0.851 0.325 0.098 RC
2 LJ
N
446.475 332.323 M
446.89 332.302 L
447.305 332.28 L
447.72 332.259 L
448.135 332.238 L
448.55 332.217 L
448.965 332.197 L
449.38 332.176 L
449.795 332.156 L
450.21 332.136 L
450.625 332.116 L
451.04 332.096 L
451.455 332.076 L
451.87 332.056 L
452.285 332.037 L
452.7 332.018 L
453.115 331.999 L
453.53 331.98 L
453.945 331.961 L
454.36 331.942 L
454.775 331.924 L
455.19 331.905 L
455.605 331.887 L
456.02 331.869 L
456.435 331.851 L
456.85 331.833 L
457.265 331.816 L
457.68 331.798 L
458.095 331.781 L
458.51 331.764 L
458.925 331.746 L
459.34 331.73 L
459.755 331.713 L
460.17 331.696 L
460.585 331.68 L
461 331.663 L
S
GR
GS
[0.75 0 0 0.75 0 -0.25] CT
0.929 0.694 0.125 RC
2 LJ
N
129 355 M
129.415 355 L
129.83 355 L
130.245 355 L
130.66 354.999 L
131.075 354.999 L
131.49 354.998 L
131.905 354.997 L
132.32 354.997 L
132.735 354.996 L
133.15 354.995 L
133.565 354.993 L
133.98 354.992 L
134.395 354.991 L
134.81 354.99 L
135.225 354.988 L
135.64 354.986 L
136.055 354.985 L
136.47 354.983 L
136.885 354.981 L
137.3 354.979 L
137.715 354.977 L
138.13 354.975 L
138.545 354.973 L
138.96 354.97 L
139.375 354.968 L
139.79 354.965 L
140.205 354.963 L
140.62 354.96 L
141.035 354.957 L
141.45 354.954 L
141.865 354.952 L
142.28 354.949 L
142.695 354.945 L
143.11 354.942 L
143.525 354.939 L
143.94 354.936 L
144.355 354.932 L
144.77 354.929 L
145.185 354.925 L
145.6 354.922 L
145.6 354.638 L
146.015 354.632 L
146.43 354.625 L
146.845 354.619 L
147.26 354.612 L
147.675 354.606 L
148.09 354.599 L
148.505 354.592 L
148.92 354.585 L
S
GR
GS
[0.75 0 0 0.75 0 -0.25] CT
0.929 0.694 0.125 RC
2 LJ
N
148.92 354.585 M
149.335 354.578 L
149.75 354.572 L
150.165 354.564 L
150.58 354.557 L
150.995 354.55 L
151.41 354.543 L
151.825 354.535 L
152.24 354.528 L
152.655 354.52 L
153.07 354.513 L
153.485 354.505 L
153.9 354.497 L
154.315 354.49 L
154.73 354.482 L
155.145 354.474 L
155.56 354.466 L
155.975 354.458 L
156.39 354.449 L
156.805 354.441 L
157.22 354.433 L
157.635 354.425 L
158.05 354.416 L
158.465 354.408 L
158.88 354.399 L
159.295 354.39 L
159.71 354.382 L
160.125 354.373 L
160.54 354.364 L
160.955 354.355 L
161.37 354.346 L
161.785 354.337 L
162.2 354.328 L
162.2 354.039 L
162.615 354.029 L
163.03 354.019 L
163.445 354.009 L
163.86 353.999 L
164.275 353.989 L
164.69 353.979 L
165.105 353.968 L
165.52 353.958 L
165.935 353.948 L
166.35 353.937 L
166.765 353.927 L
167.18 353.916 L
167.595 353.906 L
168.01 353.895 L
168.425 353.884 L
168.84 353.873 L
S
GR
GS
[0.75 0 0 0.75 0 -0.25] CT
0.929 0.694 0.125 RC
2 LJ
N
168.84 353.873 M
169.255 353.862 L
169.67 353.852 L
170.085 353.841 L
170.5 353.83 L
170.915 353.819 L
171.33 353.808 L
171.745 353.796 L
172.16 353.785 L
172.575 353.774 L
172.99 353.763 L
173.405 353.751 L
173.82 353.74 L
174.235 353.728 L
174.65 353.717 L
175.065 353.705 L
175.48 353.694 L
175.895 353.682 L
176.31 353.67 L
176.725 353.659 L
177.14 353.647 L
177.555 353.635 L
177.97 353.623 L
178.385 353.611 L
178.8 353.599 L
178.8 353.3 L
179.215 353.287 L
179.63 353.275 L
180.045 353.262 L
180.46 353.249 L
180.875 353.236 L
181.29 353.223 L
181.705 353.21 L
182.12 353.197 L
182.535 353.183 L
182.95 353.17 L
183.365 353.157 L
183.78 353.144 L
184.195 353.13 L
184.61 353.117 L
185.025 353.104 L
185.44 353.09 L
185.855 353.077 L
186.27 353.063 L
186.685 353.05 L
187.1 353.036 L
187.515 353.023 L
187.93 353.009 L
188.345 352.995 L
188.76 352.982 L
S
GR
GS
[0.75 0 0 0.75 0 -0.25] CT
0.929 0.694 0.125 RC
2 LJ
N
188.76 352.982 M
189.175 352.968 L
189.59 352.954 L
190.005 352.94 L
190.42 352.926 L
190.835 352.912 L
191.25 352.898 L
191.665 352.885 L
192.08 352.871 L
192.495 352.856 L
192.91 352.842 L
193.325 352.828 L
193.74 352.814 L
194.155 352.8 L
194.57 352.786 L
194.985 352.771 L
195.4 352.757 L
195.4 352.455 L
195.815 352.441 L
196.23 352.426 L
196.645 352.411 L
197.06 352.397 L
197.475 352.382 L
197.89 352.367 L
198.305 352.352 L
198.72 352.337 L
199.135 352.323 L
199.55 352.308 L
199.965 352.293 L
200.38 352.278 L
200.795 352.263 L
201.21 352.248 L
201.625 352.233 L
202.04 352.218 L
202.455 352.203 L
202.87 352.187 L
203.285 352.172 L
203.7 352.157 L
204.115 352.142 L
204.53 352.127 L
204.945 352.111 L
205.36 352.096 L
205.775 352.081 L
206.19 352.065 L
206.605 352.05 L
207.02 352.034 L
207.435 352.019 L
207.85 352.003 L
208.265 351.988 L
208.68 351.972 L
S
GR
GS
[0.75 0 0 0.75 0 -0.25] CT
0.929 0.694 0.125 RC
2 LJ
N
208.68 351.972 M
209.095 351.957 L
209.51 351.941 L
209.925 351.926 L
210.34 351.91 L
210.755 351.894 L
211.17 351.879 L
211.585 351.863 L
212 351.847 L
212 351.55 L
212.415 351.534 L
212.83 351.518 L
213.245 351.502 L
213.66 351.486 L
214.075 351.469 L
214.49 351.453 L
214.905 351.437 L
215.32 351.42 L
215.735 351.404 L
216.15 351.388 L
216.565 351.371 L
216.98 351.355 L
217.395 351.338 L
217.81 351.322 L
218.225 351.306 L
218.64 351.289 L
219.055 351.272 L
219.47 351.256 L
219.885 351.239 L
220.3 351.223 L
220.715 351.206 L
221.13 351.19 L
221.545 351.173 L
221.96 351.156 L
222.375 351.139 L
222.79 351.123 L
223.205 351.106 L
223.62 351.089 L
224.035 351.072 L
224.45 351.056 L
224.865 351.039 L
225.28 351.022 L
225.695 351.005 L
226.11 350.988 L
226.525 350.971 L
226.94 350.954 L
227.355 350.937 L
227.77 350.92 L
228.185 350.903 L
228.6 350.886 L
S
GR
GS
[0.75 0 0 0.75 0 -0.25] CT
0.929 0.694 0.125 RC
2 LJ
N
228.6 350.886 M
228.6 350.599 L
229.015 350.582 L
229.43 350.564 L
229.845 350.547 L
230.26 350.529 L
230.675 350.512 L
231.09 350.495 L
231.505 350.477 L
231.92 350.46 L
232.335 350.442 L
232.75 350.425 L
233.165 350.407 L
233.58 350.39 L
233.995 350.372 L
234.41 350.355 L
234.825 350.337 L
235.24 350.32 L
235.655 350.302 L
236.07 350.284 L
236.485 350.267 L
236.9 350.249 L
237.315 350.231 L
237.73 350.214 L
238.145 350.196 L
238.56 350.178 L
238.975 350.16 L
239.39 350.143 L
239.805 350.125 L
240.22 350.107 L
240.635 350.089 L
241.05 350.072 L
241.465 350.054 L
241.88 350.036 L
242.295 350.018 L
242.71 350 L
243.125 349.982 L
243.54 349.964 L
243.955 349.946 L
244.37 349.928 L
244.785 349.91 L
245.2 349.892 L
245.2 349.612 L
245.615 349.594 L
246.03 349.575 L
246.445 349.557 L
246.86 349.539 L
247.275 349.521 L
247.69 349.502 L
248.105 349.484 L
S
GR
GS
[0.75 0 0 0.75 0 -0.25] CT
0.929 0.694 0.125 RC
2 LJ
N
248.105 349.484 M
248.52 349.466 L
248.935 349.447 L
249.35 349.429 L
249.765 349.41 L
250.18 349.392 L
250.595 349.374 L
251.01 349.355 L
251.425 349.337 L
251.84 349.318 L
252.255 349.3 L
252.67 349.281 L
253.085 349.263 L
253.5 349.244 L
253.915 349.226 L
254.33 349.207 L
254.745 349.189 L
255.16 349.17 L
255.575 349.152 L
255.99 349.133 L
256.405 349.114 L
256.82 349.096 L
257.235 349.077 L
257.65 349.059 L
258.065 349.04 L
258.48 349.021 L
258.895 349.003 L
259.31 348.984 L
259.725 348.965 L
260.14 348.947 L
260.555 348.928 L
260.97 348.909 L
261.385 348.89 L
261.8 348.872 L
261.8 348.597 L
262.215 348.578 L
262.63 348.559 L
263.045 348.54 L
263.46 348.521 L
263.875 348.502 L
264.29 348.483 L
264.705 348.464 L
265.12 348.445 L
265.535 348.426 L
265.95 348.407 L
266.365 348.388 L
266.78 348.369 L
267.195 348.35 L
267.61 348.331 L
268.025 348.312 L
S
GR
GS
[0.75 0 0 0.75 0 -0.25] CT
0.929 0.694 0.125 RC
2 LJ
N
268.025 348.312 M
268.44 348.293 L
268.855 348.274 L
269.27 348.255 L
269.685 348.236 L
270.1 348.217 L
270.515 348.198 L
270.93 348.178 L
271.345 348.159 L
271.76 348.14 L
272.175 348.121 L
272.59 348.102 L
273.005 348.083 L
273.42 348.063 L
273.835 348.044 L
274.25 348.025 L
274.665 348.006 L
275.08 347.987 L
275.495 347.967 L
275.91 347.948 L
276.325 347.929 L
276.74 347.91 L
277.155 347.89 L
277.57 347.871 L
277.985 347.852 L
278.4 347.832 L
278.4 347.558 L
278.815 347.539 L
279.23 347.52 L
279.645 347.5 L
280.06 347.481 L
280.475 347.462 L
280.89 347.442 L
281.305 347.423 L
281.72 347.404 L
282.135 347.384 L
282.55 347.365 L
282.965 347.345 L
283.38 347.326 L
283.795 347.307 L
284.21 347.287 L
284.625 347.268 L
285.04 347.248 L
285.455 347.229 L
285.87 347.209 L
286.285 347.19 L
286.7 347.17 L
287.115 347.151 L
287.53 347.131 L
287.945 347.112 L
S
GR
GS
[0.75 0 0 0.75 0 -0.25] CT
0.929 0.694 0.125 RC
2 LJ
N
287.945 347.112 M
288.36 347.092 L
288.775 347.073 L
289.19 347.053 L
289.605 347.034 L
290.02 347.014 L
290.435 346.995 L
290.85 346.975 L
291.265 346.956 L
291.68 346.936 L
292.095 346.917 L
292.51 346.897 L
292.925 346.877 L
293.34 346.858 L
293.755 346.838 L
294.17 346.819 L
294.585 346.799 L
295 346.779 L
295 346.499 L
295.415 346.479 L
295.83 346.46 L
296.245 346.441 L
296.66 346.421 L
297.075 346.402 L
297.49 346.382 L
297.905 346.362 L
298.32 346.343 L
298.735 346.323 L
299.15 346.304 L
299.565 346.284 L
299.98 346.265 L
300.395 346.245 L
300.81 346.226 L
301.225 346.206 L
301.64 346.187 L
302.055 346.167 L
302.47 346.147 L
302.885 346.128 L
303.3 346.108 L
303.715 346.089 L
304.13 346.069 L
304.545 346.049 L
304.96 346.03 L
305.375 346.01 L
305.79 345.99 L
306.205 345.971 L
306.62 345.951 L
307.035 345.931 L
307.45 345.912 L
307.865 345.892 L
S
GR
GS
[0.75 0 0 0.75 0 -0.25] CT
0.929 0.694 0.125 RC
2 LJ
N
307.865 345.892 M
308.28 345.872 L
308.695 345.853 L
309.11 345.833 L
309.525 345.813 L
309.94 345.794 L
310.355 345.774 L
310.77 345.754 L
311.185 345.734 L
311.6 345.715 L
311.6 345.422 L
312.015 345.403 L
312.43 345.383 L
312.845 345.364 L
313.26 345.344 L
313.675 345.325 L
314.09 345.305 L
314.505 345.286 L
314.92 345.266 L
315.335 345.247 L
315.75 345.227 L
316.165 345.208 L
316.58 345.188 L
316.995 345.168 L
317.41 345.149 L
317.825 345.129 L
318.24 345.11 L
318.655 345.09 L
319.07 345.071 L
319.485 345.051 L
319.9 345.031 L
320.315 345.012 L
320.73 344.992 L
321.145 344.972 L
321.56 344.953 L
321.975 344.933 L
322.39 344.913 L
322.805 344.894 L
323.22 344.874 L
323.635 344.854 L
324.05 344.835 L
324.465 344.815 L
324.88 344.795 L
325.295 344.776 L
325.71 344.756 L
326.125 344.736 L
326.54 344.717 L
326.955 344.697 L
327.37 344.677 L
327.785 344.657 L
S
GR
GS
[0.75 0 0 0.75 0 -0.25] CT
0.929 0.694 0.125 RC
2 LJ
N
327.785 344.657 M
328.2 344.638 L
328.2 344.332 L
328.615 344.312 L
329.03 344.293 L
329.445 344.273 L
329.86 344.254 L
330.275 344.234 L
330.69 344.214 L
331.105 344.195 L
331.52 344.175 L
331.935 344.156 L
332.35 344.136 L
332.765 344.117 L
333.18 344.097 L
333.595 344.077 L
334.01 344.058 L
334.425 344.038 L
334.84 344.019 L
335.255 343.999 L
335.67 343.979 L
336.085 343.96 L
336.5 343.94 L
336.915 343.921 L
337.33 343.901 L
337.745 343.881 L
338.16 343.862 L
338.575 343.842 L
338.99 343.822 L
339.405 343.803 L
339.82 343.783 L
340.235 343.763 L
340.65 343.744 L
341.065 343.724 L
341.48 343.704 L
341.895 343.684 L
342.31 343.665 L
342.725 343.645 L
343.14 343.625 L
343.555 343.606 L
343.97 343.586 L
344.385 343.566 L
344.8 343.546 L
344.8 343.231 L
345.215 343.212 L
345.63 343.192 L
346.045 343.172 L
346.46 343.153 L
346.875 343.133 L
347.29 343.114 L
S
GR
GS
[0.75 0 0 0.75 0 -0.25] CT
0.929 0.694 0.125 RC
2 LJ
N
347.29 343.114 M
347.705 343.094 L
348.12 343.075 L
348.535 343.055 L
348.95 343.036 L
349.365 343.016 L
349.78 342.996 L
350.195 342.977 L
350.61 342.957 L
351.025 342.938 L
351.44 342.918 L
351.855 342.898 L
352.27 342.879 L
352.685 342.859 L
353.1 342.84 L
353.515 342.82 L
353.93 342.8 L
354.345 342.781 L
354.76 342.761 L
355.175 342.741 L
355.59 342.722 L
356.005 342.702 L
356.42 342.682 L
356.835 342.663 L
357.25 342.643 L
357.665 342.623 L
358.08 342.604 L
358.495 342.584 L
358.91 342.564 L
359.325 342.545 L
359.74 342.525 L
360.155 342.505 L
360.57 342.486 L
360.985 342.466 L
361.4 342.446 L
361.4 342.132 L
361.815 342.113 L
362.23 342.093 L
362.645 342.074 L
363.06 342.054 L
363.475 342.035 L
363.89 342.015 L
364.305 341.996 L
364.72 341.977 L
365.135 341.957 L
365.55 341.937 L
365.965 341.918 L
366.38 341.898 L
366.795 341.879 L
367.21 341.859 L
S
GR
GS
[0.75 0 0 0.75 0 -0.25] CT
0.929 0.694 0.125 RC
2 LJ
N
367.21 341.859 M
367.625 341.84 L
368.04 341.82 L
368.455 341.801 L
368.87 341.781 L
369.285 341.762 L
369.7 341.742 L
370.115 341.722 L
370.53 341.703 L
370.945 341.683 L
371.36 341.664 L
371.775 341.644 L
372.19 341.625 L
372.605 341.605 L
373.02 341.585 L
373.435 341.566 L
373.85 341.546 L
374.265 341.526 L
374.68 341.507 L
375.095 341.487 L
375.51 341.468 L
375.925 341.448 L
376.34 341.428 L
376.755 341.409 L
377.17 341.389 L
377.585 341.369 L
378 341.35 L
378 341.041 L
378.415 341.022 L
378.83 341.003 L
379.245 340.983 L
379.66 340.964 L
380.075 340.945 L
380.49 340.926 L
380.905 340.906 L
381.32 340.887 L
381.735 340.867 L
382.15 340.848 L
382.565 340.829 L
382.98 340.809 L
383.395 340.79 L
383.81 340.771 L
384.225 340.751 L
384.64 340.732 L
385.055 340.713 L
385.47 340.693 L
385.885 340.674 L
386.3 340.654 L
386.715 340.635 L
387.13 340.616 L
S
GR
GS
[0.75 0 0 0.75 0 -0.25] CT
0.929 0.694 0.125 RC
2 LJ
N
387.13 340.616 M
387.545 340.596 L
387.96 340.577 L
388.375 340.557 L
388.79 340.538 L
389.205 340.518 L
389.62 340.499 L
390.035 340.48 L
390.45 340.46 L
390.865 340.441 L
391.28 340.421 L
391.695 340.402 L
392.11 340.382 L
392.525 340.363 L
392.94 340.343 L
393.355 340.324 L
393.77 340.304 L
394.185 340.285 L
394.6 340.265 L
394.6 339.956 L
395.015 339.937 L
395.43 339.918 L
395.845 339.899 L
396.26 339.88 L
396.675 339.861 L
397.09 339.842 L
397.505 339.823 L
397.92 339.804 L
398.335 339.785 L
398.75 339.767 L
399.165 339.748 L
399.58 339.729 L
399.995 339.71 L
400.41 339.691 L
400.825 339.672 L
401.24 339.653 L
401.655 339.634 L
402.07 339.615 L
402.485 339.596 L
402.9 339.577 L
403.315 339.558 L
403.73 339.539 L
404.145 339.52 L
404.56 339.501 L
404.975 339.482 L
405.39 339.463 L
405.805 339.443 L
406.22 339.424 L
406.635 339.405 L
407.05 339.386 L
S
GR
GS
[0.75 0 0 0.75 0 -0.25] CT
0.929 0.694 0.125 RC
2 LJ
N
407.05 339.386 M
407.465 339.367 L
407.88 339.348 L
408.295 339.329 L
408.71 339.31 L
409.125 339.291 L
409.54 339.272 L
409.955 339.253 L
410.37 339.234 L
410.785 339.214 L
411.2 339.195 L
411.2 338.88 L
411.615 338.862 L
412.03 338.844 L
412.445 338.826 L
412.86 338.808 L
413.275 338.79 L
413.69 338.771 L
414.105 338.753 L
414.52 338.735 L
414.935 338.717 L
415.35 338.699 L
415.765 338.68 L
416.18 338.662 L
416.595 338.644 L
417.01 338.626 L
417.425 338.608 L
417.84 338.589 L
418.255 338.571 L
418.67 338.553 L
419.085 338.535 L
419.5 338.516 L
419.915 338.498 L
420.33 338.48 L
420.745 338.461 L
421.16 338.443 L
421.575 338.425 L
421.99 338.407 L
422.405 338.388 L
422.82 338.37 L
423.235 338.352 L
423.65 338.333 L
424.065 338.315 L
424.48 338.297 L
424.895 338.278 L
425.31 338.26 L
425.725 338.241 L
426.14 338.223 L
426.555 338.205 L
426.97 338.186 L
S
GR
GS
[0.75 0 0 0.75 0 -0.25] CT
0.929 0.694 0.125 RC
2 LJ
N
426.97 338.186 M
427.385 338.168 L
427.8 338.149 L
427.8 337.824 L
428.215 337.807 L
428.63 337.791 L
429.045 337.774 L
429.46 337.757 L
429.875 337.741 L
430.29 337.724 L
430.705 337.707 L
431.12 337.691 L
431.535 337.674 L
431.95 337.657 L
432.365 337.641 L
432.78 337.624 L
433.195 337.607 L
433.61 337.591 L
434.025 337.574 L
434.44 337.557 L
434.855 337.54 L
435.27 337.524 L
435.685 337.507 L
436.1 337.49 L
436.515 337.473 L
436.93 337.456 L
437.345 337.44 L
437.76 337.423 L
438.175 337.406 L
438.59 337.389 L
439.005 337.372 L
439.42 337.355 L
439.835 337.338 L
440.25 337.322 L
440.665 337.305 L
441.08 337.288 L
441.495 337.271 L
441.91 337.254 L
442.325 337.237 L
442.74 337.22 L
443.155 337.203 L
443.57 337.186 L
443.985 337.169 L
444.4 337.152 L
444.4 336.824 L
444.815 336.81 L
445.23 336.796 L
445.645 336.781 L
446.06 336.767 L
446.475 336.753 L
S
GR
GS
[0.75 0 0 0.75 0 -0.25] CT
0.929 0.694 0.125 RC
2 LJ
N
446.475 336.753 M
446.89 336.739 L
447.305 336.725 L
447.72 336.711 L
448.135 336.696 L
448.55 336.682 L
448.965 336.668 L
449.38 336.654 L
449.795 336.639 L
450.21 336.625 L
450.625 336.611 L
451.04 336.596 L
451.455 336.582 L
451.87 336.568 L
452.285 336.553 L
452.7 336.539 L
453.115 336.525 L
453.53 336.51 L
453.945 336.496 L
454.36 336.481 L
454.775 336.467 L
455.19 336.452 L
455.605 336.438 L
456.02 336.424 L
456.435 336.409 L
456.85 336.395 L
457.265 336.38 L
457.68 336.366 L
458.095 336.351 L
458.51 336.337 L
458.925 336.322 L
459.34 336.307 L
459.755 336.293 L
460.17 336.278 L
460.585 336.264 L
461 336.249 L
S
GR
GS
[0.75 0 0 0.75 221.25021 20.18749] CT
/Helvetica-Bold 15 F
GS
[1 0 0 1 0 0] CT
-120.5 -4 moveto 
1 -1 scale
(Performance index = 0.0577) t 
GR
GR
GS
[0.75 0 0 0.75 0 -0.25] CT
1 GC
N
378 113 M
378 43 L
448 43 L
448 113 L
cp
f
GR
GS
[0.75 0 0 0.75 322.5 43.25] CT
/Helvetica 12 F
GS
[1 0 0 1 0 0] CT
0 0 moveto 
1 -1 scale
(x) t 
GR
GR
GS
[0.75 0 0 0.75 328.5 47.75] CT
/Helvetica 9 F
GS
[1 0 0 1 0 0] CT
0 0 moveto 
1 -1 scale
(1) t 
GR
GR
GS
[0.75 0 0 0.75 0 -0.25] CT
0 0.447 0.741 RC
2 LJ
N
386 56.23 M
426 56.23 L
S
GR
GS
[0.75 0 0 0.75 322.5 59.75] CT
/Helvetica 12 F
GS
[1 0 0 1 0 0] CT
0 0 moveto 
1 -1 scale
(x) t 
GR
GR
GS
[0.75 0 0 0.75 328.5 64.25] CT
/Helvetica 9 F
GS
[1 0 0 1 0 0] CT
0 0 moveto 
1 -1 scale
(2) t 
GR
GR
GS
[0.75 0 0 0.75 0 -0.25] CT
0.851 0.325 0.098 RC
2 LJ
N
386 78 M
426 78 L
S
GR
GS
[0.75 0 0 0.75 322.5 76.25] CT
/Helvetica 12 F
GS
[1 0 0 1 0 0] CT
0 0 moveto 
1 -1 scale
(x) t 
GR
GR
GS
[0.75 0 0 0.75 328.5 80.75] CT
/Helvetica 9 F
GS
[1 0 0 1 0 0] CT
0 0 moveto 
1 -1 scale
(3) t 
GR
GR
GS
[0.75 0 0 0.75 0 -0.25] CT
0.929 0.694 0.125 RC
2 LJ
N
386 99.77 M
426 99.77 L
S
GR
GS
[0.75 0 0 0.75 0 -0.25] CT
0.149 GC
2 LJ
N
378 113 M
378 43 L
448 43 L
448 113 L
378 113 L
S
GR
GS
[0.75 0 0 0.75 0 -0.25] CT
1 GC
N
566 355 M
898 355 L
898 30 L
566 30 L
cp
f
GR
GS
[0.75 0 0 0.75 0 -0.25] CT
0.873 GC
2 LJ
N
566 355 M
566 30 L
S
GR
GS
[0.75 0 0 0.75 0 -0.25] CT
0.873 GC
2 LJ
N
632.4 355 M
632.4 30 L
S
GR
GS
[0.75 0 0 0.75 0 -0.25] CT
0.873 GC
2 LJ
N
698.8 355 M
698.8 30 L
S
GR
GS
[0.75 0 0 0.75 0 -0.25] CT
0.873 GC
2 LJ
N
765.2 355 M
765.2 30 L
S
GR
GS
[0.75 0 0 0.75 0 -0.25] CT
0.873 GC
2 LJ
N
831.6 355 M
831.6 30 L
S
GR
GS
[0.75 0 0 0.75 0 -0.25] CT
0.873 GC
2 LJ
N
898 355 M
898 30 L
S
GR
GS
[0.75 0 0 0.75 0 -0.25] CT
0.873 GC
2 LJ
N
898 355 M
566 355 L
S
GR
GS
[0.75 0 0 0.75 0 -0.25] CT
0.873 GC
2 LJ
N
898 322.5 M
566 322.5 L
S
GR
GS
[0.75 0 0 0.75 0 -0.25] CT
0.873 GC
2 LJ
N
898 290 M
566 290 L
S
GR
GS
[0.75 0 0 0.75 0 -0.25] CT
0.873 GC
2 LJ
N
898 257.5 M
566 257.5 L
S
GR
GS
[0.75 0 0 0.75 0 -0.25] CT
0.873 GC
2 LJ
N
898 225 M
566 225 L
S
GR
GS
[0.75 0 0 0.75 0 -0.25] CT
0.873 GC
2 LJ
N
898 192.5 M
566 192.5 L
S
GR
GS
[0.75 0 0 0.75 0 -0.25] CT
0.873 GC
2 LJ
N
898 160 M
566 160 L
S
GR
GS
[0.75 0 0 0.75 0 -0.25] CT
0.873 GC
2 LJ
N
898 127.5 M
566 127.5 L
S
GR
GS
[0.75 0 0 0.75 0 -0.25] CT
0.873 GC
2 LJ
N
898 95 M
566 95 L
S
GR
GS
[0.75 0 0 0.75 0 -0.25] CT
0.873 GC
2 LJ
N
898 62.5 M
566 62.5 L
S
GR
GS
[0.75 0 0 0.75 0 -0.25] CT
0.873 GC
2 LJ
N
898 30 M
566 30 L
S
GR
GS
[0.75 0 0 0.75 549.00014 283.74999] CT
0.149 GC
/Helvetica 15 F
GS
[1 0 0 1 0 0] CT
-29.5 14 moveto 
1 -1 scale
(time \(s\)) t 
GR
GR
GS
[0.75 0 0 0.75 0 -0.25] CT
0.149 GC
2 LJ
N
566 355 M
898 355 L
S
GR
GS
[0.75 0 0 0.75 0 -0.25] CT
0.149 GC
2 LJ
N
566 30 M
898 30 L
S
GR
GS
[0.75 0 0 0.75 0 -0.25] CT
0.149 GC
2 LJ
N
566 355 M
566 351.68 L
S
GR
GS
[0.75 0 0 0.75 0 -0.25] CT
0.149 GC
2 LJ
N
632.4 355 M
632.4 351.68 L
S
GR
GS
[0.75 0 0 0.75 0 -0.25] CT
0.149 GC
2 LJ
N
698.8 355 M
698.8 351.68 L
S
GR
GS
[0.75 0 0 0.75 0 -0.25] CT
0.149 GC
2 LJ
N
765.2 355 M
765.2 351.68 L
S
GR
GS
[0.75 0 0 0.75 0 -0.25] CT
0.149 GC
2 LJ
N
831.6 355 M
831.6 351.68 L
S
GR
GS
[0.75 0 0 0.75 0 -0.25] CT
0.149 GC
2 LJ
N
898 355 M
898 351.68 L
S
GR
GS
[0.75 0 0 0.75 0 -0.25] CT
0.149 GC
2 LJ
N
566 30 M
566 33.32 L
S
GR
GS
[0.75 0 0 0.75 0 -0.25] CT
0.149 GC
2 LJ
N
632.4 30 M
632.4 33.32 L
S
GR
GS
[0.75 0 0 0.75 0 -0.25] CT
0.149 GC
2 LJ
N
698.8 30 M
698.8 33.32 L
S
GR
GS
[0.75 0 0 0.75 0 -0.25] CT
0.149 GC
2 LJ
N
765.2 30 M
765.2 33.32 L
S
GR
GS
[0.75 0 0 0.75 0 -0.25] CT
0.149 GC
2 LJ
N
831.6 30 M
831.6 33.32 L
S
GR
GS
[0.75 0 0 0.75 0 -0.25] CT
0.149 GC
2 LJ
N
898 30 M
898 33.32 L
S
GR
GS
[0.75 0 0 0.75 424.5 270.00001] CT
0.149 GC
/Helvetica 13 F
GS
[1 0 0 1 0 0] CT
-4.5 13 moveto 
1 -1 scale
(0) t 
GR
GR
GS
[0.75 0 0 0.75 474.30002 270.00001] CT
0.149 GC
/Helvetica 13 F
GS
[1 0 0 1 0 0] CT
-10.5 13 moveto 
1 -1 scale
(0.2) t 
GR
GR
GS
[0.75 0 0 0.75 524.09999 270.00001] CT
0.149 GC
/Helvetica 13 F
GS
[1 0 0 1 0 0] CT
-10.5 13 moveto 
1 -1 scale
(0.4) t 
GR
GR
GS
[0.75 0 0 0.75 573.90001 270.00001] CT
0.149 GC
/Helvetica 13 F
GS
[1 0 0 1 0 0] CT
-10.5 13 moveto 
1 -1 scale
(0.6) t 
GR
GR
GS
[0.75 0 0 0.75 623.69998 270.00001] CT
0.149 GC
/Helvetica 13 F
GS
[1 0 0 1 0 0] CT
-10.5 13 moveto 
1 -1 scale
(0.8) t 
GR
GR
GS
[0.75 0 0 0.75 673.5 270.00001] CT
0.149 GC
/Helvetica 13 F
GS
[1 0 0 1 0 0] CT
-4.5 13 moveto 
1 -1 scale
(1) t 
GR
GR
GS
[0 -0.75 0.75 0 401.75002 144.12489] CT
0.149 GC
/Helvetica 15 F
GS
[1 0 0 1 0 0] CT
-5 -4 moveto 
1 -1 scale
(u) t 
GR
GR
GS
[0.75 0 0 0.75 0 -0.25] CT
0.149 GC
2 setlinecap
10.0 ML
N
566 355 M
566 30 L
S
GR
GS
[0.75 0 0 0.75 0 -0.25] CT
0.149 GC
2 setlinecap
10.0 ML
N
898 355 M
898 30 L
S
GR
GS
[0.75 0 0 0.75 0 -0.25] CT
0.149 GC
2 setlinecap
10.0 ML
N
566 355 M
569.32 355 L
S
GR
GS
[0.75 0 0 0.75 0 -0.25] CT
0.149 GC
2 setlinecap
10.0 ML
N
566 322.5 M
569.32 322.5 L
S
GR
GS
[0.75 0 0 0.75 0 -0.25] CT
0.149 GC
2 setlinecap
10.0 ML
N
566 290 M
569.32 290 L
S
GR
GS
[0.75 0 0 0.75 0 -0.25] CT
0.149 GC
2 setlinecap
10.0 ML
N
566 257.5 M
569.32 257.5 L
S
GR
GS
[0.75 0 0 0.75 0 -0.25] CT
0.149 GC
2 setlinecap
10.0 ML
N
566 225 M
569.32 225 L
S
GR
GS
[0.75 0 0 0.75 0 -0.25] CT
0.149 GC
2 setlinecap
10.0 ML
N
566 192.5 M
569.32 192.5 L
S
GR
GS
[0.75 0 0 0.75 0 -0.25] CT
0.149 GC
2 setlinecap
10.0 ML
N
566 160 M
569.32 160 L
S
GR
GS
[0.75 0 0 0.75 0 -0.25] CT
0.149 GC
2 setlinecap
10.0 ML
N
566 127.5 M
569.32 127.5 L
S
GR
GS
[0.75 0 0 0.75 0 -0.25] CT
0.149 GC
2 setlinecap
10.0 ML
N
566 95 M
569.32 95 L
S
GR
GS
[0.75 0 0 0.75 0 -0.25] CT
0.149 GC
2 setlinecap
10.0 ML
N
566 62.5 M
569.32 62.5 L
S
GR
GS
[0.75 0 0 0.75 0 -0.25] CT
0.149 GC
2 setlinecap
10.0 ML
N
566 30 M
569.32 30 L
S
GR
GS
[0.75 0 0 0.75 0 -0.25] CT
0.149 GC
2 setlinecap
10.0 ML
N
898 355 M
894.68 355 L
S
GR
GS
[0.75 0 0 0.75 0 -0.25] CT
0.149 GC
2 setlinecap
10.0 ML
N
898 322.5 M
894.68 322.5 L
S
GR
GS
[0.75 0 0 0.75 0 -0.25] CT
0.149 GC
2 setlinecap
10.0 ML
N
898 290 M
894.68 290 L
S
GR
GS
[0.75 0 0 0.75 0 -0.25] CT
0.149 GC
2 setlinecap
10.0 ML
N
898 257.5 M
894.68 257.5 L
S
GR
GS
[0.75 0 0 0.75 0 -0.25] CT
0.149 GC
2 setlinecap
10.0 ML
N
898 225 M
894.68 225 L
S
GR
GS
[0.75 0 0 0.75 0 -0.25] CT
0.149 GC
2 setlinecap
10.0 ML
N
898 192.5 M
894.68 192.5 L
S
GR
GS
[0.75 0 0 0.75 0 -0.25] CT
0.149 GC
2 setlinecap
10.0 ML
N
898 160 M
894.68 160 L
S
GR
GS
[0.75 0 0 0.75 0 -0.25] CT
0.149 GC
2 setlinecap
10.0 ML
N
898 127.5 M
894.68 127.5 L
S
GR
GS
[0.75 0 0 0.75 0 -0.25] CT
0.149 GC
2 setlinecap
10.0 ML
N
898 95 M
894.68 95 L
S
GR
GS
[0.75 0 0 0.75 0 -0.25] CT
0.149 GC
2 setlinecap
10.0 ML
N
898 62.5 M
894.68 62.5 L
S
GR
GS
[0.75 0 0 0.75 0 -0.25] CT
0.149 GC
2 setlinecap
10.0 ML
N
898 30 M
894.68 30 L
S
GR
GS
[0.75 0 0 0.75 420.50002 266] CT
0.149 GC
/Helvetica 13 F
GS
[1 0 0 1 0 0] CT
-9 4.5 moveto 
1 -1 scale
(0) t 
GR
GR
GS
[0.75 0 0 0.75 420.50002 241.625] CT
0.149 GC
/Helvetica 13 F
GS
[1 0 0 1 0 0] CT
-21 4.5 moveto 
1 -1 scale
(0.1) t 
GR
GR
GS
[0.75 0 0 0.75 420.50002 217.25] CT
0.149 GC
/Helvetica 13 F
GS
[1 0 0 1 0 0] CT
-21 4.5 moveto 
1 -1 scale
(0.2) t 
GR
GR
GS
[0.75 0 0 0.75 420.50002 192.875] CT
0.149 GC
/Helvetica 13 F
GS
[1 0 0 1 0 0] CT
-21 4.5 moveto 
1 -1 scale
(0.3) t 
GR
GR
GS
[0.75 0 0 0.75 420.50002 168.5] CT
0.149 GC
/Helvetica 13 F
GS
[1 0 0 1 0 0] CT
-21 4.5 moveto 
1 -1 scale
(0.4) t 
GR
GR
GS
[0.75 0 0 0.75 420.50002 144.125] CT
0.149 GC
/Helvetica 13 F
GS
[1 0 0 1 0 0] CT
-21 4.5 moveto 
1 -1 scale
(0.5) t 
GR
GR
GS
[0.75 0 0 0.75 420.50002 119.74999] CT
0.149 GC
/Helvetica 13 F
GS
[1 0 0 1 0 0] CT
-21 4.5 moveto 
1 -1 scale
(0.6) t 
GR
GR
GS
[0.75 0 0 0.75 420.50002 95.37501] CT
0.149 GC
/Helvetica 13 F
GS
[1 0 0 1 0 0] CT
-21 4.5 moveto 
1 -1 scale
(0.7) t 
GR
GR
GS
[0.75 0 0 0.75 420.50002 70.99999] CT
0.149 GC
/Helvetica 13 F
GS
[1 0 0 1 0 0] CT
-21 4.5 moveto 
1 -1 scale
(0.8) t 
GR
GR
GS
[0.75 0 0 0.75 420.50002 46.62501] CT
0.149 GC
/Helvetica 13 F
GS
[1 0 0 1 0 0] CT
-21 4.5 moveto 
1 -1 scale
(0.9) t 
GR
GR
GS
[0.75 0 0 0.75 420.50002 22.25] CT
0.149 GC
/Helvetica 13 F
GS
[1 0 0 1 0 0] CT
-9 4.5 moveto 
1 -1 scale
(1) t 
GR
GR
GS
[0.75 0 0 0.75 0 -0.25] CT
0 0.447 0.741 RC
2 LJ
N
566 135.164 M
566.415 135.164 L
566.83 135.164 L
567.245 135.164 L
567.66 135.164 L
568.075 135.164 L
568.49 135.164 L
568.905 135.164 L
569.32 135.164 L
569.735 135.164 L
570.15 135.164 L
570.565 135.164 L
570.98 135.164 L
571.395 135.164 L
571.81 135.164 L
572.225 135.164 L
572.64 135.164 L
573.055 135.164 L
573.47 135.164 L
573.885 135.164 L
574.3 135.164 L
574.715 135.164 L
575.13 135.164 L
575.545 135.164 L
575.96 135.164 L
576.375 135.164 L
576.79 135.164 L
577.205 135.164 L
577.62 135.164 L
578.035 135.164 L
578.45 135.164 L
578.865 135.164 L
579.28 135.164 L
579.695 135.164 L
580.11 135.164 L
580.525 135.164 L
580.94 135.164 L
581.355 135.164 L
581.77 135.164 L
582.185 135.164 L
582.6 135.164 L
582.6 210.363 L
583.015 210.363 L
583.43 210.363 L
583.845 210.363 L
584.26 210.363 L
584.675 210.363 L
585.09 210.363 L
585.505 210.363 L
585.92 210.363 L
S
GR
GS
[0.75 0 0 0.75 0 -0.25] CT
0 0.447 0.741 RC
2 LJ
N
585.92 210.363 M
586.335 210.363 L
586.75 210.363 L
587.165 210.363 L
587.58 210.363 L
587.995 210.363 L
588.41 210.363 L
588.825 210.363 L
589.24 210.363 L
589.655 210.363 L
590.07 210.363 L
590.485 210.363 L
590.9 210.363 L
591.315 210.363 L
591.73 210.363 L
592.145 210.363 L
592.56 210.363 L
592.975 210.363 L
593.39 210.363 L
593.805 210.363 L
594.22 210.363 L
594.635 210.363 L
595.05 210.363 L
595.465 210.363 L
595.88 210.363 L
596.295 210.363 L
596.71 210.363 L
597.125 210.363 L
597.54 210.363 L
597.955 210.363 L
598.37 210.363 L
598.785 210.363 L
599.2 210.363 L
599.2 227.519 L
599.615 227.519 L
600.03 227.519 L
600.445 227.519 L
600.86 227.519 L
601.275 227.519 L
601.69 227.519 L
602.105 227.519 L
602.52 227.519 L
602.935 227.519 L
603.35 227.519 L
603.765 227.519 L
604.18 227.519 L
604.595 227.519 L
605.01 227.519 L
605.425 227.519 L
605.84 227.519 L
S
GR
GS
[0.75 0 0 0.75 0 -0.25] CT
0 0.447 0.741 RC
2 LJ
N
605.84 227.519 M
606.255 227.519 L
606.67 227.519 L
607.085 227.519 L
607.5 227.519 L
607.915 227.519 L
608.33 227.519 L
608.745 227.519 L
609.16 227.519 L
609.575 227.519 L
609.99 227.519 L
610.405 227.519 L
610.82 227.519 L
611.235 227.519 L
611.65 227.519 L
612.065 227.519 L
612.48 227.519 L
612.895 227.519 L
613.31 227.519 L
613.725 227.519 L
614.14 227.519 L
614.555 227.519 L
614.97 227.519 L
615.385 227.519 L
615.8 227.519 L
615.8 241.934 L
616.215 241.934 L
616.63 241.934 L
617.045 241.934 L
617.46 241.934 L
617.875 241.934 L
618.29 241.934 L
618.705 241.934 L
619.12 241.934 L
619.535 241.934 L
619.95 241.934 L
620.365 241.934 L
620.78 241.934 L
621.195 241.934 L
621.61 241.934 L
622.025 241.934 L
622.44 241.934 L
622.855 241.934 L
623.27 241.934 L
623.685 241.934 L
624.1 241.934 L
624.515 241.934 L
624.93 241.934 L
625.345 241.934 L
625.76 241.934 L
S
GR
GS
[0.75 0 0 0.75 0 -0.25] CT
0 0.447 0.741 RC
2 LJ
N
625.76 241.934 M
626.175 241.934 L
626.59 241.934 L
627.005 241.934 L
627.42 241.934 L
627.835 241.934 L
628.25 241.934 L
628.665 241.934 L
629.08 241.934 L
629.495 241.934 L
629.91 241.934 L
630.325 241.934 L
630.74 241.934 L
631.155 241.934 L
631.57 241.934 L
631.985 241.934 L
632.4 241.934 L
632.4 247.667 L
632.815 247.667 L
633.23 247.667 L
633.645 247.667 L
634.06 247.667 L
634.475 247.667 L
634.89 247.667 L
635.305 247.667 L
635.72 247.667 L
636.135 247.667 L
636.55 247.667 L
636.965 247.667 L
637.38 247.667 L
637.795 247.667 L
638.21 247.667 L
638.625 247.667 L
639.04 247.667 L
639.455 247.667 L
639.87 247.667 L
640.285 247.667 L
640.7 247.667 L
641.115 247.667 L
641.53 247.667 L
641.945 247.667 L
642.36 247.667 L
642.775 247.667 L
643.19 247.667 L
643.605 247.667 L
644.02 247.667 L
644.435 247.667 L
644.85 247.667 L
645.265 247.667 L
645.68 247.667 L
S
GR
GS
[0.75 0 0 0.75 0 -0.25] CT
0 0.447 0.741 RC
2 LJ
N
645.68 247.667 M
646.095 247.667 L
646.51 247.667 L
646.925 247.667 L
647.34 247.667 L
647.755 247.667 L
648.17 247.667 L
648.585 247.667 L
649 247.667 L
649 254.196 L
649.415 254.196 L
649.83 254.196 L
650.245 254.196 L
650.66 254.196 L
651.075 254.196 L
651.49 254.196 L
651.905 254.196 L
652.32 254.196 L
652.735 254.196 L
653.15 254.196 L
653.565 254.196 L
653.98 254.196 L
654.395 254.196 L
654.81 254.196 L
655.225 254.196 L
655.64 254.196 L
656.055 254.196 L
656.47 254.196 L
656.885 254.196 L
657.3 254.196 L
657.715 254.196 L
658.13 254.196 L
658.545 254.196 L
658.96 254.196 L
659.375 254.196 L
659.79 254.196 L
660.205 254.196 L
660.62 254.196 L
661.035 254.196 L
661.45 254.196 L
661.865 254.196 L
662.28 254.196 L
662.695 254.196 L
663.11 254.196 L
663.525 254.196 L
663.94 254.196 L
664.355 254.196 L
664.77 254.196 L
665.185 254.196 L
665.6 254.196 L
S
GR
GS
[0.75 0 0 0.75 0 -0.25] CT
0 0.447 0.741 RC
2 LJ
N
665.6 254.196 M
665.6 259.487 L
666.015 259.487 L
666.43 259.487 L
666.845 259.487 L
667.26 259.487 L
667.675 259.487 L
668.09 259.487 L
668.505 259.487 L
668.92 259.487 L
669.335 259.487 L
669.75 259.487 L
670.165 259.487 L
670.58 259.487 L
670.995 259.487 L
671.41 259.487 L
671.825 259.487 L
672.24 259.487 L
672.655 259.487 L
673.07 259.487 L
673.485 259.487 L
673.9 259.487 L
674.315 259.487 L
674.73 259.487 L
675.145 259.487 L
675.56 259.487 L
675.975 259.487 L
676.39 259.487 L
676.805 259.487 L
677.22 259.487 L
677.635 259.487 L
678.05 259.487 L
678.465 259.487 L
678.88 259.487 L
679.295 259.487 L
679.71 259.487 L
680.125 259.487 L
680.54 259.487 L
680.955 259.487 L
681.37 259.487 L
681.785 259.487 L
682.2 259.487 L
682.2 264.276 L
682.615 264.276 L
683.03 264.276 L
683.445 264.276 L
683.86 264.276 L
684.275 264.276 L
684.69 264.276 L
685.105 264.276 L
S
GR
GS
[0.75 0 0 0.75 0 -0.25] CT
0 0.447 0.741 RC
2 LJ
N
685.105 264.276 M
685.52 264.276 L
685.935 264.276 L
686.35 264.276 L
686.765 264.276 L
687.18 264.276 L
687.595 264.276 L
688.01 264.276 L
688.425 264.276 L
688.84 264.276 L
689.255 264.276 L
689.67 264.276 L
690.085 264.276 L
690.5 264.276 L
690.915 264.276 L
691.33 264.276 L
691.745 264.276 L
692.16 264.276 L
692.575 264.276 L
692.99 264.276 L
693.405 264.276 L
693.82 264.276 L
694.235 264.276 L
694.65 264.276 L
695.065 264.276 L
695.48 264.276 L
695.895 264.276 L
696.31 264.276 L
696.725 264.276 L
697.14 264.276 L
697.555 264.276 L
697.97 264.276 L
698.385 264.276 L
698.8 264.276 L
698.8 267.876 L
699.215 267.876 L
699.63 267.876 L
700.045 267.876 L
700.46 267.876 L
700.875 267.876 L
701.29 267.876 L
701.705 267.876 L
702.12 267.876 L
702.535 267.876 L
702.95 267.876 L
703.365 267.876 L
703.78 267.876 L
704.195 267.876 L
704.61 267.876 L
705.025 267.876 L
S
GR
GS
[0.75 0 0 0.75 0 -0.25] CT
0 0.447 0.741 RC
2 LJ
N
705.025 267.876 M
705.44 267.876 L
705.855 267.876 L
706.27 267.876 L
706.685 267.876 L
707.1 267.876 L
707.515 267.876 L
707.93 267.876 L
708.345 267.876 L
708.76 267.876 L
709.175 267.876 L
709.59 267.876 L
710.005 267.876 L
710.42 267.876 L
710.835 267.876 L
711.25 267.876 L
711.665 267.876 L
712.08 267.876 L
712.495 267.876 L
712.91 267.876 L
713.325 267.876 L
713.74 267.876 L
714.155 267.876 L
714.57 267.876 L
714.985 267.876 L
715.4 267.876 L
715.4 269.524 L
715.815 269.524 L
716.23 269.524 L
716.645 269.524 L
717.06 269.524 L
717.475 269.524 L
717.89 269.524 L
718.305 269.524 L
718.72 269.524 L
719.135 269.524 L
719.55 269.524 L
719.965 269.524 L
720.38 269.524 L
720.795 269.524 L
721.21 269.524 L
721.625 269.524 L
722.04 269.524 L
722.455 269.524 L
722.87 269.524 L
723.285 269.524 L
723.7 269.524 L
724.115 269.524 L
724.53 269.524 L
724.945 269.524 L
S
GR
GS
[0.75 0 0 0.75 0 -0.25] CT
0 0.447 0.741 RC
2 LJ
N
724.945 269.524 M
725.36 269.524 L
725.775 269.524 L
726.19 269.524 L
726.605 269.524 L
727.02 269.524 L
727.435 269.524 L
727.85 269.524 L
728.265 269.524 L
728.68 269.524 L
729.095 269.524 L
729.51 269.524 L
729.925 269.524 L
730.34 269.524 L
730.755 269.524 L
731.17 269.524 L
731.585 269.524 L
732 269.524 L
732 269.061 L
732.415 269.061 L
732.83 269.061 L
733.245 269.061 L
733.66 269.061 L
734.075 269.061 L
734.49 269.061 L
734.905 269.061 L
735.32 269.061 L
735.735 269.061 L
736.15 269.061 L
736.565 269.061 L
736.98 269.061 L
737.395 269.061 L
737.81 269.061 L
738.225 269.061 L
738.64 269.061 L
739.055 269.061 L
739.47 269.061 L
739.885 269.061 L
740.3 269.061 L
740.715 269.061 L
741.13 269.061 L
741.545 269.061 L
741.96 269.061 L
742.375 269.061 L
742.79 269.061 L
743.205 269.061 L
743.62 269.061 L
744.035 269.061 L
744.45 269.061 L
744.865 269.061 L
S
GR
GS
[0.75 0 0 0.75 0 -0.25] CT
0 0.447 0.741 RC
2 LJ
N
744.865 269.061 M
745.28 269.061 L
745.695 269.061 L
746.11 269.061 L
746.525 269.061 L
746.94 269.061 L
747.355 269.061 L
747.77 269.061 L
748.185 269.061 L
748.6 269.061 L
748.6 267.513 L
749.015 267.513 L
749.43 267.513 L
749.845 267.513 L
750.26 267.513 L
750.675 267.513 L
751.09 267.513 L
751.505 267.513 L
751.92 267.513 L
752.335 267.513 L
752.75 267.513 L
753.165 267.513 L
753.58 267.513 L
753.995 267.513 L
754.41 267.513 L
754.825 267.513 L
755.24 267.513 L
755.655 267.513 L
756.07 267.513 L
756.485 267.513 L
756.9 267.513 L
757.315 267.513 L
757.73 267.513 L
758.145 267.513 L
758.56 267.513 L
758.975 267.513 L
759.39 267.513 L
759.805 267.513 L
760.22 267.513 L
760.635 267.513 L
761.05 267.513 L
761.465 267.513 L
761.88 267.513 L
762.295 267.513 L
762.71 267.513 L
763.125 267.513 L
763.54 267.513 L
763.955 267.513 L
764.37 267.513 L
764.785 267.513 L
S
GR
GS
[0.75 0 0 0.75 0 -0.25] CT
0 0.447 0.741 RC
2 LJ
N
764.785 267.513 M
765.2 267.513 L
765.2 266.305 L
765.615 266.305 L
766.03 266.305 L
766.445 266.305 L
766.86 266.305 L
767.275 266.305 L
767.69 266.305 L
768.105 266.305 L
768.52 266.305 L
768.935 266.305 L
769.35 266.305 L
769.765 266.305 L
770.18 266.305 L
770.595 266.305 L
771.01 266.305 L
771.425 266.305 L
771.84 266.305 L
772.255 266.305 L
772.67 266.305 L
773.085 266.305 L
773.5 266.305 L
773.915 266.305 L
774.33 266.305 L
774.745 266.305 L
775.16 266.305 L
775.575 266.305 L
775.99 266.305 L
776.405 266.305 L
776.82 266.305 L
777.235 266.305 L
777.65 266.305 L
778.065 266.305 L
778.48 266.305 L
778.895 266.305 L
779.31 266.305 L
779.725 266.305 L
780.14 266.305 L
780.555 266.305 L
780.97 266.305 L
781.385 266.305 L
781.8 266.305 L
781.8 265.138 L
782.215 265.138 L
782.63 265.138 L
783.045 265.138 L
783.46 265.138 L
783.875 265.138 L
784.29 265.138 L
S
GR
GS
[0.75 0 0 0.75 0 -0.25] CT
0 0.447 0.741 RC
2 LJ
N
784.29 265.138 M
784.705 265.138 L
785.12 265.138 L
785.535 265.138 L
785.95 265.138 L
786.365 265.138 L
786.78 265.138 L
787.195 265.138 L
787.61 265.138 L
788.025 265.138 L
788.44 265.138 L
788.855 265.138 L
789.27 265.138 L
789.685 265.138 L
790.1 265.138 L
790.515 265.138 L
790.93 265.138 L
791.345 265.138 L
791.76 265.138 L
792.175 265.138 L
792.59 265.138 L
793.005 265.138 L
793.42 265.138 L
793.835 265.138 L
794.25 265.138 L
794.665 265.138 L
795.08 265.138 L
795.495 265.138 L
795.91 265.138 L
796.325 265.138 L
796.74 265.138 L
797.155 265.138 L
797.57 265.138 L
797.985 265.138 L
798.4 265.138 L
798.4 263.479 L
798.815 263.479 L
799.23 263.479 L
799.645 263.479 L
800.06 263.479 L
800.475 263.479 L
800.89 263.479 L
801.305 263.479 L
801.72 263.479 L
802.135 263.479 L
802.55 263.479 L
802.965 263.479 L
803.38 263.479 L
803.795 263.479 L
804.21 263.479 L
S
GR
GS
[0.75 0 0 0.75 0 -0.25] CT
0 0.447 0.741 RC
2 LJ
N
804.21 263.479 M
804.625 263.479 L
805.04 263.479 L
805.455 263.479 L
805.87 263.479 L
806.285 263.479 L
806.7 263.479 L
807.115 263.479 L
807.53 263.479 L
807.945 263.479 L
808.36 263.479 L
808.775 263.479 L
809.19 263.479 L
809.605 263.479 L
810.02 263.479 L
810.435 263.479 L
810.85 263.479 L
811.265 263.479 L
811.68 263.479 L
812.095 263.479 L
812.51 263.479 L
812.925 263.479 L
813.34 263.479 L
813.755 263.479 L
814.17 263.479 L
814.585 263.479 L
815 263.479 L
815 260.537 L
815.415 260.537 L
815.83 260.537 L
816.245 260.537 L
816.66 260.537 L
817.075 260.537 L
817.49 260.537 L
817.905 260.537 L
818.32 260.537 L
818.735 260.537 L
819.15 260.537 L
819.565 260.537 L
819.98 260.537 L
820.395 260.537 L
820.81 260.537 L
821.225 260.537 L
821.64 260.537 L
822.055 260.537 L
822.47 260.537 L
822.885 260.537 L
823.3 260.537 L
823.715 260.537 L
824.13 260.537 L
S
GR
GS
[0.75 0 0 0.75 0 -0.25] CT
0 0.447 0.741 RC
2 LJ
N
824.13 260.537 M
824.545 260.537 L
824.96 260.537 L
825.375 260.537 L
825.79 260.537 L
826.205 260.537 L
826.62 260.537 L
827.035 260.537 L
827.45 260.537 L
827.865 260.537 L
828.28 260.537 L
828.695 260.537 L
829.11 260.537 L
829.525 260.537 L
829.94 260.537 L
830.355 260.537 L
830.77 260.537 L
831.185 260.537 L
831.6 260.537 L
831.6 254.673 L
832.015 254.673 L
832.43 254.673 L
832.845 254.673 L
833.26 254.673 L
833.675 254.673 L
834.09 254.673 L
834.505 254.673 L
834.92 254.673 L
835.335 254.673 L
835.75 254.673 L
836.165 254.673 L
836.58 254.673 L
836.995 254.673 L
837.41 254.673 L
837.825 254.673 L
838.24 254.673 L
838.655 254.673 L
839.07 254.673 L
839.485 254.673 L
839.9 254.673 L
840.315 254.673 L
840.73 254.673 L
841.145 254.673 L
841.56 254.673 L
841.975 254.673 L
842.39 254.673 L
842.805 254.673 L
843.22 254.673 L
843.635 254.673 L
844.05 254.673 L
S
GR
GS
[0.75 0 0 0.75 0 -0.25] CT
0 0.447 0.741 RC
2 LJ
N
844.05 254.673 M
844.465 254.673 L
844.88 254.673 L
845.295 254.673 L
845.71 254.673 L
846.125 254.673 L
846.54 254.673 L
846.955 254.673 L
847.37 254.673 L
847.785 254.673 L
848.2 254.673 L
848.2 244.23 L
848.615 244.23 L
849.03 244.23 L
849.445 244.23 L
849.86 244.23 L
850.275 244.23 L
850.69 244.23 L
851.105 244.23 L
851.52 244.23 L
851.935 244.23 L
852.35 244.23 L
852.765 244.23 L
853.18 244.23 L
853.595 244.23 L
854.01 244.23 L
854.425 244.23 L
854.84 244.23 L
855.255 244.23 L
855.67 244.23 L
856.085 244.23 L
856.5 244.23 L
856.915 244.23 L
857.33 244.23 L
857.745 244.23 L
858.16 244.23 L
858.575 244.23 L
858.99 244.23 L
859.405 244.23 L
859.82 244.23 L
860.235 244.23 L
860.65 244.23 L
861.065 244.23 L
861.48 244.23 L
861.895 244.23 L
862.31 244.23 L
862.725 244.23 L
863.14 244.23 L
863.555 244.23 L
863.97 244.23 L
S
GR
GS
[0.75 0 0 0.75 0 -0.25] CT
0 0.447 0.741 RC
2 LJ
N
863.97 244.23 M
864.385 244.23 L
864.8 244.23 L
864.8 224.31 L
865.215 224.31 L
865.63 224.31 L
866.045 224.31 L
866.46 224.31 L
866.875 224.31 L
867.29 224.31 L
867.705 224.31 L
868.12 224.31 L
868.535 224.31 L
868.95 224.31 L
869.365 224.31 L
869.78 224.31 L
870.195 224.31 L
870.61 224.31 L
871.025 224.31 L
871.44 224.31 L
871.855 224.31 L
872.27 224.31 L
872.685 224.31 L
873.1 224.31 L
873.515 224.31 L
873.93 224.31 L
874.345 224.31 L
874.76 224.31 L
875.175 224.31 L
875.59 224.31 L
876.005 224.31 L
876.42 224.31 L
876.835 224.31 L
877.25 224.31 L
877.665 224.31 L
878.08 224.31 L
878.495 224.31 L
878.91 224.31 L
879.325 224.31 L
879.74 224.31 L
880.155 224.31 L
880.57 224.31 L
880.985 224.31 L
881.4 224.31 L
881.4 192.618 L
881.815 192.618 L
882.23 192.618 L
882.645 192.618 L
883.06 192.618 L
883.475 192.618 L
S
GR
GS
[0.75 0 0 0.75 0 -0.25] CT
0 0.447 0.741 RC
2 LJ
N
883.475 192.618 M
883.89 192.618 L
884.305 192.618 L
884.72 192.618 L
885.135 192.618 L
885.55 192.618 L
885.965 192.618 L
886.38 192.618 L
886.795 192.618 L
887.21 192.618 L
887.625 192.618 L
888.04 192.618 L
888.455 192.618 L
888.87 192.618 L
889.285 192.618 L
889.7 192.618 L
890.115 192.618 L
890.53 192.618 L
890.945 192.618 L
891.36 192.618 L
891.775 192.618 L
892.19 192.618 L
892.605 192.618 L
893.02 192.618 L
893.435 192.618 L
893.85 192.618 L
894.265 192.618 L
894.68 192.618 L
895.095 192.618 L
895.51 192.618 L
895.925 192.618 L
896.34 192.618 L
896.755 192.618 L
897.17 192.618 L
897.585 192.618 L
898 192.618 L
S
GR
%%Trailer
%%BoundingBox: 60 2 676 292
%%Pages: 1
%%EOF
