%!PS-Adobe-3.0 EPSF-3.0
%%Creator: (MATLAB, The Mathworks, Inc. Version 8.5.0.197613 \(R2015a\). Operating System: Linux)
%%Title: raport/chapter3/figures/4.eps
%%CreationDate: 2016-04-25T00:17:01
%%Pages: (atend)
%%BoundingBox: (atend)
%%LanguageLevel: 3
%%EndComments
%%BeginProlog
%%BeginResource: procset (Apache XML Graphics Std ProcSet) 1.2 0
%%Version: 1.2 0
%%Copyright: (Copyright 2001-2003,2010 The Apache Software Foundation. License terms: http://www.apache.org/licenses/LICENSE-2.0)
/bd{bind def}bind def
/ld{load def}bd
/GR/grestore ld
/M/moveto ld
/LJ/setlinejoin ld
/C/curveto ld
/f/fill ld
/LW/setlinewidth ld
/GC/setgray ld
/t/show ld
/N/newpath ld
/CT/concat ld
/cp/closepath ld
/S/stroke ld
/L/lineto ld
/CC/setcmykcolor ld
/A/ashow ld
/GS/gsave ld
/RC/setrgbcolor ld
/RM/rmoveto ld
/ML/setmiterlimit ld
/re {4 2 roll M
1 index 0 rlineto
0 exch rlineto
neg 0 rlineto
cp } bd
/_ctm matrix def
/_tm matrix def
/BT { _ctm currentmatrix pop matrix _tm copy pop 0 0 moveto } bd
/ET { _ctm setmatrix } bd
/iTm { _ctm setmatrix _tm concat } bd
/Tm { _tm astore pop iTm 0 0 moveto } bd
/ux 0.0 def
/uy 0.0 def
/F {
  /Tp exch def
  /Tf exch def
  Tf findfont Tp scalefont setfont
  /cf Tf def  /cs Tp def
} bd
/ULS {currentpoint /uy exch def /ux exch def} bd
/ULE {
  /Tcx currentpoint pop def
  gsave
  newpath
  cf findfont cs scalefont dup
  /FontMatrix get 0 get /Ts exch def /FontInfo get dup
  /UnderlinePosition get Ts mul /To exch def
  /UnderlineThickness get Ts mul /Tt exch def
  ux uy To add moveto  Tcx uy To add lineto
  Tt setlinewidth stroke
  grestore
} bd
/OLE {
  /Tcx currentpoint pop def
  gsave
  newpath
  cf findfont cs scalefont dup
  /FontMatrix get 0 get /Ts exch def /FontInfo get dup
  /UnderlinePosition get Ts mul /To exch def
  /UnderlineThickness get Ts mul /Tt exch def
  ux uy To add cs add moveto Tcx uy To add cs add lineto
  Tt setlinewidth stroke
  grestore
} bd
/SOE {
  /Tcx currentpoint pop def
  gsave
  newpath
  cf findfont cs scalefont dup
  /FontMatrix get 0 get /Ts exch def /FontInfo get dup
  /UnderlinePosition get Ts mul /To exch def
  /UnderlineThickness get Ts mul /Tt exch def
  ux uy To add cs 10 mul 26 idiv add moveto Tcx uy To add cs 10 mul 26 idiv add lineto
  Tt setlinewidth stroke
  grestore
} bd
/QT {
/Y22 exch store
/X22 exch store
/Y21 exch store
/X21 exch store
currentpoint
/Y21 load 2 mul add 3 div exch
/X21 load 2 mul add 3 div exch
/X21 load 2 mul /X22 load add 3 div
/Y21 load 2 mul /Y22 load add 3 div
/X22 load /Y22 load curveto
} bd
/SSPD {
dup length /d exch dict def
{
/v exch def
/k exch def
currentpagedevice k known {
/cpdv currentpagedevice k get def
v cpdv ne {
/upd false def
/nullv v type /nulltype eq def
/nullcpdv cpdv type /nulltype eq def
nullv nullcpdv or
{
/upd true def
} {
/sametype v type cpdv type eq def
sametype {
v type /arraytype eq {
/vlen v length def
/cpdvlen cpdv length def
vlen cpdvlen eq {
0 1 vlen 1 sub {
/i exch def
/obj v i get def
/cpdobj cpdv i get def
obj cpdobj ne {
/upd true def
exit
} if
} for
} {
/upd true def
} ifelse
} {
v type /dicttype eq {
v {
/dv exch def
/dk exch def
/cpddv cpdv dk get def
dv cpddv ne {
/upd true def
exit
} if
} forall
} {
/upd true def
} ifelse
} ifelse
} if
} ifelse
upd true eq {
d k v put
} if
} if
} if
} forall
d length 0 gt {
d setpagedevice
} if
} bd
%%EndResource
%%BeginResource: procset (Apache XML Graphics EPS ProcSet) 1.0 0
%%Version: 1.0 0
%%Copyright: (Copyright 2002-2003 The Apache Software Foundation. License terms: http://www.apache.org/licenses/LICENSE-2.0)
/BeginEPSF { %def
/b4_Inc_state save def         % Save state for cleanup
/dict_count countdictstack def % Count objects on dict stack
/op_count count 1 sub def      % Count objects on operand stack
userdict begin                 % Push userdict on dict stack
/showpage { } def              % Redefine showpage, { } = null proc
0 setgray 0 setlinecap         % Prepare graphics state
1 setlinewidth 0 setlinejoin
10 setmiterlimit [ ] 0 setdash newpath
/languagelevel where           % If level not equal to 1 then
{pop languagelevel             % set strokeadjust and
1 ne                           % overprint to their defaults.
{false setstrokeadjust false setoverprint
} if
} if
} bd
/EndEPSF { %def
count op_count sub {pop} repeat            % Clean up stacks
countdictstack dict_count sub {end} repeat
b4_Inc_state restore
} bd
%%EndResource
%FOPBeginFontDict
%%IncludeResource: font Courier-Bold
%%IncludeResource: font Helvetica
%%IncludeResource: font Courier-BoldOblique
%%IncludeResource: font Courier-Oblique
%%IncludeResource: font Times-Roman
%%IncludeResource: font Helvetica-BoldOblique
%%IncludeResource: font Helvetica-Bold
%%IncludeResource: font Helvetica-Oblique
%%IncludeResource: font Times-BoldItalic
%%IncludeResource: font Courier
%%IncludeResource: font Times-Italic
%%IncludeResource: font Times-Bold
%%IncludeResource: font Symbol
%%IncludeResource: font ZapfDingbats
%FOPEndFontDict
%%BeginResource: encoding WinAnsiEncoding
/WinAnsiEncoding [
/.notdef /.notdef /.notdef /.notdef /.notdef
/.notdef /.notdef /.notdef /.notdef /.notdef
/.notdef /.notdef /.notdef /.notdef /.notdef
/.notdef /.notdef /.notdef /.notdef /.notdef
/.notdef /.notdef /.notdef /.notdef /.notdef
/.notdef /.notdef /.notdef /.notdef /.notdef
/.notdef /.notdef /space /exclam /quotedbl
/numbersign /dollar /percent /ampersand /quotesingle
/parenleft /parenright /asterisk /plus /comma
/hyphen /period /slash /zero /one
/two /three /four /five /six
/seven /eight /nine /colon /semicolon
/less /equal /greater /question /at
/A /B /C /D /E
/F /G /H /I /J
/K /L /M /N /O
/P /Q /R /S /T
/U /V /W /X /Y
/Z /bracketleft /backslash /bracketright /asciicircum
/underscore /quoteleft /a /b /c
/d /e /f /g /h
/i /j /k /l /m
/n /o /p /q /r
/s /t /u /v /w
/x /y /z /braceleft /bar
/braceright /asciitilde /bullet /Euro /bullet
/quotesinglbase /florin /quotedblbase /ellipsis /dagger
/daggerdbl /circumflex /perthousand /Scaron /guilsinglleft
/OE /bullet /Zcaron /bullet /bullet
/quoteleft /quoteright /quotedblleft /quotedblright /bullet
/endash /emdash /asciitilde /trademark /scaron
/guilsinglright /oe /bullet /zcaron /Ydieresis
/space /exclamdown /cent /sterling /currency
/yen /brokenbar /section /dieresis /copyright
/ordfeminine /guillemotleft /logicalnot /sfthyphen /registered
/macron /degree /plusminus /twosuperior /threesuperior
/acute /mu /paragraph /middot /cedilla
/onesuperior /ordmasculine /guillemotright /onequarter /onehalf
/threequarters /questiondown /Agrave /Aacute /Acircumflex
/Atilde /Adieresis /Aring /AE /Ccedilla
/Egrave /Eacute /Ecircumflex /Edieresis /Igrave
/Iacute /Icircumflex /Idieresis /Eth /Ntilde
/Ograve /Oacute /Ocircumflex /Otilde /Odieresis
/multiply /Oslash /Ugrave /Uacute /Ucircumflex
/Udieresis /Yacute /Thorn /germandbls /agrave
/aacute /acircumflex /atilde /adieresis /aring
/ae /ccedilla /egrave /eacute /ecircumflex
/edieresis /igrave /iacute /icircumflex /idieresis
/eth /ntilde /ograve /oacute /ocircumflex
/otilde /odieresis /divide /oslash /ugrave
/uacute /ucircumflex /udieresis /yacute /thorn
/ydieresis
] def
%%EndResource
%FOPBeginFontReencode
/Courier-Bold findfont
dup length dict begin
  {1 index /FID ne {def} {pop pop} ifelse} forall
  /Encoding WinAnsiEncoding def
  currentdict
end
/Courier-Bold exch definefont pop
/Helvetica findfont
dup length dict begin
  {1 index /FID ne {def} {pop pop} ifelse} forall
  /Encoding WinAnsiEncoding def
  currentdict
end
/Helvetica exch definefont pop
/Courier-BoldOblique findfont
dup length dict begin
  {1 index /FID ne {def} {pop pop} ifelse} forall
  /Encoding WinAnsiEncoding def
  currentdict
end
/Courier-BoldOblique exch definefont pop
/Courier-Oblique findfont
dup length dict begin
  {1 index /FID ne {def} {pop pop} ifelse} forall
  /Encoding WinAnsiEncoding def
  currentdict
end
/Courier-Oblique exch definefont pop
/Times-Roman findfont
dup length dict begin
  {1 index /FID ne {def} {pop pop} ifelse} forall
  /Encoding WinAnsiEncoding def
  currentdict
end
/Times-Roman exch definefont pop
/Helvetica-BoldOblique findfont
dup length dict begin
  {1 index /FID ne {def} {pop pop} ifelse} forall
  /Encoding WinAnsiEncoding def
  currentdict
end
/Helvetica-BoldOblique exch definefont pop
/Helvetica-Bold findfont
dup length dict begin
  {1 index /FID ne {def} {pop pop} ifelse} forall
  /Encoding WinAnsiEncoding def
  currentdict
end
/Helvetica-Bold exch definefont pop
/Helvetica-Oblique findfont
dup length dict begin
  {1 index /FID ne {def} {pop pop} ifelse} forall
  /Encoding WinAnsiEncoding def
  currentdict
end
/Helvetica-Oblique exch definefont pop
/Times-BoldItalic findfont
dup length dict begin
  {1 index /FID ne {def} {pop pop} ifelse} forall
  /Encoding WinAnsiEncoding def
  currentdict
end
/Times-BoldItalic exch definefont pop
/Courier findfont
dup length dict begin
  {1 index /FID ne {def} {pop pop} ifelse} forall
  /Encoding WinAnsiEncoding def
  currentdict
end
/Courier exch definefont pop
/Times-Italic findfont
dup length dict begin
  {1 index /FID ne {def} {pop pop} ifelse} forall
  /Encoding WinAnsiEncoding def
  currentdict
end
/Times-Italic exch definefont pop
/Times-Bold findfont
dup length dict begin
  {1 index /FID ne {def} {pop pop} ifelse} forall
  /Encoding WinAnsiEncoding def
  currentdict
end
/Times-Bold exch definefont pop
%FOPEndFontReencode
%%EndProlog
%%Page: 1 1
%%PageBoundingBox: 0 0 750 300
%%BeginPageSetup
[1 0 0 -1 0 300] CT
%%EndPageSetup
GS
[0.75 0 0 0.75 0 0] CT
1 GC
N
0 0 1000 400 re
f
GR
GS
[0.75 0 0 0.75 0 0] CT
1 GC
N
0 0 1000 400 re
f
GR
GS
[0.75 0 0 0.75 0 0] CT
1 GC
N
130 356 M
465 356 L
465 30 L
130 30 L
cp
f
GR
GS
[0.75 0 0 0.75 0 0] CT
0.873 GC
2 setlinecap
10.0 ML
N
130 356 M
130 30 L
S
GR
GS
[0.75 0 0 0.75 0 0] CT
0.873 GC
2 setlinecap
10.0 ML
N
197 356 M
197 30 L
S
GR
GS
[0.75 0 0 0.75 0 0] CT
0.873 GC
2 setlinecap
10.0 ML
N
264 356 M
264 30 L
S
GR
GS
[0.75 0 0 0.75 0 0] CT
0.873 GC
2 setlinecap
10.0 ML
N
331 356 M
331 30 L
S
GR
GS
[0.75 0 0 0.75 0 0] CT
0.873 GC
2 setlinecap
10.0 ML
N
398 356 M
398 30 L
S
GR
GS
[0.75 0 0 0.75 0 0] CT
0.873 GC
2 setlinecap
10.0 ML
N
465 356 M
465 30 L
S
GR
GS
[0.75 0 0 0.75 0 0] CT
0.873 GC
2 setlinecap
10.0 ML
N
465 356 M
130 356 L
S
GR
GS
[0.75 0 0 0.75 0 0] CT
0.873 GC
2 setlinecap
10.0 ML
N
465 323.4 M
130 323.4 L
S
GR
GS
[0.75 0 0 0.75 0 0] CT
0.873 GC
2 setlinecap
10.0 ML
N
465 290.8 M
130 290.8 L
S
GR
GS
[0.75 0 0 0.75 0 0] CT
0.873 GC
2 setlinecap
10.0 ML
N
465 258.2 M
130 258.2 L
S
GR
GS
[0.75 0 0 0.75 0 0] CT
0.873 GC
2 setlinecap
10.0 ML
N
465 225.6 M
130 225.6 L
S
GR
GS
[0.75 0 0 0.75 0 0] CT
0.873 GC
2 setlinecap
10.0 ML
N
465 193 M
130 193 L
S
GR
GS
[0.75 0 0 0.75 0 0] CT
0.873 GC
2 setlinecap
10.0 ML
N
465 160.4 M
130 160.4 L
S
GR
GS
[0.75 0 0 0.75 0 0] CT
0.873 GC
2 setlinecap
10.0 ML
N
465 127.8 M
130 127.8 L
S
GR
GS
[0.75 0 0 0.75 0 0] CT
0.873 GC
2 setlinecap
10.0 ML
N
465 95.2 M
130 95.2 L
S
GR
GS
[0.75 0 0 0.75 0 0] CT
0.873 GC
2 setlinecap
10.0 ML
N
465 62.6 M
130 62.6 L
S
GR
GS
[0.75 0 0 0.75 0 0] CT
0.873 GC
2 setlinecap
10.0 ML
N
465 30 M
130 30 L
S
GR
GS
[0.75 0 0 0.75 223.12511 284.74999] CT
0.149 GC
/Helvetica 15 F
GS
[1 0 0 1 0 0] CT
-29.5 14 moveto 
1 -1 scale
(time \(s\)) t 
GR
GR
GS
[0.75 0 0 0.75 0 0] CT
0.149 GC
2 setlinecap
10.0 ML
N
130 356 M
465 356 L
S
GR
GS
[0.75 0 0 0.75 0 0] CT
0.149 GC
2 setlinecap
10.0 ML
N
130 30 M
465 30 L
S
GR
GS
[0.75 0 0 0.75 0 0] CT
0.149 GC
2 setlinecap
10.0 ML
N
130 356 M
130 352.65 L
S
GR
GS
[0.75 0 0 0.75 0 0] CT
0.149 GC
2 setlinecap
10.0 ML
N
197 356 M
197 352.65 L
S
GR
GS
[0.75 0 0 0.75 0 0] CT
0.149 GC
2 setlinecap
10.0 ML
N
264 356 M
264 352.65 L
S
GR
GS
[0.75 0 0 0.75 0 0] CT
0.149 GC
2 setlinecap
10.0 ML
N
331 356 M
331 352.65 L
S
GR
GS
[0.75 0 0 0.75 0 0] CT
0.149 GC
2 setlinecap
10.0 ML
N
398 356 M
398 352.65 L
S
GR
GS
[0.75 0 0 0.75 0 0] CT
0.149 GC
2 setlinecap
10.0 ML
N
465 356 M
465 352.65 L
S
GR
GS
[0.75 0 0 0.75 0 0] CT
0.149 GC
2 setlinecap
10.0 ML
N
130 30 M
130 33.35 L
S
GR
GS
[0.75 0 0 0.75 0 0] CT
0.149 GC
2 setlinecap
10.0 ML
N
197 30 M
197 33.35 L
S
GR
GS
[0.75 0 0 0.75 0 0] CT
0.149 GC
2 setlinecap
10.0 ML
N
264 30 M
264 33.35 L
S
GR
GS
[0.75 0 0 0.75 0 0] CT
0.149 GC
2 setlinecap
10.0 ML
N
331 30 M
331 33.35 L
S
GR
GS
[0.75 0 0 0.75 0 0] CT
0.149 GC
2 setlinecap
10.0 ML
N
398 30 M
398 33.35 L
S
GR
GS
[0.75 0 0 0.75 0 0] CT
0.149 GC
2 setlinecap
10.0 ML
N
465 30 M
465 33.35 L
S
GR
GS
[0.75 0 0 0.75 97.5 271.00001] CT
0.149 GC
/Helvetica 13 F
GS
[1 0 0 1 0 0] CT
-4.5 13 moveto 
1 -1 scale
(0) t 
GR
GR
GS
[0.75 0 0 0.75 147.75 271.00001] CT
0.149 GC
/Helvetica 13 F
GS
[1 0 0 1 0 0] CT
-10.5 13 moveto 
1 -1 scale
(0.2) t 
GR
GR
GS
[0.75 0 0 0.75 198 271.00001] CT
0.149 GC
/Helvetica 13 F
GS
[1 0 0 1 0 0] CT
-10.5 13 moveto 
1 -1 scale
(0.4) t 
GR
GR
GS
[0.75 0 0 0.75 248.25 271.00001] CT
0.149 GC
/Helvetica 13 F
GS
[1 0 0 1 0 0] CT
-10.5 13 moveto 
1 -1 scale
(0.6) t 
GR
GR
GS
[0.75 0 0 0.75 298.5 271.00001] CT
0.149 GC
/Helvetica 13 F
GS
[1 0 0 1 0 0] CT
-10.5 13 moveto 
1 -1 scale
(0.8) t 
GR
GR
GS
[0.75 0 0 0.75 348.75 271.00001] CT
0.149 GC
/Helvetica 13 F
GS
[1 0 0 1 0 0] CT
-4.5 13 moveto 
1 -1 scale
(1) t 
GR
GR
GS
[0 -0.75 0.75 0 74.75 144.74989] CT
0.149 GC
/Helvetica 15 F
GS
[1 0 0 1 0 0] CT
-4.5 -4 moveto 
1 -1 scale
(x) t 
GR
GR
GS
[0.75 0 0 0.75 0 0] CT
0.149 GC
2 setlinecap
10.0 ML
N
130 356 M
130 30 L
S
GR
GS
[0.75 0 0 0.75 0 0] CT
0.149 GC
2 setlinecap
10.0 ML
N
465 356 M
465 30 L
S
GR
GS
[0.75 0 0 0.75 0 0] CT
0.149 GC
2 setlinecap
10.0 ML
N
130 356 M
133.35 356 L
S
GR
GS
[0.75 0 0 0.75 0 0] CT
0.149 GC
2 setlinecap
10.0 ML
N
130 323.4 M
133.35 323.4 L
S
GR
GS
[0.75 0 0 0.75 0 0] CT
0.149 GC
2 setlinecap
10.0 ML
N
130 290.8 M
133.35 290.8 L
S
GR
GS
[0.75 0 0 0.75 0 0] CT
0.149 GC
2 setlinecap
10.0 ML
N
130 258.2 M
133.35 258.2 L
S
GR
GS
[0.75 0 0 0.75 0 0] CT
0.149 GC
2 setlinecap
10.0 ML
N
130 225.6 M
133.35 225.6 L
S
GR
GS
[0.75 0 0 0.75 0 0] CT
0.149 GC
2 setlinecap
10.0 ML
N
130 193 M
133.35 193 L
S
GR
GS
[0.75 0 0 0.75 0 0] CT
0.149 GC
2 setlinecap
10.0 ML
N
130 160.4 M
133.35 160.4 L
S
GR
GS
[0.75 0 0 0.75 0 0] CT
0.149 GC
2 setlinecap
10.0 ML
N
130 127.8 M
133.35 127.8 L
S
GR
GS
[0.75 0 0 0.75 0 0] CT
0.149 GC
2 setlinecap
10.0 ML
N
130 95.2 M
133.35 95.2 L
S
GR
GS
[0.75 0 0 0.75 0 0] CT
0.149 GC
2 setlinecap
10.0 ML
N
130 62.6 M
133.35 62.6 L
S
GR
GS
[0.75 0 0 0.75 0 0] CT
0.149 GC
2 setlinecap
10.0 ML
N
130 30 M
133.35 30 L
S
GR
GS
[0.75 0 0 0.75 0 0] CT
0.149 GC
2 setlinecap
10.0 ML
N
465 356 M
461.65 356 L
S
GR
GS
[0.75 0 0 0.75 0 0] CT
0.149 GC
2 setlinecap
10.0 ML
N
465 323.4 M
461.65 323.4 L
S
GR
GS
[0.75 0 0 0.75 0 0] CT
0.149 GC
2 setlinecap
10.0 ML
N
465 290.8 M
461.65 290.8 L
S
GR
GS
[0.75 0 0 0.75 0 0] CT
0.149 GC
2 setlinecap
10.0 ML
N
465 258.2 M
461.65 258.2 L
S
GR
GS
[0.75 0 0 0.75 0 0] CT
0.149 GC
2 setlinecap
10.0 ML
N
465 225.6 M
461.65 225.6 L
S
GR
GS
[0.75 0 0 0.75 0 0] CT
0.149 GC
2 setlinecap
10.0 ML
N
465 193 M
461.65 193 L
S
GR
GS
[0.75 0 0 0.75 0 0] CT
0.149 GC
2 setlinecap
10.0 ML
N
465 160.4 M
461.65 160.4 L
S
GR
GS
[0.75 0 0 0.75 0 0] CT
0.149 GC
2 setlinecap
10.0 ML
N
465 127.8 M
461.65 127.8 L
S
GR
GS
[0.75 0 0 0.75 0 0] CT
0.149 GC
2 setlinecap
10.0 ML
N
465 95.2 M
461.65 95.2 L
S
GR
GS
[0.75 0 0 0.75 0 0] CT
0.149 GC
2 setlinecap
10.0 ML
N
465 62.6 M
461.65 62.6 L
S
GR
GS
[0.75 0 0 0.75 0 0] CT
0.149 GC
2 setlinecap
10.0 ML
N
465 30 M
461.65 30 L
S
GR
GS
[0.75 0 0 0.75 93.5 267] CT
0.149 GC
/Helvetica 13 F
GS
[1 0 0 1 0 0] CT
-9 4.5 moveto 
1 -1 scale
(0) t 
GR
GR
GS
[0.75 0 0 0.75 93.5 242.55] CT
0.149 GC
/Helvetica 13 F
GS
[1 0 0 1 0 0] CT
-21 4.5 moveto 
1 -1 scale
(0.1) t 
GR
GR
GS
[0.75 0 0 0.75 93.5 218.09999] CT
0.149 GC
/Helvetica 13 F
GS
[1 0 0 1 0 0] CT
-21 4.5 moveto 
1 -1 scale
(0.2) t 
GR
GR
GS
[0.75 0 0 0.75 93.5 193.64999] CT
0.149 GC
/Helvetica 13 F
GS
[1 0 0 1 0 0] CT
-21 4.5 moveto 
1 -1 scale
(0.3) t 
GR
GR
GS
[0.75 0 0 0.75 93.5 169.19999] CT
0.149 GC
/Helvetica 13 F
GS
[1 0 0 1 0 0] CT
-21 4.5 moveto 
1 -1 scale
(0.4) t 
GR
GR
GS
[0.75 0 0 0.75 93.5 144.75] CT
0.149 GC
/Helvetica 13 F
GS
[1 0 0 1 0 0] CT
-21 4.5 moveto 
1 -1 scale
(0.5) t 
GR
GR
GS
[0.75 0 0 0.75 93.5 120.3] CT
0.149 GC
/Helvetica 13 F
GS
[1 0 0 1 0 0] CT
-21 4.5 moveto 
1 -1 scale
(0.6) t 
GR
GR
GS
[0.75 0 0 0.75 93.5 95.85] CT
0.149 GC
/Helvetica 13 F
GS
[1 0 0 1 0 0] CT
-21 4.5 moveto 
1 -1 scale
(0.7) t 
GR
GR
GS
[0.75 0 0 0.75 93.5 71.4] CT
0.149 GC
/Helvetica 13 F
GS
[1 0 0 1 0 0] CT
-21 4.5 moveto 
1 -1 scale
(0.8) t 
GR
GR
GS
[0.75 0 0 0.75 93.5 46.95] CT
0.149 GC
/Helvetica 13 F
GS
[1 0 0 1 0 0] CT
-21 4.5 moveto 
1 -1 scale
(0.9) t 
GR
GR
GS
[0.75 0 0 0.75 93.5 22.5] CT
0.149 GC
/Helvetica 13 F
GS
[1 0 0 1 0 0] CT
-9 4.5 moveto 
1 -1 scale
(1) t 
GR
GR
GS
[0.75 0 0 0.75 0 0] CT
0 0.447 0.741 RC
2 LJ
N
130 30 M
132.094 31.155 L
134.188 32.265 L
136.281 33.333 L
138.375 34.358 L
140.469 35.345 L
142.563 36.293 L
144.656 37.205 L
146.75 38.082 L
148.844 38.926 L
150.938 39.738 L
153.031 40.518 L
155.125 41.27 L
157.219 41.993 L
159.313 42.689 L
161.406 43.359 L
163.5 44.004 L
165.594 44.626 L
167.688 45.224 L
169.781 45.801 L
171.875 46.356 L
173.969 46.891 L
176.063 47.407 L
178.156 47.905 L
180.25 48.384 L
182.344 48.847 L
184.438 49.293 L
186.531 49.724 L
188.625 50.139 L
190.719 50.541 L
192.813 50.928 L
194.906 51.302 L
197 51.664 L
199.094 52.013 L
201.188 52.351 L
203.281 52.677 L
205.375 52.993 L
207.469 53.298 L
209.563 53.594 L
211.656 53.88 L
213.75 54.157 L
213.75 54.315 L
215.844 54.423 L
217.938 54.53 L
220.031 54.638 L
222.125 54.745 L
224.219 54.852 L
226.313 54.959 L
228.406 55.066 L
230.5 55.173 L
S
GR
GS
[0.75 0 0 0.75 0 0] CT
0 0.447 0.741 RC
2 LJ
N
230.5 55.173 M
232.594 55.279 L
234.688 55.386 L
236.781 55.492 L
238.875 55.599 L
240.969 55.705 L
243.063 55.811 L
245.156 55.917 L
247.25 56.023 L
249.344 56.128 L
251.438 56.234 L
253.531 56.34 L
255.625 56.445 L
257.719 56.55 L
259.813 56.656 L
261.906 56.761 L
264 56.866 L
266.094 56.971 L
268.188 57.076 L
270.281 57.18 L
272.375 57.285 L
274.469 57.39 L
276.563 57.494 L
278.656 57.599 L
280.75 57.703 L
282.844 57.807 L
284.938 57.911 L
287.031 58.015 L
289.125 58.119 L
291.219 58.223 L
293.313 58.327 L
295.406 58.431 L
297.5 58.534 L
297.5 58.696 L
299.594 58.758 L
301.688 58.82 L
303.781 58.883 L
305.875 58.947 L
307.969 59.01 L
310.063 59.075 L
312.156 59.139 L
314.25 59.204 L
316.344 59.269 L
318.438 59.335 L
320.531 59.401 L
322.625 59.468 L
324.719 59.534 L
326.813 59.602 L
328.906 59.669 L
331 59.737 L
S
GR
GS
[0.75 0 0 0.75 0 0] CT
0 0.447 0.741 RC
2 LJ
N
331 59.737 M
333.094 59.805 L
335.188 59.874 L
337.281 59.943 L
339.375 60.012 L
341.469 60.081 L
343.563 60.151 L
345.656 60.221 L
347.75 60.292 L
349.844 60.363 L
351.938 60.434 L
354.031 60.505 L
356.125 60.577 L
358.219 60.649 L
360.313 60.721 L
362.406 60.793 L
364.5 60.866 L
366.594 60.939 L
368.688 61.012 L
370.781 61.086 L
372.875 61.16 L
374.969 61.234 L
377.063 61.308 L
379.156 61.382 L
381.25 61.457 L
381.25 61.62 L
383.344 61.903 L
385.438 62.179 L
387.531 62.447 L
389.625 62.708 L
391.719 62.962 L
393.813 63.21 L
395.906 63.451 L
398 63.686 L
400.094 63.916 L
402.188 64.14 L
404.281 64.358 L
406.375 64.571 L
408.469 64.779 L
410.563 64.983 L
412.656 65.181 L
414.75 65.375 L
416.844 65.565 L
418.938 65.75 L
421.031 65.932 L
423.125 66.109 L
425.219 66.283 L
427.313 66.453 L
429.406 66.62 L
431.5 66.783 L
S
GR
GS
[0.75 0 0 0.75 0 0] CT
0 0.447 0.741 RC
2 LJ
N
431.5 66.783 M
433.594 66.943 L
435.688 67.1 L
437.781 67.254 L
439.875 67.405 L
441.969 67.554 L
444.063 67.699 L
446.156 67.842 L
448.25 67.983 L
450.344 68.121 L
452.438 68.256 L
454.531 68.39 L
456.625 68.521 L
458.719 68.651 L
460.813 68.778 L
462.906 68.903 L
465 69.027 L
S
GR
GS
[0.75 0 0 0.75 0 0] CT
0.851 0.325 0.098 RC
2 LJ
N
130 356 M
132.094 354.846 L
134.188 353.741 L
136.281 352.681 L
138.375 351.665 L
140.469 350.691 L
142.563 349.758 L
144.656 348.864 L
146.75 348.007 L
148.844 347.185 L
150.938 346.398 L
153.031 345.643 L
155.125 344.92 L
157.219 344.227 L
159.313 343.563 L
161.406 342.927 L
163.5 342.317 L
165.594 341.732 L
167.688 341.172 L
169.781 340.635 L
171.875 340.121 L
173.969 339.628 L
176.063 339.156 L
178.156 338.704 L
180.25 338.27 L
182.344 337.855 L
184.438 337.457 L
186.531 337.076 L
188.625 336.711 L
190.719 336.361 L
192.813 336.026 L
194.906 335.704 L
197 335.397 L
199.094 335.102 L
201.188 334.82 L
203.281 334.55 L
205.375 334.291 L
207.469 334.043 L
209.563 333.806 L
211.656 333.578 L
213.75 333.361 L
213.75 333.485 L
215.844 333.487 L
217.938 333.488 L
220.031 333.49 L
222.125 333.491 L
224.219 333.493 L
226.313 333.495 L
228.406 333.497 L
230.5 333.5 L
S
GR
GS
[0.75 0 0 0.75 0 0] CT
0.851 0.325 0.098 RC
2 LJ
N
230.5 333.5 M
232.594 333.502 L
234.688 333.504 L
236.781 333.507 L
238.875 333.509 L
240.969 333.512 L
243.063 333.515 L
245.156 333.518 L
247.25 333.521 L
249.344 333.524 L
251.438 333.527 L
253.531 333.531 L
255.625 333.534 L
257.719 333.537 L
259.813 333.541 L
261.906 333.544 L
264 333.548 L
266.094 333.552 L
268.188 333.556 L
270.281 333.56 L
272.375 333.564 L
274.469 333.568 L
276.563 333.572 L
278.656 333.576 L
280.75 333.58 L
282.844 333.585 L
284.938 333.589 L
287.031 333.594 L
289.125 333.598 L
291.219 333.603 L
293.313 333.607 L
295.406 333.612 L
297.5 333.617 L
297.5 333.746 L
299.594 333.804 L
301.688 333.862 L
303.781 333.919 L
305.875 333.975 L
307.969 334.031 L
310.063 334.085 L
312.156 334.14 L
314.25 334.193 L
316.344 334.246 L
318.438 334.298 L
320.531 334.349 L
322.625 334.4 L
324.719 334.45 L
326.813 334.5 L
328.906 334.549 L
331 334.597 L
S
GR
GS
[0.75 0 0 0.75 0 0] CT
0.851 0.325 0.098 RC
2 LJ
N
331 334.597 M
333.094 334.645 L
335.188 334.692 L
337.281 334.739 L
339.375 334.785 L
341.469 334.83 L
343.563 334.875 L
345.656 334.919 L
347.75 334.963 L
349.844 335.006 L
351.938 335.049 L
354.031 335.091 L
356.125 335.132 L
358.219 335.174 L
360.313 335.214 L
362.406 335.254 L
364.5 335.294 L
366.594 335.333 L
368.688 335.372 L
370.781 335.41 L
372.875 335.448 L
374.969 335.485 L
377.063 335.522 L
379.156 335.558 L
381.25 335.594 L
381.25 335.746 L
383.344 335.527 L
385.438 335.315 L
387.531 335.112 L
389.625 334.917 L
391.719 334.729 L
393.813 334.548 L
395.906 334.374 L
398 334.206 L
400.094 334.045 L
402.188 333.89 L
404.281 333.741 L
406.375 333.598 L
408.469 333.46 L
410.563 333.327 L
412.656 333.2 L
414.75 333.077 L
416.844 332.96 L
418.938 332.846 L
421.031 332.737 L
423.125 332.633 L
425.219 332.532 L
427.313 332.435 L
429.406 332.343 L
431.5 332.253 L
S
GR
GS
[0.75 0 0 0.75 0 0] CT
0.851 0.325 0.098 RC
2 LJ
N
431.5 332.253 M
433.594 332.168 L
435.688 332.085 L
437.781 332.006 L
439.875 331.93 L
441.969 331.857 L
444.063 331.787 L
446.156 331.72 L
448.25 331.656 L
450.344 331.594 L
452.438 331.534 L
454.531 331.477 L
456.625 331.423 L
458.719 331.371 L
460.813 331.32 L
462.906 331.272 L
465 331.226 L
S
GR
GS
[0.75 0 0 0.75 0 0] CT
0.929 0.694 0.125 RC
2 LJ
N
130 356 M
132.094 355.998 L
134.188 355.994 L
136.281 355.987 L
138.375 355.977 L
140.469 355.964 L
142.563 355.949 L
144.656 355.931 L
146.75 355.911 L
148.844 355.889 L
150.938 355.865 L
153.031 355.838 L
155.125 355.81 L
157.219 355.78 L
159.313 355.748 L
161.406 355.714 L
163.5 355.679 L
165.594 355.642 L
167.688 355.604 L
169.781 355.564 L
171.875 355.523 L
173.969 355.48 L
176.063 355.437 L
178.156 355.392 L
180.25 355.345 L
182.344 355.298 L
184.438 355.25 L
186.531 355.2 L
188.625 355.15 L
190.719 355.099 L
192.813 355.047 L
194.906 354.993 L
197 354.94 L
199.094 354.885 L
201.188 354.829 L
203.281 354.773 L
205.375 354.716 L
207.469 354.659 L
209.563 354.601 L
211.656 354.542 L
213.75 354.482 L
213.75 354.2 L
215.844 354.091 L
217.938 353.982 L
220.031 353.873 L
222.125 353.764 L
224.219 353.655 L
226.313 353.546 L
228.406 353.437 L
230.5 353.328 L
S
GR
GS
[0.75 0 0 0.75 0 0] CT
0.929 0.694 0.125 RC
2 LJ
N
230.5 353.328 M
232.594 353.219 L
234.688 353.11 L
236.781 353.001 L
238.875 352.892 L
240.969 352.783 L
243.063 352.674 L
245.156 352.565 L
247.25 352.456 L
249.344 352.348 L
251.438 352.239 L
253.531 352.13 L
255.625 352.021 L
257.719 351.912 L
259.813 351.804 L
261.906 351.695 L
264 351.586 L
266.094 351.477 L
268.188 351.369 L
270.281 351.26 L
272.375 351.151 L
274.469 351.043 L
276.563 350.934 L
278.656 350.825 L
280.75 350.717 L
282.844 350.608 L
284.938 350.5 L
287.031 350.391 L
289.125 350.283 L
291.219 350.174 L
293.313 350.066 L
295.406 349.957 L
297.5 349.849 L
297.5 349.558 L
299.594 349.438 L
301.688 349.318 L
303.781 349.198 L
305.875 349.078 L
307.969 348.959 L
310.063 348.84 L
312.156 348.721 L
314.25 348.603 L
316.344 348.485 L
318.438 348.367 L
320.531 348.249 L
322.625 348.132 L
324.719 348.015 L
326.813 347.898 L
328.906 347.782 L
331 347.666 L
S
GR
GS
[0.75 0 0 0.75 0 0] CT
0.929 0.694 0.125 RC
2 LJ
N
331 347.666 M
333.094 347.55 L
335.188 347.434 L
337.281 347.319 L
339.375 347.204 L
341.469 347.089 L
343.563 346.974 L
345.656 346.86 L
347.75 346.745 L
349.844 346.631 L
351.938 346.518 L
354.031 346.404 L
356.125 346.291 L
358.219 346.178 L
360.313 346.065 L
362.406 345.952 L
364.5 345.84 L
366.594 345.728 L
368.688 345.616 L
370.781 345.504 L
372.875 345.393 L
374.969 345.281 L
377.063 345.17 L
379.156 345.059 L
381.25 344.948 L
381.25 344.634 L
383.344 344.57 L
385.438 344.506 L
387.531 344.441 L
389.625 344.375 L
391.719 344.309 L
393.813 344.242 L
395.906 344.175 L
398 344.107 L
400.094 344.039 L
402.188 343.97 L
404.281 343.901 L
406.375 343.831 L
408.469 343.761 L
410.563 343.69 L
412.656 343.619 L
414.75 343.547 L
416.844 343.476 L
418.938 343.403 L
421.031 343.331 L
423.125 343.258 L
425.219 343.185 L
427.313 343.111 L
429.406 343.037 L
431.5 342.963 L
S
GR
GS
[0.75 0 0 0.75 0 0] CT
0.929 0.694 0.125 RC
2 LJ
N
431.5 342.963 M
433.594 342.889 L
435.688 342.814 L
437.781 342.74 L
439.875 342.664 L
441.969 342.589 L
444.063 342.513 L
446.156 342.438 L
448.25 342.362 L
450.344 342.285 L
452.438 342.209 L
454.531 342.133 L
456.625 342.056 L
458.719 341.979 L
460.813 341.902 L
462.906 341.825 L
465 341.747 L
S
GR
GS
[0.75 0 0 0.75 223.12521 20.43749] CT
/Helvetica-Bold 15 F
GS
[1 0 0 1 0 0] CT
-120.5 -4 moveto 
1 -1 scale
(Performance index = 0.0437) t 
GR
GR
GS
[0.75 0 0 0.75 0 0] CT
1 GC
N
382 113 M
382 43 L
452 43 L
452 113 L
cp
f
GR
GS
[0.75 0 0 0.75 325.5 43.5] CT
/Helvetica 12 F
GS
[1 0 0 1 0 0] CT
0 0 moveto 
1 -1 scale
(x) t 
GR
GR
GS
[0.75 0 0 0.75 331.5 48] CT
/Helvetica 9 F
GS
[1 0 0 1 0 0] CT
0 0 moveto 
1 -1 scale
(1) t 
GR
GR
GS
[0.75 0 0 0.75 0 0] CT
0 0.447 0.741 RC
2 LJ
N
390 56.23 M
430 56.23 L
S
GR
GS
[0.75 0 0 0.75 325.5 60] CT
/Helvetica 12 F
GS
[1 0 0 1 0 0] CT
0 0 moveto 
1 -1 scale
(x) t 
GR
GR
GS
[0.75 0 0 0.75 331.5 64.5] CT
/Helvetica 9 F
GS
[1 0 0 1 0 0] CT
0 0 moveto 
1 -1 scale
(2) t 
GR
GR
GS
[0.75 0 0 0.75 0 0] CT
0.851 0.325 0.098 RC
2 LJ
N
390 78 M
430 78 L
S
GR
GS
[0.75 0 0 0.75 325.5 76.5] CT
/Helvetica 12 F
GS
[1 0 0 1 0 0] CT
0 0 moveto 
1 -1 scale
(x) t 
GR
GR
GS
[0.75 0 0 0.75 331.5 81] CT
/Helvetica 9 F
GS
[1 0 0 1 0 0] CT
0 0 moveto 
1 -1 scale
(3) t 
GR
GR
GS
[0.75 0 0 0.75 0 0] CT
0.929 0.694 0.125 RC
2 LJ
N
390 99.77 M
430 99.77 L
S
GR
GS
[0.75 0 0 0.75 0 0] CT
0.149 GC
2 LJ
N
382 113 M
382 43 L
452 43 L
452 113 L
382 113 L
S
GR
GS
[0.75 0 0 0.75 0 0] CT
1 GC
N
570 356 M
905 356 L
905 30 L
570 30 L
cp
f
GR
GS
[0.75 0 0 0.75 0 0] CT
0.873 GC
2 LJ
N
570 356 M
570 30 L
S
GR
GS
[0.75 0 0 0.75 0 0] CT
0.873 GC
2 LJ
N
637 356 M
637 30 L
S
GR
GS
[0.75 0 0 0.75 0 0] CT
0.873 GC
2 LJ
N
704 356 M
704 30 L
S
GR
GS
[0.75 0 0 0.75 0 0] CT
0.873 GC
2 LJ
N
771 356 M
771 30 L
S
GR
GS
[0.75 0 0 0.75 0 0] CT
0.873 GC
2 LJ
N
838 356 M
838 30 L
S
GR
GS
[0.75 0 0 0.75 0 0] CT
0.873 GC
2 LJ
N
905 356 M
905 30 L
S
GR
GS
[0.75 0 0 0.75 0 0] CT
0.873 GC
2 LJ
N
905 356 M
570 356 L
S
GR
GS
[0.75 0 0 0.75 0 0] CT
0.873 GC
2 LJ
N
905 323.4 M
570 323.4 L
S
GR
GS
[0.75 0 0 0.75 0 0] CT
0.873 GC
2 LJ
N
905 290.8 M
570 290.8 L
S
GR
GS
[0.75 0 0 0.75 0 0] CT
0.873 GC
2 LJ
N
905 258.2 M
570 258.2 L
S
GR
GS
[0.75 0 0 0.75 0 0] CT
0.873 GC
2 LJ
N
905 225.6 M
570 225.6 L
S
GR
GS
[0.75 0 0 0.75 0 0] CT
0.873 GC
2 LJ
N
905 193 M
570 193 L
S
GR
GS
[0.75 0 0 0.75 0 0] CT
0.873 GC
2 LJ
N
905 160.4 M
570 160.4 L
S
GR
GS
[0.75 0 0 0.75 0 0] CT
0.873 GC
2 LJ
N
905 127.8 M
570 127.8 L
S
GR
GS
[0.75 0 0 0.75 0 0] CT
0.873 GC
2 LJ
N
905 95.2 M
570 95.2 L
S
GR
GS
[0.75 0 0 0.75 0 0] CT
0.873 GC
2 LJ
N
905 62.6 M
570 62.6 L
S
GR
GS
[0.75 0 0 0.75 0 0] CT
0.873 GC
2 LJ
N
905 30 M
570 30 L
S
GR
GS
[0.75 0 0 0.75 553.12514 284.74999] CT
0.149 GC
/Helvetica 15 F
GS
[1 0 0 1 0 0] CT
-29.5 14 moveto 
1 -1 scale
(time \(s\)) t 
GR
GR
GS
[0.75 0 0 0.75 0 0] CT
0.149 GC
2 LJ
N
570 356 M
905 356 L
S
GR
GS
[0.75 0 0 0.75 0 0] CT
0.149 GC
2 LJ
N
570 30 M
905 30 L
S
GR
GS
[0.75 0 0 0.75 0 0] CT
0.149 GC
2 LJ
N
570 356 M
570 352.65 L
S
GR
GS
[0.75 0 0 0.75 0 0] CT
0.149 GC
2 LJ
N
637 356 M
637 352.65 L
S
GR
GS
[0.75 0 0 0.75 0 0] CT
0.149 GC
2 LJ
N
704 356 M
704 352.65 L
S
GR
GS
[0.75 0 0 0.75 0 0] CT
0.149 GC
2 LJ
N
771 356 M
771 352.65 L
S
GR
GS
[0.75 0 0 0.75 0 0] CT
0.149 GC
2 LJ
N
838 356 M
838 352.65 L
S
GR
GS
[0.75 0 0 0.75 0 0] CT
0.149 GC
2 LJ
N
905 356 M
905 352.65 L
S
GR
GS
[0.75 0 0 0.75 0 0] CT
0.149 GC
2 LJ
N
570 30 M
570 33.35 L
S
GR
GS
[0.75 0 0 0.75 0 0] CT
0.149 GC
2 LJ
N
637 30 M
637 33.35 L
S
GR
GS
[0.75 0 0 0.75 0 0] CT
0.149 GC
2 LJ
N
704 30 M
704 33.35 L
S
GR
GS
[0.75 0 0 0.75 0 0] CT
0.149 GC
2 LJ
N
771 30 M
771 33.35 L
S
GR
GS
[0.75 0 0 0.75 0 0] CT
0.149 GC
2 LJ
N
838 30 M
838 33.35 L
S
GR
GS
[0.75 0 0 0.75 0 0] CT
0.149 GC
2 LJ
N
905 30 M
905 33.35 L
S
GR
GS
[0.75 0 0 0.75 427.5 271.00001] CT
0.149 GC
/Helvetica 13 F
GS
[1 0 0 1 0 0] CT
-4.5 13 moveto 
1 -1 scale
(0) t 
GR
GR
GS
[0.75 0 0 0.75 477.75 271.00001] CT
0.149 GC
/Helvetica 13 F
GS
[1 0 0 1 0 0] CT
-10.5 13 moveto 
1 -1 scale
(0.2) t 
GR
GR
GS
[0.75 0 0 0.75 528 271.00001] CT
0.149 GC
/Helvetica 13 F
GS
[1 0 0 1 0 0] CT
-10.5 13 moveto 
1 -1 scale
(0.4) t 
GR
GR
GS
[0.75 0 0 0.75 578.25 271.00001] CT
0.149 GC
/Helvetica 13 F
GS
[1 0 0 1 0 0] CT
-10.5 13 moveto 
1 -1 scale
(0.6) t 
GR
GR
GS
[0.75 0 0 0.75 628.5 271.00001] CT
0.149 GC
/Helvetica 13 F
GS
[1 0 0 1 0 0] CT
-10.5 13 moveto 
1 -1 scale
(0.8) t 
GR
GR
GS
[0.75 0 0 0.75 678.75 271.00001] CT
0.149 GC
/Helvetica 13 F
GS
[1 0 0 1 0 0] CT
-4.5 13 moveto 
1 -1 scale
(1) t 
GR
GR
GS
[0 -0.75 0.75 0 404.75002 144.74989] CT
0.149 GC
/Helvetica 15 F
GS
[1 0 0 1 0 0] CT
-5 -4 moveto 
1 -1 scale
(u) t 
GR
GR
GS
[0.75 0 0 0.75 0 0] CT
0.149 GC
2 setlinecap
10.0 ML
N
570 356 M
570 30 L
S
GR
GS
[0.75 0 0 0.75 0 0] CT
0.149 GC
2 setlinecap
10.0 ML
N
905 356 M
905 30 L
S
GR
GS
[0.75 0 0 0.75 0 0] CT
0.149 GC
2 setlinecap
10.0 ML
N
570 356 M
573.35 356 L
S
GR
GS
[0.75 0 0 0.75 0 0] CT
0.149 GC
2 setlinecap
10.0 ML
N
570 323.4 M
573.35 323.4 L
S
GR
GS
[0.75 0 0 0.75 0 0] CT
0.149 GC
2 setlinecap
10.0 ML
N
570 290.8 M
573.35 290.8 L
S
GR
GS
[0.75 0 0 0.75 0 0] CT
0.149 GC
2 setlinecap
10.0 ML
N
570 258.2 M
573.35 258.2 L
S
GR
GS
[0.75 0 0 0.75 0 0] CT
0.149 GC
2 setlinecap
10.0 ML
N
570 225.6 M
573.35 225.6 L
S
GR
GS
[0.75 0 0 0.75 0 0] CT
0.149 GC
2 setlinecap
10.0 ML
N
570 193 M
573.35 193 L
S
GR
GS
[0.75 0 0 0.75 0 0] CT
0.149 GC
2 setlinecap
10.0 ML
N
570 160.4 M
573.35 160.4 L
S
GR
GS
[0.75 0 0 0.75 0 0] CT
0.149 GC
2 setlinecap
10.0 ML
N
570 127.8 M
573.35 127.8 L
S
GR
GS
[0.75 0 0 0.75 0 0] CT
0.149 GC
2 setlinecap
10.0 ML
N
570 95.2 M
573.35 95.2 L
S
GR
GS
[0.75 0 0 0.75 0 0] CT
0.149 GC
2 setlinecap
10.0 ML
N
570 62.6 M
573.35 62.6 L
S
GR
GS
[0.75 0 0 0.75 0 0] CT
0.149 GC
2 setlinecap
10.0 ML
N
570 30 M
573.35 30 L
S
GR
GS
[0.75 0 0 0.75 0 0] CT
0.149 GC
2 setlinecap
10.0 ML
N
905 356 M
901.65 356 L
S
GR
GS
[0.75 0 0 0.75 0 0] CT
0.149 GC
2 setlinecap
10.0 ML
N
905 323.4 M
901.65 323.4 L
S
GR
GS
[0.75 0 0 0.75 0 0] CT
0.149 GC
2 setlinecap
10.0 ML
N
905 290.8 M
901.65 290.8 L
S
GR
GS
[0.75 0 0 0.75 0 0] CT
0.149 GC
2 setlinecap
10.0 ML
N
905 258.2 M
901.65 258.2 L
S
GR
GS
[0.75 0 0 0.75 0 0] CT
0.149 GC
2 setlinecap
10.0 ML
N
905 225.6 M
901.65 225.6 L
S
GR
GS
[0.75 0 0 0.75 0 0] CT
0.149 GC
2 setlinecap
10.0 ML
N
905 193 M
901.65 193 L
S
GR
GS
[0.75 0 0 0.75 0 0] CT
0.149 GC
2 setlinecap
10.0 ML
N
905 160.4 M
901.65 160.4 L
S
GR
GS
[0.75 0 0 0.75 0 0] CT
0.149 GC
2 setlinecap
10.0 ML
N
905 127.8 M
901.65 127.8 L
S
GR
GS
[0.75 0 0 0.75 0 0] CT
0.149 GC
2 setlinecap
10.0 ML
N
905 95.2 M
901.65 95.2 L
S
GR
GS
[0.75 0 0 0.75 0 0] CT
0.149 GC
2 setlinecap
10.0 ML
N
905 62.6 M
901.65 62.6 L
S
GR
GS
[0.75 0 0 0.75 0 0] CT
0.149 GC
2 setlinecap
10.0 ML
N
905 30 M
901.65 30 L
S
GR
GS
[0.75 0 0 0.75 423.50002 267] CT
0.149 GC
/Helvetica 13 F
GS
[1 0 0 1 0 0] CT
-9 4.5 moveto 
1 -1 scale
(0) t 
GR
GR
GS
[0.75 0 0 0.75 423.50002 242.55] CT
0.149 GC
/Helvetica 13 F
GS
[1 0 0 1 0 0] CT
-21 4.5 moveto 
1 -1 scale
(0.1) t 
GR
GR
GS
[0.75 0 0 0.75 423.50002 218.09999] CT
0.149 GC
/Helvetica 13 F
GS
[1 0 0 1 0 0] CT
-21 4.5 moveto 
1 -1 scale
(0.2) t 
GR
GR
GS
[0.75 0 0 0.75 423.50002 193.64999] CT
0.149 GC
/Helvetica 13 F
GS
[1 0 0 1 0 0] CT
-21 4.5 moveto 
1 -1 scale
(0.3) t 
GR
GR
GS
[0.75 0 0 0.75 423.50002 169.19999] CT
0.149 GC
/Helvetica 13 F
GS
[1 0 0 1 0 0] CT
-21 4.5 moveto 
1 -1 scale
(0.4) t 
GR
GR
GS
[0.75 0 0 0.75 423.50002 144.75] CT
0.149 GC
/Helvetica 13 F
GS
[1 0 0 1 0 0] CT
-21 4.5 moveto 
1 -1 scale
(0.5) t 
GR
GR
GS
[0.75 0 0 0.75 423.50002 120.3] CT
0.149 GC
/Helvetica 13 F
GS
[1 0 0 1 0 0] CT
-21 4.5 moveto 
1 -1 scale
(0.6) t 
GR
GR
GS
[0.75 0 0 0.75 423.50002 95.85] CT
0.149 GC
/Helvetica 13 F
GS
[1 0 0 1 0 0] CT
-21 4.5 moveto 
1 -1 scale
(0.7) t 
GR
GR
GS
[0.75 0 0 0.75 423.50002 71.4] CT
0.149 GC
/Helvetica 13 F
GS
[1 0 0 1 0 0] CT
-21 4.5 moveto 
1 -1 scale
(0.8) t 
GR
GR
GS
[0.75 0 0 0.75 423.50002 46.95] CT
0.149 GC
/Helvetica 13 F
GS
[1 0 0 1 0 0] CT
-21 4.5 moveto 
1 -1 scale
(0.9) t 
GR
GR
GS
[0.75 0 0 0.75 423.50002 22.5] CT
0.149 GC
/Helvetica 13 F
GS
[1 0 0 1 0 0] CT
-9 4.5 moveto 
1 -1 scale
(1) t 
GR
GR
GS
[0.75 0 0 0.75 0 0] CT
0 0.447 0.741 RC
2 LJ
N
570 167.479 M
572.094 167.479 L
574.188 167.479 L
576.281 167.479 L
578.375 167.479 L
580.469 167.479 L
582.563 167.479 L
584.656 167.479 L
586.75 167.479 L
588.844 167.479 L
590.938 167.479 L
593.031 167.479 L
595.125 167.479 L
597.219 167.479 L
599.313 167.479 L
601.406 167.479 L
603.5 167.479 L
605.594 167.479 L
607.688 167.479 L
609.781 167.479 L
611.875 167.479 L
613.969 167.479 L
616.063 167.479 L
618.156 167.479 L
620.25 167.479 L
622.344 167.479 L
624.438 167.479 L
626.531 167.479 L
628.625 167.479 L
630.719 167.479 L
632.813 167.479 L
634.906 167.479 L
637 167.479 L
639.094 167.479 L
641.188 167.479 L
643.281 167.479 L
645.375 167.479 L
647.469 167.479 L
649.563 167.479 L
651.656 167.479 L
653.75 167.479 L
653.75 282.599 L
655.844 282.599 L
657.938 282.599 L
660.031 282.599 L
662.125 282.599 L
664.219 282.599 L
666.313 282.599 L
668.406 282.599 L
670.5 282.599 L
S
GR
GS
[0.75 0 0 0.75 0 0] CT
0 0.447 0.741 RC
2 LJ
N
670.5 282.599 M
672.594 282.599 L
674.688 282.599 L
676.781 282.599 L
678.875 282.599 L
680.969 282.599 L
683.063 282.599 L
685.156 282.599 L
687.25 282.599 L
689.344 282.599 L
691.438 282.599 L
693.531 282.599 L
695.625 282.599 L
697.719 282.599 L
699.813 282.599 L
701.906 282.599 L
704 282.599 L
706.094 282.599 L
708.188 282.599 L
710.281 282.599 L
712.375 282.599 L
714.469 282.599 L
716.563 282.599 L
718.656 282.599 L
720.75 282.599 L
722.844 282.599 L
724.938 282.599 L
727.031 282.599 L
729.125 282.599 L
731.219 282.599 L
733.313 282.599 L
735.406 282.599 L
737.5 282.599 L
737.5 312.842 L
739.594 312.842 L
741.688 312.842 L
743.781 312.842 L
745.875 312.842 L
747.969 312.842 L
750.063 312.842 L
752.156 312.842 L
754.25 312.842 L
756.344 312.842 L
758.438 312.842 L
760.531 312.842 L
762.625 312.842 L
764.719 312.842 L
766.813 312.842 L
768.906 312.842 L
771 312.842 L
S
GR
GS
[0.75 0 0 0.75 0 0] CT
0 0.447 0.741 RC
2 LJ
N
771 312.842 M
773.094 312.842 L
775.188 312.842 L
777.281 312.842 L
779.375 312.842 L
781.469 312.842 L
783.563 312.842 L
785.656 312.842 L
787.75 312.842 L
789.844 312.842 L
791.938 312.842 L
794.031 312.842 L
796.125 312.842 L
798.219 312.842 L
800.313 312.842 L
802.406 312.842 L
804.5 312.842 L
806.594 312.842 L
808.688 312.842 L
810.781 312.842 L
812.875 312.842 L
814.969 312.842 L
817.063 312.842 L
819.156 312.842 L
821.25 312.842 L
821.25 193.04 L
823.344 193.04 L
825.438 193.04 L
827.531 193.04 L
829.625 193.04 L
831.719 193.04 L
833.813 193.04 L
835.906 193.04 L
838 193.04 L
840.094 193.04 L
842.188 193.04 L
844.281 193.04 L
846.375 193.04 L
848.469 193.04 L
850.563 193.04 L
852.656 193.04 L
854.75 193.04 L
856.844 193.04 L
858.938 193.04 L
861.031 193.04 L
863.125 193.04 L
865.219 193.04 L
867.313 193.04 L
869.406 193.04 L
871.5 193.04 L
S
GR
GS
[0.75 0 0 0.75 0 0] CT
0 0.447 0.741 RC
2 LJ
N
871.5 193.04 M
873.594 193.04 L
875.688 193.04 L
877.781 193.04 L
879.875 193.04 L
881.969 193.04 L
884.063 193.04 L
886.156 193.04 L
888.25 193.04 L
890.344 193.04 L
892.438 193.04 L
894.531 193.04 L
896.625 193.04 L
898.719 193.04 L
900.813 193.04 L
902.906 193.04 L
905 193.04 L
S
GR
%%Trailer
%%BoundingBox: 61 2 681 293
%%Pages: 1
%%EOF
