\contentsline {chapter}{\numberline {1}Ordinary differential equation}{5}{chapter.1}
\contentsline {chapter}{\numberline {2}Implementation in MATLAB}{6}{chapter.2}
\contentsline {chapter}{\numberline {3}Real world application}{8}{chapter.3}
