%!PS-Adobe-3.0 EPSF-3.0
%%Creator: (MATLAB, The Mathworks, Inc. Version 8.5.0.197613 \(R2015a\). Operating System: Linux)
%%Title: (/home/lukas/Dropbox/Universidad/Master/Control Theory/lab5/raport/chapter3/figures/5.eps)
%%CreationDate: 2016-04-18T22:29:54
%%Pages: (atend)
%%BoundingBox: 0 0 750 300
%%LanguageLevel: 2
%%EndComments
%%BeginProlog
%%BeginResource: procset (Apache XML Graphics Std ProcSet) 1.2 0
%%Version: 1.2 0
%%Copyright: (Copyright 2001-2003,2010 The Apache Software Foundation. License terms: http://www.apache.org/licenses/LICENSE-2.0)
/bd{bind def}bind def
/ld{load def}bd
/GR/grestore ld
/M/moveto ld
/LJ/setlinejoin ld
/C/curveto ld
/f/fill ld
/LW/setlinewidth ld
/GC/setgray ld
/t/show ld
/N/newpath ld
/CT/concat ld
/cp/closepath ld
/S/stroke ld
/L/lineto ld
/CC/setcmykcolor ld
/A/ashow ld
/GS/gsave ld
/RC/setrgbcolor ld
/RM/rmoveto ld
/ML/setmiterlimit ld
/re {4 2 roll M
1 index 0 rlineto
0 exch rlineto
neg 0 rlineto
cp } bd
/_ctm matrix def
/_tm matrix def
/BT { _ctm currentmatrix pop matrix _tm copy pop 0 0 moveto } bd
/ET { _ctm setmatrix } bd
/iTm { _ctm setmatrix _tm concat } bd
/Tm { _tm astore pop iTm 0 0 moveto } bd
/ux 0.0 def
/uy 0.0 def
/F {
  /Tp exch def
  /Tf exch def
  Tf findfont Tp scalefont setfont
  /cf Tf def  /cs Tp def
} bd
/ULS {currentpoint /uy exch def /ux exch def} bd
/ULE {
  /Tcx currentpoint pop def
  gsave
  newpath
  cf findfont cs scalefont dup
  /FontMatrix get 0 get /Ts exch def /FontInfo get dup
  /UnderlinePosition get Ts mul /To exch def
  /UnderlineThickness get Ts mul /Tt exch def
  ux uy To add moveto  Tcx uy To add lineto
  Tt setlinewidth stroke
  grestore
} bd
/OLE {
  /Tcx currentpoint pop def
  gsave
  newpath
  cf findfont cs scalefont dup
  /FontMatrix get 0 get /Ts exch def /FontInfo get dup
  /UnderlinePosition get Ts mul /To exch def
  /UnderlineThickness get Ts mul /Tt exch def
  ux uy To add cs add moveto Tcx uy To add cs add lineto
  Tt setlinewidth stroke
  grestore
} bd
/SOE {
  /Tcx currentpoint pop def
  gsave
  newpath
  cf findfont cs scalefont dup
  /FontMatrix get 0 get /Ts exch def /FontInfo get dup
  /UnderlinePosition get Ts mul /To exch def
  /UnderlineThickness get Ts mul /Tt exch def
  ux uy To add cs 10 mul 26 idiv add moveto Tcx uy To add cs 10 mul 26 idiv add lineto
  Tt setlinewidth stroke
  grestore
} bd
/QT {
/Y22 exch store
/X22 exch store
/Y21 exch store
/X21 exch store
currentpoint
/Y21 load 2 mul add 3 div exch
/X21 load 2 mul add 3 div exch
/X21 load 2 mul /X22 load add 3 div
/Y21 load 2 mul /Y22 load add 3 div
/X22 load /Y22 load curveto
} bd
/SSPD {
dup length /d exch dict def
{
/v exch def
/k exch def
currentpagedevice k known {
/cpdv currentpagedevice k get def
v cpdv ne {
/upd false def
/nullv v type /nulltype eq def
/nullcpdv cpdv type /nulltype eq def
nullv nullcpdv or
{
/upd true def
} {
/sametype v type cpdv type eq def
sametype {
v type /arraytype eq {
/vlen v length def
/cpdvlen cpdv length def
vlen cpdvlen eq {
0 1 vlen 1 sub {
/i exch def
/obj v i get def
/cpdobj cpdv i get def
obj cpdobj ne {
/upd true def
exit
} if
} for
} {
/upd true def
} ifelse
} {
v type /dicttype eq {
v {
/dv exch def
/dk exch def
/cpddv cpdv dk get def
dv cpddv ne {
/upd true def
exit
} if
} forall
} {
/upd true def
} ifelse
} ifelse
} if
} ifelse
upd true eq {
d k v put
} if
} if
} if
} forall
d length 0 gt {
d setpagedevice
} if
} bd
%%EndResource
%%BeginResource: procset (Apache XML Graphics EPS ProcSet) 1.0 0
%%Version: 1.0 0
%%Copyright: (Copyright 2002-2003 The Apache Software Foundation. License terms: http://www.apache.org/licenses/LICENSE-2.0)
/BeginEPSF { %def
/b4_Inc_state save def         % Save state for cleanup
/dict_count countdictstack def % Count objects on dict stack
/op_count count 1 sub def      % Count objects on operand stack
userdict begin                 % Push userdict on dict stack
/showpage { } def              % Redefine showpage, { } = null proc
0 setgray 0 setlinecap         % Prepare graphics state
1 setlinewidth 0 setlinejoin
10 setmiterlimit [ ] 0 setdash newpath
/languagelevel where           % If level not equal to 1 then
{pop languagelevel             % set strokeadjust and
1 ne                           % overprint to their defaults.
{false setstrokeadjust false setoverprint
} if
} if
} bd
/EndEPSF { %def
count op_count sub {pop} repeat            % Clean up stacks
countdictstack dict_count sub {end} repeat
b4_Inc_state restore
} bd
%%EndResource
%FOPBeginFontDict
%%IncludeResource: font Courier-Bold
%%IncludeResource: font Helvetica
%%IncludeResource: font Courier-BoldOblique
%%IncludeResource: font Courier-Oblique
%%IncludeResource: font Times-Roman
%%IncludeResource: font Helvetica-BoldOblique
%%IncludeResource: font Helvetica-Bold
%%IncludeResource: font Helvetica-Oblique
%%IncludeResource: font Times-BoldItalic
%%IncludeResource: font Courier
%%IncludeResource: font Times-Italic
%%IncludeResource: font Times-Bold
%%IncludeResource: font Symbol
%%IncludeResource: font ZapfDingbats
%FOPEndFontDict
%%BeginResource: encoding WinAnsiEncoding
/WinAnsiEncoding [
/.notdef /.notdef /.notdef /.notdef /.notdef
/.notdef /.notdef /.notdef /.notdef /.notdef
/.notdef /.notdef /.notdef /.notdef /.notdef
/.notdef /.notdef /.notdef /.notdef /.notdef
/.notdef /.notdef /.notdef /.notdef /.notdef
/.notdef /.notdef /.notdef /.notdef /.notdef
/.notdef /.notdef /space /exclam /quotedbl
/numbersign /dollar /percent /ampersand /quotesingle
/parenleft /parenright /asterisk /plus /comma
/hyphen /period /slash /zero /one
/two /three /four /five /six
/seven /eight /nine /colon /semicolon
/less /equal /greater /question /at
/A /B /C /D /E
/F /G /H /I /J
/K /L /M /N /O
/P /Q /R /S /T
/U /V /W /X /Y
/Z /bracketleft /backslash /bracketright /asciicircum
/underscore /quoteleft /a /b /c
/d /e /f /g /h
/i /j /k /l /m
/n /o /p /q /r
/s /t /u /v /w
/x /y /z /braceleft /bar
/braceright /asciitilde /bullet /Euro /bullet
/quotesinglbase /florin /quotedblbase /ellipsis /dagger
/daggerdbl /circumflex /perthousand /Scaron /guilsinglleft
/OE /bullet /Zcaron /bullet /bullet
/quoteleft /quoteright /quotedblleft /quotedblright /bullet
/endash /emdash /asciitilde /trademark /scaron
/guilsinglright /oe /bullet /zcaron /Ydieresis
/space /exclamdown /cent /sterling /currency
/yen /brokenbar /section /dieresis /copyright
/ordfeminine /guillemotleft /logicalnot /sfthyphen /registered
/macron /degree /plusminus /twosuperior /threesuperior
/acute /mu /paragraph /middot /cedilla
/onesuperior /ordmasculine /guillemotright /onequarter /onehalf
/threequarters /questiondown /Agrave /Aacute /Acircumflex
/Atilde /Adieresis /Aring /AE /Ccedilla
/Egrave /Eacute /Ecircumflex /Edieresis /Igrave
/Iacute /Icircumflex /Idieresis /Eth /Ntilde
/Ograve /Oacute /Ocircumflex /Otilde /Odieresis
/multiply /Oslash /Ugrave /Uacute /Ucircumflex
/Udieresis /Yacute /Thorn /germandbls /agrave
/aacute /acircumflex /atilde /adieresis /aring
/ae /ccedilla /egrave /eacute /ecircumflex
/edieresis /igrave /iacute /icircumflex /idieresis
/eth /ntilde /ograve /oacute /ocircumflex
/otilde /odieresis /divide /oslash /ugrave
/uacute /ucircumflex /udieresis /yacute /thorn
/ydieresis
] def
%%EndResource
%FOPBeginFontReencode
/Courier-Bold findfont
dup length dict begin
  {1 index /FID ne {def} {pop pop} ifelse} forall
  /Encoding WinAnsiEncoding def
  currentdict
end
/Courier-Bold exch definefont pop
/Helvetica findfont
dup length dict begin
  {1 index /FID ne {def} {pop pop} ifelse} forall
  /Encoding WinAnsiEncoding def
  currentdict
end
/Helvetica exch definefont pop
/Courier-BoldOblique findfont
dup length dict begin
  {1 index /FID ne {def} {pop pop} ifelse} forall
  /Encoding WinAnsiEncoding def
  currentdict
end
/Courier-BoldOblique exch definefont pop
/Courier-Oblique findfont
dup length dict begin
  {1 index /FID ne {def} {pop pop} ifelse} forall
  /Encoding WinAnsiEncoding def
  currentdict
end
/Courier-Oblique exch definefont pop
/Times-Roman findfont
dup length dict begin
  {1 index /FID ne {def} {pop pop} ifelse} forall
  /Encoding WinAnsiEncoding def
  currentdict
end
/Times-Roman exch definefont pop
/Helvetica-BoldOblique findfont
dup length dict begin
  {1 index /FID ne {def} {pop pop} ifelse} forall
  /Encoding WinAnsiEncoding def
  currentdict
end
/Helvetica-BoldOblique exch definefont pop
/Helvetica-Bold findfont
dup length dict begin
  {1 index /FID ne {def} {pop pop} ifelse} forall
  /Encoding WinAnsiEncoding def
  currentdict
end
/Helvetica-Bold exch definefont pop
/Helvetica-Oblique findfont
dup length dict begin
  {1 index /FID ne {def} {pop pop} ifelse} forall
  /Encoding WinAnsiEncoding def
  currentdict
end
/Helvetica-Oblique exch definefont pop
/Times-BoldItalic findfont
dup length dict begin
  {1 index /FID ne {def} {pop pop} ifelse} forall
  /Encoding WinAnsiEncoding def
  currentdict
end
/Times-BoldItalic exch definefont pop
/Courier findfont
dup length dict begin
  {1 index /FID ne {def} {pop pop} ifelse} forall
  /Encoding WinAnsiEncoding def
  currentdict
end
/Courier exch definefont pop
/Times-Italic findfont
dup length dict begin
  {1 index /FID ne {def} {pop pop} ifelse} forall
  /Encoding WinAnsiEncoding def
  currentdict
end
/Times-Italic exch definefont pop
/Times-Bold findfont
dup length dict begin
  {1 index /FID ne {def} {pop pop} ifelse} forall
  /Encoding WinAnsiEncoding def
  currentdict
end
/Times-Bold exch definefont pop
%FOPEndFontReencode
%%EndProlog
%%Page: 1 1
%%PageBoundingBox: 0 0 750 300
%%BeginPageSetup
[1 0 0 -1 0 300] CT
%%EndPageSetup
GS
[0.75 0 0 0.75 0 0] CT
1 GC
N
0 0 1000 400 re
f
GR
GS
[0.75 0 0 0.75 0 0] CT
1 GC
N
0 0 1000 400 re
f
GR
GS
[0.75 0 0 0.75 0 0] CT
1 GC
N
130 356 M
465 356 L
465 30 L
130 30 L
cp
f
GR
GS
[0.75 0 0 0.75 223.12511 284.74999] CT
0.149 GC
/Helvetica 15 F
GS
[1 0 0 1 0 0] CT
-30 14 moveto 
1 -1 scale
(time \(h\)) t 
GR
GR
GS
[0.75 0 0 0.75 0 0] CT
0.149 GC
2 setlinecap
10.0 ML
N
130 356 M
465 356 L
S
GR
GS
[0.75 0 0 0.75 0 0] CT
0.149 GC
2 setlinecap
10.0 ML
N
130 30 M
465 30 L
S
GR
GS
[0.75 0 0 0.75 0 0] CT
0.149 GC
2 setlinecap
10.0 ML
N
130 356 M
130 352.65 L
S
GR
GS
[0.75 0 0 0.75 0 0] CT
0.149 GC
2 setlinecap
10.0 ML
N
197 356 M
197 352.65 L
S
GR
GS
[0.75 0 0 0.75 0 0] CT
0.149 GC
2 setlinecap
10.0 ML
N
264 356 M
264 352.65 L
S
GR
GS
[0.75 0 0 0.75 0 0] CT
0.149 GC
2 setlinecap
10.0 ML
N
331 356 M
331 352.65 L
S
GR
GS
[0.75 0 0 0.75 0 0] CT
0.149 GC
2 setlinecap
10.0 ML
N
398 356 M
398 352.65 L
S
GR
GS
[0.75 0 0 0.75 0 0] CT
0.149 GC
2 setlinecap
10.0 ML
N
465 356 M
465 352.65 L
S
GR
GS
[0.75 0 0 0.75 0 0] CT
0.149 GC
2 setlinecap
10.0 ML
N
130 30 M
130 33.35 L
S
GR
GS
[0.75 0 0 0.75 0 0] CT
0.149 GC
2 setlinecap
10.0 ML
N
197 30 M
197 33.35 L
S
GR
GS
[0.75 0 0 0.75 0 0] CT
0.149 GC
2 setlinecap
10.0 ML
N
264 30 M
264 33.35 L
S
GR
GS
[0.75 0 0 0.75 0 0] CT
0.149 GC
2 setlinecap
10.0 ML
N
331 30 M
331 33.35 L
S
GR
GS
[0.75 0 0 0.75 0 0] CT
0.149 GC
2 setlinecap
10.0 ML
N
398 30 M
398 33.35 L
S
GR
GS
[0.75 0 0 0.75 0 0] CT
0.149 GC
2 setlinecap
10.0 ML
N
465 30 M
465 33.35 L
S
GR
GS
[0.75 0 0 0.75 97.5 271.00001] CT
0.149 GC
/Helvetica 13 F
GS
[1 0 0 1 0 0] CT
-4.5 13 moveto 
1 -1 scale
(0) t 
GR
GR
GS
[0.75 0 0 0.75 147.75 271.00001] CT
0.149 GC
/Helvetica 13 F
GS
[1 0 0 1 0 0] CT
-4.5 13 moveto 
1 -1 scale
(5) t 
GR
GR
GS
[0.75 0 0 0.75 198 271.00001] CT
0.149 GC
/Helvetica 13 F
GS
[1 0 0 1 0 0] CT
-8.5 13 moveto 
1 -1 scale
(10) t 
GR
GR
GS
[0.75 0 0 0.75 248.25 271.00001] CT
0.149 GC
/Helvetica 13 F
GS
[1 0 0 1 0 0] CT
-8.5 13 moveto 
1 -1 scale
(15) t 
GR
GR
GS
[0.75 0 0 0.75 298.5 271.00001] CT
0.149 GC
/Helvetica 13 F
GS
[1 0 0 1 0 0] CT
-8.5 13 moveto 
1 -1 scale
(20) t 
GR
GR
GS
[0.75 0 0 0.75 348.75 271.00001] CT
0.149 GC
/Helvetica 13 F
GS
[1 0 0 1 0 0] CT
-8.5 13 moveto 
1 -1 scale
(25) t 
GR
GR
GS
[0 -0.75 0.75 0 77.75 144.74989] CT
0.149 GC
/Helvetica 15 F
GS
[1 0 0 1 0 0] CT
-5 -4 moveto 
1 -1 scale
(u) t 
GR
GR
GS
[0.75 0 0 0.75 0 0] CT
0.149 GC
2 setlinecap
10.0 ML
N
130 356 M
130 30 L
S
GR
GS
[0.75 0 0 0.75 0 0] CT
0.149 GC
2 setlinecap
10.0 ML
N
465 356 M
465 30 L
S
GR
GS
[0.75 0 0 0.75 0 0] CT
0.149 GC
2 setlinecap
10.0 ML
N
130 356 M
133.35 356 L
S
GR
GS
[0.75 0 0 0.75 0 0] CT
0.149 GC
2 setlinecap
10.0 ML
N
130 301.667 M
133.35 301.667 L
S
GR
GS
[0.75 0 0 0.75 0 0] CT
0.149 GC
2 setlinecap
10.0 ML
N
130 247.333 M
133.35 247.333 L
S
GR
GS
[0.75 0 0 0.75 0 0] CT
0.149 GC
2 setlinecap
10.0 ML
N
130 193 M
133.35 193 L
S
GR
GS
[0.75 0 0 0.75 0 0] CT
0.149 GC
2 setlinecap
10.0 ML
N
130 138.667 M
133.35 138.667 L
S
GR
GS
[0.75 0 0 0.75 0 0] CT
0.149 GC
2 setlinecap
10.0 ML
N
130 84.333 M
133.35 84.333 L
S
GR
GS
[0.75 0 0 0.75 0 0] CT
0.149 GC
2 setlinecap
10.0 ML
N
130 30 M
133.35 30 L
S
GR
GS
[0.75 0 0 0.75 0 0] CT
0.149 GC
2 setlinecap
10.0 ML
N
465 356 M
461.65 356 L
S
GR
GS
[0.75 0 0 0.75 0 0] CT
0.149 GC
2 setlinecap
10.0 ML
N
465 301.667 M
461.65 301.667 L
S
GR
GS
[0.75 0 0 0.75 0 0] CT
0.149 GC
2 setlinecap
10.0 ML
N
465 247.333 M
461.65 247.333 L
S
GR
GS
[0.75 0 0 0.75 0 0] CT
0.149 GC
2 setlinecap
10.0 ML
N
465 193 M
461.65 193 L
S
GR
GS
[0.75 0 0 0.75 0 0] CT
0.149 GC
2 setlinecap
10.0 ML
N
465 138.667 M
461.65 138.667 L
S
GR
GS
[0.75 0 0 0.75 0 0] CT
0.149 GC
2 setlinecap
10.0 ML
N
465 84.333 M
461.65 84.333 L
S
GR
GS
[0.75 0 0 0.75 0 0] CT
0.149 GC
2 setlinecap
10.0 ML
N
465 30 M
461.65 30 L
S
GR
GS
[0.75 0 0 0.75 93.5 267] CT
0.149 GC
/Helvetica 13 F
GS
[1 0 0 1 0 0] CT
-9 4.5 moveto 
1 -1 scale
(0) t 
GR
GR
GS
[0.75 0 0 0.75 93.5 226.24999] CT
0.149 GC
/Helvetica 13 F
GS
[1 0 0 1 0 0] CT
-9 4.5 moveto 
1 -1 scale
(2) t 
GR
GR
GS
[0.75 0 0 0.75 93.5 185.5] CT
0.149 GC
/Helvetica 13 F
GS
[1 0 0 1 0 0] CT
-9 4.5 moveto 
1 -1 scale
(4) t 
GR
GR
GS
[0.75 0 0 0.75 93.5 144.75] CT
0.149 GC
/Helvetica 13 F
GS
[1 0 0 1 0 0] CT
-9 4.5 moveto 
1 -1 scale
(6) t 
GR
GR
GS
[0.75 0 0 0.75 93.5 104] CT
0.149 GC
/Helvetica 13 F
GS
[1 0 0 1 0 0] CT
-9 4.5 moveto 
1 -1 scale
(8) t 
GR
GR
GS
[0.75 0 0 0.75 93.5 63.25] CT
0.149 GC
/Helvetica 13 F
GS
[1 0 0 1 0 0] CT
-17 4.5 moveto 
1 -1 scale
(10) t 
GR
GR
GS
[0.75 0 0 0.75 93.5 22.5] CT
0.149 GC
/Helvetica 13 F
GS
[1 0 0 1 0 0] CT
-17 4.5 moveto 
1 -1 scale
(12) t 
GR
GR
GS
[0.75 0 0 0.75 0 0] CT
0 0.447 0.741 RC
2 LJ
N
130 165.833 M
130.001 165.833 L
130.001 165.833 L
130.002 165.833 L
130.003 165.833 L
130.006 165.833 L
130.009 165.833 L
130.013 165.833 L
130.016 165.833 L
130.033 165.833 L
130.05 165.833 L
130.067 165.833 L
130.084 165.833 L
130.168 165.833 L
130.253 165.833 L
130.337 165.833 L
130.421 165.833 L
130.756 165.833 L
131.091 165.833 L
131.426 165.833 L
131.761 165.833 L
132.096 165.833 L
132.431 165.833 L
132.766 165.833 L
133.101 165.833 L
133.436 165.833 L
133.771 165.833 L
134.106 165.833 L
134.441 165.833 L
134.776 165.833 L
135.111 165.833 L
135.446 165.833 L
135.781 165.833 L
136.116 165.833 L
136.451 165.833 L
136.786 165.833 L
137.121 165.833 L
137.456 165.833 L
137.791 165.833 L
138.126 165.833 L
138.461 165.833 L
138.796 165.833 L
139.131 165.833 L
139.466 165.833 L
139.801 165.833 L
140.136 165.833 L
140.471 165.833 L
140.806 165.833 L
141.141 165.833 L
141.476 165.833 L
S
GR
GS
[0.75 0 0 0.75 0 0] CT
0 0.447 0.741 RC
2 LJ
N
141.476 165.833 M
141.811 165.833 L
142.146 165.833 L
142.481 165.833 L
142.711 165.833 L
142.941 165.833 L
143.17 165.833 L
143.4 165.833 L
143.4 111.5 L
144.396 111.5 L
145.392 111.5 L
146.389 111.5 L
147.385 111.5 L
148.725 111.5 L
150.065 111.5 L
151.405 111.5 L
152.745 111.5 L
154.085 111.5 L
155.425 111.5 L
156.765 111.5 L
158.105 111.5 L
159.445 111.5 L
160.785 111.5 L
162.125 111.5 L
163.465 111.5 L
164.805 111.5 L
166.145 111.5 L
167.485 111.5 L
168.825 111.5 L
170.165 111.5 L
171.505 111.5 L
172.845 111.5 L
174.185 111.5 L
175.525 111.5 L
176.865 111.5 L
178.205 111.5 L
179.545 111.5 L
180.885 111.5 L
182.225 111.5 L
183.565 111.5 L
184.905 111.5 L
186.245 111.5 L
187.585 111.5 L
188.925 111.5 L
190.265 111.5 L
191.605 111.5 L
192.945 111.5 L
194.285 111.5 L
195.625 111.5 L
195.969 111.5 L
S
GR
GS
[0.75 0 0 0.75 0 0] CT
0 0.447 0.741 RC
2 LJ
N
195.969 111.5 M
196.312 111.5 L
196.656 111.5 L
197 111.5 L
197 84.333 L
198.675 84.333 L
200.35 84.333 L
202.025 84.333 L
203.7 84.333 L
205.375 84.333 L
207.05 84.333 L
208.725 84.333 L
210.4 84.333 L
212.075 84.333 L
213.75 84.333 L
215.425 84.333 L
217.1 84.333 L
218.775 84.333 L
220.45 84.333 L
222.125 84.333 L
223.8 84.333 L
225.475 84.333 L
227.15 84.333 L
228.825 84.333 L
230.5 84.333 L
232.175 84.333 L
233.85 84.333 L
235.525 84.333 L
237.2 84.333 L
238.875 84.333 L
240.55 84.333 L
242.225 84.333 L
243.9 84.333 L
245.575 84.333 L
247.25 84.333 L
248.925 84.333 L
250.6 84.333 L
252.275 84.333 L
253.95 84.333 L
255.625 84.333 L
257.3 84.333 L
258.975 84.333 L
260.65 84.333 L
262.325 84.333 L
264 84.333 L
264 138.667 L
265.675 138.667 L
267.35 138.667 L
269.025 138.667 L
270.7 138.667 L
S
GR
GS
[0.75 0 0 0.75 0 0] CT
0 0.447 0.741 RC
2 LJ
N
270.7 138.667 M
272.375 138.667 L
274.05 138.667 L
275.725 138.667 L
277.4 138.667 L
279.075 138.667 L
280.75 138.667 L
282.425 138.667 L
284.1 138.667 L
285.775 138.667 L
287.45 138.667 L
289.125 138.667 L
290.8 138.667 L
292.475 138.667 L
294.15 138.667 L
295.825 138.667 L
297.5 138.667 L
299.175 138.667 L
300.85 138.667 L
302.525 138.667 L
304.2 138.667 L
305.875 138.667 L
307.55 138.667 L
309.225 138.667 L
310.9 138.667 L
312.575 138.667 L
314.25 138.667 L
315.925 138.667 L
317.6 138.667 L
319.275 138.667 L
320.95 138.667 L
322.625 138.667 L
324.3 138.667 L
325.975 138.667 L
327.65 138.667 L
329.325 138.667 L
331 138.667 L
331 165.833 L
332.675 165.833 L
334.35 165.833 L
336.025 165.833 L
337.7 165.833 L
339.375 165.833 L
341.05 165.833 L
342.725 165.833 L
344.4 165.833 L
346.075 165.833 L
347.75 165.833 L
349.425 165.833 L
351.1 165.833 L
S
GR
GS
[0.75 0 0 0.75 0 0] CT
0 0.447 0.741 RC
2 LJ
N
351.1 165.833 M
352.775 165.833 L
354.45 165.833 L
356.125 165.833 L
357.8 165.833 L
359.475 165.833 L
361.15 165.833 L
362.825 165.833 L
364.5 165.833 L
366.175 165.833 L
367.85 165.833 L
369.525 165.833 L
371.2 165.833 L
372.875 165.833 L
374.55 165.833 L
376.225 165.833 L
377.9 165.833 L
379.575 165.833 L
381.25 165.833 L
382.925 165.833 L
384.6 165.833 L
386.275 165.833 L
387.95 165.833 L
389.625 165.833 L
391.3 165.833 L
392.975 165.833 L
394.65 165.833 L
396.325 165.833 L
398 165.833 L
398 247.333 L
399.675 247.333 L
401.35 247.333 L
403.025 247.333 L
404.7 247.333 L
406.375 247.333 L
408.05 247.333 L
409.725 247.333 L
411.4 247.333 L
413.075 247.333 L
414.75 247.333 L
416.425 247.333 L
418.1 247.333 L
419.775 247.333 L
421.45 247.333 L
423.125 247.333 L
424.8 247.333 L
426.475 247.333 L
428.15 247.333 L
429.825 247.333 L
431.5 247.333 L
S
GR
GS
[0.75 0 0 0.75 0 0] CT
0 0.447 0.741 RC
2 LJ
N
431.5 247.333 M
433.175 247.333 L
434.85 247.333 L
436.525 247.333 L
438.2 247.333 L
439.875 247.333 L
441.55 247.333 L
443.225 247.333 L
444.9 247.333 L
446.575 247.333 L
448.25 247.333 L
449.925 247.333 L
451.6 247.333 L
453.275 247.333 L
454.95 247.333 L
456.625 247.333 L
458.3 247.333 L
459.975 247.333 L
461.65 247.333 L
463.325 247.333 L
465 247.333 L
S
GR
GS
[0.75 0 0 0.75 0 0] CT
1 GC
N
570 356 M
905 356 L
905 30 L
570 30 L
cp
f
GR
GS
[0.75 0 0 0.75 0 0] CT
0.873 GC
2 LJ
N
570 356 M
570 30 L
S
GR
GS
[0.75 0 0 0.75 0 0] CT
0.873 GC
2 LJ
N
637 356 M
637 30 L
S
GR
GS
[0.75 0 0 0.75 0 0] CT
0.873 GC
2 LJ
N
704 356 M
704 30 L
S
GR
GS
[0.75 0 0 0.75 0 0] CT
0.873 GC
2 LJ
N
771 356 M
771 30 L
S
GR
GS
[0.75 0 0 0.75 0 0] CT
0.873 GC
2 LJ
N
838 356 M
838 30 L
S
GR
GS
[0.75 0 0 0.75 0 0] CT
0.873 GC
2 LJ
N
905 356 M
905 30 L
S
GR
GS
[0.75 0 0 0.75 0 0] CT
0.873 GC
2 LJ
N
905 356 M
570 356 L
S
GR
GS
[0.75 0 0 0.75 0 0] CT
0.873 GC
2 LJ
N
905 323.4 M
570 323.4 L
S
GR
GS
[0.75 0 0 0.75 0 0] CT
0.873 GC
2 LJ
N
905 290.8 M
570 290.8 L
S
GR
GS
[0.75 0 0 0.75 0 0] CT
0.873 GC
2 LJ
N
905 258.2 M
570 258.2 L
S
GR
GS
[0.75 0 0 0.75 0 0] CT
0.873 GC
2 LJ
N
905 225.6 M
570 225.6 L
S
GR
GS
[0.75 0 0 0.75 0 0] CT
0.873 GC
2 LJ
N
905 193 M
570 193 L
S
GR
GS
[0.75 0 0 0.75 0 0] CT
0.873 GC
2 LJ
N
905 160.4 M
570 160.4 L
S
GR
GS
[0.75 0 0 0.75 0 0] CT
0.873 GC
2 LJ
N
905 127.8 M
570 127.8 L
S
GR
GS
[0.75 0 0 0.75 0 0] CT
0.873 GC
2 LJ
N
905 95.2 M
570 95.2 L
S
GR
GS
[0.75 0 0 0.75 0 0] CT
0.873 GC
2 LJ
N
905 62.6 M
570 62.6 L
S
GR
GS
[0.75 0 0 0.75 0 0] CT
0.873 GC
2 LJ
N
905 30 M
570 30 L
S
GR
GS
[0.75 0 0 0.75 553.12514 284.74999] CT
0.149 GC
/Helvetica 15 F
GS
[1 0 0 1 0 0] CT
-30 14 moveto 
1 -1 scale
(time \(h\)) t 
GR
GR
GS
[0.75 0 0 0.75 0 0] CT
0.149 GC
2 LJ
N
570 356 M
905 356 L
S
GR
GS
[0.75 0 0 0.75 0 0] CT
0.149 GC
2 LJ
N
570 30 M
905 30 L
S
GR
GS
[0.75 0 0 0.75 0 0] CT
0.149 GC
2 LJ
N
570 356 M
570 352.65 L
S
GR
GS
[0.75 0 0 0.75 0 0] CT
0.149 GC
2 LJ
N
637 356 M
637 352.65 L
S
GR
GS
[0.75 0 0 0.75 0 0] CT
0.149 GC
2 LJ
N
704 356 M
704 352.65 L
S
GR
GS
[0.75 0 0 0.75 0 0] CT
0.149 GC
2 LJ
N
771 356 M
771 352.65 L
S
GR
GS
[0.75 0 0 0.75 0 0] CT
0.149 GC
2 LJ
N
838 356 M
838 352.65 L
S
GR
GS
[0.75 0 0 0.75 0 0] CT
0.149 GC
2 LJ
N
905 356 M
905 352.65 L
S
GR
GS
[0.75 0 0 0.75 0 0] CT
0.149 GC
2 LJ
N
570 30 M
570 33.35 L
S
GR
GS
[0.75 0 0 0.75 0 0] CT
0.149 GC
2 LJ
N
637 30 M
637 33.35 L
S
GR
GS
[0.75 0 0 0.75 0 0] CT
0.149 GC
2 LJ
N
704 30 M
704 33.35 L
S
GR
GS
[0.75 0 0 0.75 0 0] CT
0.149 GC
2 LJ
N
771 30 M
771 33.35 L
S
GR
GS
[0.75 0 0 0.75 0 0] CT
0.149 GC
2 LJ
N
838 30 M
838 33.35 L
S
GR
GS
[0.75 0 0 0.75 0 0] CT
0.149 GC
2 LJ
N
905 30 M
905 33.35 L
S
GR
GS
[0.75 0 0 0.75 427.5 271.00001] CT
0.149 GC
/Helvetica 13 F
GS
[1 0 0 1 0 0] CT
-4.5 13 moveto 
1 -1 scale
(0) t 
GR
GR
GS
[0.75 0 0 0.75 477.75 271.00001] CT
0.149 GC
/Helvetica 13 F
GS
[1 0 0 1 0 0] CT
-4.5 13 moveto 
1 -1 scale
(5) t 
GR
GR
GS
[0.75 0 0 0.75 528 271.00001] CT
0.149 GC
/Helvetica 13 F
GS
[1 0 0 1 0 0] CT
-8.5 13 moveto 
1 -1 scale
(10) t 
GR
GR
GS
[0.75 0 0 0.75 578.25 271.00001] CT
0.149 GC
/Helvetica 13 F
GS
[1 0 0 1 0 0] CT
-8.5 13 moveto 
1 -1 scale
(15) t 
GR
GR
GS
[0.75 0 0 0.75 628.5 271.00001] CT
0.149 GC
/Helvetica 13 F
GS
[1 0 0 1 0 0] CT
-8.5 13 moveto 
1 -1 scale
(20) t 
GR
GR
GS
[0.75 0 0 0.75 678.75 271.00001] CT
0.149 GC
/Helvetica 13 F
GS
[1 0 0 1 0 0] CT
-8.5 13 moveto 
1 -1 scale
(25) t 
GR
GR
GS
[0 -0.75 0.75 0 401.75002 144.74989] CT
0.149 GC
/Helvetica 15 F
GS
[1 0 0 1 0 0] CT
-4.5 -4 moveto 
1 -1 scale
(x) t 
GR
GR
GS
[0.75 0 0 0.75 0 0] CT
0.149 GC
2 setlinecap
10.0 ML
N
570 356 M
570 30 L
S
GR
GS
[0.75 0 0 0.75 0 0] CT
0.149 GC
2 setlinecap
10.0 ML
N
905 356 M
905 30 L
S
GR
GS
[0.75 0 0 0.75 0 0] CT
0.149 GC
2 setlinecap
10.0 ML
N
570 356 M
573.35 356 L
S
GR
GS
[0.75 0 0 0.75 0 0] CT
0.149 GC
2 setlinecap
10.0 ML
N
570 323.4 M
573.35 323.4 L
S
GR
GS
[0.75 0 0 0.75 0 0] CT
0.149 GC
2 setlinecap
10.0 ML
N
570 290.8 M
573.35 290.8 L
S
GR
GS
[0.75 0 0 0.75 0 0] CT
0.149 GC
2 setlinecap
10.0 ML
N
570 258.2 M
573.35 258.2 L
S
GR
GS
[0.75 0 0 0.75 0 0] CT
0.149 GC
2 setlinecap
10.0 ML
N
570 225.6 M
573.35 225.6 L
S
GR
GS
[0.75 0 0 0.75 0 0] CT
0.149 GC
2 setlinecap
10.0 ML
N
570 193 M
573.35 193 L
S
GR
GS
[0.75 0 0 0.75 0 0] CT
0.149 GC
2 setlinecap
10.0 ML
N
570 160.4 M
573.35 160.4 L
S
GR
GS
[0.75 0 0 0.75 0 0] CT
0.149 GC
2 setlinecap
10.0 ML
N
570 127.8 M
573.35 127.8 L
S
GR
GS
[0.75 0 0 0.75 0 0] CT
0.149 GC
2 setlinecap
10.0 ML
N
570 95.2 M
573.35 95.2 L
S
GR
GS
[0.75 0 0 0.75 0 0] CT
0.149 GC
2 setlinecap
10.0 ML
N
570 62.6 M
573.35 62.6 L
S
GR
GS
[0.75 0 0 0.75 0 0] CT
0.149 GC
2 setlinecap
10.0 ML
N
570 30 M
573.35 30 L
S
GR
GS
[0.75 0 0 0.75 0 0] CT
0.149 GC
2 setlinecap
10.0 ML
N
905 356 M
901.65 356 L
S
GR
GS
[0.75 0 0 0.75 0 0] CT
0.149 GC
2 setlinecap
10.0 ML
N
905 323.4 M
901.65 323.4 L
S
GR
GS
[0.75 0 0 0.75 0 0] CT
0.149 GC
2 setlinecap
10.0 ML
N
905 290.8 M
901.65 290.8 L
S
GR
GS
[0.75 0 0 0.75 0 0] CT
0.149 GC
2 setlinecap
10.0 ML
N
905 258.2 M
901.65 258.2 L
S
GR
GS
[0.75 0 0 0.75 0 0] CT
0.149 GC
2 setlinecap
10.0 ML
N
905 225.6 M
901.65 225.6 L
S
GR
GS
[0.75 0 0 0.75 0 0] CT
0.149 GC
2 setlinecap
10.0 ML
N
905 193 M
901.65 193 L
S
GR
GS
[0.75 0 0 0.75 0 0] CT
0.149 GC
2 setlinecap
10.0 ML
N
905 160.4 M
901.65 160.4 L
S
GR
GS
[0.75 0 0 0.75 0 0] CT
0.149 GC
2 setlinecap
10.0 ML
N
905 127.8 M
901.65 127.8 L
S
GR
GS
[0.75 0 0 0.75 0 0] CT
0.149 GC
2 setlinecap
10.0 ML
N
905 95.2 M
901.65 95.2 L
S
GR
GS
[0.75 0 0 0.75 0 0] CT
0.149 GC
2 setlinecap
10.0 ML
N
905 62.6 M
901.65 62.6 L
S
GR
GS
[0.75 0 0 0.75 0 0] CT
0.149 GC
2 setlinecap
10.0 ML
N
905 30 M
901.65 30 L
S
GR
GS
[0.75 0 0 0.75 423.50002 267] CT
0.149 GC
/Helvetica 13 F
GS
[1 0 0 1 0 0] CT
-9 4.5 moveto 
1 -1 scale
(0) t 
GR
GR
GS
[0.75 0 0 0.75 423.50002 242.55] CT
0.149 GC
/Helvetica 13 F
GS
[1 0 0 1 0 0] CT
-17 4.5 moveto 
1 -1 scale
(20) t 
GR
GR
GS
[0.75 0 0 0.75 423.50002 218.09999] CT
0.149 GC
/Helvetica 13 F
GS
[1 0 0 1 0 0] CT
-17 4.5 moveto 
1 -1 scale
(40) t 
GR
GR
GS
[0.75 0 0 0.75 423.50002 193.65001] CT
0.149 GC
/Helvetica 13 F
GS
[1 0 0 1 0 0] CT
-17 4.5 moveto 
1 -1 scale
(60) t 
GR
GR
GS
[0.75 0 0 0.75 423.50002 169.2] CT
0.149 GC
/Helvetica 13 F
GS
[1 0 0 1 0 0] CT
-17 4.5 moveto 
1 -1 scale
(80) t 
GR
GR
GS
[0.75 0 0 0.75 423.50002 144.75] CT
0.149 GC
/Helvetica 13 F
GS
[1 0 0 1 0 0] CT
-25 4.5 moveto 
1 -1 scale
(100) t 
GR
GR
GS
[0.75 0 0 0.75 423.50002 120.3] CT
0.149 GC
/Helvetica 13 F
GS
[1 0 0 1 0 0] CT
-25 4.5 moveto 
1 -1 scale
(120) t 
GR
GR
GS
[0.75 0 0 0.75 423.50002 95.85] CT
0.149 GC
/Helvetica 13 F
GS
[1 0 0 1 0 0] CT
-25 4.5 moveto 
1 -1 scale
(140) t 
GR
GR
GS
[0.75 0 0 0.75 423.50002 71.4] CT
0.149 GC
/Helvetica 13 F
GS
[1 0 0 1 0 0] CT
-25 4.5 moveto 
1 -1 scale
(160) t 
GR
GR
GS
[0.75 0 0 0.75 423.50002 46.95] CT
0.149 GC
/Helvetica 13 F
GS
[1 0 0 1 0 0] CT
-25 4.5 moveto 
1 -1 scale
(180) t 
GR
GR
GS
[0.75 0 0 0.75 423.50002 22.5] CT
0.149 GC
/Helvetica 13 F
GS
[1 0 0 1 0 0] CT
-25 4.5 moveto 
1 -1 scale
(200) t 
GR
GR
GS
[0.75 0 0 0.75 0 0] CT
0 0.447 0.741 RC
2 LJ
N
570 354.37 M
570.001 354.37 L
570.001 354.37 L
570.002 354.37 L
570.003 354.37 L
570.006 354.37 L
570.009 354.37 L
570.013 354.37 L
570.016 354.371 L
570.033 354.371 L
570.05 354.372 L
570.067 354.372 L
570.084 354.373 L
570.168 354.376 L
570.253 354.379 L
570.337 354.382 L
570.421 354.385 L
570.756 354.396 L
571.091 354.406 L
571.426 354.416 L
571.761 354.426 L
572.096 354.435 L
572.431 354.443 L
572.766 354.452 L
573.101 354.46 L
573.436 354.467 L
573.771 354.474 L
574.106 354.481 L
574.441 354.488 L
574.776 354.494 L
575.111 354.5 L
575.446 354.505 L
575.781 354.511 L
576.116 354.516 L
576.451 354.52 L
576.786 354.525 L
577.121 354.529 L
577.456 354.533 L
577.791 354.537 L
578.126 354.541 L
578.461 354.544 L
578.796 354.547 L
579.131 354.55 L
579.466 354.553 L
579.801 354.556 L
580.136 354.558 L
580.471 354.56 L
580.806 354.562 L
581.141 354.564 L
581.476 354.566 L
S
GR
GS
[0.75 0 0 0.75 0 0] CT
0 0.447 0.741 RC
2 LJ
N
581.476 354.566 M
581.811 354.568 L
582.146 354.569 L
582.481 354.57 L
582.711 354.571 L
582.941 354.572 L
583.17 354.572 L
583.4 354.573 L
583.4 354.573 L
584.396 354.587 L
585.392 354.598 L
586.388 354.608 L
587.385 354.616 L
588.725 354.624 L
590.065 354.63 L
591.405 354.634 L
592.745 354.635 L
594.085 354.635 L
595.425 354.633 L
596.765 354.629 L
598.105 354.624 L
599.445 354.617 L
600.785 354.609 L
602.125 354.599 L
603.465 354.589 L
604.805 354.577 L
606.145 354.564 L
607.485 354.55 L
608.825 354.535 L
610.165 354.518 L
611.505 354.501 L
612.845 354.483 L
614.185 354.464 L
615.525 354.443 L
616.865 354.422 L
618.205 354.4 L
619.545 354.377 L
620.885 354.353 L
622.225 354.328 L
623.565 354.302 L
624.905 354.275 L
626.245 354.248 L
627.585 354.219 L
628.925 354.19 L
630.265 354.159 L
631.605 354.128 L
632.945 354.095 L
634.285 354.062 L
635.625 354.028 L
635.969 354.019 L
S
GR
GS
[0.75 0 0 0.75 0 0] CT
0 0.447 0.741 RC
2 LJ
N
635.969 354.019 M
636.312 354.01 L
636.656 354.001 L
637 353.992 L
637 353.992 L
638.675 353.951 L
640.35 353.909 L
642.025 353.865 L
643.7 353.82 L
645.375 353.773 L
647.05 353.725 L
648.725 353.675 L
650.4 353.624 L
652.075 353.571 L
653.75 353.517 L
655.425 353.461 L
657.1 353.403 L
658.775 353.344 L
660.45 353.283 L
662.125 353.221 L
663.8 353.157 L
665.475 353.092 L
667.15 353.025 L
668.825 352.956 L
670.5 352.886 L
672.175 352.814 L
673.85 352.741 L
675.525 352.666 L
677.2 352.589 L
678.875 352.511 L
680.55 352.431 L
682.225 352.35 L
683.9 352.267 L
685.575 352.182 L
687.25 352.096 L
688.925 352.008 L
690.6 351.919 L
692.275 351.829 L
693.95 351.737 L
695.625 351.643 L
697.3 351.548 L
698.975 351.451 L
700.65 351.353 L
702.325 351.254 L
704 351.153 L
704 351.153 L
705.675 351.039 L
707.35 350.924 L
709.025 350.807 L
710.7 350.689 L
S
GR
GS
[0.75 0 0 0.75 0 0] CT
0 0.447 0.741 RC
2 LJ
N
710.7 350.689 M
712.375 350.569 L
714.05 350.448 L
715.725 350.326 L
717.4 350.202 L
719.075 350.077 L
720.75 349.951 L
722.425 349.824 L
724.1 349.696 L
725.775 349.567 L
727.45 349.436 L
729.125 349.305 L
730.8 349.173 L
732.475 349.039 L
734.15 348.905 L
735.825 348.77 L
737.5 348.635 L
739.175 348.498 L
740.85 348.361 L
742.525 348.223 L
744.2 348.084 L
745.875 347.945 L
747.55 347.805 L
749.225 347.665 L
750.9 347.524 L
752.575 347.382 L
754.25 347.241 L
755.925 347.098 L
757.6 346.956 L
759.275 346.813 L
760.95 346.67 L
762.625 346.526 L
764.3 346.383 L
765.975 346.239 L
767.65 346.095 L
769.325 345.95 L
771 345.806 L
771 345.806 L
772.675 345.653 L
774.35 345.499 L
776.025 345.346 L
777.7 345.192 L
779.375 345.038 L
781.05 344.885 L
782.725 344.731 L
784.4 344.577 L
786.075 344.424 L
787.75 344.271 L
789.425 344.117 L
791.1 343.964 L
S
GR
GS
[0.75 0 0 0.75 0 0] CT
0 0.447 0.741 RC
2 LJ
N
791.1 343.964 M
792.775 343.811 L
794.45 343.659 L
796.125 343.506 L
797.8 343.354 L
799.475 343.202 L
801.15 343.05 L
802.825 342.898 L
804.5 342.747 L
806.175 342.596 L
807.85 342.445 L
809.525 342.295 L
811.2 342.145 L
812.875 341.995 L
814.55 341.846 L
816.225 341.697 L
817.9 341.549 L
819.575 341.401 L
821.25 341.253 L
822.925 341.105 L
824.6 340.959 L
826.275 340.812 L
827.95 340.666 L
829.625 340.52 L
831.3 340.375 L
832.975 340.23 L
834.65 340.086 L
836.325 339.942 L
838 339.799 L
838 339.799 L
839.675 339.622 L
841.35 339.445 L
843.025 339.269 L
844.7 339.093 L
846.375 338.917 L
848.05 338.742 L
849.725 338.568 L
851.4 338.394 L
853.075 338.22 L
854.75 338.047 L
856.425 337.874 L
858.1 337.702 L
859.775 337.531 L
861.45 337.36 L
863.125 337.189 L
864.8 337.019 L
866.475 336.849 L
868.15 336.68 L
869.825 336.512 L
871.5 336.344 L
S
GR
GS
[0.75 0 0 0.75 0 0] CT
0 0.447 0.741 RC
2 LJ
N
871.5 336.344 M
873.175 336.177 L
874.85 336.01 L
876.525 335.844 L
878.2 335.678 L
879.875 335.513 L
881.55 335.349 L
883.225 335.185 L
884.9 335.021 L
886.575 334.859 L
888.25 334.697 L
889.925 334.535 L
891.6 334.374 L
893.275 334.214 L
894.95 334.055 L
896.625 333.896 L
898.3 333.737 L
899.975 333.58 L
901.65 333.423 L
903.325 333.267 L
905 333.112 L
S
GR
GS
[0.75 0 0 0.75 0 0] CT
0.851 0.325 0.098 RC
2 LJ
N
570 111.5 M
570.001 111.5 L
570.001 111.501 L
570.002 111.501 L
570.003 111.501 L
570.006 111.503 L
570.009 111.505 L
570.013 111.506 L
570.016 111.508 L
570.033 111.516 L
570.05 111.525 L
570.067 111.533 L
570.084 111.541 L
570.168 111.583 L
570.253 111.624 L
570.337 111.665 L
570.421 111.705 L
570.756 111.864 L
571.091 112.019 L
571.426 112.17 L
571.761 112.318 L
572.096 112.462 L
572.431 112.603 L
572.766 112.742 L
573.101 112.877 L
573.436 113.01 L
573.771 113.14 L
574.106 113.268 L
574.441 113.394 L
574.776 113.517 L
575.111 113.638 L
575.446 113.758 L
575.781 113.875 L
576.116 113.991 L
576.451 114.104 L
576.786 114.217 L
577.121 114.327 L
577.456 114.436 L
577.791 114.544 L
578.126 114.65 L
578.461 114.755 L
578.796 114.859 L
579.131 114.961 L
579.466 115.063 L
579.801 115.163 L
580.136 115.262 L
580.471 115.36 L
580.806 115.458 L
581.141 115.554 L
581.476 115.65 L
S
GR
GS
[0.75 0 0 0.75 0 0] CT
0.851 0.325 0.098 RC
2 LJ
N
581.476 115.65 M
581.811 115.744 L
582.146 115.838 L
582.481 115.931 L
582.711 115.995 L
582.941 116.058 L
583.17 116.121 L
583.4 116.183 L
583.4 116.183 L
584.396 116.409 L
585.392 116.629 L
586.388 116.844 L
587.385 117.055 L
588.725 117.333 L
590.065 117.607 L
591.405 117.876 L
592.745 118.142 L
594.085 118.407 L
595.425 118.671 L
596.765 118.934 L
598.105 119.198 L
599.445 119.462 L
600.785 119.728 L
602.125 119.995 L
603.465 120.264 L
604.805 120.536 L
606.145 120.811 L
607.485 121.09 L
608.825 121.371 L
610.165 121.657 L
611.505 121.946 L
612.845 122.24 L
614.185 122.538 L
615.525 122.841 L
616.865 123.149 L
618.205 123.462 L
619.545 123.781 L
620.885 124.105 L
622.225 124.435 L
623.565 124.771 L
624.905 125.114 L
626.245 125.462 L
627.585 125.817 L
628.925 126.179 L
630.265 126.547 L
631.605 126.923 L
632.945 127.305 L
634.285 127.695 L
635.625 128.092 L
635.969 128.195 L
S
GR
GS
[0.75 0 0 0.75 0 0] CT
0.851 0.325 0.098 RC
2 LJ
N
635.969 128.195 M
636.312 128.299 L
636.656 128.403 L
637 128.508 L
637 128.508 L
638.675 128.985 L
640.35 129.473 L
642.025 129.975 L
643.7 130.488 L
645.375 131.015 L
647.05 131.554 L
648.725 132.106 L
650.4 132.672 L
652.075 133.251 L
653.75 133.843 L
655.425 134.45 L
657.1 135.07 L
658.775 135.705 L
660.45 136.354 L
662.125 137.017 L
663.8 137.694 L
665.475 138.387 L
667.15 139.094 L
668.825 139.815 L
670.5 140.552 L
672.175 141.303 L
673.85 142.07 L
675.525 142.851 L
677.2 143.647 L
678.875 144.458 L
680.55 145.285 L
682.225 146.126 L
683.9 146.982 L
685.575 147.853 L
687.25 148.739 L
688.925 149.639 L
690.6 150.554 L
692.275 151.484 L
693.95 152.428 L
695.625 153.386 L
697.3 154.358 L
698.975 155.345 L
700.65 156.345 L
702.325 157.359 L
704 158.386 L
704 158.386 L
705.675 159.541 L
707.35 160.71 L
709.025 161.893 L
710.7 163.091 L
S
GR
GS
[0.75 0 0 0.75 0 0] CT
0.851 0.325 0.098 RC
2 LJ
N
710.7 163.091 M
712.375 164.301 L
714.05 165.525 L
715.725 166.761 L
717.4 168.01 L
719.075 169.271 L
720.75 170.543 L
722.425 171.827 L
724.1 173.122 L
725.775 174.428 L
727.45 175.743 L
729.125 177.069 L
730.8 178.404 L
732.475 179.747 L
734.15 181.1 L
735.825 182.461 L
737.5 183.83 L
739.175 185.206 L
740.85 186.589 L
742.525 187.979 L
744.2 189.376 L
745.875 190.778 L
747.55 192.186 L
749.225 193.6 L
750.9 195.018 L
752.575 196.441 L
754.25 197.868 L
755.925 199.299 L
757.6 200.733 L
759.275 202.171 L
760.95 203.612 L
762.625 205.055 L
764.3 206.5 L
765.975 207.948 L
767.65 209.397 L
769.325 210.848 L
771 212.299 L
771 212.299 L
772.675 213.84 L
774.35 215.382 L
776.025 216.925 L
777.7 218.468 L
779.375 220.011 L
781.05 221.554 L
782.725 223.097 L
784.4 224.638 L
786.075 226.179 L
787.75 227.719 L
789.425 229.258 L
791.1 230.795 L
S
GR
GS
[0.75 0 0 0.75 0 0] CT
0.851 0.325 0.098 RC
2 LJ
N
791.1 230.795 M
792.775 232.33 L
794.45 233.864 L
796.125 235.395 L
797.8 236.924 L
799.475 238.45 L
801.15 239.974 L
802.825 241.496 L
804.5 243.014 L
806.175 244.529 L
807.85 246.041 L
809.525 247.55 L
811.2 249.055 L
812.875 250.557 L
814.55 252.055 L
816.225 253.549 L
817.9 255.039 L
819.575 256.526 L
821.25 258.008 L
822.925 259.487 L
824.6 260.961 L
826.275 262.431 L
827.95 263.897 L
829.625 265.358 L
831.3 266.815 L
832.975 268.268 L
834.65 269.716 L
836.325 271.159 L
838 272.598 L
838 272.598 L
839.675 274.371 L
841.35 276.141 L
843.025 277.907 L
844.7 279.668 L
846.375 281.425 L
848.05 283.177 L
849.725 284.925 L
851.4 286.668 L
853.075 288.406 L
854.75 290.14 L
856.425 291.868 L
858.1 293.592 L
859.775 295.31 L
861.45 297.023 L
863.125 298.732 L
864.8 300.434 L
866.475 302.132 L
868.15 303.824 L
869.825 305.511 L
871.5 307.192 L
S
GR
GS
[0.75 0 0 0.75 0 0] CT
0.851 0.325 0.098 RC
2 LJ
N
871.5 307.192 M
873.175 308.868 L
874.85 310.538 L
876.525 312.202 L
878.2 313.861 L
879.875 315.514 L
881.55 317.161 L
883.225 318.803 L
884.9 320.438 L
886.575 322.067 L
888.25 323.69 L
889.925 325.307 L
891.6 326.918 L
893.275 328.522 L
894.95 330.119 L
896.625 331.71 L
898.3 333.294 L
899.975 334.87 L
901.65 336.439 L
903.325 338 L
905 339.553 L
S
GR
GS
[0.75 0 0 0.75 0 0] CT
0.929 0.694 0.125 RC
2 LJ
N
570 356 M
570.001 356 L
570.001 356 L
570.002 356 L
570.003 356 L
570.006 355.999 L
570.009 355.999 L
570.013 355.998 L
570.016 355.998 L
570.033 355.996 L
570.05 355.994 L
570.067 355.992 L
570.084 355.99 L
570.168 355.98 L
570.253 355.97 L
570.337 355.96 L
570.421 355.95 L
570.756 355.911 L
571.091 355.873 L
571.426 355.836 L
571.761 355.799 L
572.096 355.764 L
572.431 355.729 L
572.766 355.695 L
573.101 355.661 L
573.436 355.628 L
573.771 355.596 L
574.106 355.564 L
574.441 355.533 L
574.776 355.502 L
575.111 355.472 L
575.446 355.443 L
575.781 355.413 L
576.116 355.384 L
576.451 355.356 L
576.786 355.328 L
577.121 355.3 L
577.456 355.273 L
577.791 355.246 L
578.126 355.219 L
578.461 355.193 L
578.796 355.167 L
579.131 355.141 L
579.466 355.115 L
579.801 355.09 L
580.136 355.065 L
580.471 355.04 L
580.806 355.015 L
581.141 354.991 L
581.476 354.967 L
S
GR
GS
[0.75 0 0 0.75 0 0] CT
0.929 0.694 0.125 RC
2 LJ
N
581.476 354.967 M
581.811 354.943 L
582.146 354.919 L
582.481 354.895 L
582.711 354.879 L
582.941 354.863 L
583.17 354.847 L
583.4 354.831 L
583.4 354.831 L
584.396 354.773 L
585.392 354.717 L
586.388 354.661 L
587.385 354.607 L
588.725 354.535 L
590.065 354.464 L
591.405 354.394 L
592.745 354.324 L
594.085 354.255 L
595.425 354.186 L
596.765 354.117 L
598.105 354.048 L
599.445 353.978 L
600.785 353.907 L
602.125 353.837 L
603.465 353.765 L
604.805 353.692 L
606.145 353.619 L
607.485 353.545 L
608.825 353.469 L
610.165 353.392 L
611.505 353.314 L
612.845 353.235 L
614.185 353.154 L
615.525 353.072 L
616.865 352.988 L
618.205 352.902 L
619.545 352.815 L
620.885 352.726 L
622.225 352.635 L
623.565 352.543 L
624.905 352.448 L
626.245 352.352 L
627.585 352.253 L
628.925 352.152 L
630.265 352.049 L
631.605 351.944 L
632.945 351.836 L
634.285 351.726 L
635.625 351.614 L
635.969 351.584 L
S
GR
GS
[0.75 0 0 0.75 0 0] CT
0.929 0.694 0.125 RC
2 LJ
N
635.969 351.584 M
636.312 351.555 L
636.656 351.525 L
637 351.496 L
637 351.496 L
638.675 351.359 L
640.35 351.218 L
642.025 351.074 L
643.7 350.925 L
645.375 350.772 L
647.05 350.615 L
648.725 350.453 L
650.4 350.286 L
652.075 350.115 L
653.75 349.939 L
655.425 349.758 L
657.1 349.572 L
658.775 349.381 L
660.45 349.185 L
662.125 348.983 L
663.8 348.776 L
665.475 348.564 L
667.15 348.345 L
668.825 348.121 L
670.5 347.891 L
672.175 347.656 L
673.85 347.414 L
675.525 347.166 L
677.2 346.912 L
678.875 346.651 L
680.55 346.384 L
682.225 346.111 L
683.9 345.831 L
685.575 345.544 L
687.25 345.251 L
688.925 344.951 L
690.6 344.644 L
692.275 344.329 L
693.95 344.008 L
695.625 343.68 L
697.3 343.345 L
698.975 343.003 L
700.65 342.653 L
702.325 342.296 L
704 341.932 L
704 341.932 L
705.675 341.526 L
707.35 341.111 L
709.025 340.688 L
710.7 340.257 L
S
GR
GS
[0.75 0 0 0.75 0 0] CT
0.929 0.694 0.125 RC
2 LJ
N
710.7 340.257 M
712.375 339.817 L
714.05 339.369 L
715.725 338.912 L
717.4 338.447 L
719.075 337.973 L
720.75 337.491 L
722.425 337.001 L
724.1 336.502 L
725.775 335.995 L
727.45 335.48 L
729.125 334.956 L
730.8 334.424 L
732.475 333.884 L
734.15 333.336 L
735.825 332.78 L
737.5 332.216 L
739.175 331.644 L
740.85 331.064 L
742.525 330.476 L
744.2 329.881 L
745.875 329.278 L
747.55 328.668 L
749.225 328.05 L
750.9 327.424 L
752.575 326.792 L
754.25 326.152 L
755.925 325.505 L
757.6 324.851 L
759.275 324.191 L
760.95 323.523 L
762.625 322.849 L
764.3 322.168 L
765.975 321.481 L
767.65 320.788 L
769.325 320.088 L
771 319.383 L
771 319.383 L
772.675 318.639 L
774.35 317.888 L
776.025 317.131 L
777.7 316.368 L
779.375 315.599 L
781.05 314.824 L
782.725 314.042 L
784.4 313.256 L
786.075 312.463 L
787.75 311.665 L
789.425 310.862 L
791.1 310.054 L
S
GR
GS
[0.75 0 0 0.75 0 0] CT
0.929 0.694 0.125 RC
2 LJ
N
791.1 310.054 M
792.775 309.24 L
794.45 308.422 L
796.125 307.598 L
797.8 306.77 L
799.475 305.938 L
801.15 305.101 L
802.825 304.259 L
804.5 303.414 L
806.175 302.564 L
807.85 301.71 L
809.525 300.853 L
811.2 299.992 L
812.875 299.127 L
814.55 298.258 L
816.225 297.386 L
817.9 296.511 L
819.575 295.633 L
821.25 294.752 L
822.925 293.867 L
824.6 292.98 L
826.275 292.09 L
827.95 291.197 L
829.625 290.302 L
831.3 289.404 L
832.975 288.504 L
834.65 287.601 L
836.325 286.696 L
838 285.789 L
838 285.789 L
839.675 284.732 L
841.35 283.67 L
843.025 282.605 L
844.7 281.536 L
846.375 280.463 L
848.05 279.388 L
849.725 278.309 L
851.4 277.227 L
853.075 276.142 L
854.75 275.055 L
856.425 273.964 L
858.1 272.872 L
859.775 271.777 L
861.45 270.679 L
863.125 269.58 L
864.8 268.478 L
866.475 267.375 L
868.15 266.27 L
869.825 265.163 L
871.5 264.055 L
S
GR
GS
[0.75 0 0 0.75 0 0] CT
0.929 0.694 0.125 RC
2 LJ
N
871.5 264.055 M
873.175 262.945 L
874.85 261.834 L
876.525 260.722 L
878.2 259.609 L
879.875 258.495 L
881.55 257.381 L
883.225 256.266 L
884.9 255.15 L
886.575 254.035 L
888.25 252.92 L
889.925 251.804 L
891.6 250.69 L
893.275 249.575 L
894.95 248.462 L
896.625 247.351 L
898.3 246.24 L
899.975 245.132 L
901.65 244.027 L
903.325 242.924 L
905 241.825 L
S
GR
GS
[0.75 0 0 0.75 0 0] CT
0.494 0.184 0.557 RC
2 LJ
N
570 339.7 M
570.001 339.699 L
570.001 339.699 L
570.002 339.698 L
570.003 339.698 L
570.006 339.695 L
570.009 339.692 L
570.013 339.689 L
570.016 339.686 L
570.033 339.672 L
570.05 339.657 L
570.067 339.643 L
570.084 339.629 L
570.168 339.557 L
570.253 339.485 L
570.337 339.413 L
570.421 339.341 L
570.756 339.056 L
571.091 338.771 L
571.426 338.486 L
571.761 338.2 L
572.096 337.915 L
572.431 337.63 L
572.766 337.345 L
573.101 337.059 L
573.436 336.774 L
573.771 336.489 L
574.106 336.204 L
574.441 335.918 L
574.776 335.633 L
575.111 335.348 L
575.446 335.063 L
575.781 334.777 L
576.116 334.492 L
576.451 334.207 L
576.786 333.922 L
577.121 333.636 L
577.456 333.351 L
577.791 333.066 L
578.126 332.781 L
578.461 332.495 L
578.796 332.21 L
579.131 331.925 L
579.466 331.64 L
579.801 331.354 L
580.136 331.069 L
580.471 330.784 L
580.806 330.499 L
581.141 330.213 L
581.476 329.928 L
S
GR
GS
[0.75 0 0 0.75 0 0] CT
0.494 0.184 0.557 RC
2 LJ
N
581.476 329.928 M
581.811 329.643 L
582.146 329.358 L
582.481 329.072 L
582.711 328.877 L
582.941 328.681 L
583.17 328.486 L
583.4 328.29 L
583.4 328.29 L
584.396 327.199 L
585.392 326.109 L
586.388 325.018 L
587.385 323.928 L
588.725 322.461 L
590.065 320.994 L
591.405 319.527 L
592.745 318.06 L
594.085 316.593 L
595.425 315.126 L
596.765 313.659 L
598.105 312.192 L
599.445 310.725 L
600.785 309.258 L
602.125 307.791 L
603.465 306.324 L
604.805 304.857 L
606.145 303.39 L
607.485 301.923 L
608.825 300.456 L
610.165 298.989 L
611.505 297.522 L
612.845 296.055 L
614.185 294.588 L
615.525 293.121 L
616.865 291.654 L
618.205 290.187 L
619.545 288.72 L
620.885 287.253 L
622.225 285.786 L
623.565 284.319 L
624.905 282.852 L
626.245 281.385 L
627.585 279.918 L
628.925 278.451 L
630.265 276.984 L
631.605 275.517 L
632.945 274.05 L
634.285 272.583 L
635.625 271.116 L
635.969 270.739 L
S
GR
GS
[0.75 0 0 0.75 0 0] CT
0.494 0.184 0.557 RC
2 LJ
N
635.969 270.739 M
636.312 270.363 L
636.656 269.986 L
637 269.61 L
637 269.61 L
638.675 267.573 L
640.35 265.535 L
642.025 263.497 L
643.7 261.46 L
645.375 259.422 L
647.05 257.385 L
648.725 255.348 L
650.4 253.31 L
652.075 251.273 L
653.75 249.235 L
655.425 247.197 L
657.1 245.16 L
658.775 243.122 L
660.45 241.085 L
662.125 239.048 L
663.8 237.01 L
665.475 234.973 L
667.15 232.935 L
668.825 230.898 L
670.5 228.86 L
672.175 226.822 L
673.85 224.785 L
675.525 222.747 L
677.2 220.71 L
678.875 218.673 L
680.55 216.635 L
682.225 214.598 L
683.9 212.56 L
685.575 210.523 L
687.25 208.485 L
688.925 206.447 L
690.6 204.41 L
692.275 202.372 L
693.95 200.335 L
695.625 198.298 L
697.3 196.26 L
698.975 194.223 L
700.65 192.185 L
702.325 190.148 L
704 188.11 L
704 188.11 L
705.675 186.48 L
707.35 184.85 L
709.025 183.22 L
710.7 181.59 L
S
GR
GS
[0.75 0 0 0.75 0 0] CT
0.494 0.184 0.557 RC
2 LJ
N
710.7 181.59 M
712.375 179.96 L
714.05 178.33 L
715.725 176.7 L
717.4 175.07 L
719.075 173.44 L
720.75 171.81 L
722.425 170.18 L
724.1 168.55 L
725.775 166.92 L
727.45 165.29 L
729.125 163.66 L
730.8 162.03 L
732.475 160.4 L
734.15 158.77 L
735.825 157.14 L
737.5 155.51 L
739.175 153.88 L
740.85 152.25 L
742.525 150.62 L
744.2 148.99 L
745.875 147.36 L
747.55 145.73 L
749.225 144.1 L
750.9 142.47 L
752.575 140.84 L
754.25 139.21 L
755.925 137.58 L
757.6 135.95 L
759.275 134.32 L
760.95 132.69 L
762.625 131.06 L
764.3 129.43 L
765.975 127.8 L
767.65 126.17 L
769.325 124.54 L
771 122.91 L
771 122.91 L
772.675 121.484 L
774.35 120.058 L
776.025 118.631 L
777.7 117.205 L
779.375 115.779 L
781.05 114.353 L
782.725 112.926 L
784.4 111.5 L
786.075 110.074 L
787.75 108.647 L
789.425 107.221 L
791.1 105.795 L
S
GR
GS
[0.75 0 0 0.75 0 0] CT
0.494 0.184 0.557 RC
2 LJ
N
791.1 105.795 M
792.775 104.369 L
794.45 102.942 L
796.125 101.516 L
797.8 100.09 L
799.475 98.664 L
801.15 97.238 L
802.825 95.811 L
804.5 94.385 L
806.175 92.959 L
807.85 91.533 L
809.525 90.106 L
811.2 88.68 L
812.875 87.254 L
814.55 85.827 L
816.225 84.401 L
817.9 82.975 L
819.575 81.549 L
821.25 80.122 L
822.925 78.696 L
824.6 77.27 L
826.275 75.844 L
827.95 74.418 L
829.625 72.991 L
831.3 71.565 L
832.975 70.139 L
834.65 68.713 L
836.325 67.286 L
838 65.86 L
838 65.86 L
839.675 65.045 L
841.35 64.23 L
843.025 63.415 L
844.7 62.6 L
846.375 61.785 L
848.05 60.97 L
849.725 60.155 L
851.4 59.34 L
853.075 58.525 L
854.75 57.71 L
856.425 56.895 L
858.1 56.08 L
859.775 55.265 L
861.45 54.45 L
863.125 53.635 L
864.8 52.82 L
866.475 52.005 L
868.15 51.19 L
869.825 50.375 L
871.5 49.56 L
S
GR
GS
[0.75 0 0 0.75 0 0] CT
0.494 0.184 0.557 RC
2 LJ
N
871.5 49.56 M
873.175 48.745 L
874.85 47.93 L
876.525 47.115 L
878.2 46.3 L
879.875 45.485 L
881.55 44.67 L
883.225 43.855 L
884.9 43.04 L
886.575 42.225 L
888.25 41.41 L
889.925 40.595 L
891.6 39.78 L
893.275 38.965 L
894.95 38.15 L
896.625 37.335 L
898.3 36.52 L
899.975 35.705 L
901.65 34.89 L
903.325 34.075 L
905 33.26 L
S
GR
GS
[0.75 0 0 0.75 553.12555 20.4375] CT
/Helvetica-Bold 15 F
GS
[1 0 0 1 0 0] CT
-55.5 -4 moveto 
1 -1 scale
(J = 13869 \(g\)) t 
GR
GR
GS
[0.75 0 0 0.75 0 0] CT
1 GC
N
822 135 M
822 43 L
892 43 L
892 135 L
cp
f
GR
GS
[0.75 0 0 0.75 655.5 43.5] CT
/Helvetica 12 F
GS
[1 0 0 1 0 0] CT
0 0 moveto 
1 -1 scale
(x) t 
GR
GR
GS
[0.75 0 0 0.75 661.5 48] CT
/Helvetica 9 F
GS
[1 0 0 1 0 0] CT
0 0 moveto 
1 -1 scale
(1) t 
GR
GR
GS
[0.75 0 0 0.75 0 0] CT
0 0.447 0.741 RC
2 LJ
N
830 56.263 M
870 56.263 L
S
GR
GS
[0.75 0 0 0.75 655.5 60] CT
/Helvetica 12 F
GS
[1 0 0 1 0 0] CT
0 0 moveto 
1 -1 scale
(x) t 
GR
GR
GS
[0.75 0 0 0.75 661.5 64.5] CT
/Helvetica 9 F
GS
[1 0 0 1 0 0] CT
0 0 moveto 
1 -1 scale
(2) t 
GR
GR
GS
[0.75 0 0 0.75 0 0] CT
0.851 0.325 0.098 RC
2 LJ
N
830 78.088 M
870 78.088 L
S
GR
GS
[0.75 0 0 0.75 655.5 76.5] CT
/Helvetica 12 F
GS
[1 0 0 1 0 0] CT
0 0 moveto 
1 -1 scale
(x) t 
GR
GR
GS
[0.75 0 0 0.75 661.5 81] CT
/Helvetica 9 F
GS
[1 0 0 1 0 0] CT
0 0 moveto 
1 -1 scale
(3) t 
GR
GR
GS
[0.75 0 0 0.75 0 0] CT
0.929 0.694 0.125 RC
2 LJ
N
830 99.912 M
870 99.912 L
S
GR
GS
[0.75 0 0 0.75 655.5 93] CT
/Helvetica 12 F
GS
[1 0 0 1 0 0] CT
0 0 moveto 
1 -1 scale
(x) t 
GR
GR
GS
[0.75 0 0 0.75 661.5 97.5] CT
/Helvetica 9 F
GS
[1 0 0 1 0 0] CT
0 0 moveto 
1 -1 scale
(4) t 
GR
GR
GS
[0.75 0 0 0.75 0 0] CT
0.494 0.184 0.557 RC
2 LJ
N
830 121.737 M
870 121.737 L
S
GR
GS
[0.75 0 0 0.75 0 0] CT
0.149 GC
2 LJ
N
822 135 M
822 43 L
892 43 L
892 135 L
822 135 L
S
GR
%%Trailer
%%Pages: 1
%%EOF
