\relax 
\providecommand\hyper@newdestlabel[2]{}
\providecommand\HyperFirstAtBeginDocument{\AtBeginDocument}
\HyperFirstAtBeginDocument{\ifx\hyper@anchor\@undefined
\global\let\oldcontentsline\contentsline
\gdef\contentsline#1#2#3#4{\oldcontentsline{#1}{#2}{#3}}
\global\let\oldnewlabel\newlabel
\gdef\newlabel#1#2{\newlabelxx{#1}#2}
\gdef\newlabelxx#1#2#3#4#5#6{\oldnewlabel{#1}{{#2}{#3}}}
\AtEndDocument{\ifx\hyper@anchor\@undefined
\let\contentsline\oldcontentsline
\let\newlabel\oldnewlabel
\fi}
\fi}
\global\let\hyper@last\relax 
\gdef\HyperFirstAtBeginDocument#1{#1}
\providecommand\HyField@AuxAddToFields[1]{}
\providecommand\HyField@AuxAddToCoFields[2]{}
\@writefile{toc}{\contentsline {chapter}{\numberline {1}Introduction}{3}{chapter.1}}
\@writefile{lof}{\addvspace {10\p@ }}
\@writefile{lot}{\addvspace {10\p@ }}
\newlabel{eq:process}{{1}{3}{Introduction}{chapter.1}{}}
\@writefile{toc}{\contentsline {chapter}{\numberline {2}Results}{4}{chapter.2}}
\@writefile{lof}{\addvspace {10\p@ }}
\@writefile{lot}{\addvspace {10\p@ }}
\@writefile{lof}{\contentsline {figure}{\numberline {2.1}{\ignorespaces Control value in time\relax }}{4}{figure.2.1}}
\newlabel{u1}{{2.1}{4}{Control value in time\relax }{figure.2.1}{}}
\@writefile{lof}{\contentsline {figure}{\numberline {2.2}{\ignorespaces States values in time\relax }}{4}{figure.2.2}}
\newlabel{x1}{{2.2}{4}{States values in time\relax }{figure.2.2}{}}
\@writefile{lof}{\contentsline {figure}{\numberline {2.3}{\ignorespaces Control value in time\relax }}{5}{figure.2.3}}
\newlabel{u2}{{2.3}{5}{Control value in time\relax }{figure.2.3}{}}
\@writefile{lof}{\contentsline {figure}{\numberline {2.4}{\ignorespaces States values in time\relax }}{5}{figure.2.4}}
\newlabel{x2}{{2.4}{5}{States values in time\relax }{figure.2.4}{}}
\@writefile{lof}{\contentsline {figure}{\numberline {2.5}{\ignorespaces Control value in time\relax }}{5}{figure.2.5}}
\newlabel{u3}{{2.5}{5}{Control value in time\relax }{figure.2.5}{}}
\@writefile{lof}{\contentsline {figure}{\numberline {2.6}{\ignorespaces States values in time\relax }}{5}{figure.2.6}}
\newlabel{x3}{{2.6}{5}{States values in time\relax }{figure.2.6}{}}
\@writefile{lof}{\contentsline {figure}{\numberline {2.7}{\ignorespaces Control value in time\relax }}{5}{figure.2.7}}
\newlabel{u4}{{2.7}{5}{Control value in time\relax }{figure.2.7}{}}
\@writefile{lof}{\contentsline {figure}{\numberline {2.8}{\ignorespaces States values in time\relax }}{5}{figure.2.8}}
\newlabel{x4}{{2.8}{5}{States values in time\relax }{figure.2.8}{}}
\citation{*}
\bibstyle{plain}
\bibdata{bibliography/biblio}
\@writefile{lof}{\contentsline {figure}{\numberline {2.9}{\ignorespaces Control value in time\relax }}{6}{figure.2.9}}
\newlabel{u5}{{2.9}{6}{Control value in time\relax }{figure.2.9}{}}
\@writefile{lof}{\contentsline {figure}{\numberline {2.10}{\ignorespaces States values in time\relax }}{6}{figure.2.10}}
\newlabel{x5}{{2.10}{6}{States values in time\relax }{figure.2.10}{}}
\@writefile{lof}{\contentsline {figure}{\numberline {2.11}{\ignorespaces Control value in time\relax }}{6}{figure.2.11}}
\newlabel{u6}{{2.11}{6}{Control value in time\relax }{figure.2.11}{}}
\@writefile{lof}{\contentsline {figure}{\numberline {2.12}{\ignorespaces States values in time\relax }}{6}{figure.2.12}}
\newlabel{x6}{{2.12}{6}{States values in time\relax }{figure.2.12}{}}
\bibcite{Boltyanski01}{1}
\bibcite{Huang02}{2}
\@writefile{toc}{\contentsline {chapter}{Bibliography}{7}{chapter*.1}}
