\begin{thebibliography}{1}

\bibitem{refe}
Julio~R. Banga, Eva Balsa-Canto, Carmen G.~Moles c, and Antonio~A. Alonso.
\newblock Dynamic optimization of bioprocesses: Efficient and robust numerical
  strategies.
\newblock {\em Journal of Biotechnology}, 117:407--419, 2005.

\end{thebibliography}
