\relax 
\providecommand\hyper@newdestlabel[2]{}
\providecommand\HyperFirstAtBeginDocument{\AtBeginDocument}
\HyperFirstAtBeginDocument{\ifx\hyper@anchor\@undefined
\global\let\oldcontentsline\contentsline
\gdef\contentsline#1#2#3#4{\oldcontentsline{#1}{#2}{#3}}
\global\let\oldnewlabel\newlabel
\gdef\newlabel#1#2{\newlabelxx{#1}#2}
\gdef\newlabelxx#1#2#3#4#5#6{\oldnewlabel{#1}{{#2}{#3}}}
\AtEndDocument{\ifx\hyper@anchor\@undefined
\let\contentsline\oldcontentsline
\let\newlabel\oldnewlabel
\fi}
\fi}
\global\let\hyper@last\relax 
\gdef\HyperFirstAtBeginDocument#1{#1}
\providecommand\HyField@AuxAddToFields[1]{}
\providecommand\HyField@AuxAddToCoFields[2]{}
\@writefile{toc}{\contentsline {chapter}{\numberline {1}Introduction}{3}{chapter.1}}
\@writefile{lof}{\addvspace {10\p@ }}
\@writefile{lot}{\addvspace {10\p@ }}
\@writefile{toc}{\contentsline {chapter}{\numberline {2}Results}{4}{chapter.2}}
\@writefile{lof}{\addvspace {10\p@ }}
\@writefile{lot}{\addvspace {10\p@ }}
\@writefile{lof}{\contentsline {figure}{\numberline {2.1}{\ignorespaces Control profile values and states at the time\relax }}{4}{figure.caption.1}}
\@writefile{lof}{\contentsline {figure}{\numberline {2.2}{\ignorespaces Control profile values and states at the time\relax }}{4}{figure.caption.2}}
\citation{*}
\bibstyle{plain}
\bibdata{bibliography/biblio}
\@writefile{lof}{\contentsline {figure}{\numberline {2.3}{\ignorespaces Control profile values and states at the time\relax }}{5}{figure.caption.3}}
\@writefile{lof}{\contentsline {figure}{\numberline {2.4}{\ignorespaces Control profile values and states at the time\relax }}{5}{figure.caption.4}}
\@writefile{lof}{\contentsline {figure}{\numberline {2.5}{\ignorespaces Control profile values and states at the time\relax }}{6}{figure.caption.5}}
\bibcite{refe}{1}
\@writefile{toc}{\contentsline {chapter}{Bibliography}{7}{chapter*.6}}
