\relax 
\providecommand\hyper@newdestlabel[2]{}
\providecommand\HyperFirstAtBeginDocument{\AtBeginDocument}
\HyperFirstAtBeginDocument{\ifx\hyper@anchor\@undefined
\global\let\oldcontentsline\contentsline
\gdef\contentsline#1#2#3#4{\oldcontentsline{#1}{#2}{#3}}
\global\let\oldnewlabel\newlabel
\gdef\newlabel#1#2{\newlabelxx{#1}#2}
\gdef\newlabelxx#1#2#3#4#5#6{\oldnewlabel{#1}{{#2}{#3}}}
\AtEndDocument{\ifx\hyper@anchor\@undefined
\let\contentsline\oldcontentsline
\let\newlabel\oldnewlabel
\fi}
\fi}
\global\let\hyper@last\relax 
\gdef\HyperFirstAtBeginDocument#1{#1}
\providecommand\HyField@AuxAddToFields[1]{}
\providecommand\HyField@AuxAddToCoFields[2]{}
\@writefile{toc}{\contentsline {chapter}{\numberline {1}Introduction}{5}{chapter.1}}
\@writefile{lof}{\addvspace {10\p@ }}
\@writefile{lot}{\addvspace {10\p@ }}
\@writefile{toc}{\contentsline {section}{\numberline {1.1}Catalysts mixing problem}{5}{section.1.1}}
\@writefile{toc}{\contentsline {section}{\numberline {1.2}Performance index}{5}{section.1.2}}
\@writefile{toc}{\contentsline {chapter}{\numberline {2}Implementation in MATLAB}{6}{chapter.2}}
\@writefile{lof}{\addvspace {10\p@ }}
\@writefile{lot}{\addvspace {10\p@ }}
\citation{*}
\bibstyle{plain}
\bibdata{bibliography/biblio}
\@writefile{toc}{\contentsline {chapter}{\numberline {3}Results}{8}{chapter.3}}
\@writefile{lof}{\addvspace {10\p@ }}
\@writefile{lot}{\addvspace {10\p@ }}
\@writefile{lof}{\contentsline {figure}{\numberline {3.1}{\ignorespaces Changing of performance index depends on control value $u$\relax }}{8}{figure.caption.2}}
\providecommand*\caption@xref[2]{\@setref\relax\@undefined{#1}}
\newlabel{index}{{3.1}{8}{Changing of performance index depends on control value $u$\relax }{figure.caption.2}{}}
\@writefile{lof}{\contentsline {figure}{\numberline {3.2}{\ignorespaces State's changes for control value $u=0.32$\relax }}{9}{figure.caption.3}}
\newlabel{index}{{3.2}{9}{State's changes for control value $u=0.32$\relax }{figure.caption.3}{}}
\bibcite{Boltyanski01}{1}
\bibcite{Huang02}{2}
\@writefile{toc}{\contentsline {chapter}{Bibliography}{10}{chapter*.4}}
